source,Stimuli,Prefix,ChosenStep,realvsnonce,soundfile,syllablecount,segment,token,prefix,address,position,type,trials.thisRepN,trials.thisTrialN,trials.thisN,trials.thisIndex,trials_2.thisRepN,trials_2.thisTrialN,trials_2.thisN,trials_2.thisIndex,trials_3.thisRepN,trials_3.thisTrialN,trials_3.thisN,trials_3.thisIndex,mouse_5.x,mouse_5.y,mouse_5.leftButton,mouse_5.midButton,mouse_5.rightButton,mouse.x,mouse.y,mouse.leftButton,mouse.midButton,mouse.rightButton,rating.response,rating.rt,key_resp_2.keys,key_resp_2.rt,key_resp_3.keys,key_resp_3.rt,participant,Gender,Age,frameRate,Native Language,expName,date,
,,,,,,,,,,,,,,,,,,,,,,,,,0.997916666667,0.225925925926,1,0,0,,,,,,,,,,,,12,Female,21,59.9721751564,American English,fricative_categorical_boundary,2018_Jun_11_1135,
,,,,,,,,,,,,,,,,,,,,,,,,,,,,,,0.667708333333,0.107407407407,1,0,0,,,,,,,12,Female,21,59.9721751564,American English,fricative_categorical_boundary,2018_Jun_11_1135,
LowBackContinuum/,LowBackContinuum/NewWord_fbackonset_sbackonset_21.wav,NewWord_fbackonset_sbackonset_,21,,,,,,,,,,0,0,0,8,,,,,,,,,,,,,,,,,,,s,5.575,,,,,12,Female,21,59.9721751564,American English,fricative_categorical_boundary,2018_Jun_11_1135,
LowBackContinuum/,LowBackContinuum/NewWord_fbackonset_sbackonset_11.wav,NewWord_fbackonset_sbackonset_,11,,,,,,,,,,0,1,1,3,,,,,,,,,,,,,,,,,,,s,1.971,,,,,12,Female,21,59.9721751564,American English,fricative_categorical_boundary,2018_Jun_11_1135,
LowBackContinuum/,LowBackContinuum/NewWord_fbackonset_sbackonset_29.wav,NewWord_fbackonset_sbackonset_,29,,,,,,,,,,0,2,2,12,,,,,,,,,,,,,,,,,,,s,1.104,,,,,12,Female,21,59.9721751564,American English,fricative_categorical_boundary,2018_Jun_11_1135,
LowBackContinuum/,LowBackContinuum/NewWord_fbackonset_sbackonset_41.wav,NewWord_fbackonset_sbackonset_,41,,,,,,,,,,0,3,3,13,,,,,,,,,,,,,,,,,,,s,0.519,,,,,12,Female,21,59.9721751564,American English,fricative_categorical_boundary,2018_Jun_11_1135,
LowBackContinuum/,LowBackContinuum/NewWord_fbackonset_sbackonset_27.wav,NewWord_fbackonset_sbackonset_,27,,,,,,,,,,0,4,4,11,,,,,,,,,,,,,,,,,,,s,0.669,,,,,12,Female,21,59.9721751564,American English,fricative_categorical_boundary,2018_Jun_11_1135,
LowBackContinuum/,LowBackContinuum/NewWord_fbackonset_sbackonset_19.wav,NewWord_fbackonset_sbackonset_,19,,,,,,,,,,0,5,5,7,,,,,,,,,,,,,,,,,,,f,0.987,,,,,12,Female,21,59.9721751564,American English,fricative_categorical_boundary,2018_Jun_11_1135,
LowBackContinuum/,LowBackContinuum/NewWord_fbackonset_sbackonset_7.wav,NewWord_fbackonset_sbackonset_,7,,,,,,,,,,0,6,6,1,,,,,,,,,,,,,,,,,,,f,0.453,,,,,12,Female,21,59.9721751564,American English,fricative_categorical_boundary,2018_Jun_11_1135,
LowBackContinuum/,LowBackContinuum/NewWord_fbackonset_sbackonset_17.wav,NewWord_fbackonset_sbackonset_,17,,,,,,,,,,0,7,7,6,,,,,,,,,,,,,,,,,,,f,0.469,,,,,12,Female,21,59.9721751564,American English,fricative_categorical_boundary,2018_Jun_11_1135,
LowBackContinuum/,LowBackContinuum/NewWord_fbackonset_sbackonset_1.wav,NewWord_fbackonset_sbackonset_,1,,,,,,,,,,0,8,8,0,,,,,,,,,,,,,,,,,,,f,0.403,,,,,12,Female,21,59.9721751564,American English,fricative_categorical_boundary,2018_Jun_11_1135,
LowBackContinuum/,LowBackContinuum/NewWord_fbackonset_sbackonset_13.wav,NewWord_fbackonset_sbackonset_,13,,,,,,,,,,0,9,9,4,,,,,,,,,,,,,,,,,,,f,0.836,,,,,12,Female,21,59.9721751564,American English,fricative_categorical_boundary,2018_Jun_11_1135,
LowBackContinuum/,LowBackContinuum/NewWord_fbackonset_sbackonset_25.wav,NewWord_fbackonset_sbackonset_,25,,,,,,,,,,0,10,10,10,,,,,,,,,,,,,,,,,,,f,1.153,,,,,12,Female,21,59.9721751564,American English,fricative_categorical_boundary,2018_Jun_11_1135,
LowBackContinuum/,LowBackContinuum/NewWord_fbackonset_sbackonset_15.wav,NewWord_fbackonset_sbackonset_,15,,,,,,,,,,0,11,11,5,,,,,,,,,,,,,,,,,,,f,0.586,,,,,12,Female,21,59.9721751564,American English,fricative_categorical_boundary,2018_Jun_11_1135,
LowBackContinuum/,LowBackContinuum/NewWord_fbackonset_sbackonset_23.wav,NewWord_fbackonset_sbackonset_,23,,,,,,,,,,0,12,12,9,,,,,,,,,,,,,,,,,,,f,1.004,,,,,12,Female,21,59.9721751564,American English,fricative_categorical_boundary,2018_Jun_11_1135,
LowBackContinuum/,LowBackContinuum/NewWord_fbackonset_sbackonset_9.wav,NewWord_fbackonset_sbackonset_,9,,,,,,,,,,0,13,13,2,,,,,,,,,,,,,,,,,,,f,0.519,,,,,12,Female,21,59.9721751564,American English,fricative_categorical_boundary,2018_Jun_11_1135,
LowBackContinuum/,LowBackContinuum/NewWord_fbackonset_sbackonset_23.wav,NewWord_fbackonset_sbackonset_,23,,,,,,,,,,1,0,14,9,,,,,,,,,,,,,,,,,,,s,0.519,,,,,12,Female,21,59.9721751564,American English,fricative_categorical_boundary,2018_Jun_11_1135,
LowBackContinuum/,LowBackContinuum/NewWord_fbackonset_sbackonset_11.wav,NewWord_fbackonset_sbackonset_,11,,,,,,,,,,1,1,15,3,,,,,,,,,,,,,,,,,,,f,1.254,,,,,12,Female,21,59.9721751564,American English,fricative_categorical_boundary,2018_Jun_11_1135,
LowBackContinuum/,LowBackContinuum/NewWord_fbackonset_sbackonset_7.wav,NewWord_fbackonset_sbackonset_,7,,,,,,,,,,1,2,16,1,,,,,,,,,,,,,,,,,,,s,0.553,,,,,12,Female,21,59.9721751564,American English,fricative_categorical_boundary,2018_Jun_11_1135,
LowBackContinuum/,LowBackContinuum/NewWord_fbackonset_sbackonset_41.wav,NewWord_fbackonset_sbackonset_,41,,,,,,,,,,1,3,17,13,,,,,,,,,,,,,,,,,,,s,0.502,,,,,12,Female,21,59.9721751564,American English,fricative_categorical_boundary,2018_Jun_11_1135,
LowBackContinuum/,LowBackContinuum/NewWord_fbackonset_sbackonset_19.wav,NewWord_fbackonset_sbackonset_,19,,,,,,,,,,1,4,18,7,,,,,,,,,,,,,,,,,,,s,1.705,,,,,12,Female,21,59.9721751564,American English,fricative_categorical_boundary,2018_Jun_11_1135,
LowBackContinuum/,LowBackContinuum/NewWord_fbackonset_sbackonset_29.wav,NewWord_fbackonset_sbackonset_,29,,,,,,,,,,1,5,19,12,,,,,,,,,,,,,,,,,,,s,1.053,,,,,12,Female,21,59.9721751564,American English,fricative_categorical_boundary,2018_Jun_11_1135,
LowBackContinuum/,LowBackContinuum/NewWord_fbackonset_sbackonset_21.wav,NewWord_fbackonset_sbackonset_,21,,,,,,,,,,1,6,20,8,,,,,,,,,,,,,,,,,,,s,0.419,,,,,12,Female,21,59.9721751564,American English,fricative_categorical_boundary,2018_Jun_11_1135,
LowBackContinuum/,LowBackContinuum/NewWord_fbackonset_sbackonset_13.wav,NewWord_fbackonset_sbackonset_,13,,,,,,,,,,1,7,21,4,,,,,,,,,,,,,,,,,,,s,0.987,,,,,12,Female,21,59.9721751564,American English,fricative_categorical_boundary,2018_Jun_11_1135,
LowBackContinuum/,LowBackContinuum/NewWord_fbackonset_sbackonset_1.wav,NewWord_fbackonset_sbackonset_,1,,,,,,,,,,1,8,22,0,,,,,,,,,,,,,,,,,,,f,0.536,,,,,12,Female,21,59.9721751564,American English,fricative_categorical_boundary,2018_Jun_11_1135,
LowBackContinuum/,LowBackContinuum/NewWord_fbackonset_sbackonset_15.wav,NewWord_fbackonset_sbackonset_,15,,,,,,,,,,1,9,23,5,,,,,,,,,,,,,,,,,,,f,0.404,,,,,12,Female,21,59.9721751564,American English,fricative_categorical_boundary,2018_Jun_11_1135,
LowBackContinuum/,LowBackContinuum/NewWord_fbackonset_sbackonset_27.wav,NewWord_fbackonset_sbackonset_,27,,,,,,,,,,1,10,24,11,,,,,,,,,,,,,,,,,,,s,0.419,,,,,12,Female,21,59.9721751564,American English,fricative_categorical_boundary,2018_Jun_11_1135,
LowBackContinuum/,LowBackContinuum/NewWord_fbackonset_sbackonset_17.wav,NewWord_fbackonset_sbackonset_,17,,,,,,,,,,1,11,25,6,,,,,,,,,,,,,,,,,,,f,1.019,,,,,12,Female,21,59.9721751564,American English,fricative_categorical_boundary,2018_Jun_11_1135,
LowBackContinuum/,LowBackContinuum/NewWord_fbackonset_sbackonset_25.wav,NewWord_fbackonset_sbackonset_,25,,,,,,,,,,1,12,26,10,,,,,,,,,,,,,,,,,,,s,0.552,,,,,12,Female,21,59.9721751564,American English,fricative_categorical_boundary,2018_Jun_11_1135,
LowBackContinuum/,LowBackContinuum/NewWord_fbackonset_sbackonset_9.wav,NewWord_fbackonset_sbackonset_,9,,,,,,,,,,1,13,27,2,,,,,,,,,,,,,,,,,,,f,0.402,,,,,12,Female,21,59.9721751564,American English,fricative_categorical_boundary,2018_Jun_11_1135,
LowBackContinuum/,LowBackContinuum/NewWord_fbackonset_sbackonset_23.wav,NewWord_fbackonset_sbackonset_,23,,,,,,,,,,2,0,28,9,,,,,,,,,,,,,,,,,,,s,0.57,,,,,12,Female,21,59.9721751564,American English,fricative_categorical_boundary,2018_Jun_11_1135,
LowBackContinuum/,LowBackContinuum/NewWord_fbackonset_sbackonset_27.wav,NewWord_fbackonset_sbackonset_,27,,,,,,,,,,2,1,29,11,,,,,,,,,,,,,,,,,,,s,0.402,,,,,12,Female,21,59.9721751564,American English,fricative_categorical_boundary,2018_Jun_11_1135,
LowBackContinuum/,LowBackContinuum/NewWord_fbackonset_sbackonset_1.wav,NewWord_fbackonset_sbackonset_,1,,,,,,,,,,2,2,30,0,,,,,,,,,,,,,,,,,,,f,0.407,,,,,12,Female,21,59.9721751564,American English,fricative_categorical_boundary,2018_Jun_11_1135,
LowBackContinuum/,LowBackContinuum/NewWord_fbackonset_sbackonset_11.wav,NewWord_fbackonset_sbackonset_,11,,,,,,,,,,2,3,31,3,,,,,,,,,,,,,,,,,,,f,0.403,,,,,12,Female,21,59.9721751564,American English,fricative_categorical_boundary,2018_Jun_11_1135,
LowBackContinuum/,LowBackContinuum/NewWord_fbackonset_sbackonset_13.wav,NewWord_fbackonset_sbackonset_,13,,,,,,,,,,2,4,32,4,,,,,,,,,,,,,,,,,,,f,0.553,,,,,12,Female,21,59.9721751564,American English,fricative_categorical_boundary,2018_Jun_11_1135,
LowBackContinuum/,LowBackContinuum/NewWord_fbackonset_sbackonset_25.wav,NewWord_fbackonset_sbackonset_,25,,,,,,,,,,2,5,33,10,,,,,,,,,,,,,,,,,,,s,0.687,,,,,12,Female,21,59.9721751564,American English,fricative_categorical_boundary,2018_Jun_11_1135,
LowBackContinuum/,LowBackContinuum/NewWord_fbackonset_sbackonset_41.wav,NewWord_fbackonset_sbackonset_,41,,,,,,,,,,2,6,34,13,,,,,,,,,,,,,,,,,,,s,0.403,,,,,12,Female,21,59.9721751564,American English,fricative_categorical_boundary,2018_Jun_11_1135,
LowBackContinuum/,LowBackContinuum/NewWord_fbackonset_sbackonset_9.wav,NewWord_fbackonset_sbackonset_,9,,,,,,,,,,2,7,35,2,,,,,,,,,,,,,,,,,,,f,0.419,,,,,12,Female,21,59.9721751564,American English,fricative_categorical_boundary,2018_Jun_11_1135,
LowBackContinuum/,LowBackContinuum/NewWord_fbackonset_sbackonset_29.wav,NewWord_fbackonset_sbackonset_,29,,,,,,,,,,2,8,36,12,,,,,,,,,,,,,,,,,,,s,0.436,,,,,12,Female,21,59.9721751564,American English,fricative_categorical_boundary,2018_Jun_11_1135,
LowBackContinuum/,LowBackContinuum/NewWord_fbackonset_sbackonset_15.wav,NewWord_fbackonset_sbackonset_,15,,,,,,,,,,2,9,37,5,,,,,,,,,,,,,,,,,,,f,0.802,,,,,12,Female,21,59.9721751564,American English,fricative_categorical_boundary,2018_Jun_11_1135,
LowBackContinuum/,LowBackContinuum/NewWord_fbackonset_sbackonset_17.wav,NewWord_fbackonset_sbackonset_,17,,,,,,,,,,2,10,38,6,,,,,,,,,,,,,,,,,,,s,0.602,,,,,12,Female,21,59.9721751564,American English,fricative_categorical_boundary,2018_Jun_11_1135,
LowBackContinuum/,LowBackContinuum/NewWord_fbackonset_sbackonset_21.wav,NewWord_fbackonset_sbackonset_,21,,,,,,,,,,2,11,39,8,,,,,,,,,,,,,,,,,,,s,0.919,,,,,12,Female,21,59.9721751564,American English,fricative_categorical_boundary,2018_Jun_11_1135,
LowBackContinuum/,LowBackContinuum/NewWord_fbackonset_sbackonset_19.wav,NewWord_fbackonset_sbackonset_,19,,,,,,,,,,2,12,40,7,,,,,,,,,,,,,,,,,,,s,1.004,,,,,12,Female,21,59.9721751564,American English,fricative_categorical_boundary,2018_Jun_11_1135,
LowBackContinuum/,LowBackContinuum/NewWord_fbackonset_sbackonset_7.wav,NewWord_fbackonset_sbackonset_,7,,,,,,,,,,2,13,41,1,,,,,,,,,,,,,,,,,,,f,0.403,,,,,12,Female,21,59.9721751564,American English,fricative_categorical_boundary,2018_Jun_11_1135,
LowBackContinuum/,LowBackContinuum/NewWord_fbackonset_sbackonset_1.wav,NewWord_fbackonset_sbackonset_,1,,,,,,,,,,3,0,42,0,,,,,,,,,,,,,,,,,,,f,1.087,,,,,12,Female,21,59.9721751564,American English,fricative_categorical_boundary,2018_Jun_11_1135,
LowBackContinuum/,LowBackContinuum/NewWord_fbackonset_sbackonset_7.wav,NewWord_fbackonset_sbackonset_,7,,,,,,,,,,3,1,43,1,,,,,,,,,,,,,,,,,,,f,0.803,,,,,12,Female,21,59.9721751564,American English,fricative_categorical_boundary,2018_Jun_11_1135,
LowBackContinuum/,LowBackContinuum/NewWord_fbackonset_sbackonset_11.wav,NewWord_fbackonset_sbackonset_,11,,,,,,,,,,3,2,44,3,,,,,,,,,,,,,,,,,,,f,0.403,,,,,12,Female,21,59.9721751564,American English,fricative_categorical_boundary,2018_Jun_11_1135,
LowBackContinuum/,LowBackContinuum/NewWord_fbackonset_sbackonset_27.wav,NewWord_fbackonset_sbackonset_,27,,,,,,,,,,3,3,45,11,,,,,,,,,,,,,,,,,,,s,0.67,,,,,12,Female,21,59.9721751564,American English,fricative_categorical_boundary,2018_Jun_11_1135,
LowBackContinuum/,LowBackContinuum/NewWord_fbackonset_sbackonset_21.wav,NewWord_fbackonset_sbackonset_,21,,,,,,,,,,3,4,46,8,,,,,,,,,,,,,,,,,,,s,0.419,,,,,12,Female,21,59.9721751564,American English,fricative_categorical_boundary,2018_Jun_11_1135,
LowBackContinuum/,LowBackContinuum/NewWord_fbackonset_sbackonset_17.wav,NewWord_fbackonset_sbackonset_,17,,,,,,,,,,3,5,47,6,,,,,,,,,,,,,,,,,,,s,0.418,,,,,12,Female,21,59.9721751564,American English,fricative_categorical_boundary,2018_Jun_11_1135,
LowBackContinuum/,LowBackContinuum/NewWord_fbackonset_sbackonset_15.wav,NewWord_fbackonset_sbackonset_,15,,,,,,,,,,3,6,48,5,,,,,,,,,,,,,,,,,,,f,0.469,,,,,12,Female,21,59.9721751564,American English,fricative_categorical_boundary,2018_Jun_11_1135,
LowBackContinuum/,LowBackContinuum/NewWord_fbackonset_sbackonset_13.wav,NewWord_fbackonset_sbackonset_,13,,,,,,,,,,3,7,49,4,,,,,,,,,,,,,,,,,,,f,0.419,,,,,12,Female,21,59.9721751564,American English,fricative_categorical_boundary,2018_Jun_11_1135,
LowBackContinuum/,LowBackContinuum/NewWord_fbackonset_sbackonset_9.wav,NewWord_fbackonset_sbackonset_,9,,,,,,,,,,3,8,50,2,,,,,,,,,,,,,,,,,,,f,0.403,,,,,12,Female,21,59.9721751564,American English,fricative_categorical_boundary,2018_Jun_11_1135,
LowBackContinuum/,LowBackContinuum/NewWord_fbackonset_sbackonset_23.wav,NewWord_fbackonset_sbackonset_,23,,,,,,,,,,3,9,51,9,,,,,,,,,,,,,,,,,,,s,0.403,,,,,12,Female,21,59.9721751564,American English,fricative_categorical_boundary,2018_Jun_11_1135,
LowBackContinuum/,LowBackContinuum/NewWord_fbackonset_sbackonset_41.wav,NewWord_fbackonset_sbackonset_,41,,,,,,,,,,3,10,52,13,,,,,,,,,,,,,,,,,,,s,1.037,,,,,12,Female,21,59.9721751564,American English,fricative_categorical_boundary,2018_Jun_11_1135,
LowBackContinuum/,LowBackContinuum/NewWord_fbackonset_sbackonset_25.wav,NewWord_fbackonset_sbackonset_,25,,,,,,,,,,3,11,53,10,,,,,,,,,,,,,,,,,,,s,0.854,,,,,12,Female,21,59.9721751564,American English,fricative_categorical_boundary,2018_Jun_11_1135,
LowBackContinuum/,LowBackContinuum/NewWord_fbackonset_sbackonset_19.wav,NewWord_fbackonset_sbackonset_,19,,,,,,,,,,3,12,54,7,,,,,,,,,,,,,,,,,,,s,0.486,,,,,12,Female,21,59.9721751564,American English,fricative_categorical_boundary,2018_Jun_11_1135,
LowBackContinuum/,LowBackContinuum/NewWord_fbackonset_sbackonset_29.wav,NewWord_fbackonset_sbackonset_,29,,,,,,,,,,3,13,55,12,,,,,,,,,,,,,,,,,,,s,0.419,,,,,12,Female,21,59.9721751564,American English,fricative_categorical_boundary,2018_Jun_11_1135,
,,,,,,,,,,,,,,,,,,,,,,,,,,,,,,,,,,,,,space,4.30742716789,,,12,Female,21,59.9721751564,American English,fricative_categorical_boundary,2018_Jun_11_1135,
,,,,real,LDTSounds/truck.wav,n/a,n/a,truck,None,LDTSounds/,n/a,filler,,,,,0,0,0,2,,,,,,,,,,,,,,,,,,,l,2.08835911751,12,Female,21,59.9721751564,American English,fricative_categorical_boundary,2018_Jun_11_1135,
,,,,nonce,LDTSounds/cratbool.wav,n/a,n/a,cratbool,None,LDTSounds/,n/a,filler,,,,,0,1,1,6,,,,,,,,,,,,,,,,,,,None,,12,Female,21,59.9721751564,American English,fricative_categorical_boundary,2018_Jun_11_1135,
,,,,real,LDTSounds/rat.wav,n/a,n/a,rat,None,LDTSounds/,n/a,filler,,,,,0,2,2,3,,,,,,,,,,,,,,,,,,,None,,12,Female,21,59.9721751564,American English,fricative_categorical_boundary,2018_Jun_11_1135,
,,,,n/a,LDTSounds/SEATED.wav,2,s,SEATED,None,LDTSounds/,onset,test,,,,,0,3,3,1,,,,,,,,,,,,,,,,,,,None,,12,Female,21,59.9721751564,American English,fricative_categorical_boundary,2018_Jun_11_1135,
,,,,nonce,LDTSounds/himp.wav,n/a,n/a,himp,None,LDTSounds/,n/a,filler,,,,,0,4,4,4,,,,,,,,,,,,,,,,,,,a,2.72332000732,12,Female,21,59.9721751564,American English,fricative_categorical_boundary,2018_Jun_11_1135,
,,,,nonce,LDTSounds/weg.wav,n/a,n/a,weg,None,LDTSounds/,n/a,filler,,,,,0,5,5,7,,,,,,,,,,,,,,,,,,,l,1.73870396614,12,Female,21,59.9721751564,American English,fricative_categorical_boundary,2018_Jun_11_1135,
,,,,nonce,LDTSounds/plone.wav,n/a,n/a,plone,None,LDTSounds/,n/a,filler,,,,,0,6,6,5,,,,,,,,,,,,,,,,,,,None,,12,Female,21,59.9721751564,American English,fricative_categorical_boundary,2018_Jun_11_1135,
,,,,n/a,LDTSounds/FEMALE.wav,2,?,FEMALE,None,LDTSounds/,onset,test,,,,,0,7,7,0,,,,,,,,,,,,,,,,,,,l,1.55545401573,12,Female,21,59.9721751564,American English,fricative_categorical_boundary,2018_Jun_11_1135,
,,,,nonce,LDTSounds/himp.wav,n/a,n/a,himp,None,LDTSounds/,n/a,filler,,,,,1,0,8,4,,,,,,,,,,,,,,,,,,,a,1.62189102173,12,Female,21,59.9721751564,American English,fricative_categorical_boundary,2018_Jun_11_1135,
,,,,real,LDTSounds/rat.wav,n/a,n/a,rat,None,LDTSounds/,n/a,filler,,,,,1,1,9,3,,,,,,,,,,,,,,,,,,,l,1.80542111397,12,Female,21,59.9721751564,American English,fricative_categorical_boundary,2018_Jun_11_1135,
,,,,real,LDTSounds/truck.wav,n/a,n/a,truck,None,LDTSounds/,n/a,filler,,,,,1,2,10,2,,,,,,,,,,,,,,,,,,,l,1.10167503357,12,Female,21,59.9721751564,American English,fricative_categorical_boundary,2018_Jun_11_1135,
,,,,nonce,LDTSounds/plone.wav,n/a,n/a,plone,None,LDTSounds/,n/a,filler,,,,,1,3,11,5,,,,,,,,,,,,,,,,,,,l,1.83910179138,12,Female,21,59.9721751564,American English,fricative_categorical_boundary,2018_Jun_11_1135,
,,,,n/a,LDTSounds/FEMALE.wav,2,?,FEMALE,None,LDTSounds/,onset,test,,,,,1,4,12,0,,,,,,,,,,,,,,,,,,,l,0.837941169739,12,Female,21,59.9721751564,American English,fricative_categorical_boundary,2018_Jun_11_1135,
,,,,nonce,LDTSounds/cratbool.wav,n/a,n/a,cratbool,None,LDTSounds/,n/a,filler,,,,,1,5,13,6,,,,,,,,,,,,,,,,,,,a,1.76909303665,12,Female,21,59.9721751564,American English,fricative_categorical_boundary,2018_Jun_11_1135,
,,,,nonce,LDTSounds/weg.wav,n/a,n/a,weg,None,LDTSounds/,n/a,filler,,,,,1,6,14,7,,,,,,,,,,,,,,,,,,,l,1.27157998085,12,Female,21,59.9721751564,American English,fricative_categorical_boundary,2018_Jun_11_1135,
,,,,n/a,LDTSounds/SEATED.wav,2,s,SEATED,None,LDTSounds/,onset,test,,,,,1,7,15,1,,,,,,,,,,,,,,,,,,,l,1.75555491447,12,Female,21,59.9721751564,American English,fricative_categorical_boundary,2018_Jun_11_1135,
,,,,nonce,LDTSounds/himp.wav,n/a,n/a,himp,None,LDTSounds/,n/a,filler,,,,,2,0,16,4,,,,,,,,,,,,,,,,,,,a,1.45554900169,12,Female,21,59.9721751564,American English,fricative_categorical_boundary,2018_Jun_11_1135,
,,,,n/a,LDTSounds/FEMALE.wav,2,?,FEMALE,None,LDTSounds/,onset,test,,,,,2,1,17,0,,,,,,,,,,,,,,,,,,,l,0.904512166977,12,Female,21,59.9721751564,American English,fricative_categorical_boundary,2018_Jun_11_1135,
,,,,nonce,LDTSounds/cratbool.wav,n/a,n/a,cratbool,None,LDTSounds/,n/a,filler,,,,,2,2,18,6,,,,,,,,,,,,,,,,,,,a,1.51895499229,12,Female,21,59.9721751564,American English,fricative_categorical_boundary,2018_Jun_11_1135,
,,,,n/a,LDTSounds/SEATED.wav,2,s,SEATED,None,LDTSounds/,onset,test,,,,,2,3,19,1,,,,,,,,,,,,,,,,,,,l,1.83907008171,12,Female,21,59.9721751564,American English,fricative_categorical_boundary,2018_Jun_11_1135,
,,,,real,LDTSounds/rat.wav,n/a,n/a,rat,None,LDTSounds/,n/a,filler,,,,,2,4,20,3,,,,,,,,,,,,,,,,,,,l,1.2881269455,12,Female,21,59.9721751564,American English,fricative_categorical_boundary,2018_Jun_11_1135,
,,,,nonce,LDTSounds/weg.wav,n/a,n/a,weg,None,LDTSounds/,n/a,filler,,,,,2,5,21,7,,,,,,,,,,,,,,,,,,,l,1.13493013382,12,Female,21,59.9721751564,American English,fricative_categorical_boundary,2018_Jun_11_1135,
,,,,real,LDTSounds/truck.wav,n/a,n/a,truck,None,LDTSounds/,n/a,filler,,,,,2,6,22,2,,,,,,,,,,,,,,,,,,,l,0.904833078384,12,Female,21,59.9721751564,American English,fricative_categorical_boundary,2018_Jun_11_1135,
,,,,nonce,LDTSounds/plone.wav,n/a,n/a,plone,None,LDTSounds/,n/a,filler,,,,,2,7,23,5,,,,,,,,,,,,,,,,,,,a,2.17264103889,12,Female,21,59.9721751564,American English,fricative_categorical_boundary,2018_Jun_11_1135,
,,,,n/a,LDTSounds/FEMALE.wav,2,?,FEMALE,None,LDTSounds/,onset,test,,,,,3,0,24,0,,,,,,,,,,,,,,,,,,,l,0.854573011398,12,Female,21,59.9721751564,American English,fricative_categorical_boundary,2018_Jun_11_1135,
,,,,real,LDTSounds/rat.wav,n/a,n/a,rat,None,LDTSounds/,n/a,filler,,,,,3,1,25,3,,,,,,,,,,,,,,,,,,,l,1.104637146,12,Female,21,59.9721751564,American English,fricative_categorical_boundary,2018_Jun_11_1135,
,,,,real,LDTSounds/truck.wav,n/a,n/a,truck,None,LDTSounds/,n/a,filler,,,,,3,2,26,2,,,,,,,,,,,,,,,,,,,l,1.03813791275,12,Female,21,59.9721751564,American English,fricative_categorical_boundary,2018_Jun_11_1135,
,,,,nonce,LDTSounds/weg.wav,n/a,n/a,weg,None,LDTSounds/,n/a,filler,,,,,3,3,27,7,,,,,,,,,,,,,,,,,,,l,0.854463815689,12,Female,21,59.9721751564,American English,fricative_categorical_boundary,2018_Jun_11_1135,
,,,,nonce,LDTSounds/himp.wav,n/a,n/a,himp,None,LDTSounds/,n/a,filler,,,,,3,4,28,4,,,,,,,,,,,,,,,,,,,a,1.01829791069,12,Female,21,59.9721751564,American English,fricative_categorical_boundary,2018_Jun_11_1135,
,,,,nonce,LDTSounds/cratbool.wav,n/a,n/a,cratbool,None,LDTSounds/,n/a,filler,,,,,3,5,29,6,,,,,,,,,,,,,,,,,,,a,1.13921117783,12,Female,21,59.9721751564,American English,fricative_categorical_boundary,2018_Jun_11_1135,
,,,,n/a,LDTSounds/SEATED.wav,2,s,SEATED,None,LDTSounds/,onset,test,,,,,3,6,30,1,,,,,,,,,,,,,,,,,,,l,0.804651021957,12,Female,21,59.9721751564,American English,fricative_categorical_boundary,2018_Jun_11_1135,
,,,,nonce,LDTSounds/plone.wav,n/a,n/a,plone,None,LDTSounds/,n/a,filler,,,,,3,7,31,5,,,,,,,,,,,,,,,,,,,a,1.32168507576,12,Female,21,59.9721751564,American English,fricative_categorical_boundary,2018_Jun_11_1135,
,,,,nonce,LDTSounds/weg.wav,n/a,n/a,weg,None,LDTSounds/,n/a,filler,,,,,4,0,32,7,,,,,,,,,,,,,,,,,,,l,1.32138991356,12,Female,21,59.9721751564,American English,fricative_categorical_boundary,2018_Jun_11_1135,
,,,,real,LDTSounds/truck.wav,n/a,n/a,truck,None,LDTSounds/,n/a,filler,,,,,4,1,33,2,,,,,,,,,,,,,,,,,,,l,1.15194201469,12,Female,21,59.9721751564,American English,fricative_categorical_boundary,2018_Jun_11_1135,
,,,,nonce,LDTSounds/cratbool.wav,n/a,n/a,cratbool,None,LDTSounds/,n/a,filler,,,,,4,2,34,6,,,,,,,,,,,,,,,,,,,a,1.70556807518,12,Female,21,59.9721751564,American English,fricative_categorical_boundary,2018_Jun_11_1135,
,,,,n/a,LDTSounds/SEATED.wav,2,s,SEATED,None,LDTSounds/,onset,test,,,,,4,3,35,1,,,,,,,,,,,,,,,,,,,l,0.771389961243,12,Female,21,59.9721751564,American English,fricative_categorical_boundary,2018_Jun_11_1135,
,,,,n/a,LDTSounds/FEMALE.wav,2,?,FEMALE,None,LDTSounds/,onset,test,,,,,4,4,36,0,,,,,,,,,,,,,,,,,,,l,1.0882871151,12,Female,21,59.9721751564,American English,fricative_categorical_boundary,2018_Jun_11_1135,
,,,,real,LDTSounds/rat.wav,n/a,n/a,rat,None,LDTSounds/,n/a,filler,,,,,4,5,37,3,,,,,,,,,,,,,,,,,,,l,1.02137517929,12,Female,21,59.9721751564,American English,fricative_categorical_boundary,2018_Jun_11_1135,
,,,,nonce,LDTSounds/himp.wav,n/a,n/a,himp,None,LDTSounds/,n/a,filler,,,,,4,6,38,4,,,,,,,,,,,,,,,,,,,a,0.937940835953,12,Female,21,59.9721751564,American English,fricative_categorical_boundary,2018_Jun_11_1135,
,,,,nonce,LDTSounds/plone.wav,n/a,n/a,plone,None,LDTSounds/,n/a,filler,,,,,4,7,39,5,,,,,,,,,,,,,,,,,,,a,1.27177786827,12,Female,21,59.9721751564,American English,fricative_categorical_boundary,2018_Jun_11_1135,
,,,,n/a,LDTSounds/FEMALE.wav,2,?,FEMALE,None,LDTSounds/,onset,test,,,,,5,0,40,0,,,,,,,,,,,,,,,,,,,l,0.854571819305,12,Female,21,59.9721751564,American English,fricative_categorical_boundary,2018_Jun_11_1135,
,,,,nonce,LDTSounds/weg.wav,n/a,n/a,weg,None,LDTSounds/,n/a,filler,,,,,5,1,41,7,,,,,,,,,,,,,,,,,,,l,0.871290922165,12,Female,21,59.9721751564,American English,fricative_categorical_boundary,2018_Jun_11_1135,
,,,,nonce,LDTSounds/plone.wav,n/a,n/a,plone,None,LDTSounds/,n/a,filler,,,,,5,2,42,5,,,,,,,,,,,,,,,,,,,a,1.45529603958,12,Female,21,59.9721751564,American English,fricative_categorical_boundary,2018_Jun_11_1135,
,,,,n/a,LDTSounds/SEATED.wav,2,s,SEATED,None,LDTSounds/,onset,test,,,,,5,3,43,1,,,,,,,,,,,,,,,,,,,l,0.837917089462,12,Female,21,59.9721751564,American English,fricative_categorical_boundary,2018_Jun_11_1135,
,,,,nonce,LDTSounds/himp.wav,n/a,n/a,himp,None,LDTSounds/,n/a,filler,,,,,5,4,44,4,,,,,,,,,,,,,,,,,,,a,1.27151703835,12,Female,21,59.9721751564,American English,fricative_categorical_boundary,2018_Jun_11_1135,
,,,,real,LDTSounds/rat.wav,n/a,n/a,rat,None,LDTSounds/,n/a,filler,,,,,5,5,45,3,,,,,,,,,,,,,,,,,,,l,0.904752016068,12,Female,21,59.9721751564,American English,fricative_categorical_boundary,2018_Jun_11_1135,
,,,,nonce,LDTSounds/cratbool.wav,n/a,n/a,cratbool,None,LDTSounds/,n/a,filler,,,,,5,6,46,6,,,,,,,,,,,,,,,,,,,a,1.32164311409,12,Female,21,59.9721751564,American English,fricative_categorical_boundary,2018_Jun_11_1135,
,,,,real,LDTSounds/truck.wav,n/a,n/a,truck,None,LDTSounds/,n/a,filler,,,,,5,7,47,2,,,,,,,,,,,,,,,,,,,l,1.10482501984,12,Female,21,59.9721751564,American English,fricative_categorical_boundary,2018_Jun_11_1135,
,,,,nonce,LDTSounds/cratbool.wav,n/a,n/a,cratbool,None,LDTSounds/,n/a,filler,,,,,6,0,48,6,,,,,,,,,,,,,,,,,,,a,1.13829803467,12,Female,21,59.9721751564,American English,fricative_categorical_boundary,2018_Jun_11_1135,
,,,,nonce,LDTSounds/plone.wav,n/a,n/a,plone,None,LDTSounds/,n/a,filler,,,,,6,1,49,5,,,,,,,,,,,,,,,,,,,a,1.12138795853,12,Female,21,59.9721751564,American English,fricative_categorical_boundary,2018_Jun_11_1135,
,,,,nonce,LDTSounds/himp.wav,n/a,n/a,himp,None,LDTSounds/,n/a,filler,,,,,6,2,50,4,,,,,,,,,,,,,,,,,,,a,0.968239068985,12,Female,21,59.9721751564,American English,fricative_categorical_boundary,2018_Jun_11_1135,
,,,,n/a,LDTSounds/SEATED.wav,2,s,SEATED,None,LDTSounds/,onset,test,,,,,6,3,51,1,,,,,,,,,,,,,,,,,,,l,0.818078041077,12,Female,21,59.9721751564,American English,fricative_categorical_boundary,2018_Jun_11_1135,
,,,,nonce,LDTSounds/weg.wav,n/a,n/a,weg,None,LDTSounds/,n/a,filler,,,,,6,4,52,7,,,,,,,,,,,,,,,,,,,None,,12,Female,21,59.9721751564,American English,fricative_categorical_boundary,2018_Jun_11_1135,
,,,,real,LDTSounds/rat.wav,n/a,n/a,rat,None,LDTSounds/,n/a,filler,,,,,6,5,53,3,,,,,,,,,,,,,,,,,,,l,0.98820400238,12,Female,21,59.9721751564,American English,fricative_categorical_boundary,2018_Jun_11_1135,
,,,,n/a,LDTSounds/FEMALE.wav,2,?,FEMALE,None,LDTSounds/,onset,test,,,,,6,6,54,0,,,,,,,,,,,,,,,,,,,l,1.03812003136,12,Female,21,59.9721751564,American English,fricative_categorical_boundary,2018_Jun_11_1135,
,,,,real,LDTSounds/truck.wav,n/a,n/a,truck,None,LDTSounds/,n/a,filler,,,,,6,7,55,2,,,,,,,,,,,,,,,,,,,l,0.754656791687,12,Female,21,59.9721751564,American English,fricative_categorical_boundary,2018_Jun_11_1135,
,,,,nonce,LDTSounds/weg.wav,n/a,n/a,weg,None,LDTSounds/,n/a,filler,,,,,7,0,56,7,,,,,,,,,,,,,,,,,,,l,0.854671955109,12,Female,21,59.9721751564,American English,fricative_categorical_boundary,2018_Jun_11_1135,
,,,,real,LDTSounds/truck.wav,n/a,n/a,truck,None,LDTSounds/,n/a,filler,,,,,7,1,57,2,,,,,,,,,,,,,,,,,,,l,0.951419115067,12,Female,21,59.9721751564,American English,fricative_categorical_boundary,2018_Jun_11_1135,
,,,,n/a,LDTSounds/SEATED.wav,2,s,SEATED,None,LDTSounds/,onset,test,,,,,7,2,58,1,,,,,,,,,,,,,,,,,,,l,1.13818597794,12,Female,21,59.9721751564,American English,fricative_categorical_boundary,2018_Jun_11_1135,
,,,,real,LDTSounds/rat.wav,n/a,n/a,rat,None,LDTSounds/,n/a,filler,,,,,7,3,59,3,,,,,,,,,,,,,,,,,,,l,1.0382039547,12,Female,21,59.9721751564,American English,fricative_categorical_boundary,2018_Jun_11_1135,
,,,,nonce,LDTSounds/himp.wav,n/a,n/a,himp,None,LDTSounds/,n/a,filler,,,,,7,4,60,4,,,,,,,,,,,,,,,,,,,a,0.92133808136,12,Female,21,59.9721751564,American English,fricative_categorical_boundary,2018_Jun_11_1135,
,,,,n/a,LDTSounds/FEMALE.wav,2,?,FEMALE,None,LDTSounds/,onset,test,,,,,7,5,61,0,,,,,,,,,,,,,,,,,,,l,1.32207202911,12,Female,21,59.9721751564,American English,fricative_categorical_boundary,2018_Jun_11_1135,
,,,,nonce,LDTSounds/plone.wav,n/a,n/a,plone,None,LDTSounds/,n/a,filler,,,,,7,6,62,5,,,,,,,,,,,,,,,,,,,a,1.08481383324,12,Female,21,59.9721751564,American English,fricative_categorical_boundary,2018_Jun_11_1135,
,,,,nonce,LDTSounds/cratbool.wav,n/a,n/a,cratbool,None,LDTSounds/,n/a,filler,,,,,7,7,63,6,,,,,,,,,,,,,,,,,,,a,1.20479083061,12,Female,21,59.9721751564,American English,fricative_categorical_boundary,2018_Jun_11_1135,
,,,,nonce,LDTSounds/cratbool.wav,n/a,n/a,cratbool,None,LDTSounds/,n/a,filler,,,,,8,0,64,6,,,,,,,,,,,,,,,,,,,a,1.17141795158,12,Female,21,59.9721751564,American English,fricative_categorical_boundary,2018_Jun_11_1135,
,,,,real,LDTSounds/truck.wav,n/a,n/a,truck,None,LDTSounds/,n/a,filler,,,,,8,1,65,2,,,,,,,,,,,,,,,,,,,l,0.771018028259,12,Female,21,59.9721751564,American English,fricative_categorical_boundary,2018_Jun_11_1135,
,,,,nonce,LDTSounds/himp.wav,n/a,n/a,himp,None,LDTSounds/,n/a,filler,,,,,8,2,66,4,,,,,,,,,,,,,,,,,,,a,0.887936830521,12,Female,21,59.9721751564,American English,fricative_categorical_boundary,2018_Jun_11_1135,
,,,,n/a,LDTSounds/SEATED.wav,2,s,SEATED,None,LDTSounds/,onset,test,,,,,8,3,67,1,,,,,,,,,,,,,,,,,,,l,0.837914943695,12,Female,21,59.9721751564,American English,fricative_categorical_boundary,2018_Jun_11_1135,
,,,,real,LDTSounds/rat.wav,n/a,n/a,rat,None,LDTSounds/,n/a,filler,,,,,8,4,68,3,,,,,,,,,,,,,,,,,,,l,1.40529298782,12,Female,21,59.9721751564,American English,fricative_categorical_boundary,2018_Jun_11_1135,
,,,,nonce,LDTSounds/plone.wav,n/a,n/a,plone,None,LDTSounds/,n/a,filler,,,,,8,5,69,5,,,,,,,,,,,,,,,,,,,a,1.00478792191,12,Female,21,59.9721751564,American English,fricative_categorical_boundary,2018_Jun_11_1135,
,,,,nonce,LDTSounds/weg.wav,n/a,n/a,weg,None,LDTSounds/,n/a,filler,,,,,8,6,70,7,,,,,,,,,,,,,,,,,,,l,0.871253013611,12,Female,21,59.9721751564,American English,fricative_categorical_boundary,2018_Jun_11_1135,
,,,,n/a,LDTSounds/FEMALE.wav,2,?,FEMALE,None,LDTSounds/,onset,test,,,,,8,7,71,0,,,,,,,,,,,,,,,,,,,l,0.787836790085,12,Female,21,59.9721751564,American English,fricative_categorical_boundary,2018_Jun_11_1135,
,,,,nonce,LDTSounds/weg.wav,n/a,n/a,weg,None,LDTSounds/,n/a,filler,,,,,9,0,72,7,,,,,,,,,,,,,,,,,,,l,0.938016891479,12,Female,21,59.9721751564,American English,fricative_categorical_boundary,2018_Jun_11_1135,
,,,,nonce,LDTSounds/cratbool.wav,n/a,n/a,cratbool,None,LDTSounds/,n/a,filler,,,,,9,1,73,6,,,,,,,,,,,,,,,,,,,a,1.60534596443,12,Female,21,59.9721751564,American English,fricative_categorical_boundary,2018_Jun_11_1135,
,,,,real,LDTSounds/truck.wav,n/a,n/a,truck,None,LDTSounds/,n/a,filler,,,,,9,2,74,2,,,,,,,,,,,,,,,,,,,l,0.804435968399,12,Female,21,59.9721751564,American English,fricative_categorical_boundary,2018_Jun_11_1135,
,,,,nonce,LDTSounds/plone.wav,n/a,n/a,plone,None,LDTSounds/,n/a,filler,,,,,9,3,75,5,,,,,,,,,,,,,,,,,,,a,1.77219200134,12,Female,21,59.9721751564,American English,fricative_categorical_boundary,2018_Jun_11_1135,
,,,,n/a,LDTSounds/SEATED.wav,2,s,SEATED,None,LDTSounds/,onset,test,,,,,9,4,76,1,,,,,,,,,,,,,,,,,,,l,0.654135942459,12,Female,21,59.9721751564,American English,fricative_categorical_boundary,2018_Jun_11_1135,
,,,,real,LDTSounds/rat.wav,n/a,n/a,rat,None,LDTSounds/,n/a,filler,,,,,9,5,77,3,,,,,,,,,,,,,,,,,,,l,0.917886018753,12,Female,21,59.9721751564,American English,fricative_categorical_boundary,2018_Jun_11_1135,
,,,,nonce,LDTSounds/himp.wav,n/a,n/a,himp,None,LDTSounds/,n/a,filler,,,,,9,6,78,4,,,,,,,,,,,,,,,,,,,a,0.954836130142,12,Female,21,59.9721751564,American English,fricative_categorical_boundary,2018_Jun_11_1135,
,,,,n/a,LDTSounds/FEMALE.wav,2,?,FEMALE,None,LDTSounds/,onset,test,,,,,9,7,79,0,,,,,,,,,,,,,,,,,,,l,1.02144789696,12,Female,21,59.9721751564,American English,fricative_categorical_boundary,2018_Jun_11_1135,
,,,,nonce,LDTSounds/weg.wav,n/a,n/a,weg,None,LDTSounds/,n/a,filler,,,,,10,0,80,7,,,,,,,,,,,,,,,,,,,l,1.95589399338,12,Female,21,59.9721751564,American English,fricative_categorical_boundary,2018_Jun_11_1135,
,,,,n/a,LDTSounds/SEATED.wav,2,s,SEATED,None,LDTSounds/,onset,test,,,,,10,1,81,1,,,,,,,,,,,,,,,,,,,l,0.951423168182,12,Female,21,59.9721751564,American English,fricative_categorical_boundary,2018_Jun_11_1135,
,,,,nonce,LDTSounds/himp.wav,n/a,n/a,himp,None,LDTSounds/,n/a,filler,,,,,10,2,82,4,,,,,,,,,,,,,,,,,,,a,0.704117059708,12,Female,21,59.9721751564,American English,fricative_categorical_boundary,2018_Jun_11_1135,
,,,,nonce,LDTSounds/cratbool.wav,n/a,n/a,cratbool,None,LDTSounds/,n/a,filler,,,,,10,3,83,6,,,,,,,,,,,,,,,,,,,a,0.871274232864,12,Female,21,59.9721751564,American English,fricative_categorical_boundary,2018_Jun_11_1135,
,,,,real,LDTSounds/truck.wav,n/a,n/a,truck,None,LDTSounds/,n/a,filler,,,,,10,4,84,2,,,,,,,,,,,,,,,,,,,l,0.570985078812,12,Female,21,59.9721751564,American English,fricative_categorical_boundary,2018_Jun_11_1135,
,,,,n/a,LDTSounds/FEMALE.wav,2,?,FEMALE,None,LDTSounds/,onset,test,,,,,10,5,85,0,,,,,,,,,,,,,,,,,,,l,0.670721054077,12,Female,21,59.9721751564,American English,fricative_categorical_boundary,2018_Jun_11_1135,
,,,,real,LDTSounds/rat.wav,n/a,n/a,rat,None,LDTSounds/,n/a,filler,,,,,10,6,86,3,,,,,,,,,,,,,,,,,,,l,0.737424135208,12,Female,21,59.9721751564,American English,fricative_categorical_boundary,2018_Jun_11_1135,
,,,,nonce,LDTSounds/plone.wav,n/a,n/a,plone,None,LDTSounds/,n/a,filler,,,,,10,7,87,5,,,,,,,,,,,,,,,,,,,a,0.954656839371,12,Female,21,59.9721751564,American English,fricative_categorical_boundary,2018_Jun_11_1135,
,,,,n/a,LDTSounds/FEMALE.wav,2,?,FEMALE,None,LDTSounds/,onset,test,,,,,11,0,88,0,,,,,,,,,,,,,,,,,,,l,0.720999956131,12,Female,21,59.9721751564,American English,fricative_categorical_boundary,2018_Jun_11_1135,
,,,,nonce,LDTSounds/himp.wav,n/a,n/a,himp,None,LDTSounds/,n/a,filler,,,,,11,1,89,4,,,,,,,,,,,,,,,,,,,a,0.737720012665,12,Female,21,59.9721751564,American English,fricative_categorical_boundary,2018_Jun_11_1135,
,,,,nonce,LDTSounds/plone.wav,n/a,n/a,plone,None,LDTSounds/,n/a,filler,,,,,11,2,90,5,,,,,,,,,,,,,,,,,,,a,1.05486512184,12,Female,21,59.9721751564,American English,fricative_categorical_boundary,2018_Jun_11_1135,
,,,,nonce,LDTSounds/cratbool.wav,n/a,n/a,cratbool,None,LDTSounds/,n/a,filler,,,,,11,3,91,6,,,,,,,,,,,,,,,,,,,a,0.837906122208,12,Female,21,59.9721751564,American English,fricative_categorical_boundary,2018_Jun_11_1135,
,,,,n/a,LDTSounds/SEATED.wav,2,s,SEATED,None,LDTSounds/,onset,test,,,,,11,4,92,1,,,,,,,,,,,,,,,,,,,l,0.701039075851,12,Female,21,59.9721751564,American English,fricative_categorical_boundary,2018_Jun_11_1135,
,,,,real,LDTSounds/truck.wav,n/a,n/a,truck,None,LDTSounds/,n/a,filler,,,,,11,5,93,2,,,,,,,,,,,,,,,,,,,l,0.754729032516,12,Female,21,59.9721751564,American English,fricative_categorical_boundary,2018_Jun_11_1135,
,,,,nonce,LDTSounds/weg.wav,n/a,n/a,weg,None,LDTSounds/,n/a,filler,,,,,11,6,94,7,,,,,,,,,,,,,,,,,,,l,0.954730033875,12,Female,21,59.9721751564,American English,fricative_categorical_boundary,2018_Jun_11_1135,
,,,,real,LDTSounds/rat.wav,n/a,n/a,rat,None,LDTSounds/,n/a,filler,,,,,11,7,95,3,,,,,,,,,,,,,,,,,,,l,0.888007879257,12,Female,21,59.9721751564,American English,fricative_categorical_boundary,2018_Jun_11_1135,
,,,,n/a,LDTSounds/FEMALE.wav,2,?,FEMALE,None,LDTSounds/,onset,test,,,,,12,0,96,0,,,,,,,,,,,,,,,,,,,l,0.654098987579,12,Female,21,59.9721751564,American English,fricative_categorical_boundary,2018_Jun_11_1135,
,,,,nonce,LDTSounds/plone.wav,n/a,n/a,plone,None,LDTSounds/,n/a,filler,,,,,12,1,97,5,,,,,,,,,,,,,,,,,,,a,0.904767036438,12,Female,21,59.9721751564,American English,fricative_categorical_boundary,2018_Jun_11_1135,
,,,,nonce,LDTSounds/cratbool.wav,n/a,n/a,cratbool,None,LDTSounds/,n/a,filler,,,,,12,2,98,6,,,,,,,,,,,,,,,,,,,a,0.97146487236,12,Female,21,59.9721751564,American English,fricative_categorical_boundary,2018_Jun_11_1135,
,,,,real,LDTSounds/rat.wav,n/a,n/a,rat,None,LDTSounds/,n/a,filler,,,,,12,3,99,3,,,,,,,,,,,,,,,,,,,l,0.87101984024,12,Female,21,59.9721751564,American English,fricative_categorical_boundary,2018_Jun_11_1135,
,,,,nonce,LDTSounds/weg.wav,n/a,n/a,weg,None,LDTSounds/,n/a,filler,,,,,12,4,100,7,,,,,,,,,,,,,,,,,,,l,1.20517206192,12,Female,21,59.9721751564,American English,fricative_categorical_boundary,2018_Jun_11_1135,
,,,,n/a,LDTSounds/SEATED.wav,2,s,SEATED,None,LDTSounds/,onset,test,,,,,12,5,101,1,,,,,,,,,,,,,,,,,,,l,1.07128214836,12,Female,21,59.9721751564,American English,fricative_categorical_boundary,2018_Jun_11_1135,
,,,,nonce,LDTSounds/himp.wav,n/a,n/a,himp,None,LDTSounds/,n/a,filler,,,,,12,6,102,4,,,,,,,,,,,,,,,,,,,a,0.771018981934,12,Female,21,59.9721751564,American English,fricative_categorical_boundary,2018_Jun_11_1135,
,,,,real,LDTSounds/truck.wav,n/a,n/a,truck,None,LDTSounds/,n/a,filler,,,,,12,7,103,2,,,,,,,,,,,,,,,,,,,l,1.1383831501,12,Female,21,59.9721751564,American English,fricative_categorical_boundary,2018_Jun_11_1135,
,,,,n/a,LDTSounds/SEATED.wav,2,s,SEATED,None,LDTSounds/,onset,test,,,,,13,0,104,1,,,,,,,,,,,,,,,,,,,l,1.08792209625,12,Female,21,59.9721751564,American English,fricative_categorical_boundary,2018_Jun_11_1135,
,,,,nonce,LDTSounds/weg.wav,n/a,n/a,weg,None,LDTSounds/,n/a,filler,,,,,13,1,105,7,,,,,,,,,,,,,,,,,,,l,1.35510420799,12,Female,21,59.9721751564,American English,fricative_categorical_boundary,2018_Jun_11_1135,
,,,,nonce,LDTSounds/cratbool.wav,n/a,n/a,cratbool,None,LDTSounds/,n/a,filler,,,,,13,2,106,6,,,,,,,,,,,,,,,,,,,a,0.871119022369,12,Female,21,59.9721751564,American English,fricative_categorical_boundary,2018_Jun_11_1135,
,,,,nonce,LDTSounds/plone.wav,n/a,n/a,plone,None,LDTSounds/,n/a,filler,,,,,13,3,107,5,,,,,,,,,,,,,,,,,,,a,0.988168954849,12,Female,21,59.9721751564,American English,fricative_categorical_boundary,2018_Jun_11_1135,
,,,,n/a,LDTSounds/FEMALE.wav,2,?,FEMALE,None,LDTSounds/,onset,test,,,,,13,4,108,0,,,,,,,,,,,,,,,,,,,l,1.00152111053,12,Female,21,59.9721751564,American English,fricative_categorical_boundary,2018_Jun_11_1135,
,,,,nonce,LDTSounds/himp.wav,n/a,n/a,himp,None,LDTSounds/,n/a,filler,,,,,13,5,109,4,,,,,,,,,,,,,,,,,,,a,0.804373025894,12,Female,21,59.9721751564,American English,fricative_categorical_boundary,2018_Jun_11_1135,
,,,,real,LDTSounds/rat.wav,n/a,n/a,rat,None,LDTSounds/,n/a,filler,,,,,13,6,110,3,,,,,,,,,,,,,,,,,,,l,1.38841891289,12,Female,21,59.9721751564,American English,fricative_categorical_boundary,2018_Jun_11_1135,
,,,,real,LDTSounds/truck.wav,n/a,n/a,truck,None,LDTSounds/,n/a,filler,,,,,13,7,111,2,,,,,,,,,,,,,,,,,,,l,0.70435500145,12,Female,21,59.9721751564,American English,fricative_categorical_boundary,2018_Jun_11_1135,
,,,,nonce,LDTSounds/cratbool.wav,n/a,n/a,cratbool,None,LDTSounds/,n/a,filler,,,,,14,0,112,6,,,,,,,,,,,,,,,,,,,a,0.887939929962,12,Female,21,59.9721751564,American English,fricative_categorical_boundary,2018_Jun_11_1135,
,,,,real,LDTSounds/truck.wav,n/a,n/a,truck,None,LDTSounds/,n/a,filler,,,,,14,1,113,2,,,,,,,,,,,,,,,,,,,l,0.854581832886,12,Female,21,59.9721751564,American English,fricative_categorical_boundary,2018_Jun_11_1135,
,,,,real,LDTSounds/rat.wav,n/a,n/a,rat,None,LDTSounds/,n/a,filler,,,,,14,2,114,3,,,,,,,,,,,,,,,,,,,l,0.954785108566,12,Female,21,59.9721751564,American English,fricative_categorical_boundary,2018_Jun_11_1135,
,,,,n/a,LDTSounds/SEATED.wav,2,s,SEATED,None,LDTSounds/,onset,test,,,,,14,3,115,1,,,,,,,,,,,,,,,,,,,l,0.871578931808,12,Female,21,59.9721751564,American English,fricative_categorical_boundary,2018_Jun_11_1135,
,,,,nonce,LDTSounds/himp.wav,n/a,n/a,himp,None,LDTSounds/,n/a,filler,,,,,14,4,116,4,,,,,,,,,,,,,,,,,,,a,0.770882844925,12,Female,21,59.9721751564,American English,fricative_categorical_boundary,2018_Jun_11_1135,
,,,,n/a,LDTSounds/FEMALE.wav,2,?,FEMALE,None,LDTSounds/,onset,test,,,,,14,5,117,0,,,,,,,,,,,,,,,,,,,l,0.851193904877,12,Female,21,59.9721751564,American English,fricative_categorical_boundary,2018_Jun_11_1135,
,,,,nonce,LDTSounds/plone.wav,n/a,n/a,plone,None,LDTSounds/,n/a,filler,,,,,14,6,118,5,,,,,,,,,,,,,,,,,,,a,1.42220306396,12,Female,21,59.9721751564,American English,fricative_categorical_boundary,2018_Jun_11_1135,
,,,,nonce,LDTSounds/weg.wav,n/a,n/a,weg,None,LDTSounds/,n/a,filler,,,,,14,7,119,7,,,,,,,,,,,,,,,,,,,l,0.83452796936,12,Female,21,59.9721751564,American English,fricative_categorical_boundary,2018_Jun_11_1135,
,,,,n/a,LDTSounds/FEMALE.wav,2,?,FEMALE,None,LDTSounds/,onset,test,,,,,15,0,120,0,,,,,,,,,,,,,,,,,,,l,0.887812852859,12,Female,21,59.9721751564,American English,fricative_categorical_boundary,2018_Jun_11_1135,
,,,,n/a,LDTSounds/SEATED.wav,2,s,SEATED,None,LDTSounds/,onset,test,,,,,15,1,121,1,,,,,,,,,,,,,,,,,,,l,0.654475212097,12,Female,21,59.9721751564,American English,fricative_categorical_boundary,2018_Jun_11_1135,
,,,,nonce,LDTSounds/himp.wav,n/a,n/a,himp,None,LDTSounds/,n/a,filler,,,,,15,2,122,4,,,,,,,,,,,,,,,,,,,a,0.90468287468,12,Female,21,59.9721751564,American English,fricative_categorical_boundary,2018_Jun_11_1135,
,,,,real,LDTSounds/truck.wav,n/a,n/a,truck,None,LDTSounds/,n/a,filler,,,,,15,3,123,2,,,,,,,,,,,,,,,,,,,l,0.887909173965,12,Female,21,59.9721751564,American English,fricative_categorical_boundary,2018_Jun_11_1135,
,,,,nonce,LDTSounds/weg.wav,n/a,n/a,weg,None,LDTSounds/,n/a,filler,,,,,15,4,124,7,,,,,,,,,,,,,,,,,,,l,1.07140803337,12,Female,21,59.9721751564,American English,fricative_categorical_boundary,2018_Jun_11_1135,
,,,,nonce,LDTSounds/cratbool.wav,n/a,n/a,cratbool,None,LDTSounds/,n/a,filler,,,,,15,5,125,6,,,,,,,,,,,,,,,,,,,a,0.988028049469,12,Female,21,59.9721751564,American English,fricative_categorical_boundary,2018_Jun_11_1135,
,,,,real,LDTSounds/rat.wav,n/a,n/a,rat,None,LDTSounds/,n/a,filler,,,,,15,6,126,3,,,,,,,,,,,,,,,,,,,l,1.3551030159,12,Female,21,59.9721751564,American English,fricative_categorical_boundary,2018_Jun_11_1135,
,,,,nonce,LDTSounds/plone.wav,n/a,n/a,plone,None,LDTSounds/,n/a,filler,,,,,15,7,127,5,,,,,,,,,,,,,,,,,,,a,0.854384899139,12,Female,21,59.9721751564,American English,fricative_categorical_boundary,2018_Jun_11_1135,
,,,,real,LDTSounds/rat.wav,n/a,n/a,rat,None,LDTSounds/,n/a,filler,,,,,16,0,128,3,,,,,,,,,,,,,,,,,,,l,0.988120079041,12,Female,21,59.9721751564,American English,fricative_categorical_boundary,2018_Jun_11_1135,
,,,,n/a,LDTSounds/SEATED.wav,2,s,SEATED,None,LDTSounds/,onset,test,,,,,16,1,129,1,,,,,,,,,,,,,,,,,,,l,0.654349088669,12,Female,21,59.9721751564,American English,fricative_categorical_boundary,2018_Jun_11_1135,
,,,,real,LDTSounds/truck.wav,n/a,n/a,truck,None,LDTSounds/,n/a,filler,,,,,16,2,130,2,,,,,,,,,,,,,,,,,,,l,1.30506110191,12,Female,21,59.9721751564,American English,fricative_categorical_boundary,2018_Jun_11_1135,
,,,,nonce,LDTSounds/himp.wav,n/a,n/a,himp,None,LDTSounds/,n/a,filler,,,,,16,3,131,4,,,,,,,,,,,,,,,,,,,a,0.737773895264,12,Female,21,59.9721751564,American English,fricative_categorical_boundary,2018_Jun_11_1135,
,,,,nonce,LDTSounds/plone.wav,n/a,n/a,plone,None,LDTSounds/,n/a,filler,,,,,16,4,132,5,,,,,,,,,,,,,,,,,,,a,0.954564094543,12,Female,21,59.9721751564,American English,fricative_categorical_boundary,2018_Jun_11_1135,
,,,,n/a,LDTSounds/FEMALE.wav,2,?,FEMALE,None,LDTSounds/,onset,test,,,,,16,5,133,0,,,,,,,,,,,,,,,,,,,l,0.687669992447,12,Female,21,59.9721751564,American English,fricative_categorical_boundary,2018_Jun_11_1135,
,,,,nonce,LDTSounds/weg.wav,n/a,n/a,weg,None,LDTSounds/,n/a,filler,,,,,16,6,134,7,,,,,,,,,,,,,,,,,,,l,0.854506969452,12,Female,21,59.9721751564,American English,fricative_categorical_boundary,2018_Jun_11_1135,
,,,,nonce,LDTSounds/cratbool.wav,n/a,n/a,cratbool,None,LDTSounds/,n/a,filler,,,,,16,7,135,6,,,,,,,,,,,,,,,,,,,a,0.887793779373,12,Female,21,59.9721751564,American English,fricative_categorical_boundary,2018_Jun_11_1135,
,,,,,,,,,,,,,,,,,,,,,,,,,,,,,,0.0854166666667,-0.224074074074,1,0,0,,,,,,,12,Female,21,59.9721751564,American English,fricative_categorical_boundary,2018_Jun_11_1135,
LowBackContinuum/,LowBackContinuum/NewWord_fbackonset_sbackonset_41.wav,NewWord_fbackonset_sbackonset_,41,,,,,,,,,,,,,,,,,,0,0,0,13,,,,,,,,,,,s,0.453,,,,,12,Female,21,59.9721751564,American English,fricative_categorical_boundary,2018_Jun_11_1135,
LowBackContinuum/,LowBackContinuum/NewWord_fbackonset_sbackonset_21.wav,NewWord_fbackonset_sbackonset_,21,,,,,,,,,,,,,,,,,,0,1,1,8,,,,,,,,,,,s,1.071,,,,,12,Female,21,59.9721751564,American English,fricative_categorical_boundary,2018_Jun_11_1135,
LowBackContinuum/,LowBackContinuum/NewWord_fbackonset_sbackonset_17.wav,NewWord_fbackonset_sbackonset_,17,,,,,,,,,,,,,,,,,,0,2,2,6,,,,,,,,,,,s,1.053,,,,,12,Female,21,59.9721751564,American English,fricative_categorical_boundary,2018_Jun_11_1135,
LowBackContinuum/,LowBackContinuum/NewWord_fbackonset_sbackonset_9.wav,NewWord_fbackonset_sbackonset_,9,,,,,,,,,,,,,,,,,,0,3,3,2,,,,,,,,,,,f,0.42,,,,,12,Female,21,59.9721751564,American English,fricative_categorical_boundary,2018_Jun_11_1135,
LowBackContinuum/,LowBackContinuum/NewWord_fbackonset_sbackonset_11.wav,NewWord_fbackonset_sbackonset_,11,,,,,,,,,,,,,,,,,,0,4,4,3,,,,,,,,,,,f,0.853,,,,,12,Female,21,59.9721751564,American English,fricative_categorical_boundary,2018_Jun_11_1135,
LowBackContinuum/,LowBackContinuum/NewWord_fbackonset_sbackonset_29.wav,NewWord_fbackonset_sbackonset_,29,,,,,,,,,,,,,,,,,,0,5,5,12,,,,,,,,,,,s,0.419,,,,,12,Female,21,59.9721751564,American English,fricative_categorical_boundary,2018_Jun_11_1135,
LowBackContinuum/,LowBackContinuum/NewWord_fbackonset_sbackonset_19.wav,NewWord_fbackonset_sbackonset_,19,,,,,,,,,,,,,,,,,,0,6,6,7,,,,,,,,,,,s,0.937,,,,,12,Female,21,59.9721751564,American English,fricative_categorical_boundary,2018_Jun_11_1135,
LowBackContinuum/,LowBackContinuum/NewWord_fbackonset_sbackonset_23.wav,NewWord_fbackonset_sbackonset_,23,,,,,,,,,,,,,,,,,,0,7,7,9,,,,,,,,,,,s,0.403,,,,,12,Female,21,59.9721751564,American English,fricative_categorical_boundary,2018_Jun_11_1135,
LowBackContinuum/,LowBackContinuum/NewWord_fbackonset_sbackonset_7.wav,NewWord_fbackonset_sbackonset_,7,,,,,,,,,,,,,,,,,,0,8,8,1,,,,,,,,,,,f,0.402,,,,,12,Female,21,59.9721751564,American English,fricative_categorical_boundary,2018_Jun_11_1135,
LowBackContinuum/,LowBackContinuum/NewWord_fbackonset_sbackonset_1.wav,NewWord_fbackonset_sbackonset_,1,,,,,,,,,,,,,,,,,,0,9,9,0,,,,,,,,,,,f,0.987,,,,,12,Female,21,59.9721751564,American English,fricative_categorical_boundary,2018_Jun_11_1135,
LowBackContinuum/,LowBackContinuum/NewWord_fbackonset_sbackonset_15.wav,NewWord_fbackonset_sbackonset_,15,,,,,,,,,,,,,,,,,,0,10,10,5,,,,,,,,,,,f,0.419,,,,,12,Female,21,59.9721751564,American English,fricative_categorical_boundary,2018_Jun_11_1135,
LowBackContinuum/,LowBackContinuum/NewWord_fbackonset_sbackonset_25.wav,NewWord_fbackonset_sbackonset_,25,,,,,,,,,,,,,,,,,,0,11,11,10,,,,,,,,,,,s,0.42,,,,,12,Female,21,59.9721751564,American English,fricative_categorical_boundary,2018_Jun_11_1135,
LowBackContinuum/,LowBackContinuum/NewWord_fbackonset_sbackonset_13.wav,NewWord_fbackonset_sbackonset_,13,,,,,,,,,,,,,,,,,,0,12,12,4,,,,,,,,,,,f,0.92,,,,,12,Female,21,59.9721751564,American English,fricative_categorical_boundary,2018_Jun_11_1135,
LowBackContinuum/,LowBackContinuum/NewWord_fbackonset_sbackonset_27.wav,NewWord_fbackonset_sbackonset_,27,,,,,,,,,,,,,,,,,,0,13,13,11,,,,,,,,,,,s,0.569,,,,,12,Female,21,59.9721751564,American English,fricative_categorical_boundary,2018_Jun_11_1135,
LowBackContinuum/,LowBackContinuum/NewWord_fbackonset_sbackonset_29.wav,NewWord_fbackonset_sbackonset_,29,,,,,,,,,,,,,,,,,,1,0,14,12,,,,,,,,,,,s,0.754,,,,,12,Female,21,59.9721751564,American English,fricative_categorical_boundary,2018_Jun_11_1135,
LowBackContinuum/,LowBackContinuum/NewWord_fbackonset_sbackonset_13.wav,NewWord_fbackonset_sbackonset_,13,,,,,,,,,,,,,,,,,,1,1,15,4,,,,,,,,,,,f,0.486,,,,,12,Female,21,59.9721751564,American English,fricative_categorical_boundary,2018_Jun_11_1135,
LowBackContinuum/,LowBackContinuum/NewWord_fbackonset_sbackonset_23.wav,NewWord_fbackonset_sbackonset_,23,,,,,,,,,,,,,,,,,,1,2,16,9,,,,,,,,,,,f,0.853,,,,,12,Female,21,59.9721751564,American English,fricative_categorical_boundary,2018_Jun_11_1135,
LowBackContinuum/,LowBackContinuum/NewWord_fbackonset_sbackonset_11.wav,NewWord_fbackonset_sbackonset_,11,,,,,,,,,,,,,,,,,,1,3,17,3,,,,,,,,,,,f,0.436,,,,,12,Female,21,59.9721751564,American English,fricative_categorical_boundary,2018_Jun_11_1135,
LowBackContinuum/,LowBackContinuum/NewWord_fbackonset_sbackonset_9.wav,NewWord_fbackonset_sbackonset_,9,,,,,,,,,,,,,,,,,,1,4,18,2,,,,,,,,,,,f,0.737,,,,,12,Female,21,59.9721751564,American English,fricative_categorical_boundary,2018_Jun_11_1135,
LowBackContinuum/,LowBackContinuum/NewWord_fbackonset_sbackonset_1.wav,NewWord_fbackonset_sbackonset_,1,,,,,,,,,,,,,,,,,,1,5,19,0,,,,,,,,,,,f,0.402,,,,,12,Female,21,59.9721751564,American English,fricative_categorical_boundary,2018_Jun_11_1135,
LowBackContinuum/,LowBackContinuum/NewWord_fbackonset_sbackonset_19.wav,NewWord_fbackonset_sbackonset_,19,,,,,,,,,,,,,,,,,,1,6,20,7,,,,,,,,,,,f,0.703,,,,,12,Female,21,59.9721751564,American English,fricative_categorical_boundary,2018_Jun_11_1135,
LowBackContinuum/,LowBackContinuum/NewWord_fbackonset_sbackonset_17.wav,NewWord_fbackonset_sbackonset_,17,,,,,,,,,,,,,,,,,,1,7,21,6,,,,,,,,,,,f,0.502,,,,,12,Female,21,59.9721751564,American English,fricative_categorical_boundary,2018_Jun_11_1135,
LowBackContinuum/,LowBackContinuum/NewWord_fbackonset_sbackonset_41.wav,NewWord_fbackonset_sbackonset_,41,,,,,,,,,,,,,,,,,,1,8,22,13,,,,,,,,,,,s,0.403,,,,,12,Female,21,59.9721751564,American English,fricative_categorical_boundary,2018_Jun_11_1135,
LowBackContinuum/,LowBackContinuum/NewWord_fbackonset_sbackonset_15.wav,NewWord_fbackonset_sbackonset_,15,,,,,,,,,,,,,,,,,,1,9,23,5,,,,,,,,,,,f,0.436,,,,,12,Female,21,59.9721751564,American English,fricative_categorical_boundary,2018_Jun_11_1135,
LowBackContinuum/,LowBackContinuum/NewWord_fbackonset_sbackonset_21.wav,NewWord_fbackonset_sbackonset_,21,,,,,,,,,,,,,,,,,,1,10,24,8,,,,,,,,,,,f,0.419,,,,,12,Female,21,59.9721751564,American English,fricative_categorical_boundary,2018_Jun_11_1135,
LowBackContinuum/,LowBackContinuum/NewWord_fbackonset_sbackonset_7.wav,NewWord_fbackonset_sbackonset_,7,,,,,,,,,,,,,,,,,,1,11,25,1,,,,,,,,,,,f,0.436,,,,,12,Female,21,59.9721751564,American English,fricative_categorical_boundary,2018_Jun_11_1135,
LowBackContinuum/,LowBackContinuum/NewWord_fbackonset_sbackonset_27.wav,NewWord_fbackonset_sbackonset_,27,,,,,,,,,,,,,,,,,,1,12,26,11,,,,,,,,,,,s,0.436,,,,,12,Female,21,59.9721751564,American English,fricative_categorical_boundary,2018_Jun_11_1135,
LowBackContinuum/,LowBackContinuum/NewWord_fbackonset_sbackonset_25.wav,NewWord_fbackonset_sbackonset_,25,,,,,,,,,,,,,,,,,,1,13,27,10,,,,,,,,,,,s,1.038,,,,,12,Female,21,59.9721751564,American English,fricative_categorical_boundary,2018_Jun_11_1135,
LowBackContinuum/,LowBackContinuum/NewWord_fbackonset_sbackonset_9.wav,NewWord_fbackonset_sbackonset_,9,,,,,,,,,,,,,,,,,,2,0,28,2,,,,,,,,,,,f,0.502,,,,,12,Female,21,59.9721751564,American English,fricative_categorical_boundary,2018_Jun_11_1135,
LowBackContinuum/,LowBackContinuum/NewWord_fbackonset_sbackonset_23.wav,NewWord_fbackonset_sbackonset_,23,,,,,,,,,,,,,,,,,,2,1,29,9,,,,,,,,,,,s,0.419,,,,,12,Female,21,59.9721751564,American English,fricative_categorical_boundary,2018_Jun_11_1135,
LowBackContinuum/,LowBackContinuum/NewWord_fbackonset_sbackonset_25.wav,NewWord_fbackonset_sbackonset_,25,,,,,,,,,,,,,,,,,,2,2,30,10,,,,,,,,,,,s,1.137,,,,,12,Female,21,59.9721751564,American English,fricative_categorical_boundary,2018_Jun_11_1135,
LowBackContinuum/,LowBackContinuum/NewWord_fbackonset_sbackonset_1.wav,NewWord_fbackonset_sbackonset_,1,,,,,,,,,,,,,,,,,,2,3,31,0,,,,,,,,,,,f,0.419,,,,,12,Female,21,59.9721751564,American English,fricative_categorical_boundary,2018_Jun_11_1135,
LowBackContinuum/,LowBackContinuum/NewWord_fbackonset_sbackonset_13.wav,NewWord_fbackonset_sbackonset_,13,,,,,,,,,,,,,,,,,,2,4,32,4,,,,,,,,,,,f,0.804,,,,,12,Female,21,59.9721751564,American English,fricative_categorical_boundary,2018_Jun_11_1135,
LowBackContinuum/,LowBackContinuum/NewWord_fbackonset_sbackonset_21.wav,NewWord_fbackonset_sbackonset_,21,,,,,,,,,,,,,,,,,,2,5,33,8,,,,,,,,,,,s,0.405,,,,,12,Female,21,59.9721751564,American English,fricative_categorical_boundary,2018_Jun_11_1135,
LowBackContinuum/,LowBackContinuum/NewWord_fbackonset_sbackonset_19.wav,NewWord_fbackonset_sbackonset_,19,,,,,,,,,,,,,,,,,,2,6,34,7,,,,,,,,,,,f,1.153,,,,,12,Female,21,59.9721751564,American English,fricative_categorical_boundary,2018_Jun_11_1135,
LowBackContinuum/,LowBackContinuum/NewWord_fbackonset_sbackonset_7.wav,NewWord_fbackonset_sbackonset_,7,,,,,,,,,,,,,,,,,,2,7,35,1,,,,,,,,,,,f,0.402,,,,,12,Female,21,59.9721751564,American English,fricative_categorical_boundary,2018_Jun_11_1135,
LowBackContinuum/,LowBackContinuum/NewWord_fbackonset_sbackonset_41.wav,NewWord_fbackonset_sbackonset_,41,,,,,,,,,,,,,,,,,,2,8,36,13,,,,,,,,,,,s,0.82,,,,,12,Female,21,59.9721751564,American English,fricative_categorical_boundary,2018_Jun_11_1135,
LowBackContinuum/,LowBackContinuum/NewWord_fbackonset_sbackonset_15.wav,NewWord_fbackonset_sbackonset_,15,,,,,,,,,,,,,,,,,,2,9,37,5,,,,,,,,,,,f,0.619,,,,,12,Female,21,59.9721751564,American English,fricative_categorical_boundary,2018_Jun_11_1135,
LowBackContinuum/,LowBackContinuum/NewWord_fbackonset_sbackonset_11.wav,NewWord_fbackonset_sbackonset_,11,,,,,,,,,,,,,,,,,,2,10,38,3,,,,,,,,,,,f,1.104,,,,,12,Female,21,59.9721751564,American English,fricative_categorical_boundary,2018_Jun_11_1135,
LowBackContinuum/,LowBackContinuum/NewWord_fbackonset_sbackonset_17.wav,NewWord_fbackonset_sbackonset_,17,,,,,,,,,,,,,,,,,,2,11,39,6,,,,,,,,,,,f,0.419,,,,,12,Female,21,59.9721751564,American English,fricative_categorical_boundary,2018_Jun_11_1135,
LowBackContinuum/,LowBackContinuum/NewWord_fbackonset_sbackonset_29.wav,NewWord_fbackonset_sbackonset_,29,,,,,,,,,,,,,,,,,,2,12,40,12,,,,,,,,,,,s,0.419,,,,,12,Female,21,59.9721751564,American English,fricative_categorical_boundary,2018_Jun_11_1135,
LowBackContinuum/,LowBackContinuum/NewWord_fbackonset_sbackonset_27.wav,NewWord_fbackonset_sbackonset_,27,,,,,,,,,,,,,,,,,,2,13,41,11,,,,,,,,,,,s,0.403,,,,,12,Female,21,59.9721751564,American English,fricative_categorical_boundary,2018_Jun_11_1135,
LowBackContinuum/,LowBackContinuum/NewWord_fbackonset_sbackonset_1.wav,NewWord_fbackonset_sbackonset_,1,,,,,,,,,,,,,,,,,,3,0,42,0,,,,,,,,,,,f,0.419,,,,,12,Female,21,59.9721751564,American English,fricative_categorical_boundary,2018_Jun_11_1135,
LowBackContinuum/,LowBackContinuum/NewWord_fbackonset_sbackonset_9.wav,NewWord_fbackonset_sbackonset_,9,,,,,,,,,,,,,,,,,,3,1,43,2,,,,,,,,,,,f,0.753,,,,,12,Female,21,59.9721751564,American English,fricative_categorical_boundary,2018_Jun_11_1135,
LowBackContinuum/,LowBackContinuum/NewWord_fbackonset_sbackonset_21.wav,NewWord_fbackonset_sbackonset_,21,,,,,,,,,,,,,,,,,,3,2,44,8,,,,,,,,,,,s,0.419,,,,,12,Female,21,59.9721751564,American English,fricative_categorical_boundary,2018_Jun_11_1135,
LowBackContinuum/,LowBackContinuum/NewWord_fbackonset_sbackonset_41.wav,NewWord_fbackonset_sbackonset_,41,,,,,,,,,,,,,,,,,,3,3,45,13,,,,,,,,,,,s,0.77,,,,,12,Female,21,59.9721751564,American English,fricative_categorical_boundary,2018_Jun_11_1135,
LowBackContinuum/,LowBackContinuum/NewWord_fbackonset_sbackonset_11.wav,NewWord_fbackonset_sbackonset_,11,,,,,,,,,,,,,,,,,,3,4,46,3,,,,,,,,,,,f,0.402,,,,,12,Female,21,59.9721751564,American English,fricative_categorical_boundary,2018_Jun_11_1135,
LowBackContinuum/,LowBackContinuum/NewWord_fbackonset_sbackonset_25.wav,NewWord_fbackonset_sbackonset_,25,,,,,,,,,,,,,,,,,,3,5,47,10,,,,,,,,,,,s,0.402,,,,,12,Female,21,59.9721751564,American English,fricative_categorical_boundary,2018_Jun_11_1135,
LowBackContinuum/,LowBackContinuum/NewWord_fbackonset_sbackonset_7.wav,NewWord_fbackonset_sbackonset_,7,,,,,,,,,,,,,,,,,,3,6,48,1,,,,,,,,,,,f,0.436,,,,,12,Female,21,59.9721751564,American English,fricative_categorical_boundary,2018_Jun_11_1135,
LowBackContinuum/,LowBackContinuum/NewWord_fbackonset_sbackonset_23.wav,NewWord_fbackonset_sbackonset_,23,,,,,,,,,,,,,,,,,,3,7,49,9,,,,,,,,,,,s,0.821,,,,,12,Female,21,59.9721751564,American English,fricative_categorical_boundary,2018_Jun_11_1135,
LowBackContinuum/,LowBackContinuum/NewWord_fbackonset_sbackonset_15.wav,NewWord_fbackonset_sbackonset_,15,,,,,,,,,,,,,,,,,,3,8,50,5,,,,,,,,,,,f,0.419,,,,,12,Female,21,59.9721751564,American English,fricative_categorical_boundary,2018_Jun_11_1135,
LowBackContinuum/,LowBackContinuum/NewWord_fbackonset_sbackonset_19.wav,NewWord_fbackonset_sbackonset_,19,,,,,,,,,,,,,,,,,,3,9,51,7,,,,,,,,,,,s,0.436,,,,,12,Female,21,59.9721751564,American English,fricative_categorical_boundary,2018_Jun_11_1135,
LowBackContinuum/,LowBackContinuum/NewWord_fbackonset_sbackonset_13.wav,NewWord_fbackonset_sbackonset_,13,,,,,,,,,,,,,,,,,,3,10,52,4,,,,,,,,,,,f,0.419,,,,,12,Female,21,59.9721751564,American English,fricative_categorical_boundary,2018_Jun_11_1135,
LowBackContinuum/,LowBackContinuum/NewWord_fbackonset_sbackonset_27.wav,NewWord_fbackonset_sbackonset_,27,,,,,,,,,,,,,,,,,,3,11,53,11,,,,,,,,,,,s,0.402,,,,,12,Female,21,59.9721751564,American English,fricative_categorical_boundary,2018_Jun_11_1135,
LowBackContinuum/,LowBackContinuum/NewWord_fbackonset_sbackonset_29.wav,NewWord_fbackonset_sbackonset_,29,,,,,,,,,,,,,,,,,,3,12,54,12,,,,,,,,,,,s,0.452,,,,,12,Female,21,59.9721751564,American English,fricative_categorical_boundary,2018_Jun_11_1135,
LowBackContinuum/,LowBackContinuum/NewWord_fbackonset_sbackonset_17.wav,NewWord_fbackonset_sbackonset_,17,,,,,,,,,,,,,,,,,,3,13,55,6,,,,,,,,,,,s,0.42,,,,,12,Female,21,59.9721751564,American English,fricative_categorical_boundary,2018_Jun_11_1135,

