﻿ChosenStep,Prefix,source,Stimuli,token,type,segment,position,realvsnonce,prefix,address,soundfile,trials.thisRepN,trials.thisTrialN,trials.thisN,trials.thisIndex,trials_2.thisRepN,trials_2.thisTrialN,trials_2.thisN,trials_2.thisIndex,trials_3.thisRepN,trials_3.thisTrialN,trials_3.thisN,trials_3.thisIndex,mouse_5.x,mouse_5.y,mouse_5.leftButton,mouse_5.midButton,mouse_5.rightButton,mouse.x,mouse.y,mouse.leftButton,mouse.midButton,mouse.rightButton,rating.response,rating.rt,key_resp_2.keys,key_resp_2.rt,key_resp_3.keys,key_resp_3.rt,Gender,Age,participant,Native Language,date,expName,psychopyVersion,frameRate,
,,,,,,,,,,,,,,,,,,,,,,,,-0.30520833333333336,-0.22592592592592592,1,0,0,,,,,,,,,,,,male,21,10,American English,2019_Jun_21_1052,fricative_categorical_boundary,3.0.4,59.94122523098473,
,,,,,,,,,,,,,,,,,,,,,,,,,,,,,-0.019791666666666666,-0.5092592592592593,1,0,0,,,,,,,male,21,10,American English,2019_Jun_21_1052,fricative_categorical_boundary,3.0.4,59.94122523098473,
21,NewWord_f_onset_isolate_s_onset_isolate_,Sounds/,Sounds/NewWord_f_onset_isolate_s_onset_isolate_21.wav,,,,,,,,,0,0,0,8,,,,,,,,,,,,,,,,,,,f,3.625,,,,,male,21,10,American English,2019_Jun_21_1052,fricative_categorical_boundary,3.0.4,59.94122523098473,
23,NewWord_f_onset_isolate_s_onset_isolate_,Sounds/,Sounds/NewWord_f_onset_isolate_s_onset_isolate_23.wav,,,,,,,,,0,1,1,9,,,,,,,,,,,,,,,,,,,f,1.054,,,,,male,21,10,American English,2019_Jun_21_1052,fricative_categorical_boundary,3.0.4,59.94122523098473,
11,NewWord_f_onset_isolate_s_onset_isolate_,Sounds/,Sounds/NewWord_f_onset_isolate_s_onset_isolate_11.wav,,,,,,,,,0,2,2,3,,,,,,,,,,,,,,,,,,,f,1.054,,,,,male,21,10,American English,2019_Jun_21_1052,fricative_categorical_boundary,3.0.4,59.94122523098473,
17,NewWord_f_onset_isolate_s_onset_isolate_,Sounds/,Sounds/NewWord_f_onset_isolate_s_onset_isolate_17.wav,,,,,,,,,0,3,3,6,,,,,,,,,,,,,,,,,,,f,0.503,,,,,male,21,10,American English,2019_Jun_21_1052,fricative_categorical_boundary,3.0.4,59.94122523098473,
7,NewWord_f_onset_isolate_s_onset_isolate_,Sounds/,Sounds/NewWord_f_onset_isolate_s_onset_isolate_7.wav,,,,,,,,,0,4,4,1,,,,,,,,,,,,,,,,,,,f,1.354,,,,,male,21,10,American English,2019_Jun_21_1052,fricative_categorical_boundary,3.0.4,59.94122523098473,
29,NewWord_f_onset_isolate_s_onset_isolate_,Sounds/,Sounds/NewWord_f_onset_isolate_s_onset_isolate_29.wav,,,,,,,,,0,5,5,12,,,,,,,,,,,,,,,,,,,s,1.172,,,,,male,21,10,American English,2019_Jun_21_1052,fricative_categorical_boundary,3.0.4,59.94122523098473,
13,NewWord_f_onset_isolate_s_onset_isolate_,Sounds/,Sounds/NewWord_f_onset_isolate_s_onset_isolate_13.wav,,,,,,,,,0,6,6,4,,,,,,,,,,,,,,,,,,,f,0.954,,,,,male,21,10,American English,2019_Jun_21_1052,fricative_categorical_boundary,3.0.4,59.94122523098473,
1,NewWord_f_onset_isolate_s_onset_isolate_,Sounds/,Sounds/NewWord_f_onset_isolate_s_onset_isolate_1.wav,,,,,,,,,0,7,7,0,,,,,,,,,,,,,,,,,,,f,0.453,,,,,male,21,10,American English,2019_Jun_21_1052,fricative_categorical_boundary,3.0.4,59.94122523098473,
25,NewWord_f_onset_isolate_s_onset_isolate_,Sounds/,Sounds/NewWord_f_onset_isolate_s_onset_isolate_25.wav,,,,,,,,,0,8,8,10,,,,,,,,,,,,,,,,,,,s,1.187,,,,,male,21,10,American English,2019_Jun_21_1052,fricative_categorical_boundary,3.0.4,59.94122523098473,
15,NewWord_f_onset_isolate_s_onset_isolate_,Sounds/,Sounds/NewWord_f_onset_isolate_s_onset_isolate_15.wav,,,,,,,,,0,9,9,5,,,,,,,,,,,,,,,,,,,f,1.07,,,,,male,21,10,American English,2019_Jun_21_1052,fricative_categorical_boundary,3.0.4,59.94122523098473,
9,NewWord_f_onset_isolate_s_onset_isolate_,Sounds/,Sounds/NewWord_f_onset_isolate_s_onset_isolate_9.wav,,,,,,,,,0,10,10,2,,,,,,,,,,,,,,,,,,,f,0.754,,,,,male,21,10,American English,2019_Jun_21_1052,fricative_categorical_boundary,3.0.4,59.94122523098473,
19,NewWord_f_onset_isolate_s_onset_isolate_,Sounds/,Sounds/NewWord_f_onset_isolate_s_onset_isolate_19.wav,,,,,,,,,0,11,11,7,,,,,,,,,,,,,,,,,,,f,0.837,,,,,male,21,10,American English,2019_Jun_21_1052,fricative_categorical_boundary,3.0.4,59.94122523098473,
41,NewWord_f_onset_isolate_s_onset_isolate_,Sounds/,Sounds/NewWord_f_onset_isolate_s_onset_isolate_41.wav,,,,,,,,,0,12,12,13,,,,,,,,,,,,,,,,,,,s,0.587,,,,,male,21,10,American English,2019_Jun_21_1052,fricative_categorical_boundary,3.0.4,59.94122523098473,
27,NewWord_f_onset_isolate_s_onset_isolate_,Sounds/,Sounds/NewWord_f_onset_isolate_s_onset_isolate_27.wav,,,,,,,,,0,13,13,11,,,,,,,,,,,,,,,,,,,s,0.653,,,,,male,21,10,American English,2019_Jun_21_1052,fricative_categorical_boundary,3.0.4,59.94122523098473,
29,NewWord_f_onset_isolate_s_onset_isolate_,Sounds/,Sounds/NewWord_f_onset_isolate_s_onset_isolate_29.wav,,,,,,,,,1,0,14,12,,,,,,,,,,,,,,,,,,,s,0.636,,,,,male,21,10,American English,2019_Jun_21_1052,fricative_categorical_boundary,3.0.4,59.94122523098473,
27,NewWord_f_onset_isolate_s_onset_isolate_,Sounds/,Sounds/NewWord_f_onset_isolate_s_onset_isolate_27.wav,,,,,,,,,1,1,15,11,,,,,,,,,,,,,,,,,,,s,1.021,,,,,male,21,10,American English,2019_Jun_21_1052,fricative_categorical_boundary,3.0.4,59.94122523098473,
9,NewWord_f_onset_isolate_s_onset_isolate_,Sounds/,Sounds/NewWord_f_onset_isolate_s_onset_isolate_9.wav,,,,,,,,,1,2,16,2,,,,,,,,,,,,,,,,,,,f,0.837,,,,,male,21,10,American English,2019_Jun_21_1052,fricative_categorical_boundary,3.0.4,59.94122523098473,
21,NewWord_f_onset_isolate_s_onset_isolate_,Sounds/,Sounds/NewWord_f_onset_isolate_s_onset_isolate_21.wav,,,,,,,,,1,3,17,8,,,,,,,,,,,,,,,,,,,f,0.687,,,,,male,21,10,American English,2019_Jun_21_1052,fricative_categorical_boundary,3.0.4,59.94122523098473,
23,NewWord_f_onset_isolate_s_onset_isolate_,Sounds/,Sounds/NewWord_f_onset_isolate_s_onset_isolate_23.wav,,,,,,,,,1,4,18,9,,,,,,,,,,,,,,,,,,,s,1.538,,,,,male,21,10,American English,2019_Jun_21_1052,fricative_categorical_boundary,3.0.4,59.94122523098473,
19,NewWord_f_onset_isolate_s_onset_isolate_,Sounds/,Sounds/NewWord_f_onset_isolate_s_onset_isolate_19.wav,,,,,,,,,1,5,19,7,,,,,,,,,,,,,,,,,,,f,1.471,,,,,male,21,10,American English,2019_Jun_21_1052,fricative_categorical_boundary,3.0.4,59.94122523098473,
11,NewWord_f_onset_isolate_s_onset_isolate_,Sounds/,Sounds/NewWord_f_onset_isolate_s_onset_isolate_11.wav,,,,,,,,,1,6,20,3,,,,,,,,,,,,,,,,,,,f,0.419,,,,,male,21,10,American English,2019_Jun_21_1052,fricative_categorical_boundary,3.0.4,59.94122523098473,
17,NewWord_f_onset_isolate_s_onset_isolate_,Sounds/,Sounds/NewWord_f_onset_isolate_s_onset_isolate_17.wav,,,,,,,,,1,7,21,6,,,,,,,,,,,,,,,,,,,f,0.587,,,,,male,21,10,American English,2019_Jun_21_1052,fricative_categorical_boundary,3.0.4,59.94122523098473,
25,NewWord_f_onset_isolate_s_onset_isolate_,Sounds/,Sounds/NewWord_f_onset_isolate_s_onset_isolate_25.wav,,,,,,,,,1,8,22,10,,,,,,,,,,,,,,,,,,,s,0.636,,,,,male,21,10,American English,2019_Jun_21_1052,fricative_categorical_boundary,3.0.4,59.94122523098473,
13,NewWord_f_onset_isolate_s_onset_isolate_,Sounds/,Sounds/NewWord_f_onset_isolate_s_onset_isolate_13.wav,,,,,,,,,1,9,23,4,,,,,,,,,,,,,,,,,,,f,0.82,,,,,male,21,10,American English,2019_Jun_21_1052,fricative_categorical_boundary,3.0.4,59.94122523098473,
7,NewWord_f_onset_isolate_s_onset_isolate_,Sounds/,Sounds/NewWord_f_onset_isolate_s_onset_isolate_7.wav,,,,,,,,,1,10,24,1,,,,,,,,,,,,,,,,,,,f,0.587,,,,,male,21,10,American English,2019_Jun_21_1052,fricative_categorical_boundary,3.0.4,59.94122523098473,
41,NewWord_f_onset_isolate_s_onset_isolate_,Sounds/,Sounds/NewWord_f_onset_isolate_s_onset_isolate_41.wav,,,,,,,,,1,11,25,13,,,,,,,,,,,,,,,,,,,s,0.487,,,,,male,21,10,American English,2019_Jun_21_1052,fricative_categorical_boundary,3.0.4,59.94122523098473,
1,NewWord_f_onset_isolate_s_onset_isolate_,Sounds/,Sounds/NewWord_f_onset_isolate_s_onset_isolate_1.wav,,,,,,,,,1,12,26,0,,,,,,,,,,,,,,,,,,,f,1.037,,,,,male,21,10,American English,2019_Jun_21_1052,fricative_categorical_boundary,3.0.4,59.94122523098473,
15,NewWord_f_onset_isolate_s_onset_isolate_,Sounds/,Sounds/NewWord_f_onset_isolate_s_onset_isolate_15.wav,,,,,,,,,1,13,27,5,,,,,,,,,,,,,,,,,,,f,0.57,,,,,male,21,10,American English,2019_Jun_21_1052,fricative_categorical_boundary,3.0.4,59.94122523098473,
1,NewWord_f_onset_isolate_s_onset_isolate_,Sounds/,Sounds/NewWord_f_onset_isolate_s_onset_isolate_1.wav,,,,,,,,,2,0,28,0,,,,,,,,,,,,,,,,,,,f,0.403,,,,,male,21,10,American English,2019_Jun_21_1052,fricative_categorical_boundary,3.0.4,59.94122523098473,
19,NewWord_f_onset_isolate_s_onset_isolate_,Sounds/,Sounds/NewWord_f_onset_isolate_s_onset_isolate_19.wav,,,,,,,,,2,1,29,7,,,,,,,,,,,,,,,,,,,s,0.536,,,,,male,21,10,American English,2019_Jun_21_1052,fricative_categorical_boundary,3.0.4,59.94122523098473,
7,NewWord_f_onset_isolate_s_onset_isolate_,Sounds/,Sounds/NewWord_f_onset_isolate_s_onset_isolate_7.wav,,,,,,,,,2,2,30,1,,,,,,,,,,,,,,,,,,,f,0.521,,,,,male,21,10,American English,2019_Jun_21_1052,fricative_categorical_boundary,3.0.4,59.94122523098473,
41,NewWord_f_onset_isolate_s_onset_isolate_,Sounds/,Sounds/NewWord_f_onset_isolate_s_onset_isolate_41.wav,,,,,,,,,2,3,31,13,,,,,,,,,,,,,,,,,,,s,0.537,,,,,male,21,10,American English,2019_Jun_21_1052,fricative_categorical_boundary,3.0.4,59.94122523098473,
11,NewWord_f_onset_isolate_s_onset_isolate_,Sounds/,Sounds/NewWord_f_onset_isolate_s_onset_isolate_11.wav,,,,,,,,,2,4,32,3,,,,,,,,,,,,,,,,,,,f,0.571,,,,,male,21,10,American English,2019_Jun_21_1052,fricative_categorical_boundary,3.0.4,59.94122523098473,
17,NewWord_f_onset_isolate_s_onset_isolate_,Sounds/,Sounds/NewWord_f_onset_isolate_s_onset_isolate_17.wav,,,,,,,,,2,5,33,6,,,,,,,,,,,,,,,,,,,f,0.621,,,,,male,21,10,American English,2019_Jun_21_1052,fricative_categorical_boundary,3.0.4,59.94122523098473,
25,NewWord_f_onset_isolate_s_onset_isolate_,Sounds/,Sounds/NewWord_f_onset_isolate_s_onset_isolate_25.wav,,,,,,,,,2,6,34,10,,,,,,,,,,,,,,,,,,,s,0.569,,,,,male,21,10,American English,2019_Jun_21_1052,fricative_categorical_boundary,3.0.4,59.94122523098473,
9,NewWord_f_onset_isolate_s_onset_isolate_,Sounds/,Sounds/NewWord_f_onset_isolate_s_onset_isolate_9.wav,,,,,,,,,2,7,35,2,,,,,,,,,,,,,,,,,,,f,0.754,,,,,male,21,10,American English,2019_Jun_21_1052,fricative_categorical_boundary,3.0.4,59.94122523098473,
15,NewWord_f_onset_isolate_s_onset_isolate_,Sounds/,Sounds/NewWord_f_onset_isolate_s_onset_isolate_15.wav,,,,,,,,,2,8,36,5,,,,,,,,,,,,,,,,,,,f,0.404,,,,,male,21,10,American English,2019_Jun_21_1052,fricative_categorical_boundary,3.0.4,59.94122523098473,
13,NewWord_f_onset_isolate_s_onset_isolate_,Sounds/,Sounds/NewWord_f_onset_isolate_s_onset_isolate_13.wav,,,,,,,,,2,9,37,4,,,,,,,,,,,,,,,,,,,f,2.055,,,,,male,21,10,American English,2019_Jun_21_1052,fricative_categorical_boundary,3.0.4,59.94122523098473,
23,NewWord_f_onset_isolate_s_onset_isolate_,Sounds/,Sounds/NewWord_f_onset_isolate_s_onset_isolate_23.wav,,,,,,,,,2,10,38,9,,,,,,,,,,,,,,,,,,,s,1.17,,,,,male,21,10,American English,2019_Jun_21_1052,fricative_categorical_boundary,3.0.4,59.94122523098473,
27,NewWord_f_onset_isolate_s_onset_isolate_,Sounds/,Sounds/NewWord_f_onset_isolate_s_onset_isolate_27.wav,,,,,,,,,2,11,39,11,,,,,,,,,,,,,,,,,,,s,0.654,,,,,male,21,10,American English,2019_Jun_21_1052,fricative_categorical_boundary,3.0.4,59.94122523098473,
29,NewWord_f_onset_isolate_s_onset_isolate_,Sounds/,Sounds/NewWord_f_onset_isolate_s_onset_isolate_29.wav,,,,,,,,,2,12,40,12,,,,,,,,,,,,,,,,,,,s,0.403,,,,,male,21,10,American English,2019_Jun_21_1052,fricative_categorical_boundary,3.0.4,59.94122523098473,
21,NewWord_f_onset_isolate_s_onset_isolate_,Sounds/,Sounds/NewWord_f_onset_isolate_s_onset_isolate_21.wav,,,,,,,,,2,13,41,8,,,,,,,,,,,,,,,,,,,s,0.47,,,,,male,21,10,American English,2019_Jun_21_1052,fricative_categorical_boundary,3.0.4,59.94122523098473,
29,NewWord_f_onset_isolate_s_onset_isolate_,Sounds/,Sounds/NewWord_f_onset_isolate_s_onset_isolate_29.wav,,,,,,,,,3,0,42,12,,,,,,,,,,,,,,,,,,,s,1.038,,,,,male,21,10,American English,2019_Jun_21_1052,fricative_categorical_boundary,3.0.4,59.94122523098473,
27,NewWord_f_onset_isolate_s_onset_isolate_,Sounds/,Sounds/NewWord_f_onset_isolate_s_onset_isolate_27.wav,,,,,,,,,3,1,43,11,,,,,,,,,,,,,,,,,,,s,0.588,,,,,male,21,10,American English,2019_Jun_21_1052,fricative_categorical_boundary,3.0.4,59.94122523098473,
21,NewWord_f_onset_isolate_s_onset_isolate_,Sounds/,Sounds/NewWord_f_onset_isolate_s_onset_isolate_21.wav,,,,,,,,,3,2,44,8,,,,,,,,,,,,,,,,,,,s,0.419,,,,,male,21,10,American English,2019_Jun_21_1052,fricative_categorical_boundary,3.0.4,59.94122523098473,
7,NewWord_f_onset_isolate_s_onset_isolate_,Sounds/,Sounds/NewWord_f_onset_isolate_s_onset_isolate_7.wav,,,,,,,,,3,3,45,1,,,,,,,,,,,,,,,,,,,f,0.653,,,,,male,21,10,American English,2019_Jun_21_1052,fricative_categorical_boundary,3.0.4,59.94122523098473,
25,NewWord_f_onset_isolate_s_onset_isolate_,Sounds/,Sounds/NewWord_f_onset_isolate_s_onset_isolate_25.wav,,,,,,,,,3,4,46,10,,,,,,,,,,,,,,,,,,,s,0.669,,,,,male,21,10,American English,2019_Jun_21_1052,fricative_categorical_boundary,3.0.4,59.94122523098473,
1,NewWord_f_onset_isolate_s_onset_isolate_,Sounds/,Sounds/NewWord_f_onset_isolate_s_onset_isolate_1.wav,,,,,,,,,3,5,47,0,,,,,,,,,,,,,,,,,,,f,0.787,,,,,male,21,10,American English,2019_Jun_21_1052,fricative_categorical_boundary,3.0.4,59.94122523098473,
11,NewWord_f_onset_isolate_s_onset_isolate_,Sounds/,Sounds/NewWord_f_onset_isolate_s_onset_isolate_11.wav,,,,,,,,,3,6,48,3,,,,,,,,,,,,,,,,,,,f,0.47,,,,,male,21,10,American English,2019_Jun_21_1052,fricative_categorical_boundary,3.0.4,59.94122523098473,
13,NewWord_f_onset_isolate_s_onset_isolate_,Sounds/,Sounds/NewWord_f_onset_isolate_s_onset_isolate_13.wav,,,,,,,,,3,7,49,4,,,,,,,,,,,,,,,,,,,f,0.403,,,,,male,21,10,American English,2019_Jun_21_1052,fricative_categorical_boundary,3.0.4,59.94122523098473,
15,NewWord_f_onset_isolate_s_onset_isolate_,Sounds/,Sounds/NewWord_f_onset_isolate_s_onset_isolate_15.wav,,,,,,,,,3,8,50,5,,,,,,,,,,,,,,,,,,,f,0.419,,,,,male,21,10,American English,2019_Jun_21_1052,fricative_categorical_boundary,3.0.4,59.94122523098473,
41,NewWord_f_onset_isolate_s_onset_isolate_,Sounds/,Sounds/NewWord_f_onset_isolate_s_onset_isolate_41.wav,,,,,,,,,3,9,51,13,,,,,,,,,,,,,,,,,,,s,0.519,,,,,male,21,10,American English,2019_Jun_21_1052,fricative_categorical_boundary,3.0.4,59.94122523098473,
19,NewWord_f_onset_isolate_s_onset_isolate_,Sounds/,Sounds/NewWord_f_onset_isolate_s_onset_isolate_19.wav,,,,,,,,,3,10,52,7,,,,,,,,,,,,,,,,,,,f,0.686,,,,,male,21,10,American English,2019_Jun_21_1052,fricative_categorical_boundary,3.0.4,59.94122523098473,
23,NewWord_f_onset_isolate_s_onset_isolate_,Sounds/,Sounds/NewWord_f_onset_isolate_s_onset_isolate_23.wav,,,,,,,,,3,11,53,9,,,,,,,,,,,,,,,,,,,f,0.621,,,,,male,21,10,American English,2019_Jun_21_1052,fricative_categorical_boundary,3.0.4,59.94122523098473,
17,NewWord_f_onset_isolate_s_onset_isolate_,Sounds/,Sounds/NewWord_f_onset_isolate_s_onset_isolate_17.wav,,,,,,,,,3,12,54,6,,,,,,,,,,,,,,,,,,,f,0.704,,,,,male,21,10,American English,2019_Jun_21_1052,fricative_categorical_boundary,3.0.4,59.94122523098473,
9,NewWord_f_onset_isolate_s_onset_isolate_,Sounds/,Sounds/NewWord_f_onset_isolate_s_onset_isolate_9.wav,,,,,,,,,3,13,55,2,,,,,,,,,,,,,,,,,,,f,1.972,,,,,male,21,10,American English,2019_Jun_21_1052,fricative_categorical_boundary,3.0.4,59.94122523098473,
,,,,,,,,,,,,,,,,,,,,,,,,,,,,,,,,,,,,space,3.5517882099993585,,,male,21,10,American English,2019_Jun_21_1052,fricative_categorical_boundary,3.0.4,59.94122523098473,
,,,,maker,filler,None,None,real,None,LDTSounds/,LDTSounds/maker.wav,,,,,0,0,0,64,,,,,,,,,,,,,,,,,,,l,3.4738446320006915,male,21,10,American English,2019_Jun_21_1052,fricative_categorical_boundary,3.0.4,59.94122523098473,
,,,,bindilamok,filler,None,None,nonce,None,LDTSounds/,LDTSounds/bindilamok.wav,,,,,0,1,1,148,,,,,,,,,,,,,,,,,,,a,2.2050661369994486,male,21,10,American English,2019_Jun_21_1052,fricative_categorical_boundary,3.0.4,59.94122523098473,
,,,,fig,test,f,onset,None,None,LDTSounds/,LDTSounds/fig.wav,,,,,0,2,2,13,,,,,,,,,,,,,,,,,,,l,1.336875061999308,male,21,10,American English,2019_Jun_21_1052,fricative_categorical_boundary,3.0.4,59.94122523098473,
,,,,hoong,filler,None,None,nonce,None,LDTSounds/,LDTSounds/hoong.wav,,,,,0,3,3,81,,,,,,,,,,,,,,,,,,,a,1.2857297470000049,male,21,10,American English,2019_Jun_21_1052,fricative_categorical_boundary,3.0.4,59.94122523098473,
,,,,blegondanit,filler,None,None,nonce,None,LDTSounds/,LDTSounds/blegondanit.wav,,,,,0,4,4,144,,,,,,,,,,,,,,,,,,,a,1.5380046099999163,male,21,10,American English,2019_Jun_21_1052,fricative_categorical_boundary,3.0.4,59.94122523098473,
,,,,liquor,filler,None,None,real,None,LDTSounds/,LDTSounds/liquor.wav,,,,,0,5,5,63,,,,,,,,,,,,,,,,,,,l,0.8865418179993867,male,21,10,American English,2019_Jun_21_1052,fricative_categorical_boundary,3.0.4,59.94122523098473,
,,,,lump,filler,None,None,real,None,LDTSounds/,LDTSounds/lump.wav,,,,,0,6,6,54,,,,,,,,,,,,,,,,,,,l,1.4709691429998202,male,21,10,American English,2019_Jun_21_1052,fricative_categorical_boundary,3.0.4,59.94122523098473,
,,,,radoobling,filler,None,None,nonce,None,LDTSounds/,LDTSounds/radoobling.wav,,,,,0,7,7,142,,,,,,,,,,,,,,,,,,,a,1.1202615700003662,male,21,10,American English,2019_Jun_21_1052,fricative_categorical_boundary,3.0.4,59.94122523098473,
,,,,loot,filler,None,None,real,None,LDTSounds/,LDTSounds/loot.wav,,,,,0,8,8,37,,,,,,,,,,,,,,,,,,,l,1.203442609999911,male,21,10,American English,2019_Jun_21_1052,fricative_categorical_boundary,3.0.4,59.94122523098473,
,,,,geese,test,s,coda,None,None,LDTSounds/,LDTSounds/geese.wav,,,,,0,9,9,23,,,,,,,,,,,,,,,,,,,l,1.0871951339995576,male,21,10,American English,2019_Jun_21_1052,fricative_categorical_boundary,3.0.4,59.94122523098473,
,,,,fudge,test,f,coda,None,None,LDTSounds/,LDTSounds/fudge.wav,,,,,0,10,10,8,,,,,,,,,,,,,,,,,,,l,0.8527703920008207,male,21,10,American English,2019_Jun_21_1052,fricative_categorical_boundary,3.0.4,59.94122523098473,
,,,,felt,test,f,onset,None,None,LDTSounds/,LDTSounds/felt.wav,,,,,0,11,11,9,,,,,,,,,,,,,,,,,,,l,0.8033181299997523,male,21,10,American English,2019_Jun_21_1052,fricative_categorical_boundary,3.0.4,59.94122523098473,
,,,,twek,filler,None,None,nonce,None,LDTSounds/,LDTSounds/twek.wav,,,,,0,12,12,80,,,,,,,,,,,,,,,,,,,a,1.1347721709989855,male,21,10,American English,2019_Jun_21_1052,fricative_categorical_boundary,3.0.4,59.94122523098473,
,,,,libmadoop,filler,None,None,nonce,None,LDTSounds/,LDTSounds/libmadoop.wav,,,,,0,13,13,117,,,,,,,,,,,,,,,,,,,a,1.1031812600012927,male,21,10,American English,2019_Jun_21_1052,fricative_categorical_boundary,3.0.4,59.94122523098473,
,,,,taklibd,filler,None,None,nonce,None,LDTSounds/,LDTSounds/taklibd.wav,,,,,0,14,14,101,,,,,,,,,,,,,,,,,,,a,1.1867551790001016,male,21,10,American English,2019_Jun_21_1052,fricative_categorical_boundary,3.0.4,59.94122523098473,
,,,,typing,filler,None,None,real,None,LDTSounds/,LDTSounds/typing.wav,,,,,0,15,15,70,,,,,,,,,,,,,,,,,,,l,1.1532215100014582,male,21,10,American English,2019_Jun_21_1052,fricative_categorical_boundary,3.0.4,59.94122523098473,
,,,,kililitbi,filler,None,None,nonce,None,LDTSounds/,LDTSounds/kililitbi.wav,,,,,0,16,16,145,,,,,,,,,,,,,,,,,,,a,1.152706203998605,male,21,10,American English,2019_Jun_21_1052,fricative_categorical_boundary,3.0.4,59.94122523098473,
,,,,building,filler,None,None,real,None,LDTSounds/,LDTSounds/building.wav,,,,,0,17,17,55,,,,,,,,,,,,,,,,,,,l,1.1173800779997691,male,21,10,American English,2019_Jun_21_1052,fricative_categorical_boundary,3.0.4,59.94122523098473,
,,,,cough,test,f,coda,None,None,LDTSounds/,LDTSounds/cough.wav,,,,,0,18,18,7,,,,,,,,,,,,,,,,,,,l,1.0871338239994657,male,21,10,American English,2019_Jun_21_1052,fricative_categorical_boundary,3.0.4,59.94122523098473,
,,,,food,test,f,onset,None,None,LDTSounds/,LDTSounds/food.wav,,,,,0,19,19,10,,,,,,,,,,,,,,,,,,,l,0.7864925589983613,male,21,10,American English,2019_Jun_21_1052,fricative_categorical_boundary,3.0.4,59.94122523098473,
,,,,yoog,filler,None,None,nonce,None,LDTSounds/,LDTSounds/yoog.wav,,,,,0,20,20,90,,,,,,,,,,,,,,,,,,,a,1.5379642979987693,male,21,10,American English,2019_Jun_21_1052,fricative_categorical_boundary,3.0.4,59.94122523098473,
,,,,poginito,filler,None,None,nonce,None,LDTSounds/,LDTSounds/poginito.wav,,,,,0,21,21,139,,,,,,,,,,,,,,,,,,,a,1.2540145689999918,male,21,10,American English,2019_Jun_21_1052,fricative_categorical_boundary,3.0.4,59.94122523098473,
,,,,whiff,test,f,coda,None,None,LDTSounds/,LDTSounds/whiff.wav,,,,,0,22,22,5,,,,,,,,,,,,,,,,,,,l,1.3199203830008628,male,21,10,American English,2019_Jun_21_1052,fricative_categorical_boundary,3.0.4,59.94122523098473,
,,,,metroy,filler,None,None,nonce,None,LDTSounds/,LDTSounds/metroy.wav,,,,,0,23,23,100,,,,,,,,,,,,,,,,,,,a,1.170591639000122,male,21,10,American English,2019_Jun_21_1052,fricative_categorical_boundary,3.0.4,59.94122523098473,
,,,,hundapegnort,filler,None,None,nonce,None,LDTSounds/,LDTSounds/hundapegnort.wav,,,,,0,24,24,141,,,,,,,,,,,,,,,,,,,a,1.1703478769995854,male,21,10,American English,2019_Jun_21_1052,fricative_categorical_boundary,3.0.4,59.94122523098473,
,,,,habalipdee,filler,None,None,nonce,None,LDTSounds/,LDTSounds/habalipdee.wav,,,,,0,25,25,140,,,,,,,,,,,,,,,,,,,a,1.1209172409999155,male,21,10,American English,2019_Jun_21_1052,fricative_categorical_boundary,3.0.4,59.94122523098473,
,,,,midaran,filler,None,None,nonce,None,LDTSounds/,LDTSounds/midaran.wav,,,,,0,26,26,119,,,,,,,,,,,,,,,,,,,a,1.0040361340015806,male,21,10,American English,2019_Jun_21_1052,fricative_categorical_boundary,3.0.4,59.94122523098473,
,,,,kinudiplo,filler,None,None,nonce,None,LDTSounds/,LDTSounds/kinudiplo.wav,,,,,0,27,27,149,,,,,,,,,,,,,,,,,,,a,1.1533535189992108,male,21,10,American English,2019_Jun_21_1052,fricative_categorical_boundary,3.0.4,59.94122523098473,
,,,,boondatribnok,filler,None,None,nonce,None,LDTSounds/,LDTSounds/boondatribnok.wav,,,,,0,28,28,137,,,,,,,,,,,,,,,,,,,a,1.3537325369998143,male,21,10,American English,2019_Jun_21_1052,fricative_categorical_boundary,3.0.4,59.94122523098473,
,,,,himnapile,filler,None,None,nonce,None,LDTSounds/,LDTSounds/himnapile.wav,,,,,0,29,29,128,,,,,,,,,,,,,,,,,,,a,0.8697352589988441,male,21,10,American English,2019_Jun_21_1052,fricative_categorical_boundary,3.0.4,59.94122523098473,
,,,,hapekt,filler,None,None,nonce,None,LDTSounds/,LDTSounds/hapekt.wav,,,,,0,30,30,116,,,,,,,,,,,,,,,,,,,a,1.2531629249988328,male,21,10,American English,2019_Jun_21_1052,fricative_categorical_boundary,3.0.4,59.94122523098473,
,,,,cliff,test,f,coda,None,None,LDTSounds/,LDTSounds/cliff.wav,,,,,0,31,31,2,,,,,,,,,,,,,,,,,,,l,0.9525362040003529,male,21,10,American English,2019_Jun_21_1052,fricative_categorical_boundary,3.0.4,59.94122523098473,
,,,,baking,filler,None,None,real,None,LDTSounds/,LDTSounds/baking.wav,,,,,0,32,32,69,,,,,,,,,,,,,,,,,,,l,0.852501568999287,male,21,10,American English,2019_Jun_21_1052,fricative_categorical_boundary,3.0.4,59.94122523098473,
,,,,yilk,filler,None,None,nonce,None,LDTSounds/,LDTSounds/yilk.wav,,,,,0,33,33,82,,,,,,,,,,,,,,,,,,,l,0.8868894970000838,male,21,10,American English,2019_Jun_21_1052,fricative_categorical_boundary,3.0.4,59.94122523098473,
,,,,ligbee,filler,None,None,nonce,None,LDTSounds/,LDTSounds/ligbee.wav,,,,,0,34,34,95,,,,,,,,,,,,,,,,,,,a,0.8863612519999151,male,21,10,American English,2019_Jun_21_1052,fricative_categorical_boundary,3.0.4,59.94122523098473,
,,,,ratwell,filler,None,None,nonce,None,LDTSounds/,LDTSounds/ratwell.wav,,,,,0,35,35,108,,,,,,,,,,,,,,,,,,,a,1.0705513759985479,male,21,10,American English,2019_Jun_21_1052,fricative_categorical_boundary,3.0.4,59.94122523098473,
,,,,boss,test,s,coda,None,None,LDTSounds/,LDTSounds/boss.wav,,,,,0,36,36,24,,,,,,,,,,,,,,,,,,,l,1.103226289000304,male,21,10,American English,2019_Jun_21_1052,fricative_categorical_boundary,3.0.4,59.94122523098473,
,,,,trim,filler,None,None,real,None,LDTSounds/,LDTSounds/trim.wav,,,,,0,37,37,39,,,,,,,,,,,,,,,,,,,l,0.920473932999812,male,21,10,American English,2019_Jun_21_1052,fricative_categorical_boundary,3.0.4,59.94122523098473,
,,,,poof,test,f,coda,None,None,LDTSounds/,LDTSounds/poof.wav,,,,,0,38,38,4,,,,,,,,,,,,,,,,,,,l,1.0692585929991765,male,21,10,American English,2019_Jun_21_1052,fricative_categorical_boundary,3.0.4,59.94122523098473,
,,,,fool,test,f,onset,None,None,LDTSounds/,LDTSounds/fool.wav,,,,,0,39,39,15,,,,,,,,,,,,,,,,,,,l,0.886739707999368,male,21,10,American English,2019_Jun_21_1052,fricative_categorical_boundary,3.0.4,59.94122523098473,
,,,,giblo,filler,None,None,nonce,None,LDTSounds/,LDTSounds/giblo.wav,,,,,0,40,40,93,,,,,,,,,,,,,,,,,,,a,2.021573580999757,male,21,10,American English,2019_Jun_21_1052,fricative_categorical_boundary,3.0.4,59.94122523098473,
,,,,fish,test,f,onset,None,None,LDTSounds/,LDTSounds/fish.wav,,,,,0,41,41,14,,,,,,,,,,,,,,,,,,,l,0.9362767619986698,male,21,10,American English,2019_Jun_21_1052,fricative_categorical_boundary,3.0.4,59.94122523098473,
,,,,himp,filler,None,None,nonce,None,LDTSounds/,LDTSounds/himp.wav,,,,,0,42,42,75,,,,,,,,,,,,,,,,,,,a,1.370982616999754,male,21,10,American English,2019_Jun_21_1052,fricative_categorical_boundary,3.0.4,59.94122523098473,
,,,,doonagort,filler,None,None,nonce,None,LDTSounds/,LDTSounds/doonagort.wav,,,,,0,43,43,127,,,,,,,,,,,,,,,,,,,a,0.9374339870009862,male,21,10,American English,2019_Jun_21_1052,fricative_categorical_boundary,3.0.4,59.94122523098473,
,,,,say,test,s,onset,None,None,LDTSounds/,LDTSounds/say.wav,,,,,0,44,44,29,,,,,,,,,,,,,,,,,,,l,1.253931475999707,male,21,10,American English,2019_Jun_21_1052,fricative_categorical_boundary,3.0.4,59.94122523098473,
,,,,kabalingno,filler,None,None,nonce,None,LDTSounds/,LDTSounds/kabalingno.wav,,,,,0,45,45,138,,,,,,,,,,,,,,,,,,,a,1.0704401939983654,male,21,10,American English,2019_Jun_21_1052,fricative_categorical_boundary,3.0.4,59.94122523098473,
,,,,trad,filler,None,None,nonce,None,LDTSounds/,LDTSounds/trad.wav,,,,,0,46,46,87,,,,,,,,,,,,,,,,,,,a,1.401405300000988,male,21,10,American English,2019_Jun_21_1052,fricative_categorical_boundary,3.0.4,59.94122523098473,
,,,,bluff,test,f,coda,None,None,LDTSounds/,LDTSounds/bluff.wav,,,,,0,47,47,0,,,,,,,,,,,,,,,,,,,l,1.2540416830015602,male,21,10,American English,2019_Jun_21_1052,fricative_categorical_boundary,3.0.4,59.94122523098473,
,,,,lake,filler,None,None,real,None,LDTSounds/,LDTSounds/lake.wav,,,,,0,48,48,45,,,,,,,,,,,,,,,,,,,l,0.9693043630013563,male,21,10,American English,2019_Jun_21_1052,fricative_categorical_boundary,3.0.4,59.94122523098473,
,,,,heen,filler,None,None,nonce,None,LDTSounds/,LDTSounds/heen.wav,,,,,0,49,49,77,,,,,,,,,,,,,,,,,,,a,1.2699187339985656,male,21,10,American English,2019_Jun_21_1052,fricative_categorical_boundary,3.0.4,59.94122523098473,
,,,,rone,filler,None,None,nonce,None,LDTSounds/,LDTSounds/rone.wav,,,,,0,50,50,79,,,,,,,,,,,,,,,,,,,l,1.203940118999526,male,21,10,American English,2019_Jun_21_1052,fricative_categorical_boundary,3.0.4,59.94122523098473,
,,,,deuce,test,s,coda,None,None,LDTSounds/,LDTSounds/deuce.wav,,,,,0,51,51,21,,,,,,,,,,,,,,,,,,,l,1.2030065649996686,male,21,10,American English,2019_Jun_21_1052,fricative_categorical_boundary,3.0.4,59.94122523098473,
,,,,little,filler,None,None,real,None,LDTSounds/,LDTSounds/little.wav,,,,,0,52,52,61,,,,,,,,,,,,,,,,,,,l,0.753243425000619,male,21,10,American English,2019_Jun_21_1052,fricative_categorical_boundary,3.0.4,59.94122523098473,
,,,,habapithloo,filler,None,None,nonce,None,LDTSounds/,LDTSounds/habapithloo.wav,,,,,0,53,53,136,,,,,,,,,,,,,,,,,,,a,0.9372348169999896,male,21,10,American English,2019_Jun_21_1052,fricative_categorical_boundary,3.0.4,59.94122523098473,
,,,,less,test,s,coda,None,None,LDTSounds/,LDTSounds/less.wav,,,,,0,54,54,20,,,,,,,,,,,,,,,,,,,l,0.8532482850005181,male,21,10,American English,2019_Jun_21_1052,fricative_categorical_boundary,3.0.4,59.94122523098473,
,,,,hapooli,filler,None,None,nonce,None,LDTSounds/,LDTSounds/hapooli.wav,,,,,0,55,55,126,,,,,,,,,,,,,,,,,,,a,1.0360092589999113,male,21,10,American English,2019_Jun_21_1052,fricative_categorical_boundary,3.0.4,59.94122523098473,
,,,,tuba,filler,None,None,real,None,LDTSounds/,LDTSounds/tuba.wav,,,,,0,56,56,57,,,,,,,,,,,,,,,,,,,a,1.120851458999823,male,21,10,American English,2019_Jun_21_1052,fricative_categorical_boundary,3.0.4,59.94122523098473,
,,,,while,filler,None,None,real,None,LDTSounds/,LDTSounds/while.wav,,,,,0,57,57,48,,,,,,,,,,,,,,,,,,,l,1.436119220999899,male,21,10,American English,2019_Jun_21_1052,fricative_categorical_boundary,3.0.4,59.94122523098473,
,,,,day,filler,None,None,real,None,LDTSounds/,LDTSounds/day.wav,,,,,0,58,58,50,,,,,,,,,,,,,,,,,,,l,0.7363007000003563,male,21,10,American English,2019_Jun_21_1052,fricative_categorical_boundary,3.0.4,59.94122523098473,
,,,,tomb,filler,None,None,real,None,LDTSounds/,LDTSounds/tomb.wav,,,,,0,59,59,35,,,,,,,,,,,,,,,,,,,l,1.5537519379995501,male,21,10,American English,2019_Jun_21_1052,fricative_categorical_boundary,3.0.4,59.94122523098473,
,,,,chess,test,s,coda,None,None,LDTSounds/,LDTSounds/chess.wav,,,,,0,60,60,18,,,,,,,,,,,,,,,,,,,l,0.8032819100008055,male,21,10,American English,2019_Jun_21_1052,fricative_categorical_boundary,3.0.4,59.94122523098473,
,,,,roip,filler,None,None,nonce,None,LDTSounds/,LDTSounds/roip.wav,,,,,0,61,61,89,,,,,,,,,,,,,,,,,,,a,0.9036998390001827,male,21,10,American English,2019_Jun_21_1052,fricative_categorical_boundary,3.0.4,59.94122523098473,
,,,,pen,filler,None,None,real,None,LDTSounds/,LDTSounds/pen.wav,,,,,0,62,62,40,,,,,,,,,,,,,,,,,,,l,1.4031406180001795,male,21,10,American English,2019_Jun_21_1052,fricative_categorical_boundary,3.0.4,59.94122523098473,
,,,,noopalingdo,filler,None,None,nonce,None,LDTSounds/,LDTSounds/noopalingdo.wav,,,,,0,63,63,135,,,,,,,,,,,,,,,,,,,a,1.3210278780006774,male,21,10,American English,2019_Jun_21_1052,fricative_categorical_boundary,3.0.4,59.94122523098473,
,,,,laker,filler,None,None,real,None,LDTSounds/,LDTSounds/laker.wav,,,,,0,64,64,58,,,,,,,,,,,,,,,,,,,l,0.9873151650008367,male,21,10,American English,2019_Jun_21_1052,fricative_categorical_boundary,3.0.4,59.94122523098473,
,,,,truss,test,s,coda,None,None,LDTSounds/,LDTSounds/truss.wav,,,,,0,65,65,17,,,,,,,,,,,,,,,,,,,l,1.7540842029993655,male,21,10,American English,2019_Jun_21_1052,fricative_categorical_boundary,3.0.4,59.94122523098473,
,,,,boycott,filler,None,None,real,None,LDTSounds/,LDTSounds/boycott.wav,,,,,0,66,66,71,,,,,,,,,,,,,,,,,,,l,0.9701170219996129,male,21,10,American English,2019_Jun_21_1052,fricative_categorical_boundary,3.0.4,59.94122523098473,
,,,,deemlond,filler,None,None,nonce,None,LDTSounds/,LDTSounds/deemlond.wav,,,,,0,67,67,104,,,,,,,,,,,,,,,,,,,a,1.0035788120003417,male,21,10,American English,2019_Jun_21_1052,fricative_categorical_boundary,3.0.4,59.94122523098473,
,,,,dripnalong,filler,None,None,nonce,None,LDTSounds/,LDTSounds/dripnalong.wav,,,,,0,68,68,124,,,,,,,,,,,,,,,,,,,a,1.1194427249993169,male,21,10,American English,2019_Jun_21_1052,fricative_categorical_boundary,3.0.4,59.94122523098473,
,,,,jupiter,filler,None,None,real,None,LDTSounds/,LDTSounds/jupiter.wav,,,,,0,69,69,74,,,,,,,,,,,,,,,,,,,l,1.086755432001155,male,21,10,American English,2019_Jun_21_1052,fricative_categorical_boundary,3.0.4,59.94122523098473,
,,,,butter,filler,None,None,real,None,LDTSounds/,LDTSounds/butter.wav,,,,,0,70,70,60,,,,,,,,,,,,,,,,,,,l,0.9699544809991494,male,21,10,American English,2019_Jun_21_1052,fricative_categorical_boundary,3.0.4,59.94122523098473,
,,,,truck,filler,None,None,real,None,LDTSounds/,LDTSounds/truck.wav,,,,,0,71,71,34,,,,,,,,,,,,,,,,,,,l,0.8367924679987482,male,21,10,American English,2019_Jun_21_1052,fricative_categorical_boundary,3.0.4,59.94122523098473,
,,,,daydream,filler,None,None,real,None,LDTSounds/,LDTSounds/daydream.wav,,,,,0,72,72,59,,,,,,,,,,,,,,,,,,,l,0.9203796050005622,male,21,10,American English,2019_Jun_21_1052,fricative_categorical_boundary,3.0.4,59.94122523098473,
,,,,datoonmeg,filler,None,None,nonce,None,LDTSounds/,LDTSounds/datoonmeg.wav,,,,,0,73,73,133,,,,,,,,,,,,,,,,,,,a,1.4547967720009183,male,21,10,American English,2019_Jun_21_1052,fricative_categorical_boundary,3.0.4,59.94122523098473,
,,,,sip,test,s,onset,None,None,LDTSounds/,LDTSounds/sip.wav,,,,,0,74,74,30,,,,,,,,,,,,,,,,,,,l,1.2196479169997474,male,21,10,American English,2019_Jun_21_1052,fricative_categorical_boundary,3.0.4,59.94122523098473,
,,,,wet,filler,None,None,real,None,LDTSounds/,LDTSounds/wet.wav,,,,,0,75,75,38,,,,,,,,,,,,,,,,,,,l,1.0202908310002385,male,21,10,American English,2019_Jun_21_1052,fricative_categorical_boundary,3.0.4,59.94122523098473,
,,,,drip,filler,None,None,real,None,LDTSounds/,LDTSounds/drip.wav,,,,,0,76,76,51,,,,,,,,,,,,,,,,,,,l,0.6695815580005728,male,21,10,American English,2019_Jun_21_1052,fricative_categorical_boundary,3.0.4,59.94122523098473,
,,,,waip,filler,None,None,nonce,None,LDTSounds/,LDTSounds/waip.wav,,,,,0,77,77,91,,,,,,,,,,,,,,,,,,,l,1.086844861998543,male,21,10,American English,2019_Jun_21_1052,fricative_categorical_boundary,3.0.4,59.94122523098473,
,,,,relnt,filler,None,None,nonce,None,LDTSounds/,LDTSounds/relnt.wav,,,,,0,78,78,83,,,,,,,,,,,,,,,,,,,a,1.120598143999814,male,21,10,American English,2019_Jun_21_1052,fricative_categorical_boundary,3.0.4,59.94122523098473,
,,,,lemur,filler,None,None,real,None,LDTSounds/,LDTSounds/lemur.wav,,,,,0,79,79,68,,,,,,,,,,,,,,,,,,,l,1.0034096100007446,male,21,10,American English,2019_Jun_21_1052,fricative_categorical_boundary,3.0.4,59.94122523098473,
,,,,full,test,f,onset,None,None,LDTSounds/,LDTSounds/full.wav,,,,,0,80,80,16,,,,,,,,,,,,,,,,,,,l,0.9010369019997597,male,21,10,American English,2019_Jun_21_1052,fricative_categorical_boundary,3.0.4,59.94122523098473,
,,,,rekmate,filler,None,None,nonce,None,LDTSounds/,LDTSounds/rekmate.wav,,,,,0,81,81,103,,,,,,,,,,,,,,,,,,,a,0.9204351489988767,male,21,10,American English,2019_Jun_21_1052,fricative_categorical_boundary,3.0.4,59.94122523098473,
,,,,rowboat,filler,None,None,real,None,LDTSounds/,LDTSounds/rowboat.wav,,,,,0,82,82,56,,,,,,,,,,,,,,,,,,,l,1.1180666330001259,male,21,10,American English,2019_Jun_21_1052,fricative_categorical_boundary,3.0.4,59.94122523098473,
,,,,trongolemp,filler,None,None,nonce,None,LDTSounds/,LDTSounds/trongolemp.wav,,,,,0,83,83,130,,,,,,,,,,,,,,,,,,,a,0.9702993890005018,male,21,10,American English,2019_Jun_21_1052,fricative_categorical_boundary,3.0.4,59.94122523098473,
,,,,treaty,filler,None,None,real,None,LDTSounds/,LDTSounds/treaty.wav,,,,,0,84,84,65,,,,,,,,,,,,,,,,,,,a,1.8038258449996647,male,21,10,American English,2019_Jun_21_1052,fricative_categorical_boundary,3.0.4,59.94122523098473,
,,,,bidbowk,filler,None,None,nonce,None,LDTSounds/,LDTSounds/bidbowk.wav,,,,,0,85,85,109,,,,,,,,,,,,,,,,,,,a,1.0536682460005977,male,21,10,American English,2019_Jun_21_1052,fricative_categorical_boundary,3.0.4,59.94122523098473,
,,,,tridalondit,filler,None,None,nonce,None,LDTSounds/,LDTSounds/tridalondit.wav,,,,,0,86,86,146,,,,,,,,,,,,,,,,,,,a,2.4550185589996545,male,21,10,American English,2019_Jun_21_1052,fricative_categorical_boundary,3.0.4,59.94122523098473,
,,,,silt,test,s,onset,None,None,LDTSounds/,LDTSounds/silt.wav,,,,,0,87,87,31,,,,,,,,,,,,,,,,,,,l,1.5367626469997049,male,21,10,American English,2019_Jun_21_1052,fricative_categorical_boundary,3.0.4,59.94122523098473,
,,,,drataloob,filler,None,None,nonce,None,LDTSounds/,LDTSounds/drataloob.wav,,,,,0,88,88,129,,,,,,,,,,,,,,,,,,,a,0.8370180759993673,male,21,10,American English,2019_Jun_21_1052,fricative_categorical_boundary,3.0.4,59.94122523098473,
,,,,petnole,filler,None,None,nonce,None,LDTSounds/,LDTSounds/petnole.wav,,,,,0,89,89,112,,,,,,,,,,,,,,,,,,,a,0.9194173369996861,male,21,10,American English,2019_Jun_21_1052,fricative_categorical_boundary,3.0.4,59.94122523098473,
,,,,deaf,test,f,coda,None,None,LDTSounds/,LDTSounds/deaf.wav,,,,,0,90,90,3,,,,,,,,,,,,,,,,,,,l,1.5846781350010133,male,21,10,American English,2019_Jun_21_1052,fricative_categorical_boundary,3.0.4,59.94122523098473,
,,,,sect,test,s,onset,None,None,LDTSounds/,LDTSounds/sect.wav,,,,,0,91,91,26,,,,,,,,,,,,,,,,,,,l,1.4202840229991125,male,21,10,American English,2019_Jun_21_1052,fricative_categorical_boundary,3.0.4,59.94122523098473,
,,,,plone,filler,None,None,nonce,None,LDTSounds/,LDTSounds/plone.wav,,,,,0,92,92,76,,,,,,,,,,,,,,,,,,,a,0.8518899509999756,male,21,10,American English,2019_Jun_21_1052,fricative_categorical_boundary,3.0.4,59.94122523098473,
,,,,yoomake,filler,None,None,nonce,None,LDTSounds/,LDTSounds/yoomake.wav,,,,,0,93,93,99,,,,,,,,,,,,,,,,,,,a,0.8862645179997344,male,21,10,American English,2019_Jun_21_1052,fricative_categorical_boundary,3.0.4,59.94122523098473,
,,,,kebnoti,filler,None,None,nonce,None,LDTSounds/,LDTSounds/kebnoti.wav,,,,,0,94,94,121,,,,,,,,,,,,,,,,,,,a,0.8195645920004608,male,21,10,American English,2019_Jun_21_1052,fricative_categorical_boundary,3.0.4,59.94122523098473,
,,,,krebdingolee,filler,None,None,nonce,None,LDTSounds/,LDTSounds/krebdingolee.wav,,,,,0,95,95,147,,,,,,,,,,,,,,,,,,,a,1.08791121700051,male,21,10,American English,2019_Jun_21_1052,fricative_categorical_boundary,3.0.4,59.94122523098473,
,,,,fade,test,f,onset,None,None,LDTSounds/,LDTSounds/fade.wav,,,,,0,96,96,12,,,,,,,,,,,,,,,,,,,l,0.8530133170006593,male,21,10,American English,2019_Jun_21_1052,fricative_categorical_boundary,3.0.4,59.94122523098473,
,,,,rat,filler,None,None,real,None,LDTSounds/,LDTSounds/rat.wav,,,,,0,97,97,47,,,,,,,,,,,,,,,,,,,l,0.8677595360004489,male,21,10,American English,2019_Jun_21_1052,fricative_categorical_boundary,3.0.4,59.94122523098473,
,,,,wegtamlip,filler,None,None,nonce,None,LDTSounds/,LDTSounds/wegtamlip.wav,,,,,0,98,98,120,,,,,,,,,,,,,,,,,,,a,0.8363456040005985,male,21,10,American English,2019_Jun_21_1052,fricative_categorical_boundary,3.0.4,59.94122523098473,
,,,,cridamlo,filler,None,None,nonce,None,LDTSounds/,LDTSounds/cridamlo.wav,,,,,0,99,99,122,,,,,,,,,,,,,,,,,,,a,1.4377291979999427,male,21,10,American English,2019_Jun_21_1052,fricative_categorical_boundary,3.0.4,59.94122523098473,
,,,,twin,filler,None,None,real,None,LDTSounds/,LDTSounds/twin.wav,,,,,0,100,100,44,,,,,,,,,,,,,,,,,,,l,1.0864501579999342,male,21,10,American English,2019_Jun_21_1052,fricative_categorical_boundary,3.0.4,59.94122523098473,
,,,,plagtorin,filler,None,None,nonce,None,LDTSounds/,LDTSounds/plagtorin.wav,,,,,0,101,101,134,,,,,,,,,,,,,,,,,,,a,1.6044449000000895,male,21,10,American English,2019_Jun_21_1052,fricative_categorical_boundary,3.0.4,59.94122523098473,
,,,,right,filler,None,None,real,None,LDTSounds/,LDTSounds/right.wav,,,,,0,102,102,36,,,,,,,,,,,,,,,,,,,l,1.1373873769989586,male,21,10,American English,2019_Jun_21_1052,fricative_categorical_boundary,3.0.4,59.94122523098473,
,,,,toin,filler,None,None,nonce,None,LDTSounds/,LDTSounds/toin.wav,,,,,0,103,103,88,,,,,,,,,,,,,,,,,,,a,1.3876970229994186,male,21,10,American English,2019_Jun_21_1052,fricative_categorical_boundary,3.0.4,59.94122523098473,
,,,,queng,filler,None,None,nonce,None,LDTSounds/,LDTSounds/queng.wav,,,,,0,104,104,86,,,,,,,,,,,,,,,,,,,a,0.7030919349999749,male,21,10,American English,2019_Jun_21_1052,fricative_categorical_boundary,3.0.4,59.94122523098473,
,,,,beef,test,f,coda,None,None,LDTSounds/,LDTSounds/beef.wav,,,,,0,105,105,6,,,,,,,,,,,,,,,,,,,l,0.8863946440014843,male,21,10,American English,2019_Jun_21_1052,fricative_categorical_boundary,3.0.4,59.94122523098473,
,,,,weg,filler,None,None,nonce,None,LDTSounds/,LDTSounds/weg.wav,,,,,0,106,106,78,,,,,,,,,,,,,,,,,,,a,1.153451767999286,male,21,10,American English,2019_Jun_21_1052,fricative_categorical_boundary,3.0.4,59.94122523098473,
,,,,poindool,filler,None,None,nonce,None,LDTSounds/,LDTSounds/poindool.wav,,,,,0,107,107,96,,,,,,,,,,,,,,,,,,,a,1.0367209080013708,male,21,10,American English,2019_Jun_21_1052,fricative_categorical_boundary,3.0.4,59.94122523098473,
,,,,soup,test,s,onset,None,None,LDTSounds/,LDTSounds/soup.wav,,,,,0,108,108,27,,,,,,,,,,,,,,,,,,,l,1.3209396319998632,male,21,10,American English,2019_Jun_21_1052,fricative_categorical_boundary,3.0.4,59.94122523098473,
,,,,yoogul,filler,None,None,nonce,None,LDTSounds/,LDTSounds/yoogul.wav,,,,,0,109,109,102,,,,,,,,,,,,,,,,,,,a,0.7869921870005783,male,21,10,American English,2019_Jun_21_1052,fricative_categorical_boundary,3.0.4,59.94122523098473,
,,,,troplund,filler,None,None,nonce,None,LDTSounds/,LDTSounds/troplund.wav,,,,,0,110,110,98,,,,,,,,,,,,,,,,,,,a,1.5541344480006956,male,21,10,American English,2019_Jun_21_1052,fricative_categorical_boundary,3.0.4,59.94122523098473,
,,,,bliss,test,s,coda,None,None,LDTSounds/,LDTSounds/bliss.wav,,,,,0,111,111,19,,,,,,,,,,,,,,,,,,,l,1.3869266729998344,male,21,10,American English,2019_Jun_21_1052,fricative_categorical_boundary,3.0.4,59.94122523098473,
,,,,yoodalin,filler,None,None,nonce,None,LDTSounds/,LDTSounds/yoodalin.wav,,,,,0,112,112,125,,,,,,,,,,,,,,,,,,,a,0.9199015989997861,male,21,10,American English,2019_Jun_21_1052,fricative_categorical_boundary,3.0.4,59.94122523098473,
,,,,such,test,s,onset,None,None,LDTSounds/,LDTSounds/such.wav,,,,,0,113,113,25,,,,,,,,,,,,,,,,,,,l,0.9193948239990277,male,21,10,American English,2019_Jun_21_1052,fricative_categorical_boundary,3.0.4,59.94122523098473,
,,,,will,filler,None,None,real,None,LDTSounds/,LDTSounds/will.wav,,,,,0,114,114,49,,,,,,,,,,,,,,,,,,,l,0.8537178950009547,male,21,10,American English,2019_Jun_21_1052,fricative_categorical_boundary,3.0.4,59.94122523098473,
,,,,data,filler,None,None,real,None,LDTSounds/,LDTSounds/data.wav,,,,,0,115,115,62,,,,,,,,,,,,,,,,,,,l,0.8366782839984808,male,21,10,American English,2019_Jun_21_1052,fricative_categorical_boundary,3.0.4,59.94122523098473,
,,,,wiblee,filler,None,None,nonce,None,LDTSounds/,LDTSounds/wiblee.wav,,,,,0,116,116,115,,,,,,,,,,,,,,,,,,,a,0.8173223409994534,male,21,10,American English,2019_Jun_21_1052,fricative_categorical_boundary,3.0.4,59.94122523098473,
,,,,sash,test,s,onset,None,None,LDTSounds/,LDTSounds/sash.wav,,,,,0,117,117,28,,,,,,,,,,,,,,,,,,,l,1.1706644549994962,male,21,10,American English,2019_Jun_21_1052,fricative_categorical_boundary,3.0.4,59.94122523098473,
,,,,rone,filler,None,None,nonce,None,LDTSounds/,LDTSounds/rone.wav,,,,,0,118,118,92,,,,,,,,,,,,,,,,,,,l,1.0868061689998285,male,21,10,American English,2019_Jun_21_1052,fricative_categorical_boundary,3.0.4,59.94122523098473,
,,,,trag,filler,None,None,nonce,None,LDTSounds/,LDTSounds/trag.wav,,,,,0,119,119,84,,,,,,,,,,,,,,,,,,,a,1.0864472000012029,male,21,10,American English,2019_Jun_21_1052,fricative_categorical_boundary,3.0.4,59.94122523098473,
,,,,soon,test,s,onset,None,None,LDTSounds/,LDTSounds/soon.wav,,,,,0,120,120,32,,,,,,,,,,,,,,,,,,,l,1.2544956719993934,male,21,10,American English,2019_Jun_21_1052,fricative_categorical_boundary,3.0.4,59.94122523098473,
,,,,lopenad,filler,None,None,nonce,None,LDTSounds/,LDTSounds/lopenad.wav,,,,,0,121,121,123,,,,,,,,,,,,,,,,,,,a,0.886029323000912,male,21,10,American English,2019_Jun_21_1052,fricative_categorical_boundary,3.0.4,59.94122523098473,
,,,,line,filler,None,None,real,None,LDTSounds/,LDTSounds/line.wav,,,,,0,122,122,46,,,,,,,,,,,,,,,,,,,l,1.0676339949986868,male,21,10,American English,2019_Jun_21_1052,fricative_categorical_boundary,3.0.4,59.94122523098473,
,,,,sulk,test,s,onset,None,None,LDTSounds/,LDTSounds/sulk.wav,,,,,0,123,123,33,,,,,,,,,,,,,,,,,,,l,1.3868626589992346,male,21,10,American English,2019_Jun_21_1052,fricative_categorical_boundary,3.0.4,59.94122523098473,
,,,,lick,filler,None,None,real,None,LDTSounds/,LDTSounds/lick.wav,,,,,0,124,124,41,,,,,,,,,,,,,,,,,,,l,0.9200106700009201,male,21,10,American English,2019_Jun_21_1052,fricative_categorical_boundary,3.0.4,59.94122523098473,
,,,,yellow,filler,None,None,real,None,LDTSounds/,LDTSounds/yellow.wav,,,,,0,125,125,73,,,,,,,,,,,,,,,,,,,l,1.037306752999939,male,21,10,American English,2019_Jun_21_1052,fricative_categorical_boundary,3.0.4,59.94122523098473,
,,,,kotlim,filler,None,None,nonce,None,LDTSounds/,LDTSounds/kotlim.wav,,,,,0,126,126,114,,,,,,,,,,,,,,,,,,,a,1.3867870320009388,male,21,10,American English,2019_Jun_21_1052,fricative_categorical_boundary,3.0.4,59.94122523098473,
,,,,pillow,filler,None,None,real,None,LDTSounds/,LDTSounds/pillow.wav,,,,,0,127,127,72,,,,,,,,,,,,,,,,,,,l,1.2534417979986756,male,21,10,American English,2019_Jun_21_1052,fricative_categorical_boundary,3.0.4,59.94122523098473,
,,,,wegring,filler,None,None,nonce,None,LDTSounds/,LDTSounds/wegring.wav,,,,,0,128,128,97,,,,,,,,,,,,,,,,,,,a,1.6711174079991906,male,21,10,American English,2019_Jun_21_1052,fricative_categorical_boundary,3.0.4,59.94122523098473,
,,,,retlid,filler,None,None,nonce,None,LDTSounds/,LDTSounds/retlid.wav,,,,,0,129,129,105,,,,,,,,,,,,,,,,,,,a,1.2370793330010201,male,21,10,American English,2019_Jun_21_1052,fricative_categorical_boundary,3.0.4,59.94122523098473,
,,,,toilet,filler,None,None,real,None,LDTSounds/,LDTSounds/toilet.wav,,,,,0,130,130,67,,,,,,,,,,,,,,,,,,,l,1.3873844519985141,male,21,10,American English,2019_Jun_21_1052,fricative_categorical_boundary,3.0.4,59.94122523098473,
,,,,pingloon,filler,None,None,nonce,None,LDTSounds/,LDTSounds/pingloon.wav,,,,,0,131,131,110,,,,,,,,,,,,,,,,,,,a,1.0207416979992558,male,21,10,American English,2019_Jun_21_1052,fricative_categorical_boundary,3.0.4,59.94122523098473,
,,,,fab,test,f,onset,None,None,LDTSounds/,LDTSounds/fab.wav,,,,,0,132,132,11,,,,,,,,,,,,,,,,,,,l,1.1034003710010438,male,21,10,American English,2019_Jun_21_1052,fricative_categorical_boundary,3.0.4,59.94122523098473,
,,,,cratbool,filler,None,None,nonce,None,LDTSounds/,LDTSounds/cratbool.wav,,,,,0,133,133,106,,,,,,,,,,,,,,,,,,,a,1.234320049001326,male,21,10,American English,2019_Jun_21_1052,fricative_categorical_boundary,3.0.4,59.94122523098473,
,,,,kiss,test,s,coda,None,None,LDTSounds/,LDTSounds/kiss.wav,,,,,0,134,134,22,,,,,,,,,,,,,,,,,,,l,0.9206217239989201,male,21,10,American English,2019_Jun_21_1052,fricative_categorical_boundary,3.0.4,59.94122523098473,
,,,,trooper,filler,None,None,real,None,LDTSounds/,LDTSounds/trooper.wav,,,,,0,135,135,66,,,,,,,,,,,,,,,,,,,l,1.2868959400002495,male,21,10,American English,2019_Jun_21_1052,fricative_categorical_boundary,3.0.4,59.94122523098473,
,,,,rivathrog,filler,None,None,nonce,None,LDTSounds/,LDTSounds/rivathrog.wav,,,,,0,136,136,131,,,,,,,,,,,,,,,,,,,a,0.7530537019993062,male,21,10,American English,2019_Jun_21_1052,fricative_categorical_boundary,3.0.4,59.94122523098473,
,,,,chef,test,f,coda,None,None,LDTSounds/,LDTSounds/chef.wav,,,,,0,137,137,1,,,,,,,,,,,,,,,,,,,l,1.150489704001302,male,21,10,American English,2019_Jun_21_1052,fricative_categorical_boundary,3.0.4,59.94122523098473,
,,,,magmilnt,filler,None,None,nonce,None,LDTSounds/,LDTSounds/magmilnt.wav,,,,,0,138,138,107,,,,,,,,,,,,,,,,,,,a,0.8705257590008841,male,21,10,American English,2019_Jun_21_1052,fricative_categorical_boundary,3.0.4,59.94122523098473,
,,,,dewagelin,filler,None,None,nonce,None,LDTSounds/,LDTSounds/dewagelin.wav,,,,,0,139,139,143,,,,,,,,,,,,,,,,,,,a,1.1196746250006981,male,21,10,American English,2019_Jun_21_1052,fricative_categorical_boundary,3.0.4,59.94122523098473,
,,,,mitger,filler,None,None,nonce,None,LDTSounds/,LDTSounds/mitger.wav,,,,,0,140,140,111,,,,,,,,,,,,,,,,,,,a,1.2367483970010653,male,21,10,American English,2019_Jun_21_1052,fricative_categorical_boundary,3.0.4,59.94122523098473,
,,,,pendalimt,filler,None,None,nonce,None,LDTSounds/,LDTSounds/pendalimt.wav,,,,,0,141,141,118,,,,,,,,,,,,,,,,,,,a,1.4041102579994913,male,21,10,American English,2019_Jun_21_1052,fricative_categorical_boundary,3.0.4,59.94122523098473,
,,,,mall,filler,None,None,real,None,LDTSounds/,LDTSounds/mall.wav,,,,,0,142,142,43,,,,,,,,,,,,,,,,,,,l,0.9202225230001204,male,21,10,American English,2019_Jun_21_1052,fricative_categorical_boundary,3.0.4,59.94122523098473,
,,,,gelp,filler,None,None,nonce,None,LDTSounds/,LDTSounds/gelp.wav,,,,,0,143,143,85,,,,,,,,,,,,,,,,,,,l,1.6205533530010143,male,21,10,American English,2019_Jun_21_1052,fricative_categorical_boundary,3.0.4,59.94122523098473,
,,,,globe,filler,None,None,real,None,LDTSounds/,LDTSounds/globe.wav,,,,,0,144,144,52,,,,,,,,,,,,,,,,,,,l,1.1369847250007297,male,21,10,American English,2019_Jun_21_1052,fricative_categorical_boundary,3.0.4,59.94122523098473,
,,,,toy,filler,None,None,real,None,LDTSounds/,LDTSounds/toy.wav,,,,,0,145,145,53,,,,,,,,,,,,,,,,,,,l,0.854143918999398,male,21,10,American English,2019_Jun_21_1052,fricative_categorical_boundary,3.0.4,59.94122523098473,
,,,,ledmon,filler,None,None,nonce,None,LDTSounds/,LDTSounds/ledmon.wav,,,,,0,146,146,94,,,,,,,,,,,,,,,,,,,a,1.487328447999971,male,21,10,American English,2019_Jun_21_1052,fricative_categorical_boundary,3.0.4,59.94122523098473,
,,,,podaling,filler,None,None,nonce,None,LDTSounds/,LDTSounds/podaling.wav,,,,,0,147,147,132,,,,,,,,,,,,,,,,,,,a,0.8702892490000522,male,21,10,American English,2019_Jun_21_1052,fricative_categorical_boundary,3.0.4,59.94122523098473,
,,,,lempok,filler,None,None,nonce,None,LDTSounds/,LDTSounds/lempok.wav,,,,,0,148,148,113,,,,,,,,,,,,,,,,,,,a,0.7864354680004908,male,21,10,American English,2019_Jun_21_1052,fricative_categorical_boundary,3.0.4,59.94122523098473,
,,,,mole,filler,None,None,real,None,LDTSounds/,LDTSounds/mole.wav,,,,,0,149,149,42,,,,,,,,,,,,,,,,,,,a,1.0362597580005968,male,21,10,American English,2019_Jun_21_1052,fricative_categorical_boundary,3.0.4,59.94122523098473,
,,,,,,,,,,,,,,,,,,,,,,,,,,,,,0.21041666666666667,-0.45740740740740743,1,0,0,,,,,,,male,21,10,American English,2019_Jun_21_1052,fricative_categorical_boundary,3.0.4,59.94122523098473,
13,NewWord_f_onset_isolate_s_onset_isolate_,Sounds/,Sounds/NewWord_f_onset_isolate_s_onset_isolate_13.wav,,,,,,,,,,,,,,,,,0,0,0,4,,,,,,,,,,,f,0.787,,,,,male,21,10,American English,2019_Jun_21_1052,fricative_categorical_boundary,3.0.4,59.94122523098473,
15,NewWord_f_onset_isolate_s_onset_isolate_,Sounds/,Sounds/NewWord_f_onset_isolate_s_onset_isolate_15.wav,,,,,,,,,,,,,,,,,0,1,1,5,,,,,,,,,,,f,0.403,,,,,male,21,10,American English,2019_Jun_21_1052,fricative_categorical_boundary,3.0.4,59.94122523098473,
25,NewWord_f_onset_isolate_s_onset_isolate_,Sounds/,Sounds/NewWord_f_onset_isolate_s_onset_isolate_25.wav,,,,,,,,,,,,,,,,,0,2,2,10,,,,,,,,,,,s,1.654,,,,,male,21,10,American English,2019_Jun_21_1052,fricative_categorical_boundary,3.0.4,59.94122523098473,
23,NewWord_f_onset_isolate_s_onset_isolate_,Sounds/,Sounds/NewWord_f_onset_isolate_s_onset_isolate_23.wav,,,,,,,,,,,,,,,,,0,3,3,9,,,,,,,,,,,f,1.088,,,,,male,21,10,American English,2019_Jun_21_1052,fricative_categorical_boundary,3.0.4,59.94122523098473,
7,NewWord_f_onset_isolate_s_onset_isolate_,Sounds/,Sounds/NewWord_f_onset_isolate_s_onset_isolate_7.wav,,,,,,,,,,,,,,,,,0,4,4,1,,,,,,,,,,,f,1.388,,,,,male,21,10,American English,2019_Jun_21_1052,fricative_categorical_boundary,3.0.4,59.94122523098473,
29,NewWord_f_onset_isolate_s_onset_isolate_,Sounds/,Sounds/NewWord_f_onset_isolate_s_onset_isolate_29.wav,,,,,,,,,,,,,,,,,0,5,5,12,,,,,,,,,,,s,0.787,,,,,male,21,10,American English,2019_Jun_21_1052,fricative_categorical_boundary,3.0.4,59.94122523098473,
19,NewWord_f_onset_isolate_s_onset_isolate_,Sounds/,Sounds/NewWord_f_onset_isolate_s_onset_isolate_19.wav,,,,,,,,,,,,,,,,,0,6,6,7,,,,,,,,,,,f,0.669,,,,,male,21,10,American English,2019_Jun_21_1052,fricative_categorical_boundary,3.0.4,59.94122523098473,
27,NewWord_f_onset_isolate_s_onset_isolate_,Sounds/,Sounds/NewWord_f_onset_isolate_s_onset_isolate_27.wav,,,,,,,,,,,,,,,,,0,7,7,11,,,,,,,,,,,s,0.503,,,,,male,21,10,American English,2019_Jun_21_1052,fricative_categorical_boundary,3.0.4,59.94122523098473,
1,NewWord_f_onset_isolate_s_onset_isolate_,Sounds/,Sounds/NewWord_f_onset_isolate_s_onset_isolate_1.wav,,,,,,,,,,,,,,,,,0,8,8,0,,,,,,,,,,,f,0.519,,,,,male,21,10,American English,2019_Jun_21_1052,fricative_categorical_boundary,3.0.4,59.94122523098473,
9,NewWord_f_onset_isolate_s_onset_isolate_,Sounds/,Sounds/NewWord_f_onset_isolate_s_onset_isolate_9.wav,,,,,,,,,,,,,,,,,0,9,9,2,,,,,,,,,,,f,0.403,,,,,male,21,10,American English,2019_Jun_21_1052,fricative_categorical_boundary,3.0.4,59.94122523098473,
17,NewWord_f_onset_isolate_s_onset_isolate_,Sounds/,Sounds/NewWord_f_onset_isolate_s_onset_isolate_17.wav,,,,,,,,,,,,,,,,,0,10,10,6,,,,,,,,,,,f,0.404,,,,,male,21,10,American English,2019_Jun_21_1052,fricative_categorical_boundary,3.0.4,59.94122523098473,
41,NewWord_f_onset_isolate_s_onset_isolate_,Sounds/,Sounds/NewWord_f_onset_isolate_s_onset_isolate_41.wav,,,,,,,,,,,,,,,,,0,11,11,13,,,,,,,,,,,s,0.987,,,,,male,21,10,American English,2019_Jun_21_1052,fricative_categorical_boundary,3.0.4,59.94122523098473,
11,NewWord_f_onset_isolate_s_onset_isolate_,Sounds/,Sounds/NewWord_f_onset_isolate_s_onset_isolate_11.wav,,,,,,,,,,,,,,,,,0,12,12,3,,,,,,,,,,,f,0.419,,,,,male,21,10,American English,2019_Jun_21_1052,fricative_categorical_boundary,3.0.4,59.94122523098473,
21,NewWord_f_onset_isolate_s_onset_isolate_,Sounds/,Sounds/NewWord_f_onset_isolate_s_onset_isolate_21.wav,,,,,,,,,,,,,,,,,0,13,13,8,,,,,,,,,,,s,0.536,,,,,male,21,10,American English,2019_Jun_21_1052,fricative_categorical_boundary,3.0.4,59.94122523098473,
29,NewWord_f_onset_isolate_s_onset_isolate_,Sounds/,Sounds/NewWord_f_onset_isolate_s_onset_isolate_29.wav,,,,,,,,,,,,,,,,,1,0,14,12,,,,,,,,,,,s,0.403,,,,,male,21,10,American English,2019_Jun_21_1052,fricative_categorical_boundary,3.0.4,59.94122523098473,
27,NewWord_f_onset_isolate_s_onset_isolate_,Sounds/,Sounds/NewWord_f_onset_isolate_s_onset_isolate_27.wav,,,,,,,,,,,,,,,,,1,1,15,11,,,,,,,,,,,s,0.436,,,,,male,21,10,American English,2019_Jun_21_1052,fricative_categorical_boundary,3.0.4,59.94122523098473,
9,NewWord_f_onset_isolate_s_onset_isolate_,Sounds/,Sounds/NewWord_f_onset_isolate_s_onset_isolate_9.wav,,,,,,,,,,,,,,,,,1,2,16,2,,,,,,,,,,,f,0.553,,,,,male,21,10,American English,2019_Jun_21_1052,fricative_categorical_boundary,3.0.4,59.94122523098473,
25,NewWord_f_onset_isolate_s_onset_isolate_,Sounds/,Sounds/NewWord_f_onset_isolate_s_onset_isolate_25.wav,,,,,,,,,,,,,,,,,1,3,17,10,,,,,,,,,,,s,0.419,,,,,male,21,10,American English,2019_Jun_21_1052,fricative_categorical_boundary,3.0.4,59.94122523098473,
1,NewWord_f_onset_isolate_s_onset_isolate_,Sounds/,Sounds/NewWord_f_onset_isolate_s_onset_isolate_1.wav,,,,,,,,,,,,,,,,,1,4,18,0,,,,,,,,,,,f,0.486,,,,,male,21,10,American English,2019_Jun_21_1052,fricative_categorical_boundary,3.0.4,59.94122523098473,
41,NewWord_f_onset_isolate_s_onset_isolate_,Sounds/,Sounds/NewWord_f_onset_isolate_s_onset_isolate_41.wav,,,,,,,,,,,,,,,,,1,5,19,13,,,,,,,,,,,s,1.271,,,,,male,21,10,American English,2019_Jun_21_1052,fricative_categorical_boundary,3.0.4,59.94122523098473,
15,NewWord_f_onset_isolate_s_onset_isolate_,Sounds/,Sounds/NewWord_f_onset_isolate_s_onset_isolate_15.wav,,,,,,,,,,,,,,,,,1,6,20,5,,,,,,,,,,,f,0.471,,,,,male,21,10,American English,2019_Jun_21_1052,fricative_categorical_boundary,3.0.4,59.94122523098473,
11,NewWord_f_onset_isolate_s_onset_isolate_,Sounds/,Sounds/NewWord_f_onset_isolate_s_onset_isolate_11.wav,,,,,,,,,,,,,,,,,1,7,21,3,,,,,,,,,,,f,1.071,,,,,male,21,10,American English,2019_Jun_21_1052,fricative_categorical_boundary,3.0.4,59.94122523098473,
7,NewWord_f_onset_isolate_s_onset_isolate_,Sounds/,Sounds/NewWord_f_onset_isolate_s_onset_isolate_7.wav,,,,,,,,,,,,,,,,,1,8,22,1,,,,,,,,,,,f,0.855,,,,,male,21,10,American English,2019_Jun_21_1052,fricative_categorical_boundary,3.0.4,59.94122523098473,
21,NewWord_f_onset_isolate_s_onset_isolate_,Sounds/,Sounds/NewWord_f_onset_isolate_s_onset_isolate_21.wav,,,,,,,,,,,,,,,,,1,9,23,8,,,,,,,,,,,s,0.421,,,,,male,21,10,American English,2019_Jun_21_1052,fricative_categorical_boundary,3.0.4,59.94122523098473,
19,NewWord_f_onset_isolate_s_onset_isolate_,Sounds/,Sounds/NewWord_f_onset_isolate_s_onset_isolate_19.wav,,,,,,,,,,,,,,,,,1,10,24,7,,,,,,,,,,,s,0.804,,,,,male,21,10,American English,2019_Jun_21_1052,fricative_categorical_boundary,3.0.4,59.94122523098473,
23,NewWord_f_onset_isolate_s_onset_isolate_,Sounds/,Sounds/NewWord_f_onset_isolate_s_onset_isolate_23.wav,,,,,,,,,,,,,,,,,1,11,25,9,,,,,,,,,,,s,0.454,,,,,male,21,10,American English,2019_Jun_21_1052,fricative_categorical_boundary,3.0.4,59.94122523098473,
17,NewWord_f_onset_isolate_s_onset_isolate_,Sounds/,Sounds/NewWord_f_onset_isolate_s_onset_isolate_17.wav,,,,,,,,,,,,,,,,,1,12,26,6,,,,,,,,,,,f,0.67,,,,,male,21,10,American English,2019_Jun_21_1052,fricative_categorical_boundary,3.0.4,59.94122523098473,
13,NewWord_f_onset_isolate_s_onset_isolate_,Sounds/,Sounds/NewWord_f_onset_isolate_s_onset_isolate_13.wav,,,,,,,,,,,,,,,,,1,13,27,4,,,,,,,,,,,f,0.419,,,,,male,21,10,American English,2019_Jun_21_1052,fricative_categorical_boundary,3.0.4,59.94122523098473,
29,NewWord_f_onset_isolate_s_onset_isolate_,Sounds/,Sounds/NewWord_f_onset_isolate_s_onset_isolate_29.wav,,,,,,,,,,,,,,,,,2,0,28,12,,,,,,,,,,,s,0.419,,,,,male,21,10,American English,2019_Jun_21_1052,fricative_categorical_boundary,3.0.4,59.94122523098473,
41,NewWord_f_onset_isolate_s_onset_isolate_,Sounds/,Sounds/NewWord_f_onset_isolate_s_onset_isolate_41.wav,,,,,,,,,,,,,,,,,2,1,29,13,,,,,,,,,,,s,0.554,,,,,male,21,10,American English,2019_Jun_21_1052,fricative_categorical_boundary,3.0.4,59.94122523098473,
19,NewWord_f_onset_isolate_s_onset_isolate_,Sounds/,Sounds/NewWord_f_onset_isolate_s_onset_isolate_19.wav,,,,,,,,,,,,,,,,,2,2,30,7,,,,,,,,,,,f,0.419,,,,,male,21,10,American English,2019_Jun_21_1052,fricative_categorical_boundary,3.0.4,59.94122523098473,
15,NewWord_f_onset_isolate_s_onset_isolate_,Sounds/,Sounds/NewWord_f_onset_isolate_s_onset_isolate_15.wav,,,,,,,,,,,,,,,,,2,3,31,5,,,,,,,,,,,f,0.403,,,,,male,21,10,American English,2019_Jun_21_1052,fricative_categorical_boundary,3.0.4,59.94122523098473,
21,NewWord_f_onset_isolate_s_onset_isolate_,Sounds/,Sounds/NewWord_f_onset_isolate_s_onset_isolate_21.wav,,,,,,,,,,,,,,,,,2,4,32,8,,,,,,,,,,,s,0.937,,,,,male,21,10,American English,2019_Jun_21_1052,fricative_categorical_boundary,3.0.4,59.94122523098473,
25,NewWord_f_onset_isolate_s_onset_isolate_,Sounds/,Sounds/NewWord_f_onset_isolate_s_onset_isolate_25.wav,,,,,,,,,,,,,,,,,2,5,33,10,,,,,,,,,,,s,0.486,,,,,male,21,10,American English,2019_Jun_21_1052,fricative_categorical_boundary,3.0.4,59.94122523098473,
23,NewWord_f_onset_isolate_s_onset_isolate_,Sounds/,Sounds/NewWord_f_onset_isolate_s_onset_isolate_23.wav,,,,,,,,,,,,,,,,,2,6,34,9,,,,,,,,,,,s,0.421,,,,,male,21,10,American English,2019_Jun_21_1052,fricative_categorical_boundary,3.0.4,59.94122523098473,
7,NewWord_f_onset_isolate_s_onset_isolate_,Sounds/,Sounds/NewWord_f_onset_isolate_s_onset_isolate_7.wav,,,,,,,,,,,,,,,,,2,7,35,1,,,,,,,,,,,f,0.653,,,,,male,21,10,American English,2019_Jun_21_1052,fricative_categorical_boundary,3.0.4,59.94122523098473,
17,NewWord_f_onset_isolate_s_onset_isolate_,Sounds/,Sounds/NewWord_f_onset_isolate_s_onset_isolate_17.wav,,,,,,,,,,,,,,,,,2,8,36,6,,,,,,,,,,,f,1.738,,,,,male,21,10,American English,2019_Jun_21_1052,fricative_categorical_boundary,3.0.4,59.94122523098473,
1,NewWord_f_onset_isolate_s_onset_isolate_,Sounds/,Sounds/NewWord_f_onset_isolate_s_onset_isolate_1.wav,,,,,,,,,,,,,,,,,2,9,37,0,,,,,,,,,,,f,0.803,,,,,male,21,10,American English,2019_Jun_21_1052,fricative_categorical_boundary,3.0.4,59.94122523098473,
27,NewWord_f_onset_isolate_s_onset_isolate_,Sounds/,Sounds/NewWord_f_onset_isolate_s_onset_isolate_27.wav,,,,,,,,,,,,,,,,,2,10,38,11,,,,,,,,,,,s,0.737,,,,,male,21,10,American English,2019_Jun_21_1052,fricative_categorical_boundary,3.0.4,59.94122523098473,
9,NewWord_f_onset_isolate_s_onset_isolate_,Sounds/,Sounds/NewWord_f_onset_isolate_s_onset_isolate_9.wav,,,,,,,,,,,,,,,,,2,11,39,2,,,,,,,,,,,f,0.554,,,,,male,21,10,American English,2019_Jun_21_1052,fricative_categorical_boundary,3.0.4,59.94122523098473,
13,NewWord_f_onset_isolate_s_onset_isolate_,Sounds/,Sounds/NewWord_f_onset_isolate_s_onset_isolate_13.wav,,,,,,,,,,,,,,,,,2,12,40,4,,,,,,,,,,,f,0.42,,,,,male,21,10,American English,2019_Jun_21_1052,fricative_categorical_boundary,3.0.4,59.94122523098473,
11,NewWord_f_onset_isolate_s_onset_isolate_,Sounds/,Sounds/NewWord_f_onset_isolate_s_onset_isolate_11.wav,,,,,,,,,,,,,,,,,2,13,41,3,,,,,,,,,,,f,0.403,,,,,male,21,10,American English,2019_Jun_21_1052,fricative_categorical_boundary,3.0.4,59.94122523098473,
23,NewWord_f_onset_isolate_s_onset_isolate_,Sounds/,Sounds/NewWord_f_onset_isolate_s_onset_isolate_23.wav,,,,,,,,,,,,,,,,,3,0,42,9,,,,,,,,,,,s,0.536,,,,,male,21,10,American English,2019_Jun_21_1052,fricative_categorical_boundary,3.0.4,59.94122523098473,
13,NewWord_f_onset_isolate_s_onset_isolate_,Sounds/,Sounds/NewWord_f_onset_isolate_s_onset_isolate_13.wav,,,,,,,,,,,,,,,,,3,1,43,4,,,,,,,,,,,f,0.536,,,,,male,21,10,American English,2019_Jun_21_1052,fricative_categorical_boundary,3.0.4,59.94122523098473,
11,NewWord_f_onset_isolate_s_onset_isolate_,Sounds/,Sounds/NewWord_f_onset_isolate_s_onset_isolate_11.wav,,,,,,,,,,,,,,,,,3,2,44,3,,,,,,,,,,,f,0.404,,,,,male,21,10,American English,2019_Jun_21_1052,fricative_categorical_boundary,3.0.4,59.94122523098473,
41,NewWord_f_onset_isolate_s_onset_isolate_,Sounds/,Sounds/NewWord_f_onset_isolate_s_onset_isolate_41.wav,,,,,,,,,,,,,,,,,3,3,45,13,,,,,,,,,,,s,0.886,,,,,male,21,10,American English,2019_Jun_21_1052,fricative_categorical_boundary,3.0.4,59.94122523098473,
25,NewWord_f_onset_isolate_s_onset_isolate_,Sounds/,Sounds/NewWord_f_onset_isolate_s_onset_isolate_25.wav,,,,,,,,,,,,,,,,,3,4,46,10,,,,,,,,,,,s,0.536,,,,,male,21,10,American English,2019_Jun_21_1052,fricative_categorical_boundary,3.0.4,59.94122523098473,
19,NewWord_f_onset_isolate_s_onset_isolate_,Sounds/,Sounds/NewWord_f_onset_isolate_s_onset_isolate_19.wav,,,,,,,,,,,,,,,,,3,5,47,7,,,,,,,,,,,f,1.171,,,,,male,21,10,American English,2019_Jun_21_1052,fricative_categorical_boundary,3.0.4,59.94122523098473,
15,NewWord_f_onset_isolate_s_onset_isolate_,Sounds/,Sounds/NewWord_f_onset_isolate_s_onset_isolate_15.wav,,,,,,,,,,,,,,,,,3,6,48,5,,,,,,,,,,,f,0.771,,,,,male,21,10,American English,2019_Jun_21_1052,fricative_categorical_boundary,3.0.4,59.94122523098473,
1,NewWord_f_onset_isolate_s_onset_isolate_,Sounds/,Sounds/NewWord_f_onset_isolate_s_onset_isolate_1.wav,,,,,,,,,,,,,,,,,3,7,49,0,,,,,,,,,,,f,0.603,,,,,male,21,10,American English,2019_Jun_21_1052,fricative_categorical_boundary,3.0.4,59.94122523098473,
27,NewWord_f_onset_isolate_s_onset_isolate_,Sounds/,Sounds/NewWord_f_onset_isolate_s_onset_isolate_27.wav,,,,,,,,,,,,,,,,,3,8,50,11,,,,,,,,,,,s,0.619,,,,,male,21,10,American English,2019_Jun_21_1052,fricative_categorical_boundary,3.0.4,59.94122523098473,
9,NewWord_f_onset_isolate_s_onset_isolate_,Sounds/,Sounds/NewWord_f_onset_isolate_s_onset_isolate_9.wav,,,,,,,,,,,,,,,,,3,9,51,2,,,,,,,,,,,f,1.053,,,,,male,21,10,American English,2019_Jun_21_1052,fricative_categorical_boundary,3.0.4,59.94122523098473,
29,NewWord_f_onset_isolate_s_onset_isolate_,Sounds/,Sounds/NewWord_f_onset_isolate_s_onset_isolate_29.wav,,,,,,,,,,,,,,,,,3,10,52,12,,,,,,,,,,,s,0.82,,,,,male,21,10,American English,2019_Jun_21_1052,fricative_categorical_boundary,3.0.4,59.94122523098473,
7,NewWord_f_onset_isolate_s_onset_isolate_,Sounds/,Sounds/NewWord_f_onset_isolate_s_onset_isolate_7.wav,,,,,,,,,,,,,,,,,3,11,53,1,,,,,,,,,,,f,0.769,,,,,male,21,10,American English,2019_Jun_21_1052,fricative_categorical_boundary,3.0.4,59.94122523098473,
21,NewWord_f_onset_isolate_s_onset_isolate_,Sounds/,Sounds/NewWord_f_onset_isolate_s_onset_isolate_21.wav,,,,,,,,,,,,,,,,,3,12,54,8,,,,,,,,,,,f,0.602,,,,,male,21,10,American English,2019_Jun_21_1052,fricative_categorical_boundary,3.0.4,59.94122523098473,
17,NewWord_f_onset_isolate_s_onset_isolate_,Sounds/,Sounds/NewWord_f_onset_isolate_s_onset_isolate_17.wav,,,,,,,,,,,,,,,,,3,13,55,6,,,,,,,,,,,f,0.403,,,,,male,21,10,American English,2019_Jun_21_1052,fricative_categorical_boundary,3.0.4,59.94122523098473,
