source,Stimuli,Prefix,ChosenStep,realvsnonce,soundfile,segment,token,prefix,address,position,type,trials.thisRepN,trials.thisTrialN,trials.thisN,trials.thisIndex,trials_2.thisRepN,trials_2.thisTrialN,trials_2.thisN,trials_2.thisIndex,trials_3.thisRepN,trials_3.thisTrialN,trials_3.thisN,trials_3.thisIndex,mouse_5.x,mouse_5.y,mouse_5.leftButton,mouse_5.midButton,mouse_5.rightButton,mouse.x,mouse.y,mouse.leftButton,mouse.midButton,mouse.rightButton,rating.response,rating.rt,key_resp_2.keys,key_resp_2.rt,key_resp_3.keys,key_resp_3.rt,participant,Gender,Age,frameRate,Native Language,expName,date,
,,,,,,,,,,,,,,,,,,,,,,,,-0.269791666667,0.105555555556,1,0,0,,,,,,,,,,,,1,Female,20,59.9520304169,American English,fricative_categorical_boundary,2018_Jun_07_1041,
,,,,,,,,,,,,,,,,,,,,,,,,,,,,,-0.410416666667,-0.505555555556,1,0,0,,,,,,,1,Female,20,59.9520304169,American English,fricative_categorical_boundary,2018_Jun_07_1041,
Sounds/,Sounds/NewWord_f_onset_isolate_s_onset_isolate_29.wav,NewWord_f_onset_isolate_s_onset_isolate_,29,,,,,,,,,0,0,0,12,,,,,,,,,,,,,,,,,,,s,5.475,,,,,1,Female,20,59.9520304169,American English,fricative_categorical_boundary,2018_Jun_07_1041,
Sounds/,Sounds/NewWord_f_onset_isolate_s_onset_isolate_17.wav,NewWord_f_onset_isolate_s_onset_isolate_,17,,,,,,,,,0,1,1,6,,,,,,,,,,,,,,,,,,,s,1.554,,,,,1,Female,20,59.9520304169,American English,fricative_categorical_boundary,2018_Jun_07_1041,
Sounds/,Sounds/NewWord_f_onset_isolate_s_onset_isolate_7.wav,NewWord_f_onset_isolate_s_onset_isolate_,7,,,,,,,,,0,2,2,1,,,,,,,,,,,,,,,,,,,f,2.071,,,,,1,Female,20,59.9520304169,American English,fricative_categorical_boundary,2018_Jun_07_1041,
Sounds/,Sounds/NewWord_f_onset_isolate_s_onset_isolate_41.wav,NewWord_f_onset_isolate_s_onset_isolate_,41,,,,,,,,,0,3,3,13,,,,,,,,,,,,,,,,,,,s,1.187,,,,,1,Female,20,59.9520304169,American English,fricative_categorical_boundary,2018_Jun_07_1041,
Sounds/,Sounds/NewWord_f_onset_isolate_s_onset_isolate_15.wav,NewWord_f_onset_isolate_s_onset_isolate_,15,,,,,,,,,0,4,4,5,,,,,,,,,,,,,,,,,,,f,1.27,,,,,1,Female,20,59.9520304169,American English,fricative_categorical_boundary,2018_Jun_07_1041,
Sounds/,Sounds/NewWord_f_onset_isolate_s_onset_isolate_11.wav,NewWord_f_onset_isolate_s_onset_isolate_,11,,,,,,,,,0,5,5,3,,,,,,,,,,,,,,,,,,,f,0.437,,,,,1,Female,20,59.9520304169,American English,fricative_categorical_boundary,2018_Jun_07_1041,
Sounds/,Sounds/NewWord_f_onset_isolate_s_onset_isolate_21.wav,NewWord_f_onset_isolate_s_onset_isolate_,21,,,,,,,,,0,6,6,8,,,,,,,,,,,,,,,,,,,f,0.57,,,,,1,Female,20,59.9520304169,American English,fricative_categorical_boundary,2018_Jun_07_1041,
Sounds/,Sounds/NewWord_f_onset_isolate_s_onset_isolate_9.wav,NewWord_f_onset_isolate_s_onset_isolate_,9,,,,,,,,,0,7,7,2,,,,,,,,,,,,,,,,,,,f,0.407,,,,,1,Female,20,59.9520304169,American English,fricative_categorical_boundary,2018_Jun_07_1041,
Sounds/,Sounds/NewWord_f_onset_isolate_s_onset_isolate_1.wav,NewWord_f_onset_isolate_s_onset_isolate_,1,,,,,,,,,0,8,8,0,,,,,,,,,,,,,,,,,,,f,2.372,,,,,1,Female,20,59.9520304169,American English,fricative_categorical_boundary,2018_Jun_07_1041,
Sounds/,Sounds/NewWord_f_onset_isolate_s_onset_isolate_19.wav,NewWord_f_onset_isolate_s_onset_isolate_,19,,,,,,,,,0,9,9,7,,,,,,,,,,,,,,,,,,,f,1.104,,,,,1,Female,20,59.9520304169,American English,fricative_categorical_boundary,2018_Jun_07_1041,
Sounds/,Sounds/NewWord_f_onset_isolate_s_onset_isolate_23.wav,NewWord_f_onset_isolate_s_onset_isolate_,23,,,,,,,,,0,10,10,9,,,,,,,,,,,,,,,,,,,s,0.737,,,,,1,Female,20,59.9520304169,American English,fricative_categorical_boundary,2018_Jun_07_1041,
Sounds/,Sounds/NewWord_f_onset_isolate_s_onset_isolate_25.wav,NewWord_f_onset_isolate_s_onset_isolate_,25,,,,,,,,,0,11,11,10,,,,,,,,,,,,,,,,,,,s,0.821,,,,,1,Female,20,59.9520304169,American English,fricative_categorical_boundary,2018_Jun_07_1041,
Sounds/,Sounds/NewWord_f_onset_isolate_s_onset_isolate_27.wav,NewWord_f_onset_isolate_s_onset_isolate_,27,,,,,,,,,0,12,12,11,,,,,,,,,,,,,,,,,,,s,0.903,,,,,1,Female,20,59.9520304169,American English,fricative_categorical_boundary,2018_Jun_07_1041,
Sounds/,Sounds/NewWord_f_onset_isolate_s_onset_isolate_13.wav,NewWord_f_onset_isolate_s_onset_isolate_,13,,,,,,,,,0,13,13,4,,,,,,,,,,,,,,,,,,,f,0.62,,,,,1,Female,20,59.9520304169,American English,fricative_categorical_boundary,2018_Jun_07_1041,
Sounds/,Sounds/NewWord_f_onset_isolate_s_onset_isolate_23.wav,NewWord_f_onset_isolate_s_onset_isolate_,23,,,,,,,,,1,0,14,9,,,,,,,,,,,,,,,,,,,s,1.637,,,,,1,Female,20,59.9520304169,American English,fricative_categorical_boundary,2018_Jun_07_1041,
Sounds/,Sounds/NewWord_f_onset_isolate_s_onset_isolate_19.wav,NewWord_f_onset_isolate_s_onset_isolate_,19,,,,,,,,,1,1,15,7,,,,,,,,,,,,,,,,,,,s,0.403,,,,,1,Female,20,59.9520304169,American English,fricative_categorical_boundary,2018_Jun_07_1041,
Sounds/,Sounds/NewWord_f_onset_isolate_s_onset_isolate_17.wav,NewWord_f_onset_isolate_s_onset_isolate_,17,,,,,,,,,1,2,16,6,,,,,,,,,,,,,,,,,,,f,0.736,,,,,1,Female,20,59.9520304169,American English,fricative_categorical_boundary,2018_Jun_07_1041,
Sounds/,Sounds/NewWord_f_onset_isolate_s_onset_isolate_21.wav,NewWord_f_onset_isolate_s_onset_isolate_,21,,,,,,,,,1,3,17,8,,,,,,,,,,,,,,,,,,,s,0.686,,,,,1,Female,20,59.9520304169,American English,fricative_categorical_boundary,2018_Jun_07_1041,
Sounds/,Sounds/NewWord_f_onset_isolate_s_onset_isolate_1.wav,NewWord_f_onset_isolate_s_onset_isolate_,1,,,,,,,,,1,4,18,0,,,,,,,,,,,,,,,,,,,f,0.736,,,,,1,Female,20,59.9520304169,American English,fricative_categorical_boundary,2018_Jun_07_1041,
Sounds/,Sounds/NewWord_f_onset_isolate_s_onset_isolate_27.wav,NewWord_f_onset_isolate_s_onset_isolate_,27,,,,,,,,,1,5,19,11,,,,,,,,,,,,,,,,,,,s,0.486,,,,,1,Female,20,59.9520304169,American English,fricative_categorical_boundary,2018_Jun_07_1041,
Sounds/,Sounds/NewWord_f_onset_isolate_s_onset_isolate_7.wav,NewWord_f_onset_isolate_s_onset_isolate_,7,,,,,,,,,1,6,20,1,,,,,,,,,,,,,,,,,,,f,0.419,,,,,1,Female,20,59.9520304169,American English,fricative_categorical_boundary,2018_Jun_07_1041,
Sounds/,Sounds/NewWord_f_onset_isolate_s_onset_isolate_15.wav,NewWord_f_onset_isolate_s_onset_isolate_,15,,,,,,,,,1,7,21,5,,,,,,,,,,,,,,,,,,,f,1.271,,,,,1,Female,20,59.9520304169,American English,fricative_categorical_boundary,2018_Jun_07_1041,
Sounds/,Sounds/NewWord_f_onset_isolate_s_onset_isolate_25.wav,NewWord_f_onset_isolate_s_onset_isolate_,25,,,,,,,,,1,8,22,10,,,,,,,,,,,,,,,,,,,f,0.403,,,,,1,Female,20,59.9520304169,American English,fricative_categorical_boundary,2018_Jun_07_1041,
Sounds/,Sounds/NewWord_f_onset_isolate_s_onset_isolate_11.wav,NewWord_f_onset_isolate_s_onset_isolate_,11,,,,,,,,,1,9,23,3,,,,,,,,,,,,,,,,,,,f,0.403,,,,,1,Female,20,59.9520304169,American English,fricative_categorical_boundary,2018_Jun_07_1041,
Sounds/,Sounds/NewWord_f_onset_isolate_s_onset_isolate_13.wav,NewWord_f_onset_isolate_s_onset_isolate_,13,,,,,,,,,1,10,24,4,,,,,,,,,,,,,,,,,,,f,1.054,,,,,1,Female,20,59.9520304169,American English,fricative_categorical_boundary,2018_Jun_07_1041,
Sounds/,Sounds/NewWord_f_onset_isolate_s_onset_isolate_29.wav,NewWord_f_onset_isolate_s_onset_isolate_,29,,,,,,,,,1,11,25,12,,,,,,,,,,,,,,,,,,,s,0.486,,,,,1,Female,20,59.9520304169,American English,fricative_categorical_boundary,2018_Jun_07_1041,
Sounds/,Sounds/NewWord_f_onset_isolate_s_onset_isolate_9.wav,NewWord_f_onset_isolate_s_onset_isolate_,9,,,,,,,,,1,12,26,2,,,,,,,,,,,,,,,,,,,f,0.82,,,,,1,Female,20,59.9520304169,American English,fricative_categorical_boundary,2018_Jun_07_1041,
Sounds/,Sounds/NewWord_f_onset_isolate_s_onset_isolate_41.wav,NewWord_f_onset_isolate_s_onset_isolate_,41,,,,,,,,,1,13,27,13,,,,,,,,,,,,,,,,,,,s,0.67,,,,,1,Female,20,59.9520304169,American English,fricative_categorical_boundary,2018_Jun_07_1041,
Sounds/,Sounds/NewWord_f_onset_isolate_s_onset_isolate_13.wav,NewWord_f_onset_isolate_s_onset_isolate_,13,,,,,,,,,2,0,28,4,,,,,,,,,,,,,,,,,,,f,0.737,,,,,1,Female,20,59.9520304169,American English,fricative_categorical_boundary,2018_Jun_07_1041,
Sounds/,Sounds/NewWord_f_onset_isolate_s_onset_isolate_11.wav,NewWord_f_onset_isolate_s_onset_isolate_,11,,,,,,,,,2,1,29,3,,,,,,,,,,,,,,,,,,,f,0.537,,,,,1,Female,20,59.9520304169,American English,fricative_categorical_boundary,2018_Jun_07_1041,
Sounds/,Sounds/NewWord_f_onset_isolate_s_onset_isolate_25.wav,NewWord_f_onset_isolate_s_onset_isolate_,25,,,,,,,,,2,2,30,10,,,,,,,,,,,,,,,,,,,f,0.887,,,,,1,Female,20,59.9520304169,American English,fricative_categorical_boundary,2018_Jun_07_1041,
Sounds/,Sounds/NewWord_f_onset_isolate_s_onset_isolate_29.wav,NewWord_f_onset_isolate_s_onset_isolate_,29,,,,,,,,,2,3,31,12,,,,,,,,,,,,,,,,,,,s,1.488,,,,,1,Female,20,59.9520304169,American English,fricative_categorical_boundary,2018_Jun_07_1041,
Sounds/,Sounds/NewWord_f_onset_isolate_s_onset_isolate_27.wav,NewWord_f_onset_isolate_s_onset_isolate_,27,,,,,,,,,2,4,32,11,,,,,,,,,,,,,,,,,,,f,1.604,,,,,1,Female,20,59.9520304169,American English,fricative_categorical_boundary,2018_Jun_07_1041,
Sounds/,Sounds/NewWord_f_onset_isolate_s_onset_isolate_17.wav,NewWord_f_onset_isolate_s_onset_isolate_,17,,,,,,,,,2,5,33,6,,,,,,,,,,,,,,,,,,,f,0.57,,,,,1,Female,20,59.9520304169,American English,fricative_categorical_boundary,2018_Jun_07_1041,
Sounds/,Sounds/NewWord_f_onset_isolate_s_onset_isolate_19.wav,NewWord_f_onset_isolate_s_onset_isolate_,19,,,,,,,,,2,6,34,7,,,,,,,,,,,,,,,,,,,f,0.405,,,,,1,Female,20,59.9520304169,American English,fricative_categorical_boundary,2018_Jun_07_1041,
Sounds/,Sounds/NewWord_f_onset_isolate_s_onset_isolate_9.wav,NewWord_f_onset_isolate_s_onset_isolate_,9,,,,,,,,,2,7,35,2,,,,,,,,,,,,,,,,,,,f,0.403,,,,,1,Female,20,59.9520304169,American English,fricative_categorical_boundary,2018_Jun_07_1041,
Sounds/,Sounds/NewWord_f_onset_isolate_s_onset_isolate_21.wav,NewWord_f_onset_isolate_s_onset_isolate_,21,,,,,,,,,2,8,36,8,,,,,,,,,,,,,,,,,,,f,1.071,,,,,1,Female,20,59.9520304169,American English,fricative_categorical_boundary,2018_Jun_07_1041,
Sounds/,Sounds/NewWord_f_onset_isolate_s_onset_isolate_1.wav,NewWord_f_onset_isolate_s_onset_isolate_,1,,,,,,,,,2,9,37,0,,,,,,,,,,,,,,,,,,,f,0.403,,,,,1,Female,20,59.9520304169,American English,fricative_categorical_boundary,2018_Jun_07_1041,
Sounds/,Sounds/NewWord_f_onset_isolate_s_onset_isolate_23.wav,NewWord_f_onset_isolate_s_onset_isolate_,23,,,,,,,,,2,10,38,9,,,,,,,,,,,,,,,,,,,s,0.652,,,,,1,Female,20,59.9520304169,American English,fricative_categorical_boundary,2018_Jun_07_1041,
Sounds/,Sounds/NewWord_f_onset_isolate_s_onset_isolate_7.wav,NewWord_f_onset_isolate_s_onset_isolate_,7,,,,,,,,,2,11,39,1,,,,,,,,,,,,,,,,,,,f,0.603,,,,,1,Female,20,59.9520304169,American English,fricative_categorical_boundary,2018_Jun_07_1041,
Sounds/,Sounds/NewWord_f_onset_isolate_s_onset_isolate_15.wav,NewWord_f_onset_isolate_s_onset_isolate_,15,,,,,,,,,2,12,40,5,,,,,,,,,,,,,,,,,,,f,0.77,,,,,1,Female,20,59.9520304169,American English,fricative_categorical_boundary,2018_Jun_07_1041,
Sounds/,Sounds/NewWord_f_onset_isolate_s_onset_isolate_41.wav,NewWord_f_onset_isolate_s_onset_isolate_,41,,,,,,,,,2,13,41,13,,,,,,,,,,,,,,,,,,,s,0.503,,,,,1,Female,20,59.9520304169,American English,fricative_categorical_boundary,2018_Jun_07_1041,
Sounds/,Sounds/NewWord_f_onset_isolate_s_onset_isolate_25.wav,NewWord_f_onset_isolate_s_onset_isolate_,25,,,,,,,,,3,0,42,10,,,,,,,,,,,,,,,,,,,f,0.887,,,,,1,Female,20,59.9520304169,American English,fricative_categorical_boundary,2018_Jun_07_1041,
Sounds/,Sounds/NewWord_f_onset_isolate_s_onset_isolate_23.wav,NewWord_f_onset_isolate_s_onset_isolate_,23,,,,,,,,,3,1,43,9,,,,,,,,,,,,,,,,,,,f,0.587,,,,,1,Female,20,59.9520304169,American English,fricative_categorical_boundary,2018_Jun_07_1041,
Sounds/,Sounds/NewWord_f_onset_isolate_s_onset_isolate_9.wav,NewWord_f_onset_isolate_s_onset_isolate_,9,,,,,,,,,3,2,44,2,,,,,,,,,,,,,,,,,,,f,0.403,,,,,1,Female,20,59.9520304169,American English,fricative_categorical_boundary,2018_Jun_07_1041,
Sounds/,Sounds/NewWord_f_onset_isolate_s_onset_isolate_7.wav,NewWord_f_onset_isolate_s_onset_isolate_,7,,,,,,,,,3,3,45,1,,,,,,,,,,,,,,,,,,,f,0.403,,,,,1,Female,20,59.9520304169,American English,fricative_categorical_boundary,2018_Jun_07_1041,
Sounds/,Sounds/NewWord_f_onset_isolate_s_onset_isolate_1.wav,NewWord_f_onset_isolate_s_onset_isolate_,1,,,,,,,,,3,4,46,0,,,,,,,,,,,,,,,,,,,f,0.403,,,,,1,Female,20,59.9520304169,American English,fricative_categorical_boundary,2018_Jun_07_1041,
Sounds/,Sounds/NewWord_f_onset_isolate_s_onset_isolate_19.wav,NewWord_f_onset_isolate_s_onset_isolate_,19,,,,,,,,,3,5,47,7,,,,,,,,,,,,,,,,,,,f,0.403,,,,,1,Female,20,59.9520304169,American English,fricative_categorical_boundary,2018_Jun_07_1041,
Sounds/,Sounds/NewWord_f_onset_isolate_s_onset_isolate_41.wav,NewWord_f_onset_isolate_s_onset_isolate_,41,,,,,,,,,3,6,48,13,,,,,,,,,,,,,,,,,,,s,0.62,,,,,1,Female,20,59.9520304169,American English,fricative_categorical_boundary,2018_Jun_07_1041,
Sounds/,Sounds/NewWord_f_onset_isolate_s_onset_isolate_17.wav,NewWord_f_onset_isolate_s_onset_isolate_,17,,,,,,,,,3,7,49,6,,,,,,,,,,,,,,,,,,,f,1.204,,,,,1,Female,20,59.9520304169,American English,fricative_categorical_boundary,2018_Jun_07_1041,
Sounds/,Sounds/NewWord_f_onset_isolate_s_onset_isolate_11.wav,NewWord_f_onset_isolate_s_onset_isolate_,11,,,,,,,,,3,8,50,3,,,,,,,,,,,,,,,,,,,f,0.403,,,,,1,Female,20,59.9520304169,American English,fricative_categorical_boundary,2018_Jun_07_1041,
Sounds/,Sounds/NewWord_f_onset_isolate_s_onset_isolate_15.wav,NewWord_f_onset_isolate_s_onset_isolate_,15,,,,,,,,,3,9,51,5,,,,,,,,,,,,,,,,,,,f,0.403,,,,,1,Female,20,59.9520304169,American English,fricative_categorical_boundary,2018_Jun_07_1041,
Sounds/,Sounds/NewWord_f_onset_isolate_s_onset_isolate_29.wav,NewWord_f_onset_isolate_s_onset_isolate_,29,,,,,,,,,3,10,52,12,,,,,,,,,,,,,,,,,,,s,0.837,,,,,1,Female,20,59.9520304169,American English,fricative_categorical_boundary,2018_Jun_07_1041,
Sounds/,Sounds/NewWord_f_onset_isolate_s_onset_isolate_21.wav,NewWord_f_onset_isolate_s_onset_isolate_,21,,,,,,,,,3,11,53,8,,,,,,,,,,,,,,,,,,,f,0.67,,,,,1,Female,20,59.9520304169,American English,fricative_categorical_boundary,2018_Jun_07_1041,
Sounds/,Sounds/NewWord_f_onset_isolate_s_onset_isolate_13.wav,NewWord_f_onset_isolate_s_onset_isolate_,13,,,,,,,,,3,12,54,4,,,,,,,,,,,,,,,,,,,f,1.038,,,,,1,Female,20,59.9520304169,American English,fricative_categorical_boundary,2018_Jun_07_1041,
Sounds/,Sounds/NewWord_f_onset_isolate_s_onset_isolate_27.wav,NewWord_f_onset_isolate_s_onset_isolate_,27,,,,,,,,,3,13,55,11,,,,,,,,,,,,,,,,,,,s,1.204,,,,,1,Female,20,59.9520304169,American English,fricative_categorical_boundary,2018_Jun_07_1041,
,,,,,,,,,,,,,,,,,,,,,,,,,,,,,,,,,,,,space,4.10949683189,,,1,Female,20,59.9520304169,American English,fricative_categorical_boundary,2018_Jun_07_1041,
,,,,n/a,LDTSounds/food.wav,f,food,None,LDTSounds/,onset,test,,,,,0,0,0,10,,,,,,,,,,,,,,,,,,,l,1.92151808739,1,Female,20,59.9520304169,American English,fricative_categorical_boundary,2018_Jun_07_1041,
,,,,n/a,LDTSounds/poof.wav,f,poof,None,LDTSounds/,coda,test,,,,,0,1,1,4,,,,,,,,,,,,,,,,,,,l,1.33736896515,1,Female,20,59.9520304169,American English,fricative_categorical_boundary,2018_Jun_07_1041,
,,,,real,LDTSounds/tomb.wav,n/a,tomb,None,LDTSounds/,n/a,filler,,,,,0,2,2,35,,,,,,,,,,,,,,,,,,,l,1.28726601601,1,Female,20,59.9520304169,American English,fricative_categorical_boundary,2018_Jun_07_1041,
,,,,nonce,LDTSounds/kinudiplo.wav,n/a,kinudiplo,None,LDTSounds/,n/a,filler,,,,,0,3,3,149,,,,,,,,,,,,,,,,,,,a,1.30401587486,1,Female,20,59.9520304169,American English,fricative_categorical_boundary,2018_Jun_07_1041,
,,,,n/a,LDTSounds/beef.wav,f,beef,None,LDTSounds/,coda,test,,,,,0,4,4,6,,,,,,,,,,,,,,,,,,,l,1.253937006,1,Female,20,59.9520304169,American English,fricative_categorical_boundary,2018_Jun_07_1041,
,,,,nonce,LDTSounds/ratwell.wav,n/a,ratwell,None,LDTSounds/,n/a,filler,,,,,0,5,5,108,,,,,,,,,,,,,,,,,,,l,1.6376721859,1,Female,20,59.9520304169,American English,fricative_categorical_boundary,2018_Jun_07_1041,
,,,,n/a,LDTSounds/soon.wav,s,soon,None,LDTSounds/,onset,test,,,,,0,6,6,32,,,,,,,,,,,,,,,,,,,l,1.15401792526,1,Female,20,59.9520304169,American English,fricative_categorical_boundary,2018_Jun_07_1041,
,,,,n/a,LDTSounds/sip.wav,s,sip,None,LDTSounds/,onset,test,,,,,0,7,7,30,,,,,,,,,,,,,,,,,,,l,1.03704214096,1,Female,20,59.9520304169,American English,fricative_categorical_boundary,2018_Jun_07_1041,
,,,,n/a,LDTSounds/truss.wav,s,truss,None,LDTSounds/,coda,test,,,,,0,8,8,17,,,,,,,,,,,,,,,,,,,l,0.970451831818,1,Female,20,59.9520304169,American English,fricative_categorical_boundary,2018_Jun_07_1041,
,,,,n/a,LDTSounds/sulk.wav,s,sulk,None,LDTSounds/,onset,test,,,,,0,9,9,33,,,,,,,,,,,,,,,,,,,l,1.4039709568,1,Female,20,59.9520304169,American English,fricative_categorical_boundary,2018_Jun_07_1041,
,,,,nonce,LDTSounds/gelp.wav,n/a,gelp,None,LDTSounds/,n/a,filler,,,,,0,10,10,85,,,,,,,,,,,,,,,,,,,a,2.32213902473,1,Female,20,59.9520304169,American English,fricative_categorical_boundary,2018_Jun_07_1041,
,,,,nonce,LDTSounds/toin.wav,n/a,toin,None,LDTSounds/,n/a,filler,,,,,0,11,11,88,,,,,,,,,,,,,,,,,,,a,1.95469689369,1,Female,20,59.9520304169,American English,fricative_categorical_boundary,2018_Jun_07_1041,
,,,,real,LDTSounds/toy.wav,n/a,toy,None,LDTSounds/,n/a,filler,,,,,0,12,12,53,,,,,,,,,,,,,,,,,,,l,1.07062506676,1,Female,20,59.9520304169,American English,fricative_categorical_boundary,2018_Jun_07_1041,
,,,,real,LDTSounds/pillow.wav,n/a,pillow,None,LDTSounds/,n/a,filler,,,,,0,13,13,72,,,,,,,,,,,,,,,,,,,l,0.820438146591,1,Female,20,59.9520304169,American English,fricative_categorical_boundary,2018_Jun_07_1041,
,,,,n/a,LDTSounds/sect.wav,s,sect,None,LDTSounds/,onset,test,,,,,0,14,14,26,,,,,,,,,,,,,,,,,,,a,1.50417709351,1,Female,20,59.9520304169,American English,fricative_categorical_boundary,2018_Jun_07_1041,
,,,,nonce,LDTSounds/giblo.wav,n/a,giblo,None,LDTSounds/,n/a,filler,,,,,0,15,15,93,,,,,,,,,,,,,,,,,,,l,2.78908920288,1,Female,20,59.9520304169,American English,fricative_categorical_boundary,2018_Jun_07_1041,
,,,,real,LDTSounds/typing.wav,n/a,typing,None,LDTSounds/,n/a,filler,,,,,0,16,16,70,,,,,,,,,,,,,,,,,,,l,0.936964035034,1,Female,20,59.9520304169,American English,fricative_categorical_boundary,2018_Jun_07_1041,
,,,,nonce,LDTSounds/blegondanit.wav,n/a,blegondanit,None,LDTSounds/,n/a,filler,,,,,0,17,17,144,,,,,,,,,,,,,,,,,,,a,1.50420594215,1,Female,20,59.9520304169,American English,fricative_categorical_boundary,2018_Jun_07_1041,
,,,,real,LDTSounds/lemur.wav,n/a,lemur,None,LDTSounds/,n/a,filler,,,,,0,18,18,68,,,,,,,,,,,,,,,,,,,l,1.2373149395,1,Female,20,59.9520304169,American English,fricative_categorical_boundary,2018_Jun_07_1041,
,,,,real,LDTSounds/pen.wav,n/a,pen,None,LDTSounds/,n/a,filler,,,,,0,19,19,40,,,,,,,,,,,,,,,,,,,l,0.87034702301,1,Female,20,59.9520304169,American English,fricative_categorical_boundary,2018_Jun_07_1041,
,,,,nonce,LDTSounds/noopalingdo.wav,n/a,noopalingdo,None,LDTSounds/,n/a,filler,,,,,0,20,20,135,,,,,,,,,,,,,,,,,,,a,0.969871044159,1,Female,20,59.9520304169,American English,fricative_categorical_boundary,2018_Jun_07_1041,
,,,,n/a,LDTSounds/such.wav,s,such,None,LDTSounds/,onset,test,,,,,0,21,21,25,,,,,,,,,,,,,,,,,,,l,0.937146902084,1,Female,20,59.9520304169,American English,fricative_categorical_boundary,2018_Jun_07_1041,
,,,,nonce,LDTSounds/rekmate.wav,n/a,rekmate,None,LDTSounds/,n/a,filler,,,,,0,22,22,103,,,,,,,,,,,,,,,,,,,l,1.58757090569,1,Female,20,59.9520304169,American English,fricative_categorical_boundary,2018_Jun_07_1041,
,,,,nonce,LDTSounds/habapithloo.wav,n/a,habapithloo,None,LDTSounds/,n/a,filler,,,,,0,23,23,136,,,,,,,,,,,,,,,,,,,a,1.18731307983,1,Female,20,59.9520304169,American English,fricative_categorical_boundary,2018_Jun_07_1041,
,,,,real,LDTSounds/day.wav,n/a,day,None,LDTSounds/,n/a,filler,,,,,0,24,24,50,,,,,,,,,,,,,,,,,,,l,2.02142906189,1,Female,20,59.9520304169,American English,fricative_categorical_boundary,2018_Jun_07_1041,
,,,,nonce,LDTSounds/bidbowk.wav,n/a,bidbowk,None,LDTSounds/,n/a,filler,,,,,0,25,25,109,,,,,,,,,,,,,,,,,,,a,1.08739495277,1,Female,20,59.9520304169,American English,fricative_categorical_boundary,2018_Jun_07_1041,
,,,,nonce,LDTSounds/twek.wav,n/a,twek,None,LDTSounds/,n/a,filler,,,,,0,26,26,80,,,,,,,,,,,,,,,,,,,a,0.953581094742,1,Female,20,59.9520304169,American English,fricative_categorical_boundary,2018_Jun_07_1041,
,,,,real,LDTSounds/baking.wav,n/a,baking,None,LDTSounds/,n/a,filler,,,,,0,27,27,69,,,,,,,,,,,,,,,,,,,l,0.720276117325,1,Female,20,59.9520304169,American English,fricative_categorical_boundary,2018_Jun_07_1041,
,,,,nonce,LDTSounds/retlid.wav,n/a,retlid,None,LDTSounds/,n/a,filler,,,,,0,28,28,105,,,,,,,,,,,,,,,,,,,a,1.68784403801,1,Female,20,59.9520304169,American English,fricative_categorical_boundary,2018_Jun_07_1041,
,,,,nonce,LDTSounds/tridalondit.wav,n/a,tridalondit,None,LDTSounds/,n/a,filler,,,,,0,29,29,146,,,,,,,,,,,,,,,,,,,a,1.07030105591,1,Female,20,59.9520304169,American English,fricative_categorical_boundary,2018_Jun_07_1041,
,,,,real,LDTSounds/line.wav,n/a,line,None,LDTSounds/,n/a,filler,,,,,0,30,30,46,,,,,,,,,,,,,,,,,,,l,2.00508713722,1,Female,20,59.9520304169,American English,fricative_categorical_boundary,2018_Jun_07_1041,
,,,,nonce,LDTSounds/hoong.wav,n/a,hoong,None,LDTSounds/,n/a,filler,,,,,0,31,31,81,,,,,,,,,,,,,,,,,,,a,1.25404286385,1,Female,20,59.9520304169,American English,fricative_categorical_boundary,2018_Jun_07_1041,
,,,,nonce,LDTSounds/habalipdee.wav,n/a,habalipdee,None,LDTSounds/,n/a,filler,,,,,0,32,32,140,,,,,,,,,,,,,,,,,,,a,1.12061595917,1,Female,20,59.9520304169,American English,fricative_categorical_boundary,2018_Jun_07_1041,
,,,,nonce,LDTSounds/plagtorin.wav,n/a,plagtorin,None,LDTSounds/,n/a,filler,,,,,0,33,33,134,,,,,,,,,,,,,,,,,,,a,1.08701992035,1,Female,20,59.9520304169,American English,fricative_categorical_boundary,2018_Jun_07_1041,
,,,,real,LDTSounds/wet.wav,n/a,wet,None,LDTSounds/,n/a,filler,,,,,0,34,34,38,,,,,,,,,,,,,,,,,,,l,1.03709578514,1,Female,20,59.9520304169,American English,fricative_categorical_boundary,2018_Jun_07_1041,
,,,,nonce,LDTSounds/trag.wav,n/a,trag,None,LDTSounds/,n/a,filler,,,,,0,35,35,84,,,,,,,,,,,,,,,,,,,l,1.5376060009,1,Female,20,59.9520304169,American English,fricative_categorical_boundary,2018_Jun_07_1041,
,,,,nonce,LDTSounds/taklibd.wav,n/a,taklibd,None,LDTSounds/,n/a,filler,,,,,0,36,36,101,,,,,,,,,,,,,,,,,,,None,,1,Female,20,59.9520304169,American English,fricative_categorical_boundary,2018_Jun_07_1041,
,,,,real,LDTSounds/lump.wav,n/a,lump,None,LDTSounds/,n/a,filler,,,,,0,37,37,54,,,,,,,,,,,,,,,,,,,l,2.25509905815,1,Female,20,59.9520304169,American English,fricative_categorical_boundary,2018_Jun_07_1041,
,,,,real,LDTSounds/globe.wav,n/a,globe,None,LDTSounds/,n/a,filler,,,,,0,38,38,52,,,,,,,,,,,,,,,,,,,l,0.904115915298,1,Female,20,59.9520304169,American English,fricative_categorical_boundary,2018_Jun_07_1041,
,,,,real,LDTSounds/will.wav,n/a,will,None,LDTSounds/,n/a,filler,,,,,0,39,39,49,,,,,,,,,,,,,,,,,,,l,0.686748027802,1,Female,20,59.9520304169,American English,fricative_categorical_boundary,2018_Jun_07_1041,
,,,,nonce,LDTSounds/deemlond.wav,n/a,deemlond,None,LDTSounds/,n/a,filler,,,,,0,40,40,104,,,,,,,,,,,,,,,,,,,a,0.920163869858,1,Female,20,59.9520304169,American English,fricative_categorical_boundary,2018_Jun_07_1041,
,,,,real,LDTSounds/loot.wav,n/a,loot,None,LDTSounds/,n/a,filler,,,,,0,41,41,37,,,,,,,,,,,,,,,,,,,l,1.00362181664,1,Female,20,59.9520304169,American English,fricative_categorical_boundary,2018_Jun_07_1041,
,,,,real,LDTSounds/daydream.wav,n/a,daydream,None,LDTSounds/,n/a,filler,,,,,0,42,42,59,,,,,,,,,,,,,,,,,,,l,0.836784124374,1,Female,20,59.9520304169,American English,fricative_categorical_boundary,2018_Jun_07_1041,
,,,,nonce,LDTSounds/cridamlo.wav,n/a,cridamlo,None,LDTSounds/,n/a,filler,,,,,0,43,43,122,,,,,,,,,,,,,,,,,,,a,0.903431177139,1,Female,20,59.9520304169,American English,fricative_categorical_boundary,2018_Jun_07_1041,
,,,,nonce,LDTSounds/radoobling.wav,n/a,radoobling,None,LDTSounds/,n/a,filler,,,,,0,44,44,142,,,,,,,,,,,,,,,,,,,None,,1,Female,20,59.9520304169,American English,fricative_categorical_boundary,2018_Jun_07_1041,
,,,,n/a,LDTSounds/fool.wav,f,fool,None,LDTSounds/,onset,test,,,,,0,45,45,15,,,,,,,,,,,,,,,,,,,l,2.85612797737,1,Female,20,59.9520304169,American English,fricative_categorical_boundary,2018_Jun_07_1041,
,,,,nonce,LDTSounds/rivathrog.wav,n/a,rivathrog,None,LDTSounds/,n/a,filler,,,,,0,46,46,131,,,,,,,,,,,,,,,,,,,a,1.10378193855,1,Female,20,59.9520304169,American English,fricative_categorical_boundary,2018_Jun_07_1041,
,,,,real,LDTSounds/rowboat.wav,n/a,rowboat,None,LDTSounds/,n/a,filler,,,,,0,47,47,56,,,,,,,,,,,,,,,,,,,l,1.03495693207,1,Female,20,59.9520304169,American English,fricative_categorical_boundary,2018_Jun_07_1041,
,,,,real,LDTSounds/treaty.wav,n/a,treaty,None,LDTSounds/,n/a,filler,,,,,0,48,48,65,,,,,,,,,,,,,,,,,,,l,1.0536429882,1,Female,20,59.9520304169,American English,fricative_categorical_boundary,2018_Jun_07_1041,
,,,,nonce,LDTSounds/drataloob.wav,n/a,drataloob,None,LDTSounds/,n/a,filler,,,,,0,49,49,129,,,,,,,,,,,,,,,,,,,l,1.23732805252,1,Female,20,59.9520304169,American English,fricative_categorical_boundary,2018_Jun_07_1041,
,,,,n/a,LDTSounds/cough.wav,f,cough,None,LDTSounds/,coda,test,,,,,0,50,50,7,,,,,,,,,,,,,,,,,,,l,1.05352592468,1,Female,20,59.9520304169,American English,fricative_categorical_boundary,2018_Jun_07_1041,
,,,,nonce,LDTSounds/boondatribnok.wav,n/a,boondatribnok,None,LDTSounds/,n/a,filler,,,,,0,51,51,137,,,,,,,,,,,,,,,,,,,a,1.07034111023,1,Female,20,59.9520304169,American English,fricative_categorical_boundary,2018_Jun_07_1041,
,,,,real,LDTSounds/mall.wav,n/a,mall,None,LDTSounds/,n/a,filler,,,,,0,52,52,43,,,,,,,,,,,,,,,,,,,l,0.918111085892,1,Female,20,59.9520304169,American English,fricative_categorical_boundary,2018_Jun_07_1041,
,,,,real,LDTSounds/while.wav,n/a,while,None,LDTSounds/,n/a,filler,,,,,0,53,53,48,,,,,,,,,,,,,,,,,,,l,0.786820888519,1,Female,20,59.9520304169,American English,fricative_categorical_boundary,2018_Jun_07_1041,
,,,,real,LDTSounds/yellow.wav,n/a,yellow,None,LDTSounds/,n/a,filler,,,,,0,54,54,73,,,,,,,,,,,,,,,,,,,l,0.669784069061,1,Female,20,59.9520304169,American English,fricative_categorical_boundary,2018_Jun_07_1041,
,,,,n/a,LDTSounds/sash.wav,s,sash,None,LDTSounds/,onset,test,,,,,0,55,55,28,,,,,,,,,,,,,,,,,,,l,1.00371789932,1,Female,20,59.9520304169,American English,fricative_categorical_boundary,2018_Jun_07_1041,
,,,,real,LDTSounds/butter.wav,n/a,butter,None,LDTSounds/,n/a,filler,,,,,0,56,56,60,,,,,,,,,,,,,,,,,,,l,0.68661904335,1,Female,20,59.9520304169,American English,fricative_categorical_boundary,2018_Jun_07_1041,
,,,,real,LDTSounds/lake.wav,n/a,lake,None,LDTSounds/,n/a,filler,,,,,0,57,57,45,,,,,,,,,,,,,,,,,,,l,0.670269966125,1,Female,20,59.9520304169,American English,fricative_categorical_boundary,2018_Jun_07_1041,
,,,,n/a,LDTSounds/full.wav,f,full,None,LDTSounds/,onset,test,,,,,0,58,58,16,,,,,,,,,,,,,,,,,,,l,1.12032198906,1,Female,20,59.9520304169,American English,fricative_categorical_boundary,2018_Jun_07_1041,
,,,,nonce,LDTSounds/pendalimt.wav,n/a,pendalimt,None,LDTSounds/,n/a,filler,,,,,0,59,59,118,,,,,,,,,,,,,,,,,,,a,1.20388817787,1,Female,20,59.9520304169,American English,fricative_categorical_boundary,2018_Jun_07_1041,
,,,,n/a,LDTSounds/fish.wav,f,fish,None,LDTSounds/,onset,test,,,,,0,60,60,14,,,,,,,,,,,,,,,,,,,l,0.770089864731,1,Female,20,59.9520304169,American English,fricative_categorical_boundary,2018_Jun_07_1041,
,,,,nonce,LDTSounds/kabalingno.wav,n/a,kabalingno,None,LDTSounds/,n/a,filler,,,,,0,61,61,138,,,,,,,,,,,,,,,,,,,a,1.1038351059,1,Female,20,59.9520304169,American English,fricative_categorical_boundary,2018_Jun_07_1041,
,,,,nonce,LDTSounds/metroy.wav,n/a,metroy,None,LDTSounds/,n/a,filler,,,,,0,62,62,100,,,,,,,,,,,,,,,,,,,l,1.0704460144,1,Female,20,59.9520304169,American English,fricative_categorical_boundary,2018_Jun_07_1041,
,,,,nonce,LDTSounds/yilk.wav,n/a,yilk,None,LDTSounds/,n/a,filler,,,,,0,63,63,82,,,,,,,,,,,,,,,,,,,l,0.667699098587,1,Female,20,59.9520304169,American English,fricative_categorical_boundary,2018_Jun_07_1041,
,,,,nonce,LDTSounds/lempok.wav,n/a,lempok,None,LDTSounds/,n/a,filler,,,,,0,64,64,113,,,,,,,,,,,,,,,,,,,l,0.770067930222,1,Female,20,59.9520304169,American English,fricative_categorical_boundary,2018_Jun_07_1041,
,,,,nonce,LDTSounds/dripnalong.wav,n/a,dripnalong,None,LDTSounds/,n/a,filler,,,,,0,65,65,124,,,,,,,,,,,,,,,,,,,a,1.12058210373,1,Female,20,59.9520304169,American English,fricative_categorical_boundary,2018_Jun_07_1041,
,,,,n/a,LDTSounds/soup.wav,s,soup,None,LDTSounds/,onset,test,,,,,0,66,66,27,,,,,,,,,,,,,,,,,,,l,2.20531010628,1,Female,20,59.9520304169,American English,fricative_categorical_boundary,2018_Jun_07_1041,
,,,,real,LDTSounds/rat.wav,n/a,rat,None,LDTSounds/,n/a,filler,,,,,0,67,67,47,,,,,,,,,,,,,,,,,,,l,0.803267002106,1,Female,20,59.9520304169,American English,fricative_categorical_boundary,2018_Jun_07_1041,
,,,,nonce,LDTSounds/roip.wav,n/a,roip,None,LDTSounds/,n/a,filler,,,,,0,68,68,89,,,,,,,,,,,,,,,,,,,l,1.13706493378,1,Female,20,59.9520304169,American English,fricative_categorical_boundary,2018_Jun_07_1041,
,,,,nonce,LDTSounds/kebnoti.wav,n/a,kebnoti,None,LDTSounds/,n/a,filler,,,,,0,69,69,121,,,,,,,,,,,,,,,,,,,a,1.05351495743,1,Female,20,59.9520304169,American English,fricative_categorical_boundary,2018_Jun_07_1041,
,,,,nonce,LDTSounds/mitger.wav,n/a,mitger,None,LDTSounds/,n/a,filler,,,,,0,70,70,111,,,,,,,,,,,,,,,,,,,a,1.07031702995,1,Female,20,59.9520304169,American English,fricative_categorical_boundary,2018_Jun_07_1041,
,,,,nonce,LDTSounds/cratbool.wav,n/a,cratbool,None,LDTSounds/,n/a,filler,,,,,0,71,71,106,,,,,,,,,,,,,,,,,,,a,1.07039189339,1,Female,20,59.9520304169,American English,fricative_categorical_boundary,2018_Jun_07_1041,
,,,,nonce,LDTSounds/datoonmeg.wav,n/a,datoonmeg,None,LDTSounds/,n/a,filler,,,,,0,72,72,133,,,,,,,,,,,,,,,,,,,a,0.92029094696,1,Female,20,59.9520304169,American English,fricative_categorical_boundary,2018_Jun_07_1041,
,,,,real,LDTSounds/mole.wav,n/a,mole,None,LDTSounds/,n/a,filler,,,,,0,73,73,42,,,,,,,,,,,,,,,,,,,l,0.820159912109,1,Female,20,59.9520304169,American English,fricative_categorical_boundary,2018_Jun_07_1041,
,,,,real,LDTSounds/maker.wav,n/a,maker,None,LDTSounds/,n/a,filler,,,,,0,74,74,64,,,,,,,,,,,,,,,,,,,l,0.786736965179,1,Female,20,59.9520304169,American English,fricative_categorical_boundary,2018_Jun_07_1041,
,,,,nonce,LDTSounds/petnole.wav,n/a,petnole,None,LDTSounds/,n/a,filler,,,,,0,75,75,112,,,,,,,,,,,,,,,,,,,a,1.17077183723,1,Female,20,59.9520304169,American English,fricative_categorical_boundary,2018_Jun_07_1041,
,,,,n/a,LDTSounds/deuce.wav,s,deuce,None,LDTSounds/,coda,test,,,,,0,76,76,21,,,,,,,,,,,,,,,,,,,l,0.853340864182,1,Female,20,59.9520304169,American English,fricative_categorical_boundary,2018_Jun_07_1041,
,,,,n/a,LDTSounds/bliss.wav,s,bliss,None,LDTSounds/,coda,test,,,,,0,77,77,19,,,,,,,,,,,,,,,,,,,l,1.10382795334,1,Female,20,59.9520304169,American English,fricative_categorical_boundary,2018_Jun_07_1041,
,,,,n/a,LDTSounds/whiff.wav,f,whiff,None,LDTSounds/,coda,test,,,,,0,78,78,5,,,,,,,,,,,,,,,,,,,l,0.901369094849,1,Female,20,59.9520304169,American English,fricative_categorical_boundary,2018_Jun_07_1041,
,,,,nonce,LDTSounds/lopenad.wav,n/a,lopenad,None,LDTSounds/,n/a,filler,,,,,0,79,79,123,,,,,,,,,,,,,,,,,,,a,0.786806106567,1,Female,20,59.9520304169,American English,fricative_categorical_boundary,2018_Jun_07_1041,
,,,,real,LDTSounds/tuba.wav,n/a,tuba,None,LDTSounds/,n/a,filler,,,,,0,80,80,57,,,,,,,,,,,,,,,,,,,l,0.770192146301,1,Female,20,59.9520304169,American English,fricative_categorical_boundary,2018_Jun_07_1041,
,,,,real,LDTSounds/liquor.wav,n/a,liquor,None,LDTSounds/,n/a,filler,,,,,0,81,81,63,,,,,,,,,,,,,,,,,,,l,0.553212165833,1,Female,20,59.9520304169,American English,fricative_categorical_boundary,2018_Jun_07_1041,
,,,,n/a,LDTSounds/bluff.wav,f,bluff,None,LDTSounds/,coda,test,,,,,0,82,82,0,,,,,,,,,,,,,,,,,,,l,0.937254905701,1,Female,20,59.9520304169,American English,fricative_categorical_boundary,2018_Jun_07_1041,
,,,,nonce,LDTSounds/ligbee.wav,n/a,ligbee,None,LDTSounds/,n/a,filler,,,,,0,83,83,95,,,,,,,,,,,,,,,,,,,a,1.03698301315,1,Female,20,59.9520304169,American English,fricative_categorical_boundary,2018_Jun_07_1041,
,,,,nonce,LDTSounds/hapooli.wav,n/a,hapooli,None,LDTSounds/,n/a,filler,,,,,0,84,84,126,,,,,,,,,,,,,,,,,,,a,0.820270061493,1,Female,20,59.9520304169,American English,fricative_categorical_boundary,2018_Jun_07_1041,
,,,,n/a,LDTSounds/less.wav,s,less,None,LDTSounds/,coda,test,,,,,0,85,85,20,,,,,,,,,,,,,,,,,,,l,0.903716087341,1,Female,20,59.9520304169,American English,fricative_categorical_boundary,2018_Jun_07_1041,
,,,,nonce,LDTSounds/queng.wav,n/a,queng,None,LDTSounds/,n/a,filler,,,,,0,86,86,86,,,,,,,,,,,,,,,,,,,a,0.853454113007,1,Female,20,59.9520304169,American English,fricative_categorical_boundary,2018_Jun_07_1041,
,,,,real,LDTSounds/right.wav,n/a,right,None,LDTSounds/,n/a,filler,,,,,0,87,87,36,,,,,,,,,,,,,,,,,,,l,0.870105981827,1,Female,20,59.9520304169,American English,fricative_categorical_boundary,2018_Jun_07_1041,
,,,,nonce,LDTSounds/libmadoop.wav,n/a,libmadoop,None,LDTSounds/,n/a,filler,,,,,0,88,88,117,,,,,,,,,,,,,,,,,,,a,1.05397200584,1,Female,20,59.9520304169,American English,fricative_categorical_boundary,2018_Jun_07_1041,
,,,,nonce,LDTSounds/podaling.wav,n/a,podaling,None,LDTSounds/,n/a,filler,,,,,0,89,89,132,,,,,,,,,,,,,,,,,,,l,1.00378608704,1,Female,20,59.9520304169,American English,fricative_categorical_boundary,2018_Jun_07_1041,
,,,,real,LDTSounds/truck.wav,n/a,truck,None,LDTSounds/,n/a,filler,,,,,0,90,90,34,,,,,,,,,,,,,,,,,,,l,0.986819982529,1,Female,20,59.9520304169,American English,fricative_categorical_boundary,2018_Jun_07_1041,
,,,,n/a,LDTSounds/cliff.wav,f,cliff,None,LDTSounds/,coda,test,,,,,0,91,91,2,,,,,,,,,,,,,,,,,,,l,1.0873131752,1,Female,20,59.9520304169,American English,fricative_categorical_boundary,2018_Jun_07_1041,
,,,,nonce,LDTSounds/heen.wav,n/a,heen,None,LDTSounds/,n/a,filler,,,,,0,92,92,77,,,,,,,,,,,,,,,,,,,a,0.936913013458,1,Female,20,59.9520304169,American English,fricative_categorical_boundary,2018_Jun_07_1041,
,,,,n/a,LDTSounds/fade.wav,f,fade,None,LDTSounds/,onset,test,,,,,0,93,93,12,,,,,,,,,,,,,,,,,,,l,0.920343160629,1,Female,20,59.9520304169,American English,fricative_categorical_boundary,2018_Jun_07_1041,
,,,,nonce,LDTSounds/wegtamlip.wav,n/a,wegtamlip,None,LDTSounds/,n/a,filler,,,,,0,94,94,120,,,,,,,,,,,,,,,,,,,a,0.887125015259,1,Female,20,59.9520304169,American English,fricative_categorical_boundary,2018_Jun_07_1041,
,,,,nonce,LDTSounds/wegring.wav,n/a,wegring,None,LDTSounds/,n/a,filler,,,,,0,95,95,97,,,,,,,,,,,,,,,,,,,a,0.886819124222,1,Female,20,59.9520304169,American English,fricative_categorical_boundary,2018_Jun_07_1041,
,,,,nonce,LDTSounds/himnapile.wav,n/a,himnapile,None,LDTSounds/,n/a,filler,,,,,0,96,96,128,,,,,,,,,,,,,,,,,,,a,0.837012052536,1,Female,20,59.9520304169,American English,fricative_categorical_boundary,2018_Jun_07_1041,
,,,,nonce,LDTSounds/troplund.wav,n/a,troplund,None,LDTSounds/,n/a,filler,,,,,0,97,97,98,,,,,,,,,,,,,,,,,,,a,1.18738698959,1,Female,20,59.9520304169,American English,fricative_categorical_boundary,2018_Jun_07_1041,
,,,,nonce,LDTSounds/kililitbi.wav,n/a,kililitbi,None,LDTSounds/,n/a,filler,,,,,0,98,98,145,,,,,,,,,,,,,,,,,,,a,0.970001935959,1,Female,20,59.9520304169,American English,fricative_categorical_boundary,2018_Jun_07_1041,
,,,,nonce,LDTSounds/poindool.wav,n/a,poindool,None,LDTSounds/,n/a,filler,,,,,0,99,99,96,,,,,,,,,,,,,,,,,,,a,0.987139940262,1,Female,20,59.9520304169,American English,fricative_categorical_boundary,2018_Jun_07_1041,
,,,,nonce,LDTSounds/waip.wav,n/a,waip,None,LDTSounds/,n/a,filler,,,,,0,100,100,91,,,,,,,,,,,,,,,,,,,l,1.35400795937,1,Female,20,59.9520304169,American English,fricative_categorical_boundary,2018_Jun_07_1041,
,,,,nonce,LDTSounds/himp.wav,n/a,himp,None,LDTSounds/,n/a,filler,,,,,0,101,101,75,,,,,,,,,,,,,,,,,,,l,1.17056417465,1,Female,20,59.9520304169,American English,fricative_categorical_boundary,2018_Jun_07_1041,
,,,,nonce,LDTSounds/pingloon.wav,n/a,pingloon,None,LDTSounds/,n/a,filler,,,,,0,102,102,110,,,,,,,,,,,,,,,,,,,a,1.07035589218,1,Female,20,59.9520304169,American English,fricative_categorical_boundary,2018_Jun_07_1041,
,,,,nonce,LDTSounds/rone.wav,n/a,rone,None,LDTSounds/,n/a,filler,,,,,0,103,103,92,,,,,,,,,,,,,,,,,,,l,1.0535299778,1,Female,20,59.9520304169,American English,fricative_categorical_boundary,2018_Jun_07_1041,
,,,,n/a,LDTSounds/kiss.wav,s,kiss,None,LDTSounds/,coda,test,,,,,0,104,104,22,,,,,,,,,,,,,,,,,,,l,1.02043104172,1,Female,20,59.9520304169,American English,fricative_categorical_boundary,2018_Jun_07_1041,
,,,,real,LDTSounds/building.wav,n/a,building,None,LDTSounds/,n/a,filler,,,,,0,105,105,55,,,,,,,,,,,,,,,,,,,l,0.736539840698,1,Female,20,59.9520304169,American English,fricative_categorical_boundary,2018_Jun_07_1041,
,,,,nonce,LDTSounds/trongolemp.wav,n/a,trongolemp,None,LDTSounds/,n/a,filler,,,,,0,106,106,130,,,,,,,,,,,,,,,,,,,a,1.23734498024,1,Female,20,59.9520304169,American English,fricative_categorical_boundary,2018_Jun_07_1041,
,,,,nonce,LDTSounds/wiblee.wav,n/a,wiblee,None,LDTSounds/,n/a,filler,,,,,0,107,107,115,,,,,,,,,,,,,,,,,,,a,0.870232820511,1,Female,20,59.9520304169,American English,fricative_categorical_boundary,2018_Jun_07_1041,
,,,,nonce,LDTSounds/ledmon.wav,n/a,ledmon,None,LDTSounds/,n/a,filler,,,,,0,108,108,94,,,,,,,,,,,,,,,,,,,a,0.9035820961,1,Female,20,59.9520304169,American English,fricative_categorical_boundary,2018_Jun_07_1041,
,,,,real,LDTSounds/boycott.wav,n/a,boycott,None,LDTSounds/,n/a,filler,,,,,0,109,109,71,,,,,,,,,,,,,,,,,,,l,1.05407714844,1,Female,20,59.9520304169,American English,fricative_categorical_boundary,2018_Jun_07_1041,
,,,,n/a,LDTSounds/chess.wav,s,chess,None,LDTSounds/,coda,test,,,,,0,110,110,18,,,,,,,,,,,,,,,,,,,l,0.76997590065,1,Female,20,59.9520304169,American English,fricative_categorical_boundary,2018_Jun_07_1041,
,,,,nonce,LDTSounds/krebdingolee.wav,n/a,krebdingolee,None,LDTSounds/,n/a,filler,,,,,0,111,111,147,,,,,,,,,,,,,,,,,,,a,0.986989974976,1,Female,20,59.9520304169,American English,fricative_categorical_boundary,2018_Jun_07_1041,
,,,,n/a,LDTSounds/felt.wav,f,felt,None,LDTSounds/,onset,test,,,,,0,112,112,9,,,,,,,,,,,,,,,,,,,l,1.20413184166,1,Female,20,59.9520304169,American English,fricative_categorical_boundary,2018_Jun_07_1041,
,,,,nonce,LDTSounds/yoogul.wav,n/a,yoogul,None,LDTSounds/,n/a,filler,,,,,0,113,113,102,,,,,,,,,,,,,,,,,,,a,1.13707113266,1,Female,20,59.9520304169,American English,fricative_categorical_boundary,2018_Jun_07_1041,
,,,,n/a,LDTSounds/deaf.wav,f,deaf,None,LDTSounds/,coda,test,,,,,0,114,114,3,,,,,,,,,,,,,,,,,,,l,1.03703212738,1,Female,20,59.9520304169,American English,fricative_categorical_boundary,2018_Jun_07_1041,
,,,,nonce,LDTSounds/yoomake.wav,n/a,yoomake,None,LDTSounds/,n/a,filler,,,,,0,115,115,99,,,,,,,,,,,,,,,,,,,a,0.936990022659,1,Female,20,59.9520304169,American English,fricative_categorical_boundary,2018_Jun_07_1041,
,,,,nonce,LDTSounds/trad.wav,n/a,trad,None,LDTSounds/,n/a,filler,,,,,0,116,116,87,,,,,,,,,,,,,,,,,,,a,1.25429606438,1,Female,20,59.9520304169,American English,fricative_categorical_boundary,2018_Jun_07_1041,
,,,,nonce,LDTSounds/doonagort.wav,n/a,doonagort,None,LDTSounds/,n/a,filler,,,,,0,117,117,127,,,,,,,,,,,,,,,,,,,a,0.936842918396,1,Female,20,59.9520304169,American English,fricative_categorical_boundary,2018_Jun_07_1041,
,,,,real,LDTSounds/data.wav,n/a,data,None,LDTSounds/,n/a,filler,,,,,0,118,118,62,,,,,,,,,,,,,,,,,,,l,0.836977005005,1,Female,20,59.9520304169,American English,fricative_categorical_boundary,2018_Jun_07_1041,
,,,,n/a,LDTSounds/chef.wav,f,chef,None,LDTSounds/,coda,test,,,,,0,119,119,1,,,,,,,,,,,,,,,,,,,l,0.970316171646,1,Female,20,59.9520304169,American English,fricative_categorical_boundary,2018_Jun_07_1041,
,,,,real,LDTSounds/drip.wav,n/a,drip,None,LDTSounds/,n/a,filler,,,,,0,120,120,51,,,,,,,,,,,,,,,,,,,l,0.703464031219,1,Female,20,59.9520304169,American English,fricative_categorical_boundary,2018_Jun_07_1041,
,,,,nonce,LDTSounds/weg.wav,n/a,weg,None,LDTSounds/,n/a,filler,,,,,0,121,121,78,,,,,,,,,,,,,,,,,,,l,0.934634923935,1,Female,20,59.9520304169,American English,fricative_categorical_boundary,2018_Jun_07_1041,
,,,,nonce,LDTSounds/hundapegnort.wav,n/a,hundapegnort,None,LDTSounds/,n/a,filler,,,,,0,122,122,141,,,,,,,,,,,,,,,,,,,a,1.5710568428,1,Female,20,59.9520304169,American English,fricative_categorical_boundary,2018_Jun_07_1041,
,,,,nonce,LDTSounds/kotlim.wav,n/a,kotlim,None,LDTSounds/,n/a,filler,,,,,0,123,123,114,,,,,,,,,,,,,,,,,,,a,2.00507593155,1,Female,20,59.9520304169,American English,fricative_categorical_boundary,2018_Jun_07_1041,
,,,,real,LDTSounds/twin.wav,n/a,twin,None,LDTSounds/,n/a,filler,,,,,0,124,124,44,,,,,,,,,,,,,,,,,,,l,1.0038189888,1,Female,20,59.9520304169,American English,fricative_categorical_boundary,2018_Jun_07_1041,
,,,,nonce,LDTSounds/relnt.wav,n/a,relnt,None,LDTSounds/,n/a,filler,,,,,0,125,125,83,,,,,,,,,,,,,,,,,,,a,1.05357098579,1,Female,20,59.9520304169,American English,fricative_categorical_boundary,2018_Jun_07_1041,
,,,,real,LDTSounds/lick.wav,n/a,lick,None,LDTSounds/,n/a,filler,,,,,0,126,126,41,,,,,,,,,,,,,,,,,,,l,0.851610898972,1,Female,20,59.9520304169,American English,fricative_categorical_boundary,2018_Jun_07_1041,
,,,,nonce,LDTSounds/midaran.wav,n/a,midaran,None,LDTSounds/,n/a,filler,,,,,0,127,127,119,,,,,,,,,,,,,,,,,,,a,0.970091104507,1,Female,20,59.9520304169,American English,fricative_categorical_boundary,2018_Jun_07_1041,
,,,,nonce,LDTSounds/bindilamok.wav,n/a,bindilamok,None,LDTSounds/,n/a,filler,,,,,0,128,128,148,,,,,,,,,,,,,,,,,,,a,0.870183944702,1,Female,20,59.9520304169,American English,fricative_categorical_boundary,2018_Jun_07_1041,
,,,,nonce,LDTSounds/magmilnt.wav,n/a,magmilnt,None,LDTSounds/,n/a,filler,,,,,0,129,129,107,,,,,,,,,,,,,,,,,,,a,2.40527486801,1,Female,20,59.9520304169,American English,fricative_categorical_boundary,2018_Jun_07_1041,
,,,,nonce,LDTSounds/rone.wav,n/a,rone,None,LDTSounds/,n/a,filler,,,,,0,130,130,79,,,,,,,,,,,,,,,,,,,l,0.887244939804,1,Female,20,59.9520304169,American English,fricative_categorical_boundary,2018_Jun_07_1041,
,,,,n/a,LDTSounds/silt.wav,s,silt,None,LDTSounds/,onset,test,,,,,0,131,131,31,,,,,,,,,,,,,,,,,,,l,1.58545804024,1,Female,20,59.9520304169,American English,fricative_categorical_boundary,2018_Jun_07_1041,
,,,,real,LDTSounds/jupiter.wav,n/a,jupiter,None,LDTSounds/,n/a,filler,,,,,0,132,132,74,,,,,,,,,,,,,,,,,,,l,0.920492887497,1,Female,20,59.9520304169,American English,fricative_categorical_boundary,2018_Jun_07_1041,
,,,,n/a,LDTSounds/fudge.wav,f,fudge,None,LDTSounds/,coda,test,,,,,0,133,133,8,,,,,,,,,,,,,,,,,,,l,0.636623859406,1,Female,20,59.9520304169,American English,fricative_categorical_boundary,2018_Jun_07_1041,
,,,,real,LDTSounds/trim.wav,n/a,trim,None,LDTSounds/,n/a,filler,,,,,0,134,134,39,,,,,,,,,,,,,,,,,,,l,0.836891889572,1,Female,20,59.9520304169,American English,fricative_categorical_boundary,2018_Jun_07_1041,
,,,,real,LDTSounds/toilet.wav,n/a,toilet,None,LDTSounds/,n/a,filler,,,,,0,135,135,67,,,,,,,,,,,,,,,,,,,l,0.586308002472,1,Female,20,59.9520304169,American English,fricative_categorical_boundary,2018_Jun_07_1041,
,,,,real,LDTSounds/trooper.wav,n/a,trooper,None,LDTSounds/,n/a,filler,,,,,0,136,136,66,,,,,,,,,,,,,,,,,,,l,0.836934804916,1,Female,20,59.9520304169,American English,fricative_categorical_boundary,2018_Jun_07_1041,
,,,,n/a,LDTSounds/fab.wav,f,fab,None,LDTSounds/,onset,test,,,,,0,137,137,11,,,,,,,,,,,,,,,,,,,l,0.567710876465,1,Female,20,59.9520304169,American English,fricative_categorical_boundary,2018_Jun_07_1041,
,,,,nonce,LDTSounds/plone.wav,n/a,plone,None,LDTSounds/,n/a,filler,,,,,0,138,138,76,,,,,,,,,,,,,,,,,,,l,0.651094913483,1,Female,20,59.9520304169,American English,fricative_categorical_boundary,2018_Jun_07_1041,
,,,,real,LDTSounds/little.wav,n/a,little,None,LDTSounds/,n/a,filler,,,,,0,139,139,61,,,,,,,,,,,,,,,,,,,l,0.536435127258,1,Female,20,59.9520304169,American English,fricative_categorical_boundary,2018_Jun_07_1041,
,,,,n/a,LDTSounds/geese.wav,s,geese,None,LDTSounds/,coda,test,,,,,0,140,140,23,,,,,,,,,,,,,,,,,,,l,0.686648130417,1,Female,20,59.9520304169,American English,fricative_categorical_boundary,2018_Jun_07_1041,
,,,,real,LDTSounds/laker.wav,n/a,laker,None,LDTSounds/,n/a,filler,,,,,0,141,141,58,,,,,,,,,,,,,,,,,,,l,0.686567783356,1,Female,20,59.9520304169,American English,fricative_categorical_boundary,2018_Jun_07_1041,
,,,,nonce,LDTSounds/poginito.wav,n/a,poginito,None,LDTSounds/,n/a,filler,,,,,0,142,142,139,,,,,,,,,,,,,,,,,,,l,0.636356115341,1,Female,20,59.9520304169,American English,fricative_categorical_boundary,2018_Jun_07_1041,
,,,,nonce,LDTSounds/dewagelin.wav,n/a,dewagelin,None,LDTSounds/,n/a,filler,,,,,0,143,143,143,,,,,,,,,,,,,,,,,,,l,1.03484892845,1,Female,20,59.9520304169,American English,fricative_categorical_boundary,2018_Jun_07_1041,
,,,,nonce,LDTSounds/hapekt.wav,n/a,hapekt,None,LDTSounds/,n/a,filler,,,,,0,144,144,116,,,,,,,,,,,,,,,,,,,l,1.17053699493,1,Female,20,59.9520304169,American English,fricative_categorical_boundary,2018_Jun_07_1041,
,,,,nonce,LDTSounds/yoog.wav,n/a,yoog,None,LDTSounds/,n/a,filler,,,,,0,145,145,90,,,,,,,,,,,,,,,,,,,l,1.13726401329,1,Female,20,59.9520304169,American English,fricative_categorical_boundary,2018_Jun_07_1041,
,,,,n/a,LDTSounds/boss.wav,s,boss,None,LDTSounds/,coda,test,,,,,0,146,146,24,,,,,,,,,,,,,,,,,,,l,1.20380711555,1,Female,20,59.9520304169,American English,fricative_categorical_boundary,2018_Jun_07_1041,
,,,,n/a,LDTSounds/fig.wav,f,fig,None,LDTSounds/,onset,test,,,,,0,147,147,13,,,,,,,,,,,,,,,,,,,l,1.05398178101,1,Female,20,59.9520304169,American English,fricative_categorical_boundary,2018_Jun_07_1041,
,,,,n/a,LDTSounds/say.wav,s,say,None,LDTSounds/,onset,test,,,,,0,148,148,29,,,,,,,,,,,,,,,,,,,l,0.8869099617,1,Female,20,59.9520304169,American English,fricative_categorical_boundary,2018_Jun_07_1041,
,,,,nonce,LDTSounds/yoodalin.wav,n/a,yoodalin,None,LDTSounds/,n/a,filler,,,,,0,149,149,125,,,,,,,,,,,,,,,,,,,a,1.20355200768,1,Female,20,59.9520304169,American English,fricative_categorical_boundary,2018_Jun_07_1041,
,,,,,,,,,,,,,,,,,,,,,,,,,,,,,-0.00625,-0.766666666667,1,0,0,,,,,,,1,Female,20,59.9520304169,American English,fricative_categorical_boundary,2018_Jun_07_1041,
Sounds/,Sounds/NewWord_f_onset_isolate_s_onset_isolate_15.wav,NewWord_f_onset_isolate_s_onset_isolate_,15,,,,,,,,,,,,,,,,,0,0,0,5,,,,,,,,,,,f,0.787,,,,,1,Female,20,59.9520304169,American English,fricative_categorical_boundary,2018_Jun_07_1041,
Sounds/,Sounds/NewWord_f_onset_isolate_s_onset_isolate_23.wav,NewWord_f_onset_isolate_s_onset_isolate_,23,,,,,,,,,,,,,,,,,0,1,1,9,,,,,,,,,,,s,0.62,,,,,1,Female,20,59.9520304169,American English,fricative_categorical_boundary,2018_Jun_07_1041,
Sounds/,Sounds/NewWord_f_onset_isolate_s_onset_isolate_41.wav,NewWord_f_onset_isolate_s_onset_isolate_,41,,,,,,,,,,,,,,,,,0,2,2,13,,,,,,,,,,,s,0.403,,,,,1,Female,20,59.9520304169,American English,fricative_categorical_boundary,2018_Jun_07_1041,
Sounds/,Sounds/NewWord_f_onset_isolate_s_onset_isolate_21.wav,NewWord_f_onset_isolate_s_onset_isolate_,21,,,,,,,,,,,,,,,,,0,3,3,8,,,,,,,,,,,f,0.737,,,,,1,Female,20,59.9520304169,American English,fricative_categorical_boundary,2018_Jun_07_1041,
Sounds/,Sounds/NewWord_f_onset_isolate_s_onset_isolate_11.wav,NewWord_f_onset_isolate_s_onset_isolate_,11,,,,,,,,,,,,,,,,,0,4,4,3,,,,,,,,,,,f,0.403,,,,,1,Female,20,59.9520304169,American English,fricative_categorical_boundary,2018_Jun_07_1041,
Sounds/,Sounds/NewWord_f_onset_isolate_s_onset_isolate_7.wav,NewWord_f_onset_isolate_s_onset_isolate_,7,,,,,,,,,,,,,,,,,0,5,5,1,,,,,,,,,,,f,1.922,,,,,1,Female,20,59.9520304169,American English,fricative_categorical_boundary,2018_Jun_07_1041,
Sounds/,Sounds/NewWord_f_onset_isolate_s_onset_isolate_1.wav,NewWord_f_onset_isolate_s_onset_isolate_,1,,,,,,,,,,,,,,,,,0,6,6,0,,,,,,,,,,,f,0.405,,,,,1,Female,20,59.9520304169,American English,fricative_categorical_boundary,2018_Jun_07_1041,
Sounds/,Sounds/NewWord_f_onset_isolate_s_onset_isolate_9.wav,NewWord_f_onset_isolate_s_onset_isolate_,9,,,,,,,,,,,,,,,,,0,7,7,2,,,,,,,,,,,f,1.004,,,,,1,Female,20,59.9520304169,American English,fricative_categorical_boundary,2018_Jun_07_1041,
Sounds/,Sounds/NewWord_f_onset_isolate_s_onset_isolate_25.wav,NewWord_f_onset_isolate_s_onset_isolate_,25,,,,,,,,,,,,,,,,,0,8,8,10,,,,,,,,,,,f,1.972,,,,,1,Female,20,59.9520304169,American English,fricative_categorical_boundary,2018_Jun_07_1041,
Sounds/,Sounds/NewWord_f_onset_isolate_s_onset_isolate_27.wav,NewWord_f_onset_isolate_s_onset_isolate_,27,,,,,,,,,,,,,,,,,0,9,9,11,,,,,,,,,,,s,0.57,,,,,1,Female,20,59.9520304169,American English,fricative_categorical_boundary,2018_Jun_07_1041,
Sounds/,Sounds/NewWord_f_onset_isolate_s_onset_isolate_29.wav,NewWord_f_onset_isolate_s_onset_isolate_,29,,,,,,,,,,,,,,,,,0,10,10,12,,,,,,,,,,,s,0.403,,,,,1,Female,20,59.9520304169,American English,fricative_categorical_boundary,2018_Jun_07_1041,
Sounds/,Sounds/NewWord_f_onset_isolate_s_onset_isolate_19.wav,NewWord_f_onset_isolate_s_onset_isolate_,19,,,,,,,,,,,,,,,,,0,11,11,7,,,,,,,,,,,f,0.686,,,,,1,Female,20,59.9520304169,American English,fricative_categorical_boundary,2018_Jun_07_1041,
Sounds/,Sounds/NewWord_f_onset_isolate_s_onset_isolate_17.wav,NewWord_f_onset_isolate_s_onset_isolate_,17,,,,,,,,,,,,,,,,,0,12,12,6,,,,,,,,,,,f,1.004,,,,,1,Female,20,59.9520304169,American English,fricative_categorical_boundary,2018_Jun_07_1041,
Sounds/,Sounds/NewWord_f_onset_isolate_s_onset_isolate_13.wav,NewWord_f_onset_isolate_s_onset_isolate_,13,,,,,,,,,,,,,,,,,0,13,13,4,,,,,,,,,,,f,0.403,,,,,1,Female,20,59.9520304169,American English,fricative_categorical_boundary,2018_Jun_07_1041,
Sounds/,Sounds/NewWord_f_onset_isolate_s_onset_isolate_15.wav,NewWord_f_onset_isolate_s_onset_isolate_,15,,,,,,,,,,,,,,,,,1,0,14,5,,,,,,,,,,,f,0.704,,,,,1,Female,20,59.9520304169,American English,fricative_categorical_boundary,2018_Jun_07_1041,
Sounds/,Sounds/NewWord_f_onset_isolate_s_onset_isolate_25.wav,NewWord_f_onset_isolate_s_onset_isolate_,25,,,,,,,,,,,,,,,,,1,1,15,10,,,,,,,,,,,f,0.403,,,,,1,Female,20,59.9520304169,American English,fricative_categorical_boundary,2018_Jun_07_1041,
Sounds/,Sounds/NewWord_f_onset_isolate_s_onset_isolate_29.wav,NewWord_f_onset_isolate_s_onset_isolate_,29,,,,,,,,,,,,,,,,,1,2,16,12,,,,,,,,,,,s,0.82,,,,,1,Female,20,59.9520304169,American English,fricative_categorical_boundary,2018_Jun_07_1041,
Sounds/,Sounds/NewWord_f_onset_isolate_s_onset_isolate_9.wav,NewWord_f_onset_isolate_s_onset_isolate_,9,,,,,,,,,,,,,,,,,1,3,17,2,,,,,,,,,,,f,0.72,,,,,1,Female,20,59.9520304169,American English,fricative_categorical_boundary,2018_Jun_07_1041,
Sounds/,Sounds/NewWord_f_onset_isolate_s_onset_isolate_23.wav,NewWord_f_onset_isolate_s_onset_isolate_,23,,,,,,,,,,,,,,,,,1,4,18,9,,,,,,,,,,,s,1.405,,,,,1,Female,20,59.9520304169,American English,fricative_categorical_boundary,2018_Jun_07_1041,
Sounds/,Sounds/NewWord_f_onset_isolate_s_onset_isolate_13.wav,NewWord_f_onset_isolate_s_onset_isolate_,13,,,,,,,,,,,,,,,,,1,5,19,4,,,,,,,,,,,f,0.503,,,,,1,Female,20,59.9520304169,American English,fricative_categorical_boundary,2018_Jun_07_1041,
Sounds/,Sounds/NewWord_f_onset_isolate_s_onset_isolate_21.wav,NewWord_f_onset_isolate_s_onset_isolate_,21,,,,,,,,,,,,,,,,,1,6,20,8,,,,,,,,,,,f,0.453,,,,,1,Female,20,59.9520304169,American English,fricative_categorical_boundary,2018_Jun_07_1041,
Sounds/,Sounds/NewWord_f_onset_isolate_s_onset_isolate_11.wav,NewWord_f_onset_isolate_s_onset_isolate_,11,,,,,,,,,,,,,,,,,1,7,21,3,,,,,,,,,,,f,0.653,,,,,1,Female,20,59.9520304169,American English,fricative_categorical_boundary,2018_Jun_07_1041,
Sounds/,Sounds/NewWord_f_onset_isolate_s_onset_isolate_19.wav,NewWord_f_onset_isolate_s_onset_isolate_,19,,,,,,,,,,,,,,,,,1,8,22,7,,,,,,,,,,,f,1.305,,,,,1,Female,20,59.9520304169,American English,fricative_categorical_boundary,2018_Jun_07_1041,
Sounds/,Sounds/NewWord_f_onset_isolate_s_onset_isolate_1.wav,NewWord_f_onset_isolate_s_onset_isolate_,1,,,,,,,,,,,,,,,,,1,9,23,0,,,,,,,,,,,f,0.403,,,,,1,Female,20,59.9520304169,American English,fricative_categorical_boundary,2018_Jun_07_1041,
Sounds/,Sounds/NewWord_f_onset_isolate_s_onset_isolate_41.wav,NewWord_f_onset_isolate_s_onset_isolate_,41,,,,,,,,,,,,,,,,,1,10,24,13,,,,,,,,,,,s,0.636,,,,,1,Female,20,59.9520304169,American English,fricative_categorical_boundary,2018_Jun_07_1041,
Sounds/,Sounds/NewWord_f_onset_isolate_s_onset_isolate_7.wav,NewWord_f_onset_isolate_s_onset_isolate_,7,,,,,,,,,,,,,,,,,1,11,25,1,,,,,,,,,,,f,1.02,,,,,1,Female,20,59.9520304169,American English,fricative_categorical_boundary,2018_Jun_07_1041,
Sounds/,Sounds/NewWord_f_onset_isolate_s_onset_isolate_27.wav,NewWord_f_onset_isolate_s_onset_isolate_,27,,,,,,,,,,,,,,,,,1,12,26,11,,,,,,,,,,,s,1.27,,,,,1,Female,20,59.9520304169,American English,fricative_categorical_boundary,2018_Jun_07_1041,
Sounds/,Sounds/NewWord_f_onset_isolate_s_onset_isolate_17.wav,NewWord_f_onset_isolate_s_onset_isolate_,17,,,,,,,,,,,,,,,,,1,13,27,6,,,,,,,,,,,f,0.837,,,,,1,Female,20,59.9520304169,American English,fricative_categorical_boundary,2018_Jun_07_1041,
Sounds/,Sounds/NewWord_f_onset_isolate_s_onset_isolate_23.wav,NewWord_f_onset_isolate_s_onset_isolate_,23,,,,,,,,,,,,,,,,,2,0,28,9,,,,,,,,,,,s,0.754,,,,,1,Female,20,59.9520304169,American English,fricative_categorical_boundary,2018_Jun_07_1041,
Sounds/,Sounds/NewWord_f_onset_isolate_s_onset_isolate_1.wav,NewWord_f_onset_isolate_s_onset_isolate_,1,,,,,,,,,,,,,,,,,2,1,29,0,,,,,,,,,,,f,1.037,,,,,1,Female,20,59.9520304169,American English,fricative_categorical_boundary,2018_Jun_07_1041,
Sounds/,Sounds/NewWord_f_onset_isolate_s_onset_isolate_17.wav,NewWord_f_onset_isolate_s_onset_isolate_,17,,,,,,,,,,,,,,,,,2,2,30,6,,,,,,,,,,,f,0.587,,,,,1,Female,20,59.9520304169,American English,fricative_categorical_boundary,2018_Jun_07_1041,
Sounds/,Sounds/NewWord_f_onset_isolate_s_onset_isolate_11.wav,NewWord_f_onset_isolate_s_onset_isolate_,11,,,,,,,,,,,,,,,,,2,3,31,3,,,,,,,,,,,f,0.453,,,,,1,Female,20,59.9520304169,American English,fricative_categorical_boundary,2018_Jun_07_1041,
Sounds/,Sounds/NewWord_f_onset_isolate_s_onset_isolate_7.wav,NewWord_f_onset_isolate_s_onset_isolate_,7,,,,,,,,,,,,,,,,,2,4,32,1,,,,,,,,,,,f,0.57,,,,,1,Female,20,59.9520304169,American English,fricative_categorical_boundary,2018_Jun_07_1041,
Sounds/,Sounds/NewWord_f_onset_isolate_s_onset_isolate_41.wav,NewWord_f_onset_isolate_s_onset_isolate_,41,,,,,,,,,,,,,,,,,2,5,33,13,,,,,,,,,,,s,0.82,,,,,1,Female,20,59.9520304169,American English,fricative_categorical_boundary,2018_Jun_07_1041,
Sounds/,Sounds/NewWord_f_onset_isolate_s_onset_isolate_13.wav,NewWord_f_onset_isolate_s_onset_isolate_,13,,,,,,,,,,,,,,,,,2,6,34,4,,,,,,,,,,,f,1.521,,,,,1,Female,20,59.9520304169,American English,fricative_categorical_boundary,2018_Jun_07_1041,
Sounds/,Sounds/NewWord_f_onset_isolate_s_onset_isolate_15.wav,NewWord_f_onset_isolate_s_onset_isolate_,15,,,,,,,,,,,,,,,,,2,7,35,5,,,,,,,,,,,f,0.619,,,,,1,Female,20,59.9520304169,American English,fricative_categorical_boundary,2018_Jun_07_1041,
Sounds/,Sounds/NewWord_f_onset_isolate_s_onset_isolate_19.wav,NewWord_f_onset_isolate_s_onset_isolate_,19,,,,,,,,,,,,,,,,,2,8,36,7,,,,,,,,,,,f,0.436,,,,,1,Female,20,59.9520304169,American English,fricative_categorical_boundary,2018_Jun_07_1041,
Sounds/,Sounds/NewWord_f_onset_isolate_s_onset_isolate_21.wav,NewWord_f_onset_isolate_s_onset_isolate_,21,,,,,,,,,,,,,,,,,2,9,37,8,,,,,,,,,,,f,0.42,,,,,1,Female,20,59.9520304169,American English,fricative_categorical_boundary,2018_Jun_07_1041,
Sounds/,Sounds/NewWord_f_onset_isolate_s_onset_isolate_9.wav,NewWord_f_onset_isolate_s_onset_isolate_,9,,,,,,,,,,,,,,,,,2,10,38,2,,,,,,,,,,,f,0.754,,,,,1,Female,20,59.9520304169,American English,fricative_categorical_boundary,2018_Jun_07_1041,
Sounds/,Sounds/NewWord_f_onset_isolate_s_onset_isolate_27.wav,NewWord_f_onset_isolate_s_onset_isolate_,27,,,,,,,,,,,,,,,,,2,11,39,11,,,,,,,,,,,f,0.403,,,,,1,Female,20,59.9520304169,American English,fricative_categorical_boundary,2018_Jun_07_1041,
Sounds/,Sounds/NewWord_f_onset_isolate_s_onset_isolate_29.wav,NewWord_f_onset_isolate_s_onset_isolate_,29,,,,,,,,,,,,,,,,,2,12,40,12,,,,,,,,,,,f,0.47,,,,,1,Female,20,59.9520304169,American English,fricative_categorical_boundary,2018_Jun_07_1041,
Sounds/,Sounds/NewWord_f_onset_isolate_s_onset_isolate_25.wav,NewWord_f_onset_isolate_s_onset_isolate_,25,,,,,,,,,,,,,,,,,2,13,41,10,,,,,,,,,,,s,0.436,,,,,1,Female,20,59.9520304169,American English,fricative_categorical_boundary,2018_Jun_07_1041,
Sounds/,Sounds/NewWord_f_onset_isolate_s_onset_isolate_11.wav,NewWord_f_onset_isolate_s_onset_isolate_,11,,,,,,,,,,,,,,,,,3,0,42,3,,,,,,,,,,,f,0.653,,,,,1,Female,20,59.9520304169,American English,fricative_categorical_boundary,2018_Jun_07_1041,
Sounds/,Sounds/NewWord_f_onset_isolate_s_onset_isolate_23.wav,NewWord_f_onset_isolate_s_onset_isolate_,23,,,,,,,,,,,,,,,,,3,1,43,9,,,,,,,,,,,f,0.403,,,,,1,Female,20,59.9520304169,American English,fricative_categorical_boundary,2018_Jun_07_1041,
Sounds/,Sounds/NewWord_f_onset_isolate_s_onset_isolate_21.wav,NewWord_f_onset_isolate_s_onset_isolate_,21,,,,,,,,,,,,,,,,,3,2,44,8,,,,,,,,,,,f,0.754,,,,,1,Female,20,59.9520304169,American English,fricative_categorical_boundary,2018_Jun_07_1041,
Sounds/,Sounds/NewWord_f_onset_isolate_s_onset_isolate_29.wav,NewWord_f_onset_isolate_s_onset_isolate_,29,,,,,,,,,,,,,,,,,3,3,45,12,,,,,,,,,,,f,0.403,,,,,1,Female,20,59.9520304169,American English,fricative_categorical_boundary,2018_Jun_07_1041,
Sounds/,Sounds/NewWord_f_onset_isolate_s_onset_isolate_19.wav,NewWord_f_onset_isolate_s_onset_isolate_,19,,,,,,,,,,,,,,,,,3,4,46,7,,,,,,,,,,,f,0.402,,,,,1,Female,20,59.9520304169,American English,fricative_categorical_boundary,2018_Jun_07_1041,
Sounds/,Sounds/NewWord_f_onset_isolate_s_onset_isolate_41.wav,NewWord_f_onset_isolate_s_onset_isolate_,41,,,,,,,,,,,,,,,,,3,5,47,13,,,,,,,,,,,s,0.603,,,,,1,Female,20,59.9520304169,American English,fricative_categorical_boundary,2018_Jun_07_1041,
Sounds/,Sounds/NewWord_f_onset_isolate_s_onset_isolate_7.wav,NewWord_f_onset_isolate_s_onset_isolate_,7,,,,,,,,,,,,,,,,,3,6,48,1,,,,,,,,,,,f,0.636,,,,,1,Female,20,59.9520304169,American English,fricative_categorical_boundary,2018_Jun_07_1041,
Sounds/,Sounds/NewWord_f_onset_isolate_s_onset_isolate_1.wav,NewWord_f_onset_isolate_s_onset_isolate_,1,,,,,,,,,,,,,,,,,3,7,49,0,,,,,,,,,,,f,0.437,,,,,1,Female,20,59.9520304169,American English,fricative_categorical_boundary,2018_Jun_07_1041,
Sounds/,Sounds/NewWord_f_onset_isolate_s_onset_isolate_9.wav,NewWord_f_onset_isolate_s_onset_isolate_,9,,,,,,,,,,,,,,,,,3,8,50,2,,,,,,,,,,,f,0.403,,,,,1,Female,20,59.9520304169,American English,fricative_categorical_boundary,2018_Jun_07_1041,
Sounds/,Sounds/NewWord_f_onset_isolate_s_onset_isolate_15.wav,NewWord_f_onset_isolate_s_onset_isolate_,15,,,,,,,,,,,,,,,,,3,9,51,5,,,,,,,,,,,f,0.403,,,,,1,Female,20,59.9520304169,American English,fricative_categorical_boundary,2018_Jun_07_1041,
Sounds/,Sounds/NewWord_f_onset_isolate_s_onset_isolate_13.wav,NewWord_f_onset_isolate_s_onset_isolate_,13,,,,,,,,,,,,,,,,,3,10,52,4,,,,,,,,,,,f,0.403,,,,,1,Female,20,59.9520304169,American English,fricative_categorical_boundary,2018_Jun_07_1041,
Sounds/,Sounds/NewWord_f_onset_isolate_s_onset_isolate_17.wav,NewWord_f_onset_isolate_s_onset_isolate_,17,,,,,,,,,,,,,,,,,3,11,53,6,,,,,,,,,,,f,0.403,,,,,1,Female,20,59.9520304169,American English,fricative_categorical_boundary,2018_Jun_07_1041,
Sounds/,Sounds/NewWord_f_onset_isolate_s_onset_isolate_27.wav,NewWord_f_onset_isolate_s_onset_isolate_,27,,,,,,,,,,,,,,,,,3,12,54,11,,,,,,,,,,,s,0.87,,,,,1,Female,20,59.9520304169,American English,fricative_categorical_boundary,2018_Jun_07_1041,
Sounds/,Sounds/NewWord_f_onset_isolate_s_onset_isolate_25.wav,NewWord_f_onset_isolate_s_onset_isolate_,25,,,,,,,,,,,,,,,,,3,13,55,10,,,,,,,,,,,s,0.737,,,,,1,Female,20,59.9520304169,American English,fricative_categorical_boundary,2018_Jun_07_1041,

