source,Stimuli,Prefix,ChosenStep,realvsnonce,soundfile,segment,token,prefix,address,position,type,trials.thisRepN,trials.thisTrialN,trials.thisN,trials.thisIndex,trials_2.thisRepN,trials_2.thisTrialN,trials_2.thisN,trials_2.thisIndex,trials_3.thisRepN,trials_3.thisTrialN,trials_3.thisN,trials_3.thisIndex,mouse_5.x,mouse_5.y,mouse_5.leftButton,mouse_5.midButton,mouse_5.rightButton,mouse.x,mouse.y,mouse.leftButton,mouse.midButton,mouse.rightButton,rating.response,rating.rt,key_resp_2.keys,key_resp_2.rt,key_resp_3.keys,key_resp_3.rt,participant,Gender,Age,frameRate,Native Language,expName,date,
,,,,,,,,,,,,,,,,,,,,,,,,-0.176041666667,0.185185185185,1,0,0,,,,,,,,,,,,2,Female,24,59.9372947575,American English,fricative_categorical_boundary,2018_Jun_07_1128,
,,,,,,,,,,,,,,,,,,,,,,,,,,,,,-0.173958333333,0.183333333333,1,0,0,,,,,,,2,Female,24,59.9372947575,American English,fricative_categorical_boundary,2018_Jun_07_1128,
Sounds/,Sounds/NewWord_f_onset_isolate_s_onset_isolate_23.wav,NewWord_f_onset_isolate_s_onset_isolate_,23,,,,,,,,,0,0,0,9,,,,,,,,,,,,,,,,,,,s,9.297,,,,,2,Female,24,59.9372947575,American English,fricative_categorical_boundary,2018_Jun_07_1128,
Sounds/,Sounds/NewWord_f_onset_isolate_s_onset_isolate_41.wav,NewWord_f_onset_isolate_s_onset_isolate_,41,,,,,,,,,0,1,1,13,,,,,,,,,,,,,,,,,,,s,0.687,,,,,2,Female,24,59.9372947575,American English,fricative_categorical_boundary,2018_Jun_07_1128,
Sounds/,Sounds/NewWord_f_onset_isolate_s_onset_isolate_9.wav,NewWord_f_onset_isolate_s_onset_isolate_,9,,,,,,,,,0,2,2,2,,,,,,,,,,,,,,,,,,,f,0.869,,,,,2,Female,24,59.9372947575,American English,fricative_categorical_boundary,2018_Jun_07_1128,
Sounds/,Sounds/NewWord_f_onset_isolate_s_onset_isolate_25.wav,NewWord_f_onset_isolate_s_onset_isolate_,25,,,,,,,,,0,3,3,10,,,,,,,,,,,,,,,,,,,s,0.853,,,,,2,Female,24,59.9372947575,American English,fricative_categorical_boundary,2018_Jun_07_1128,
Sounds/,Sounds/NewWord_f_onset_isolate_s_onset_isolate_27.wav,NewWord_f_onset_isolate_s_onset_isolate_,27,,,,,,,,,0,4,4,11,,,,,,,,,,,,,,,,,,,s,0.57,,,,,2,Female,24,59.9372947575,American English,fricative_categorical_boundary,2018_Jun_07_1128,
Sounds/,Sounds/NewWord_f_onset_isolate_s_onset_isolate_29.wav,NewWord_f_onset_isolate_s_onset_isolate_,29,,,,,,,,,0,5,5,12,,,,,,,,,,,,,,,,,,,s,0.802,,,,,2,Female,24,59.9372947575,American English,fricative_categorical_boundary,2018_Jun_07_1128,
Sounds/,Sounds/NewWord_f_onset_isolate_s_onset_isolate_19.wav,NewWord_f_onset_isolate_s_onset_isolate_,19,,,,,,,,,0,6,6,7,,,,,,,,,,,,,,,,,,,f,0.752,,,,,2,Female,24,59.9372947575,American English,fricative_categorical_boundary,2018_Jun_07_1128,
Sounds/,Sounds/NewWord_f_onset_isolate_s_onset_isolate_15.wav,NewWord_f_onset_isolate_s_onset_isolate_,15,,,,,,,,,0,7,7,5,,,,,,,,,,,,,,,,,,,f,0.703,,,,,2,Female,24,59.9372947575,American English,fricative_categorical_boundary,2018_Jun_07_1128,
Sounds/,Sounds/NewWord_f_onset_isolate_s_onset_isolate_21.wav,NewWord_f_onset_isolate_s_onset_isolate_,21,,,,,,,,,0,8,8,8,,,,,,,,,,,,,,,,,,,s,0.837,,,,,2,Female,24,59.9372947575,American English,fricative_categorical_boundary,2018_Jun_07_1128,
Sounds/,Sounds/NewWord_f_onset_isolate_s_onset_isolate_1.wav,NewWord_f_onset_isolate_s_onset_isolate_,1,,,,,,,,,0,9,9,0,,,,,,,,,,,,,,,,,,,f,1.203,,,,,2,Female,24,59.9372947575,American English,fricative_categorical_boundary,2018_Jun_07_1128,
Sounds/,Sounds/NewWord_f_onset_isolate_s_onset_isolate_11.wav,NewWord_f_onset_isolate_s_onset_isolate_,11,,,,,,,,,0,10,10,3,,,,,,,,,,,,,,,,,,,f,0.42,,,,,2,Female,24,59.9372947575,American English,fricative_categorical_boundary,2018_Jun_07_1128,
Sounds/,Sounds/NewWord_f_onset_isolate_s_onset_isolate_17.wav,NewWord_f_onset_isolate_s_onset_isolate_,17,,,,,,,,,0,11,11,6,,,,,,,,,,,,,,,,,,,f,0.703,,,,,2,Female,24,59.9372947575,American English,fricative_categorical_boundary,2018_Jun_07_1128,
Sounds/,Sounds/NewWord_f_onset_isolate_s_onset_isolate_7.wav,NewWord_f_onset_isolate_s_onset_isolate_,7,,,,,,,,,0,12,12,1,,,,,,,,,,,,,,,,,,,f,0.737,,,,,2,Female,24,59.9372947575,American English,fricative_categorical_boundary,2018_Jun_07_1128,
Sounds/,Sounds/NewWord_f_onset_isolate_s_onset_isolate_13.wav,NewWord_f_onset_isolate_s_onset_isolate_,13,,,,,,,,,0,13,13,4,,,,,,,,,,,,,,,,,,,f,0.887,,,,,2,Female,24,59.9372947575,American English,fricative_categorical_boundary,2018_Jun_07_1128,
Sounds/,Sounds/NewWord_f_onset_isolate_s_onset_isolate_7.wav,NewWord_f_onset_isolate_s_onset_isolate_,7,,,,,,,,,1,0,14,1,,,,,,,,,,,,,,,,,,,f,0.636,,,,,2,Female,24,59.9372947575,American English,fricative_categorical_boundary,2018_Jun_07_1128,
Sounds/,Sounds/NewWord_f_onset_isolate_s_onset_isolate_41.wav,NewWord_f_onset_isolate_s_onset_isolate_,41,,,,,,,,,1,1,15,13,,,,,,,,,,,,,,,,,,,s,2.855,,,,,2,Female,24,59.9372947575,American English,fricative_categorical_boundary,2018_Jun_07_1128,
Sounds/,Sounds/NewWord_f_onset_isolate_s_onset_isolate_17.wav,NewWord_f_onset_isolate_s_onset_isolate_,17,,,,,,,,,1,2,16,6,,,,,,,,,,,,,,,,,,,f,0.803,,,,,2,Female,24,59.9372947575,American English,fricative_categorical_boundary,2018_Jun_07_1128,
Sounds/,Sounds/NewWord_f_onset_isolate_s_onset_isolate_25.wav,NewWord_f_onset_isolate_s_onset_isolate_,25,,,,,,,,,1,3,17,10,,,,,,,,,,,,,,,,,,,s,0.419,,,,,2,Female,24,59.9372947575,American English,fricative_categorical_boundary,2018_Jun_07_1128,
Sounds/,Sounds/NewWord_f_onset_isolate_s_onset_isolate_11.wav,NewWord_f_onset_isolate_s_onset_isolate_,11,,,,,,,,,1,4,18,3,,,,,,,,,,,,,,,,,,,f,0.553,,,,,2,Female,24,59.9372947575,American English,fricative_categorical_boundary,2018_Jun_07_1128,
Sounds/,Sounds/NewWord_f_onset_isolate_s_onset_isolate_13.wav,NewWord_f_onset_isolate_s_onset_isolate_,13,,,,,,,,,1,5,19,4,,,,,,,,,,,,,,,,,,,f,0.486,,,,,2,Female,24,59.9372947575,American English,fricative_categorical_boundary,2018_Jun_07_1128,
Sounds/,Sounds/NewWord_f_onset_isolate_s_onset_isolate_21.wav,NewWord_f_onset_isolate_s_onset_isolate_,21,,,,,,,,,1,6,20,8,,,,,,,,,,,,,,,,,,,s,2.322,,,,,2,Female,24,59.9372947575,American English,fricative_categorical_boundary,2018_Jun_07_1128,
Sounds/,Sounds/NewWord_f_onset_isolate_s_onset_isolate_9.wav,NewWord_f_onset_isolate_s_onset_isolate_,9,,,,,,,,,1,7,21,2,,,,,,,,,,,,,,,,,,,f,0.536,,,,,2,Female,24,59.9372947575,American English,fricative_categorical_boundary,2018_Jun_07_1128,
Sounds/,Sounds/NewWord_f_onset_isolate_s_onset_isolate_23.wav,NewWord_f_onset_isolate_s_onset_isolate_,23,,,,,,,,,1,8,22,9,,,,,,,,,,,,,,,,,,,s,0.753,,,,,2,Female,24,59.9372947575,American English,fricative_categorical_boundary,2018_Jun_07_1128,
Sounds/,Sounds/NewWord_f_onset_isolate_s_onset_isolate_27.wav,NewWord_f_onset_isolate_s_onset_isolate_,27,,,,,,,,,1,9,23,11,,,,,,,,,,,,,,,,,,,s,0.636,,,,,2,Female,24,59.9372947575,American English,fricative_categorical_boundary,2018_Jun_07_1128,
Sounds/,Sounds/NewWord_f_onset_isolate_s_onset_isolate_1.wav,NewWord_f_onset_isolate_s_onset_isolate_,1,,,,,,,,,1,10,24,0,,,,,,,,,,,,,,,,,,,f,0.586,,,,,2,Female,24,59.9372947575,American English,fricative_categorical_boundary,2018_Jun_07_1128,
Sounds/,Sounds/NewWord_f_onset_isolate_s_onset_isolate_15.wav,NewWord_f_onset_isolate_s_onset_isolate_,15,,,,,,,,,1,11,25,5,,,,,,,,,,,,,,,,,,,f,0.486,,,,,2,Female,24,59.9372947575,American English,fricative_categorical_boundary,2018_Jun_07_1128,
Sounds/,Sounds/NewWord_f_onset_isolate_s_onset_isolate_19.wav,NewWord_f_onset_isolate_s_onset_isolate_,19,,,,,,,,,1,12,26,7,,,,,,,,,,,,,,,,,,,s,0.419,,,,,2,Female,24,59.9372947575,American English,fricative_categorical_boundary,2018_Jun_07_1128,
Sounds/,Sounds/NewWord_f_onset_isolate_s_onset_isolate_29.wav,NewWord_f_onset_isolate_s_onset_isolate_,29,,,,,,,,,1,13,27,12,,,,,,,,,,,,,,,,,,,s,0.97,,,,,2,Female,24,59.9372947575,American English,fricative_categorical_boundary,2018_Jun_07_1128,
Sounds/,Sounds/NewWord_f_onset_isolate_s_onset_isolate_25.wav,NewWord_f_onset_isolate_s_onset_isolate_,25,,,,,,,,,2,0,28,10,,,,,,,,,,,,,,,,,,,f,0.738,,,,,2,Female,24,59.9372947575,American English,fricative_categorical_boundary,2018_Jun_07_1128,
Sounds/,Sounds/NewWord_f_onset_isolate_s_onset_isolate_15.wav,NewWord_f_onset_isolate_s_onset_isolate_,15,,,,,,,,,2,1,29,5,,,,,,,,,,,,,,,,,,,f,0.419,,,,,2,Female,24,59.9372947575,American English,fricative_categorical_boundary,2018_Jun_07_1128,
Sounds/,Sounds/NewWord_f_onset_isolate_s_onset_isolate_23.wav,NewWord_f_onset_isolate_s_onset_isolate_,23,,,,,,,,,2,2,30,9,,,,,,,,,,,,,,,,,,,s,0.837,,,,,2,Female,24,59.9372947575,American English,fricative_categorical_boundary,2018_Jun_07_1128,
Sounds/,Sounds/NewWord_f_onset_isolate_s_onset_isolate_41.wav,NewWord_f_onset_isolate_s_onset_isolate_,41,,,,,,,,,2,3,31,13,,,,,,,,,,,,,,,,,,,s,0.52,,,,,2,Female,24,59.9372947575,American English,fricative_categorical_boundary,2018_Jun_07_1128,
Sounds/,Sounds/NewWord_f_onset_isolate_s_onset_isolate_17.wav,NewWord_f_onset_isolate_s_onset_isolate_,17,,,,,,,,,2,4,32,6,,,,,,,,,,,,,,,,,,,f,0.519,,,,,2,Female,24,59.9372947575,American English,fricative_categorical_boundary,2018_Jun_07_1128,
Sounds/,Sounds/NewWord_f_onset_isolate_s_onset_isolate_7.wav,NewWord_f_onset_isolate_s_onset_isolate_,7,,,,,,,,,2,5,33,1,,,,,,,,,,,,,,,,,,,f,0.453,,,,,2,Female,24,59.9372947575,American English,fricative_categorical_boundary,2018_Jun_07_1128,
Sounds/,Sounds/NewWord_f_onset_isolate_s_onset_isolate_27.wav,NewWord_f_onset_isolate_s_onset_isolate_,27,,,,,,,,,2,6,34,11,,,,,,,,,,,,,,,,,,,s,0.486,,,,,2,Female,24,59.9372947575,American English,fricative_categorical_boundary,2018_Jun_07_1128,
Sounds/,Sounds/NewWord_f_onset_isolate_s_onset_isolate_29.wav,NewWord_f_onset_isolate_s_onset_isolate_,29,,,,,,,,,2,7,35,12,,,,,,,,,,,,,,,,,,,s,0.786,,,,,2,Female,24,59.9372947575,American English,fricative_categorical_boundary,2018_Jun_07_1128,
Sounds/,Sounds/NewWord_f_onset_isolate_s_onset_isolate_13.wav,NewWord_f_onset_isolate_s_onset_isolate_,13,,,,,,,,,2,8,36,4,,,,,,,,,,,,,,,,,,,f,0.485,,,,,2,Female,24,59.9372947575,American English,fricative_categorical_boundary,2018_Jun_07_1128,
Sounds/,Sounds/NewWord_f_onset_isolate_s_onset_isolate_9.wav,NewWord_f_onset_isolate_s_onset_isolate_,9,,,,,,,,,2,9,37,2,,,,,,,,,,,,,,,,,,,f,0.418,,,,,2,Female,24,59.9372947575,American English,fricative_categorical_boundary,2018_Jun_07_1128,
Sounds/,Sounds/NewWord_f_onset_isolate_s_onset_isolate_21.wav,NewWord_f_onset_isolate_s_onset_isolate_,21,,,,,,,,,2,10,38,8,,,,,,,,,,,,,,,,,,,f,0.803,,,,,2,Female,24,59.9372947575,American English,fricative_categorical_boundary,2018_Jun_07_1128,
Sounds/,Sounds/NewWord_f_onset_isolate_s_onset_isolate_19.wav,NewWord_f_onset_isolate_s_onset_isolate_,19,,,,,,,,,2,11,39,7,,,,,,,,,,,,,,,,,,,f,0.786,,,,,2,Female,24,59.9372947575,American English,fricative_categorical_boundary,2018_Jun_07_1128,
Sounds/,Sounds/NewWord_f_onset_isolate_s_onset_isolate_1.wav,NewWord_f_onset_isolate_s_onset_isolate_,1,,,,,,,,,2,12,40,0,,,,,,,,,,,,,,,,,,,f,0.419,,,,,2,Female,24,59.9372947575,American English,fricative_categorical_boundary,2018_Jun_07_1128,
Sounds/,Sounds/NewWord_f_onset_isolate_s_onset_isolate_11.wav,NewWord_f_onset_isolate_s_onset_isolate_,11,,,,,,,,,2,13,41,3,,,,,,,,,,,,,,,,,,,f,0.636,,,,,2,Female,24,59.9372947575,American English,fricative_categorical_boundary,2018_Jun_07_1128,
Sounds/,Sounds/NewWord_f_onset_isolate_s_onset_isolate_9.wav,NewWord_f_onset_isolate_s_onset_isolate_,9,,,,,,,,,3,0,42,2,,,,,,,,,,,,,,,,,,,f,0.452,,,,,2,Female,24,59.9372947575,American English,fricative_categorical_boundary,2018_Jun_07_1128,
Sounds/,Sounds/NewWord_f_onset_isolate_s_onset_isolate_21.wav,NewWord_f_onset_isolate_s_onset_isolate_,21,,,,,,,,,3,1,43,8,,,,,,,,,,,,,,,,,,,s,0.419,,,,,2,Female,24,59.9372947575,American English,fricative_categorical_boundary,2018_Jun_07_1128,
Sounds/,Sounds/NewWord_f_onset_isolate_s_onset_isolate_11.wav,NewWord_f_onset_isolate_s_onset_isolate_,11,,,,,,,,,3,2,44,3,,,,,,,,,,,,,,,,,,,f,0.419,,,,,2,Female,24,59.9372947575,American English,fricative_categorical_boundary,2018_Jun_07_1128,
Sounds/,Sounds/NewWord_f_onset_isolate_s_onset_isolate_17.wav,NewWord_f_onset_isolate_s_onset_isolate_,17,,,,,,,,,3,3,45,6,,,,,,,,,,,,,,,,,,,f,0.503,,,,,2,Female,24,59.9372947575,American English,fricative_categorical_boundary,2018_Jun_07_1128,
Sounds/,Sounds/NewWord_f_onset_isolate_s_onset_isolate_41.wav,NewWord_f_onset_isolate_s_onset_isolate_,41,,,,,,,,,3,4,46,13,,,,,,,,,,,,,,,,,,,s,0.405,,,,,2,Female,24,59.9372947575,American English,fricative_categorical_boundary,2018_Jun_07_1128,
Sounds/,Sounds/NewWord_f_onset_isolate_s_onset_isolate_29.wav,NewWord_f_onset_isolate_s_onset_isolate_,29,,,,,,,,,3,5,47,12,,,,,,,,,,,,,,,,,,,s,0.503,,,,,2,Female,24,59.9372947575,American English,fricative_categorical_boundary,2018_Jun_07_1128,
Sounds/,Sounds/NewWord_f_onset_isolate_s_onset_isolate_27.wav,NewWord_f_onset_isolate_s_onset_isolate_,27,,,,,,,,,3,6,48,11,,,,,,,,,,,,,,,,,,,s,0.637,,,,,2,Female,24,59.9372947575,American English,fricative_categorical_boundary,2018_Jun_07_1128,
Sounds/,Sounds/NewWord_f_onset_isolate_s_onset_isolate_25.wav,NewWord_f_onset_isolate_s_onset_isolate_,25,,,,,,,,,3,7,49,10,,,,,,,,,,,,,,,,,,,s,0.537,,,,,2,Female,24,59.9372947575,American English,fricative_categorical_boundary,2018_Jun_07_1128,
Sounds/,Sounds/NewWord_f_onset_isolate_s_onset_isolate_15.wav,NewWord_f_onset_isolate_s_onset_isolate_,15,,,,,,,,,3,8,50,5,,,,,,,,,,,,,,,,,,,f,0.419,,,,,2,Female,24,59.9372947575,American English,fricative_categorical_boundary,2018_Jun_07_1128,
Sounds/,Sounds/NewWord_f_onset_isolate_s_onset_isolate_7.wav,NewWord_f_onset_isolate_s_onset_isolate_,7,,,,,,,,,3,9,51,1,,,,,,,,,,,,,,,,,,,f,0.753,,,,,2,Female,24,59.9372947575,American English,fricative_categorical_boundary,2018_Jun_07_1128,
Sounds/,Sounds/NewWord_f_onset_isolate_s_onset_isolate_1.wav,NewWord_f_onset_isolate_s_onset_isolate_,1,,,,,,,,,3,10,52,0,,,,,,,,,,,,,,,,,,,f,0.519,,,,,2,Female,24,59.9372947575,American English,fricative_categorical_boundary,2018_Jun_07_1128,
Sounds/,Sounds/NewWord_f_onset_isolate_s_onset_isolate_13.wav,NewWord_f_onset_isolate_s_onset_isolate_,13,,,,,,,,,3,11,53,4,,,,,,,,,,,,,,,,,,,f,1.404,,,,,2,Female,24,59.9372947575,American English,fricative_categorical_boundary,2018_Jun_07_1128,
Sounds/,Sounds/NewWord_f_onset_isolate_s_onset_isolate_19.wav,NewWord_f_onset_isolate_s_onset_isolate_,19,,,,,,,,,3,12,54,7,,,,,,,,,,,,,,,,,,,f,1.404,,,,,2,Female,24,59.9372947575,American English,fricative_categorical_boundary,2018_Jun_07_1128,
Sounds/,Sounds/NewWord_f_onset_isolate_s_onset_isolate_23.wav,NewWord_f_onset_isolate_s_onset_isolate_,23,,,,,,,,,3,13,55,9,,,,,,,,,,,,,,,,,,,s,0.536,,,,,2,Female,24,59.9372947575,American English,fricative_categorical_boundary,2018_Jun_07_1128,
,,,,,,,,,,,,,,,,,,,,,,,,,,,,,,,,,,,,space,1.30453109741,,,2,Female,24,59.9372947575,American English,fricative_categorical_boundary,2018_Jun_07_1128,
,,,,nonce,LDTSounds/kabalingno.wav,n/a,kabalingno,None,LDTSounds/,n/a,filler,,,,,0,0,0,138,,,,,,,,,,,,,,,,,,,None,,2,Female,24,59.9372947575,American English,fricative_categorical_boundary,2018_Jun_07_1128,
,,,,real,LDTSounds/line.wav,n/a,line,None,LDTSounds/,n/a,filler,,,,,0,1,1,46,,,,,,,,,,,,,,,,,,,l,1.70454692841,2,Female,24,59.9372947575,American English,fricative_categorical_boundary,2018_Jun_07_1128,
,,,,real,LDTSounds/toy.wav,n/a,toy,None,LDTSounds/,n/a,filler,,,,,0,2,2,53,,,,,,,,,,,,,,,,,,,l,1.05373287201,2,Female,24,59.9372947575,American English,fricative_categorical_boundary,2018_Jun_07_1128,
,,,,real,LDTSounds/maker.wav,n/a,maker,None,LDTSounds/,n/a,filler,,,,,0,3,3,64,,,,,,,,,,,,,,,,,,,l,1.08728003502,2,Female,24,59.9372947575,American English,fricative_categorical_boundary,2018_Jun_07_1128,
,,,,nonce,LDTSounds/yoog.wav,n/a,yoog,None,LDTSounds/,n/a,filler,,,,,0,4,4,90,,,,,,,,,,,,,,,,,,,l,1.50433802605,2,Female,24,59.9372947575,American English,fricative_categorical_boundary,2018_Jun_07_1128,
,,,,nonce,LDTSounds/troplund.wav,n/a,troplund,None,LDTSounds/,n/a,filler,,,,,0,5,5,98,,,,,,,,,,,,,,,,,,,a,1.48710393906,2,Female,24,59.9372947575,American English,fricative_categorical_boundary,2018_Jun_07_1128,
,,,,nonce,LDTSounds/himnapile.wav,n/a,himnapile,None,LDTSounds/,n/a,filler,,,,,0,6,6,128,,,,,,,,,,,,,,,,,,,l,1.87129998207,2,Female,24,59.9372947575,American English,fricative_categorical_boundary,2018_Jun_07_1128,
,,,,n/a,LDTSounds/sip.wav,s,sip,None,LDTSounds/,onset,test,,,,,0,7,7,30,,,,,,,,,,,,,,,,,,,l,1.08679795265,2,Female,24,59.9372947575,American English,fricative_categorical_boundary,2018_Jun_07_1128,
,,,,nonce,LDTSounds/retlid.wav,n/a,retlid,None,LDTSounds/,n/a,filler,,,,,0,8,8,105,,,,,,,,,,,,,,,,,,,a,1.45414209366,2,Female,24,59.9372947575,American English,fricative_categorical_boundary,2018_Jun_07_1128,
,,,,n/a,LDTSounds/whiff.wav,f,whiff,None,LDTSounds/,coda,test,,,,,0,9,9,5,,,,,,,,,,,,,,,,,,,a,1.45427703857,2,Female,24,59.9372947575,American English,fricative_categorical_boundary,2018_Jun_07_1128,
,,,,nonce,LDTSounds/rekmate.wav,n/a,rekmate,None,LDTSounds/,n/a,filler,,,,,0,10,10,103,,,,,,,,,,,,,,,,,,,a,1.13724207878,2,Female,24,59.9372947575,American English,fricative_categorical_boundary,2018_Jun_07_1128,
,,,,nonce,LDTSounds/dripnalong.wav,n/a,dripnalong,None,LDTSounds/,n/a,filler,,,,,0,11,11,124,,,,,,,,,,,,,,,,,,,a,1.55427408218,2,Female,24,59.9372947575,American English,fricative_categorical_boundary,2018_Jun_07_1128,
,,,,n/a,LDTSounds/fool.wav,f,fool,None,LDTSounds/,onset,test,,,,,0,12,12,15,,,,,,,,,,,,,,,,,,,l,1.23734688759,2,Female,24,59.9372947575,American English,fricative_categorical_boundary,2018_Jun_07_1128,
,,,,real,LDTSounds/rat.wav,n/a,rat,None,LDTSounds/,n/a,filler,,,,,0,13,13,47,,,,,,,,,,,,,,,,,,,l,0.98703789711,2,Female,24,59.9372947575,American English,fricative_categorical_boundary,2018_Jun_07_1128,
,,,,real,LDTSounds/typing.wav,n/a,typing,None,LDTSounds/,n/a,filler,,,,,0,14,14,70,,,,,,,,,,,,,,,,,,,l,1.02016401291,2,Female,24,59.9372947575,American English,fricative_categorical_boundary,2018_Jun_07_1128,
,,,,nonce,LDTSounds/yoomake.wav,n/a,yoomake,None,LDTSounds/,n/a,filler,,,,,0,15,15,99,,,,,,,,,,,,,,,,,,,a,1.23785710335,2,Female,24,59.9372947575,American English,fricative_categorical_boundary,2018_Jun_07_1128,
,,,,nonce,LDTSounds/bindilamok.wav,n/a,bindilamok,None,LDTSounds/,n/a,filler,,,,,0,16,16,148,,,,,,,,,,,,,,,,,,,a,1.52050590515,2,Female,24,59.9372947575,American English,fricative_categorical_boundary,2018_Jun_07_1128,
,,,,n/a,LDTSounds/fudge.wav,f,fudge,None,LDTSounds/,coda,test,,,,,0,17,17,8,,,,,,,,,,,,,,,,,,,l,1.05384993553,2,Female,24,59.9372947575,American English,fricative_categorical_boundary,2018_Jun_07_1128,
,,,,nonce,LDTSounds/rone.wav,n/a,rone,None,LDTSounds/,n/a,filler,,,,,0,18,18,79,,,,,,,,,,,,,,,,,,,a,1.62112903595,2,Female,24,59.9372947575,American English,fricative_categorical_boundary,2018_Jun_07_1128,
,,,,nonce,LDTSounds/bidbowk.wav,n/a,bidbowk,None,LDTSounds/,n/a,filler,,,,,0,19,19,109,,,,,,,,,,,,,,,,,,,a,1.02052807808,2,Female,24,59.9372947575,American English,fricative_categorical_boundary,2018_Jun_07_1128,
,,,,nonce,LDTSounds/yilk.wav,n/a,yilk,None,LDTSounds/,n/a,filler,,,,,0,20,20,82,,,,,,,,,,,,,,,,,,,l,1.43771195412,2,Female,24,59.9372947575,American English,fricative_categorical_boundary,2018_Jun_07_1128,
,,,,nonce,LDTSounds/doonagort.wav,n/a,doonagort,None,LDTSounds/,n/a,filler,,,,,0,21,21,127,,,,,,,,,,,,,,,,,,,a,1.05365991592,2,Female,24,59.9372947575,American English,fricative_categorical_boundary,2018_Jun_07_1128,
,,,,real,LDTSounds/yellow.wav,n/a,yellow,None,LDTSounds/,n/a,filler,,,,,0,22,22,73,,,,,,,,,,,,,,,,,,,l,1.08720493317,2,Female,24,59.9372947575,American English,fricative_categorical_boundary,2018_Jun_07_1128,
,,,,real,LDTSounds/wet.wav,n/a,wet,None,LDTSounds/,n/a,filler,,,,,0,23,23,38,,,,,,,,,,,,,,,,,,,l,1.88814902306,2,Female,24,59.9372947575,American English,fricative_categorical_boundary,2018_Jun_07_1128,
,,,,nonce,LDTSounds/ratwell.wav,n/a,ratwell,None,LDTSounds/,n/a,filler,,,,,0,24,24,108,,,,,,,,,,,,,,,,,,,a,1.92118692398,2,Female,24,59.9372947575,American English,fricative_categorical_boundary,2018_Jun_07_1128,
,,,,real,LDTSounds/truck.wav,n/a,truck,None,LDTSounds/,n/a,filler,,,,,0,25,25,34,,,,,,,,,,,,,,,,,,,l,1.03702497482,2,Female,24,59.9372947575,American English,fricative_categorical_boundary,2018_Jun_07_1128,
,,,,n/a,LDTSounds/boss.wav,s,boss,None,LDTSounds/,coda,test,,,,,0,26,26,24,,,,,,,,,,,,,,,,,,,a,1.63565087318,2,Female,24,59.9372947575,American English,fricative_categorical_boundary,2018_Jun_07_1128,
,,,,n/a,LDTSounds/such.wav,s,such,None,LDTSounds/,onset,test,,,,,0,27,27,25,,,,,,,,,,,,,,,,,,,l,1.25402903557,2,Female,24,59.9372947575,American English,fricative_categorical_boundary,2018_Jun_07_1128,
,,,,nonce,LDTSounds/dewagelin.wav,n/a,dewagelin,None,LDTSounds/,n/a,filler,,,,,0,28,28,143,,,,,,,,,,,,,,,,,,,a,1.20377397537,2,Female,24,59.9372947575,American English,fricative_categorical_boundary,2018_Jun_07_1128,
,,,,nonce,LDTSounds/heen.wav,n/a,heen,None,LDTSounds/,n/a,filler,,,,,0,29,29,77,,,,,,,,,,,,,,,,,,,l,1.41867780685,2,Female,24,59.9372947575,American English,fricative_categorical_boundary,2018_Jun_07_1128,
,,,,nonce,LDTSounds/kinudiplo.wav,n/a,kinudiplo,None,LDTSounds/,n/a,filler,,,,,0,30,30,149,,,,,,,,,,,,,,,,,,,a,1.17057299614,2,Female,24,59.9372947575,American English,fricative_categorical_boundary,2018_Jun_07_1128,
,,,,nonce,LDTSounds/habapithloo.wav,n/a,habapithloo,None,LDTSounds/,n/a,filler,,,,,0,31,31,136,,,,,,,,,,,,,,,,,,,a,1.30426001549,2,Female,24,59.9372947575,American English,fricative_categorical_boundary,2018_Jun_07_1128,
,,,,nonce,LDTSounds/wiblee.wav,n/a,wiblee,None,LDTSounds/,n/a,filler,,,,,0,32,32,115,,,,,,,,,,,,,,,,,,,l,1.42043209076,2,Female,24,59.9372947575,American English,fricative_categorical_boundary,2018_Jun_07_1128,
,,,,nonce,LDTSounds/hundapegnort.wav,n/a,hundapegnort,None,LDTSounds/,n/a,filler,,,,,0,33,33,141,,,,,,,,,,,,,,,,,,,a,1.08728003502,2,Female,24,59.9372947575,American English,fricative_categorical_boundary,2018_Jun_07_1128,
,,,,real,LDTSounds/liquor.wav,n/a,liquor,None,LDTSounds/,n/a,filler,,,,,0,34,34,63,,,,,,,,,,,,,,,,,,,l,0.970532178879,2,Female,24,59.9372947575,American English,fricative_categorical_boundary,2018_Jun_07_1128,
,,,,nonce,LDTSounds/deemlond.wav,n/a,deemlond,None,LDTSounds/,n/a,filler,,,,,0,35,35,104,,,,,,,,,,,,,,,,,,,a,1.38741397858,2,Female,24,59.9372947575,American English,fricative_categorical_boundary,2018_Jun_07_1128,
,,,,n/a,LDTSounds/fade.wav,f,fade,None,LDTSounds/,onset,test,,,,,0,36,36,12,,,,,,,,,,,,,,,,,,,l,1.13703584671,2,Female,24,59.9372947575,American English,fricative_categorical_boundary,2018_Jun_07_1128,
,,,,n/a,LDTSounds/poof.wav,f,poof,None,LDTSounds/,coda,test,,,,,0,37,37,4,,,,,,,,,,,,,,,,,,,l,1.12054800987,2,Female,24,59.9372947575,American English,fricative_categorical_boundary,2018_Jun_07_1128,
,,,,n/a,LDTSounds/less.wav,s,less,None,LDTSounds/,coda,test,,,,,0,38,38,20,,,,,,,,,,,,,,,,,,,l,1.13724994659,2,Female,24,59.9372947575,American English,fricative_categorical_boundary,2018_Jun_07_1128,
,,,,n/a,LDTSounds/fab.wav,f,fab,None,LDTSounds/,onset,test,,,,,0,39,39,11,,,,,,,,,,,,,,,,,,,a,1.08487296104,2,Female,24,59.9372947575,American English,fricative_categorical_boundary,2018_Jun_07_1128,
,,,,real,LDTSounds/toilet.wav,n/a,toilet,None,LDTSounds/,n/a,filler,,,,,0,40,40,67,,,,,,,,,,,,,,,,,,,l,0.970471143723,2,Female,24,59.9372947575,American English,fricative_categorical_boundary,2018_Jun_07_1128,
,,,,nonce,LDTSounds/libmadoop.wav,n/a,libmadoop,None,LDTSounds/,n/a,filler,,,,,0,41,41,117,,,,,,,,,,,,,,,,,,,a,1.00336003304,2,Female,24,59.9372947575,American English,fricative_categorical_boundary,2018_Jun_07_1128,
,,,,real,LDTSounds/right.wav,n/a,right,None,LDTSounds/,n/a,filler,,,,,0,42,42,36,,,,,,,,,,,,,,,,,,,l,0.97008895874,2,Female,24,59.9372947575,American English,fricative_categorical_boundary,2018_Jun_07_1128,
,,,,real,LDTSounds/butter.wav,n/a,butter,None,LDTSounds/,n/a,filler,,,,,0,43,43,60,,,,,,,,,,,,,,,,,,,l,0.853782176971,2,Female,24,59.9372947575,American English,fricative_categorical_boundary,2018_Jun_07_1128,
,,,,n/a,LDTSounds/felt.wav,f,felt,None,LDTSounds/,onset,test,,,,,0,44,44,9,,,,,,,,,,,,,,,,,,,l,0.920284986496,2,Female,24,59.9372947575,American English,fricative_categorical_boundary,2018_Jun_07_1128,
,,,,nonce,LDTSounds/yoogul.wav,n/a,yoogul,None,LDTSounds/,n/a,filler,,,,,0,45,45,102,,,,,,,,,,,,,,,,,,,a,1.12044692039,2,Female,24,59.9372947575,American English,fricative_categorical_boundary,2018_Jun_07_1128,
,,,,nonce,LDTSounds/roip.wav,n/a,roip,None,LDTSounds/,n/a,filler,,,,,0,46,46,89,,,,,,,,,,,,,,,,,,,a,1.13700509071,2,Female,24,59.9372947575,American English,fricative_categorical_boundary,2018_Jun_07_1128,
,,,,real,LDTSounds/day.wav,n/a,day,None,LDTSounds/,n/a,filler,,,,,0,47,47,50,,,,,,,,,,,,,,,,,,,l,0.870016098022,2,Female,24,59.9372947575,American English,fricative_categorical_boundary,2018_Jun_07_1128,
,,,,nonce,LDTSounds/krebdingolee.wav,n/a,krebdingolee,None,LDTSounds/,n/a,filler,,,,,0,48,48,147,,,,,,,,,,,,,,,,,,,a,1.17053294182,2,Female,24,59.9372947575,American English,fricative_categorical_boundary,2018_Jun_07_1128,
,,,,nonce,LDTSounds/toin.wav,n/a,toin,None,LDTSounds/,n/a,filler,,,,,0,49,49,88,,,,,,,,,,,,,,,,,,,a,1.40410995483,2,Female,24,59.9372947575,American English,fricative_categorical_boundary,2018_Jun_07_1128,
,,,,n/a,LDTSounds/bliss.wav,s,bliss,None,LDTSounds/,coda,test,,,,,0,50,50,19,,,,,,,,,,,,,,,,,,,l,1.08686995506,2,Female,24,59.9372947575,American English,fricative_categorical_boundary,2018_Jun_07_1128,
,,,,nonce,LDTSounds/twek.wav,n/a,twek,None,LDTSounds/,n/a,filler,,,,,0,51,51,80,,,,,,,,,,,,,,,,,,,a,1.25403213501,2,Female,24,59.9372947575,American English,fricative_categorical_boundary,2018_Jun_07_1128,
,,,,n/a,LDTSounds/chef.wav,f,chef,None,LDTSounds/,coda,test,,,,,0,52,52,1,,,,,,,,,,,,,,,,,,,l,1.13699197769,2,Female,24,59.9372947575,American English,fricative_categorical_boundary,2018_Jun_07_1128,
,,,,nonce,LDTSounds/poindool.wav,n/a,poindool,None,LDTSounds/,n/a,filler,,,,,0,53,53,96,,,,,,,,,,,,,,,,,,,a,1.17065691948,2,Female,24,59.9372947575,American English,fricative_categorical_boundary,2018_Jun_07_1128,
,,,,nonce,LDTSounds/relnt.wav,n/a,relnt,None,LDTSounds/,n/a,filler,,,,,0,54,54,83,,,,,,,,,,,,,,,,,,,a,1.28746414185,2,Female,24,59.9372947575,American English,fricative_categorical_boundary,2018_Jun_07_1128,
,,,,nonce,LDTSounds/hoong.wav,n/a,hoong,None,LDTSounds/,n/a,filler,,,,,0,55,55,81,,,,,,,,,,,,,,,,,,,a,1.00361800194,2,Female,24,59.9372947575,American English,fricative_categorical_boundary,2018_Jun_07_1128,
,,,,nonce,LDTSounds/trad.wav,n/a,trad,None,LDTSounds/,n/a,filler,,,,,0,56,56,87,,,,,,,,,,,,,,,,,,,a,1.40367794037,2,Female,24,59.9372947575,American English,fricative_categorical_boundary,2018_Jun_07_1128,
,,,,n/a,LDTSounds/chess.wav,s,chess,None,LDTSounds/,coda,test,,,,,0,57,57,18,,,,,,,,,,,,,,,,,,,l,1.05374908447,2,Female,24,59.9372947575,American English,fricative_categorical_boundary,2018_Jun_07_1128,
,,,,nonce,LDTSounds/trongolemp.wav,n/a,trongolemp,None,LDTSounds/,n/a,filler,,,,,0,58,58,130,,,,,,,,,,,,,,,,,,,a,1.07037186623,2,Female,24,59.9372947575,American English,fricative_categorical_boundary,2018_Jun_07_1128,
,,,,nonce,LDTSounds/ligbee.wav,n/a,ligbee,None,LDTSounds/,n/a,filler,,,,,0,59,59,95,,,,,,,,,,,,,,,,,,,a,1.08730316162,2,Female,24,59.9372947575,American English,fricative_categorical_boundary,2018_Jun_07_1128,
,,,,nonce,LDTSounds/metroy.wav,n/a,metroy,None,LDTSounds/,n/a,filler,,,,,0,60,60,100,,,,,,,,,,,,,,,,,,,l,1.05377078056,2,Female,24,59.9372947575,American English,fricative_categorical_boundary,2018_Jun_07_1128,
,,,,n/a,LDTSounds/deaf.wav,f,deaf,None,LDTSounds/,coda,test,,,,,0,61,61,3,,,,,,,,,,,,,,,,,,,l,1.18733811378,2,Female,24,59.9372947575,American English,fricative_categorical_boundary,2018_Jun_07_1128,
,,,,n/a,LDTSounds/say.wav,s,say,None,LDTSounds/,onset,test,,,,,0,62,62,29,,,,,,,,,,,,,,,,,,,l,1.07046699524,2,Female,24,59.9372947575,American English,fricative_categorical_boundary,2018_Jun_07_1128,
,,,,real,LDTSounds/boycott.wav,n/a,boycott,None,LDTSounds/,n/a,filler,,,,,0,63,63,71,,,,,,,,,,,,,,,,,,,l,0.820152997971,2,Female,24,59.9372947575,American English,fricative_categorical_boundary,2018_Jun_07_1128,
,,,,nonce,LDTSounds/datoonmeg.wav,n/a,datoonmeg,None,LDTSounds/,n/a,filler,,,,,0,64,64,133,,,,,,,,,,,,,,,,,,,a,0.970710039139,2,Female,24,59.9372947575,American English,fricative_categorical_boundary,2018_Jun_07_1128,
,,,,real,LDTSounds/trim.wav,n/a,trim,None,LDTSounds/,n/a,filler,,,,,0,65,65,39,,,,,,,,,,,,,,,,,,,l,1.03723788261,2,Female,24,59.9372947575,American English,fricative_categorical_boundary,2018_Jun_07_1128,
,,,,n/a,LDTSounds/fish.wav,f,fish,None,LDTSounds/,onset,test,,,,,0,66,66,14,,,,,,,,,,,,,,,,,,,a,1.07028794289,2,Female,24,59.9372947575,American English,fricative_categorical_boundary,2018_Jun_07_1128,
,,,,nonce,LDTSounds/giblo.wav,n/a,giblo,None,LDTSounds/,n/a,filler,,,,,0,67,67,93,,,,,,,,,,,,,,,,,,,a,0.934612035751,2,Female,24,59.9372947575,American English,fricative_categorical_boundary,2018_Jun_07_1128,
,,,,nonce,LDTSounds/kebnoti.wav,n/a,kebnoti,None,LDTSounds/,n/a,filler,,,,,0,68,68,121,,,,,,,,,,,,,,,,,,,a,1.27073001862,2,Female,24,59.9372947575,American English,fricative_categorical_boundary,2018_Jun_07_1128,
,,,,n/a,LDTSounds/sash.wav,s,sash,None,LDTSounds/,onset,test,,,,,0,69,69,28,,,,,,,,,,,,,,,,,,,a,1.68781495094,2,Female,24,59.9372947575,American English,fricative_categorical_boundary,2018_Jun_07_1128,
,,,,real,LDTSounds/twin.wav,n/a,twin,None,LDTSounds/,n/a,filler,,,,,0,70,70,44,,,,,,,,,,,,,,,,,,,l,0.987053871155,2,Female,24,59.9372947575,American English,fricative_categorical_boundary,2018_Jun_07_1128,
,,,,real,LDTSounds/daydream.wav,n/a,daydream,None,LDTSounds/,n/a,filler,,,,,0,71,71,59,,,,,,,,,,,,,,,,,,,l,0.903748035431,2,Female,24,59.9372947575,American English,fricative_categorical_boundary,2018_Jun_07_1128,
,,,,nonce,LDTSounds/wegring.wav,n/a,wegring,None,LDTSounds/,n/a,filler,,,,,0,72,72,97,,,,,,,,,,,,,,,,,,,a,1.270622015,2,Female,24,59.9372947575,American English,fricative_categorical_boundary,2018_Jun_07_1128,
,,,,nonce,LDTSounds/hapekt.wav,n/a,hapekt,None,LDTSounds/,n/a,filler,,,,,0,73,73,116,,,,,,,,,,,,,,,,,,,a,1.45446681976,2,Female,24,59.9372947575,American English,fricative_categorical_boundary,2018_Jun_07_1128,
,,,,nonce,LDTSounds/petnole.wav,n/a,petnole,None,LDTSounds/,n/a,filler,,,,,0,74,74,112,,,,,,,,,,,,,,,,,,,a,1.32083296776,2,Female,24,59.9372947575,American English,fricative_categorical_boundary,2018_Jun_07_1128,
,,,,real,LDTSounds/pillow.wav,n/a,pillow,None,LDTSounds/,n/a,filler,,,,,0,75,75,72,,,,,,,,,,,,,,,,,,,l,1.20387291908,2,Female,24,59.9372947575,American English,fricative_categorical_boundary,2018_Jun_07_1128,
,,,,n/a,LDTSounds/food.wav,f,food,None,LDTSounds/,onset,test,,,,,0,76,76,10,,,,,,,,,,,,,,,,,,,l,1.23729395866,2,Female,24,59.9372947575,American English,fricative_categorical_boundary,2018_Jun_07_1128,
,,,,nonce,LDTSounds/yoodalin.wav,n/a,yoodalin,None,LDTSounds/,n/a,filler,,,,,0,77,77,125,,,,,,,,,,,,,,,,,,,a,1.02021098137,2,Female,24,59.9372947575,American English,fricative_categorical_boundary,2018_Jun_07_1128,
,,,,nonce,LDTSounds/rone.wav,n/a,rone,None,LDTSounds/,n/a,filler,,,,,0,78,78,92,,,,,,,,,,,,,,,,,,,a,1.63787007332,2,Female,24,59.9372947575,American English,fricative_categorical_boundary,2018_Jun_07_1128,
,,,,n/a,LDTSounds/cough.wav,f,cough,None,LDTSounds/,coda,test,,,,,0,79,79,7,,,,,,,,,,,,,,,,,,,l,1.27057695389,2,Female,24,59.9372947575,American English,fricative_categorical_boundary,2018_Jun_07_1128,
,,,,real,LDTSounds/data.wav,n/a,data,None,LDTSounds/,n/a,filler,,,,,0,80,80,62,,,,,,,,,,,,,,,,,,,l,1.30397796631,2,Female,24,59.9372947575,American English,fricative_categorical_boundary,2018_Jun_07_1128,
,,,,real,LDTSounds/pen.wav,n/a,pen,None,LDTSounds/,n/a,filler,,,,,0,81,81,40,,,,,,,,,,,,,,,,,,,l,0.970481157303,2,Female,24,59.9372947575,American English,fricative_categorical_boundary,2018_Jun_07_1128,
,,,,nonce,LDTSounds/weg.wav,n/a,weg,None,LDTSounds/,n/a,filler,,,,,0,82,82,78,,,,,,,,,,,,,,,,,,,a,0.936656951904,2,Female,24,59.9372947575,American English,fricative_categorical_boundary,2018_Jun_07_1128,
,,,,real,LDTSounds/rowboat.wav,n/a,rowboat,None,LDTSounds/,n/a,filler,,,,,0,83,83,56,,,,,,,,,,,,,,,,,,,l,1.3207461834,2,Female,24,59.9372947575,American English,fricative_categorical_boundary,2018_Jun_07_1128,
,,,,real,LDTSounds/while.wav,n/a,while,None,LDTSounds/,n/a,filler,,,,,0,84,84,48,,,,,,,,,,,,,,,,,,,l,1.10376906395,2,Female,24,59.9372947575,American English,fricative_categorical_boundary,2018_Jun_07_1128,
,,,,real,LDTSounds/lump.wav,n/a,lump,None,LDTSounds/,n/a,filler,,,,,0,85,85,54,,,,,,,,,,,,,,,,,,,l,0.970492839813,2,Female,24,59.9372947575,American English,fricative_categorical_boundary,2018_Jun_07_1128,
,,,,nonce,LDTSounds/poginito.wav,n/a,poginito,None,LDTSounds/,n/a,filler,,,,,0,86,86,139,,,,,,,,,,,,,,,,,,,a,1.23714399338,2,Female,24,59.9372947575,American English,fricative_categorical_boundary,2018_Jun_07_1128,
,,,,nonce,LDTSounds/waip.wav,n/a,waip,None,LDTSounds/,n/a,filler,,,,,0,87,87,91,,,,,,,,,,,,,,,,,,,a,1.2206530571,2,Female,24,59.9372947575,American English,fricative_categorical_boundary,2018_Jun_07_1128,
,,,,real,LDTSounds/jupiter.wav,n/a,jupiter,None,LDTSounds/,n/a,filler,,,,,0,88,88,74,,,,,,,,,,,,,,,,,,,l,0.98725104332,2,Female,24,59.9372947575,American English,fricative_categorical_boundary,2018_Jun_07_1128,
,,,,nonce,LDTSounds/cratbool.wav,n/a,cratbool,None,LDTSounds/,n/a,filler,,,,,0,89,89,106,,,,,,,,,,,,,,,,,,,a,1.35374903679,2,Female,24,59.9372947575,American English,fricative_categorical_boundary,2018_Jun_07_1128,
,,,,nonce,LDTSounds/podaling.wav,n/a,podaling,None,LDTSounds/,n/a,filler,,,,,0,90,90,132,,,,,,,,,,,,,,,,,,,a,1.40430688858,2,Female,24,59.9372947575,American English,fricative_categorical_boundary,2018_Jun_07_1128,
,,,,real,LDTSounds/mole.wav,n/a,mole,None,LDTSounds/,n/a,filler,,,,,0,91,91,42,,,,,,,,,,,,,,,,,,,a,2.05494785309,2,Female,24,59.9372947575,American English,fricative_categorical_boundary,2018_Jun_07_1128,
,,,,nonce,LDTSounds/kililitbi.wav,n/a,kililitbi,None,LDTSounds/,n/a,filler,,,,,0,92,92,145,,,,,,,,,,,,,,,,,,,a,1.22047615051,2,Female,24,59.9372947575,American English,fricative_categorical_boundary,2018_Jun_07_1128,
,,,,real,LDTSounds/tomb.wav,n/a,tomb,None,LDTSounds/,n/a,filler,,,,,0,93,93,35,,,,,,,,,,,,,,,,,,,l,1.20164299011,2,Female,24,59.9372947575,American English,fricative_categorical_boundary,2018_Jun_07_1128,
,,,,n/a,LDTSounds/silt.wav,s,silt,None,LDTSounds/,onset,test,,,,,0,94,94,31,,,,,,,,,,,,,,,,,,,a,1.23716711998,2,Female,24,59.9372947575,American English,fricative_categorical_boundary,2018_Jun_07_1128,
,,,,nonce,LDTSounds/pendalimt.wav,n/a,pendalimt,None,LDTSounds/,n/a,filler,,,,,0,95,95,118,,,,,,,,,,,,,,,,,,,a,1.33747410774,2,Female,24,59.9372947575,American English,fricative_categorical_boundary,2018_Jun_07_1128,
,,,,nonce,LDTSounds/plagtorin.wav,n/a,plagtorin,None,LDTSounds/,n/a,filler,,,,,0,96,96,134,,,,,,,,,,,,,,,,,,,a,1.27084422112,2,Female,24,59.9372947575,American English,fricative_categorical_boundary,2018_Jun_07_1128,
,,,,real,LDTSounds/little.wav,n/a,little,None,LDTSounds/,n/a,filler,,,,,0,97,97,61,,,,,,,,,,,,,,,,,,,l,0.937038183212,2,Female,24,59.9372947575,American English,fricative_categorical_boundary,2018_Jun_07_1128,
,,,,real,LDTSounds/drip.wav,n/a,drip,None,LDTSounds/,n/a,filler,,,,,0,98,98,51,,,,,,,,,,,,,,,,,,,l,1.00368499756,2,Female,24,59.9372947575,American English,fricative_categorical_boundary,2018_Jun_07_1128,
,,,,n/a,LDTSounds/deuce.wav,s,deuce,None,LDTSounds/,coda,test,,,,,0,99,99,21,,,,,,,,,,,,,,,,,,,a,1.48741412163,2,Female,24,59.9372947575,American English,fricative_categorical_boundary,2018_Jun_07_1128,
,,,,nonce,LDTSounds/habalipdee.wav,n/a,habalipdee,None,LDTSounds/,n/a,filler,,,,,0,100,100,140,,,,,,,,,,,,,,,,,,,a,1.22044086456,2,Female,24,59.9372947575,American English,fricative_categorical_boundary,2018_Jun_07_1128,
,,,,real,LDTSounds/laker.wav,n/a,laker,None,LDTSounds/,n/a,filler,,,,,0,101,101,58,,,,,,,,,,,,,,,,,,,l,1.07052206993,2,Female,24,59.9372947575,American English,fricative_categorical_boundary,2018_Jun_07_1128,
,,,,nonce,LDTSounds/mitger.wav,n/a,mitger,None,LDTSounds/,n/a,filler,,,,,0,102,102,111,,,,,,,,,,,,,,,,,,,a,1.18728494644,2,Female,24,59.9372947575,American English,fricative_categorical_boundary,2018_Jun_07_1128,
,,,,n/a,LDTSounds/geese.wav,s,geese,None,LDTSounds/,coda,test,,,,,0,103,103,23,,,,,,,,,,,,,,,,,,,l,1.12249803543,2,Female,24,59.9372947575,American English,fricative_categorical_boundary,2018_Jun_07_1128,
,,,,n/a,LDTSounds/beef.wav,f,beef,None,LDTSounds/,coda,test,,,,,0,104,104,6,,,,,,,,,,,,,,,,,,,l,1.00369691849,2,Female,24,59.9372947575,American English,fricative_categorical_boundary,2018_Jun_07_1128,
,,,,nonce,LDTSounds/gelp.wav,n/a,gelp,None,LDTSounds/,n/a,filler,,,,,0,105,105,85,,,,,,,,,,,,,,,,,,,a,1.00369811058,2,Female,24,59.9372947575,American English,fricative_categorical_boundary,2018_Jun_07_1128,
,,,,nonce,LDTSounds/himp.wav,n/a,himp,None,LDTSounds/,n/a,filler,,,,,0,106,106,75,,,,,,,,,,,,,,,,,,,a,2.21971106529,2,Female,24,59.9372947575,American English,fricative_categorical_boundary,2018_Jun_07_1128,
,,,,nonce,LDTSounds/drataloob.wav,n/a,drataloob,None,LDTSounds/,n/a,filler,,,,,0,107,107,129,,,,,,,,,,,,,,,,,,,a,1.03689217567,2,Female,24,59.9372947575,American English,fricative_categorical_boundary,2018_Jun_07_1128,
,,,,nonce,LDTSounds/cridamlo.wav,n/a,cridamlo,None,LDTSounds/,n/a,filler,,,,,0,108,108,122,,,,,,,,,,,,,,,,,,,a,1.08715009689,2,Female,24,59.9372947575,American English,fricative_categorical_boundary,2018_Jun_07_1128,
,,,,nonce,LDTSounds/rivathrog.wav,n/a,rivathrog,None,LDTSounds/,n/a,filler,,,,,0,109,109,131,,,,,,,,,,,,,,,,,,,l,1.48742413521,2,Female,24,59.9372947575,American English,fricative_categorical_boundary,2018_Jun_07_1128,
,,,,nonce,LDTSounds/magmilnt.wav,n/a,magmilnt,None,LDTSounds/,n/a,filler,,,,,0,110,110,107,,,,,,,,,,,,,,,,,,,a,1.53777885437,2,Female,24,59.9372947575,American English,fricative_categorical_boundary,2018_Jun_07_1128,
,,,,n/a,LDTSounds/soon.wav,s,soon,None,LDTSounds/,onset,test,,,,,0,111,111,32,,,,,,,,,,,,,,,,,,,l,1.18742609024,2,Female,24,59.9372947575,American English,fricative_categorical_boundary,2018_Jun_07_1128,
,,,,nonce,LDTSounds/hapooli.wav,n/a,hapooli,None,LDTSounds/,n/a,filler,,,,,0,112,112,126,,,,,,,,,,,,,,,,,,,a,1.20397782326,2,Female,24,59.9372947575,American English,fricative_categorical_boundary,2018_Jun_07_1128,
,,,,nonce,LDTSounds/trag.wav,n/a,trag,None,LDTSounds/,n/a,filler,,,,,0,113,113,84,,,,,,,,,,,,,,,,,,,a,1.60425615311,2,Female,24,59.9372947575,American English,fricative_categorical_boundary,2018_Jun_07_1128,
,,,,nonce,LDTSounds/taklibd.wav,n/a,taklibd,None,LDTSounds/,n/a,filler,,,,,0,114,114,101,,,,,,,,,,,,,,,,,,,a,1.68774795532,2,Female,24,59.9372947575,American English,fricative_categorical_boundary,2018_Jun_07_1128,
,,,,real,LDTSounds/treaty.wav,n/a,treaty,None,LDTSounds/,n/a,filler,,,,,0,115,115,65,,,,,,,,,,,,,,,,,,,l,1.50414180756,2,Female,24,59.9372947575,American English,fricative_categorical_boundary,2018_Jun_07_1128,
,,,,real,LDTSounds/lake.wav,n/a,lake,None,LDTSounds/,n/a,filler,,,,,0,116,116,45,,,,,,,,,,,,,,,,,,,l,0.920449972153,2,Female,24,59.9372947575,American English,fricative_categorical_boundary,2018_Jun_07_1128,
,,,,nonce,LDTSounds/tridalondit.wav,n/a,tridalondit,None,LDTSounds/,n/a,filler,,,,,0,117,117,146,,,,,,,,,,,,,,,,,,,a,1.12065291405,2,Female,24,59.9372947575,American English,fricative_categorical_boundary,2018_Jun_07_1128,
,,,,real,LDTSounds/lemur.wav,n/a,lemur,None,LDTSounds/,n/a,filler,,,,,0,118,118,68,,,,,,,,,,,,,,,,,,,l,1.05351400375,2,Female,24,59.9372947575,American English,fricative_categorical_boundary,2018_Jun_07_1128,
,,,,nonce,LDTSounds/pingloon.wav,n/a,pingloon,None,LDTSounds/,n/a,filler,,,,,0,119,119,110,,,,,,,,,,,,,,,,,,,a,1.27088499069,2,Female,24,59.9372947575,American English,fricative_categorical_boundary,2018_Jun_07_1128,
,,,,nonce,LDTSounds/ledmon.wav,n/a,ledmon,None,LDTSounds/,n/a,filler,,,,,0,120,120,94,,,,,,,,,,,,,,,,,,,a,1.18732619286,2,Female,24,59.9372947575,American English,fricative_categorical_boundary,2018_Jun_07_1128,
,,,,nonce,LDTSounds/boondatribnok.wav,n/a,boondatribnok,None,LDTSounds/,n/a,filler,,,,,0,121,121,137,,,,,,,,,,,,,,,,,,,a,1.33754301071,2,Female,24,59.9372947575,American English,fricative_categorical_boundary,2018_Jun_07_1128,
,,,,n/a,LDTSounds/sect.wav,s,sect,None,LDTSounds/,onset,test,,,,,0,122,122,26,,,,,,,,,,,,,,,,,,,l,1.37096405029,2,Female,24,59.9372947575,American English,fricative_categorical_boundary,2018_Jun_07_1128,
,,,,n/a,LDTSounds/sulk.wav,s,sulk,None,LDTSounds/,onset,test,,,,,0,123,123,33,,,,,,,,,,,,,,,,,,,l,1.02038884163,2,Female,24,59.9372947575,American English,fricative_categorical_boundary,2018_Jun_07_1128,
,,,,n/a,LDTSounds/truss.wav,s,truss,None,LDTSounds/,coda,test,,,,,0,124,124,17,,,,,,,,,,,,,,,,,,,l,1.13710999489,2,Female,24,59.9372947575,American English,fricative_categorical_boundary,2018_Jun_07_1128,
,,,,n/a,LDTSounds/kiss.wav,s,kiss,None,LDTSounds/,coda,test,,,,,0,125,125,22,,,,,,,,,,,,,,,,,,,l,0.936777114868,2,Female,24,59.9372947575,American English,fricative_categorical_boundary,2018_Jun_07_1128,
,,,,real,LDTSounds/building.wav,n/a,building,None,LDTSounds/,n/a,filler,,,,,0,126,126,55,,,,,,,,,,,,,,,,,,,l,1.10374879837,2,Female,24,59.9372947575,American English,fricative_categorical_boundary,2018_Jun_07_1128,
,,,,n/a,LDTSounds/bluff.wav,f,bluff,None,LDTSounds/,coda,test,,,,,0,127,127,0,,,,,,,,,,,,,,,,,,,l,0.970254898071,2,Female,24,59.9372947575,American English,fricative_categorical_boundary,2018_Jun_07_1128,
,,,,nonce,LDTSounds/radoobling.wav,n/a,radoobling,None,LDTSounds/,n/a,filler,,,,,0,128,128,142,,,,,,,,,,,,,,,,,,,a,1.87121701241,2,Female,24,59.9372947575,American English,fricative_categorical_boundary,2018_Jun_07_1128,
,,,,nonce,LDTSounds/wegtamlip.wav,n/a,wegtamlip,None,LDTSounds/,n/a,filler,,,,,0,129,129,120,,,,,,,,,,,,,,,,,,,a,1.1373500824,2,Female,24,59.9372947575,American English,fricative_categorical_boundary,2018_Jun_07_1128,
,,,,nonce,LDTSounds/midaran.wav,n/a,midaran,None,LDTSounds/,n/a,filler,,,,,0,130,130,119,,,,,,,,,,,,,,,,,,,a,1.10371088982,2,Female,24,59.9372947575,American English,fricative_categorical_boundary,2018_Jun_07_1128,
,,,,n/a,LDTSounds/cliff.wav,f,cliff,None,LDTSounds/,coda,test,,,,,0,131,131,2,,,,,,,,,,,,,,,,,,,l,1.00359392166,2,Female,24,59.9372947575,American English,fricative_categorical_boundary,2018_Jun_07_1128,
,,,,real,LDTSounds/trooper.wav,n/a,trooper,None,LDTSounds/,n/a,filler,,,,,0,132,132,66,,,,,,,,,,,,,,,,,,,l,0.970418930054,2,Female,24,59.9372947575,American English,fricative_categorical_boundary,2018_Jun_07_1128,
,,,,nonce,LDTSounds/blegondanit.wav,n/a,blegondanit,None,LDTSounds/,n/a,filler,,,,,0,133,133,144,,,,,,,,,,,,,,,,,,,a,1.32080698013,2,Female,24,59.9372947575,American English,fricative_categorical_boundary,2018_Jun_07_1128,
,,,,real,LDTSounds/loot.wav,n/a,loot,None,LDTSounds/,n/a,filler,,,,,0,134,134,37,,,,,,,,,,,,,,,,,,,l,0.987003803253,2,Female,24,59.9372947575,American English,fricative_categorical_boundary,2018_Jun_07_1128,
,,,,nonce,LDTSounds/plone.wav,n/a,plone,None,LDTSounds/,n/a,filler,,,,,0,135,135,76,,,,,,,,,,,,,,,,,,,a,1.2206799984,2,Female,24,59.9372947575,American English,fricative_categorical_boundary,2018_Jun_07_1128,
,,,,real,LDTSounds/lick.wav,n/a,lick,None,LDTSounds/,n/a,filler,,,,,0,136,136,41,,,,,,,,,,,,,,,,,,,l,0.903511047363,2,Female,24,59.9372947575,American English,fricative_categorical_boundary,2018_Jun_07_1128,
,,,,real,LDTSounds/will.wav,n/a,will,None,LDTSounds/,n/a,filler,,,,,0,137,137,49,,,,,,,,,,,,,,,,,,,l,0.653255939484,2,Female,24,59.9372947575,American English,fricative_categorical_boundary,2018_Jun_07_1128,
,,,,real,LDTSounds/globe.wav,n/a,globe,None,LDTSounds/,n/a,filler,,,,,0,138,138,52,,,,,,,,,,,,,,,,,,,l,0.853693008423,2,Female,24,59.9372947575,American English,fricative_categorical_boundary,2018_Jun_07_1128,
,,,,real,LDTSounds/mall.wav,n/a,mall,None,LDTSounds/,n/a,filler,,,,,0,139,139,43,,,,,,,,,,,,,,,,,,,l,0.936919927597,2,Female,24,59.9372947575,American English,fricative_categorical_boundary,2018_Jun_07_1128,
,,,,real,LDTSounds/baking.wav,n/a,baking,None,LDTSounds/,n/a,filler,,,,,0,140,140,69,,,,,,,,,,,,,,,,,,,l,1.0034558773,2,Female,24,59.9372947575,American English,fricative_categorical_boundary,2018_Jun_07_1128,
,,,,real,LDTSounds/tuba.wav,n/a,tuba,None,LDTSounds/,n/a,filler,,,,,0,141,141,57,,,,,,,,,,,,,,,,,,,a,1.13754892349,2,Female,24,59.9372947575,American English,fricative_categorical_boundary,2018_Jun_07_1128,
,,,,nonce,LDTSounds/queng.wav,n/a,queng,None,LDTSounds/,n/a,filler,,,,,0,142,142,86,,,,,,,,,,,,,,,,,,,a,0.953445911407,2,Female,24,59.9372947575,American English,fricative_categorical_boundary,2018_Jun_07_1128,
,,,,n/a,LDTSounds/soup.wav,s,soup,None,LDTSounds/,onset,test,,,,,0,143,143,27,,,,,,,,,,,,,,,,,,,l,1.02009415627,2,Female,24,59.9372947575,American English,fricative_categorical_boundary,2018_Jun_07_1128,
,,,,nonce,LDTSounds/kotlim.wav,n/a,kotlim,None,LDTSounds/,n/a,filler,,,,,0,144,144,114,,,,,,,,,,,,,,,,,,,a,1.25153493881,2,Female,24,59.9372947575,American English,fricative_categorical_boundary,2018_Jun_07_1128,
,,,,n/a,LDTSounds/fig.wav,f,fig,None,LDTSounds/,onset,test,,,,,0,145,145,13,,,,,,,,,,,,,,,,,,,l,0.88668513298,2,Female,24,59.9372947575,American English,fricative_categorical_boundary,2018_Jun_07_1128,
,,,,nonce,LDTSounds/lempok.wav,n/a,lempok,None,LDTSounds/,n/a,filler,,,,,0,146,146,113,,,,,,,,,,,,,,,,,,,a,1.05375814438,2,Female,24,59.9372947575,American English,fricative_categorical_boundary,2018_Jun_07_1128,
,,,,nonce,LDTSounds/lopenad.wav,n/a,lopenad,None,LDTSounds/,n/a,filler,,,,,0,147,147,123,,,,,,,,,,,,,,,,,,,a,1.07038807869,2,Female,24,59.9372947575,American English,fricative_categorical_boundary,2018_Jun_07_1128,
,,,,n/a,LDTSounds/full.wav,f,full,None,LDTSounds/,onset,test,,,,,0,148,148,16,,,,,,,,,,,,,,,,,,,l,1.22051501274,2,Female,24,59.9372947575,American English,fricative_categorical_boundary,2018_Jun_07_1128,
,,,,nonce,LDTSounds/noopalingdo.wav,n/a,noopalingdo,None,LDTSounds/,n/a,filler,,,,,0,149,149,135,,,,,,,,,,,,,,,,,,,a,1.12047100067,2,Female,24,59.9372947575,American English,fricative_categorical_boundary,2018_Jun_07_1128,
,,,,,,,,,,,,,,,,,,,,,,,,,,,,,-0.295833333333,-0.375925925926,1,0,0,,,,,,,2,Female,24,59.9372947575,American English,fricative_categorical_boundary,2018_Jun_07_1128,
Sounds/,Sounds/NewWord_f_onset_isolate_s_onset_isolate_23.wav,NewWord_f_onset_isolate_s_onset_isolate_,23,,,,,,,,,,,,,,,,,0,0,0,9,,,,,,,,,,,s,0.769,,,,,2,Female,24,59.9372947575,American English,fricative_categorical_boundary,2018_Jun_07_1128,
Sounds/,Sounds/NewWord_f_onset_isolate_s_onset_isolate_27.wav,NewWord_f_onset_isolate_s_onset_isolate_,27,,,,,,,,,,,,,,,,,0,1,1,11,,,,,,,,,,,s,0.405,,,,,2,Female,24,59.9372947575,American English,fricative_categorical_boundary,2018_Jun_07_1128,
Sounds/,Sounds/NewWord_f_onset_isolate_s_onset_isolate_9.wav,NewWord_f_onset_isolate_s_onset_isolate_,9,,,,,,,,,,,,,,,,,0,2,2,2,,,,,,,,,,,f,0.636,,,,,2,Female,24,59.9372947575,American English,fricative_categorical_boundary,2018_Jun_07_1128,
Sounds/,Sounds/NewWord_f_onset_isolate_s_onset_isolate_7.wav,NewWord_f_onset_isolate_s_onset_isolate_,7,,,,,,,,,,,,,,,,,0,3,3,1,,,,,,,,,,,f,1.654,,,,,2,Female,24,59.9372947575,American English,fricative_categorical_boundary,2018_Jun_07_1128,
Sounds/,Sounds/NewWord_f_onset_isolate_s_onset_isolate_13.wav,NewWord_f_onset_isolate_s_onset_isolate_,13,,,,,,,,,,,,,,,,,0,4,4,4,,,,,,,,,,,f,0.402,,,,,2,Female,24,59.9372947575,American English,fricative_categorical_boundary,2018_Jun_07_1128,
Sounds/,Sounds/NewWord_f_onset_isolate_s_onset_isolate_19.wav,NewWord_f_onset_isolate_s_onset_isolate_,19,,,,,,,,,,,,,,,,,0,5,5,7,,,,,,,,,,,f,0.486,,,,,2,Female,24,59.9372947575,American English,fricative_categorical_boundary,2018_Jun_07_1128,
Sounds/,Sounds/NewWord_f_onset_isolate_s_onset_isolate_17.wav,NewWord_f_onset_isolate_s_onset_isolate_,17,,,,,,,,,,,,,,,,,0,6,6,6,,,,,,,,,,,f,0.452,,,,,2,Female,24,59.9372947575,American English,fricative_categorical_boundary,2018_Jun_07_1128,
Sounds/,Sounds/NewWord_f_onset_isolate_s_onset_isolate_21.wav,NewWord_f_onset_isolate_s_onset_isolate_,21,,,,,,,,,,,,,,,,,0,7,7,8,,,,,,,,,,,s,0.586,,,,,2,Female,24,59.9372947575,American English,fricative_categorical_boundary,2018_Jun_07_1128,
Sounds/,Sounds/NewWord_f_onset_isolate_s_onset_isolate_1.wav,NewWord_f_onset_isolate_s_onset_isolate_,1,,,,,,,,,,,,,,,,,0,8,8,0,,,,,,,,,,,f,0.452,,,,,2,Female,24,59.9372947575,American English,fricative_categorical_boundary,2018_Jun_07_1128,
Sounds/,Sounds/NewWord_f_onset_isolate_s_onset_isolate_41.wav,NewWord_f_onset_isolate_s_onset_isolate_,41,,,,,,,,,,,,,,,,,0,9,9,13,,,,,,,,,,,s,0.636,,,,,2,Female,24,59.9372947575,American English,fricative_categorical_boundary,2018_Jun_07_1128,
Sounds/,Sounds/NewWord_f_onset_isolate_s_onset_isolate_15.wav,NewWord_f_onset_isolate_s_onset_isolate_,15,,,,,,,,,,,,,,,,,0,10,10,5,,,,,,,,,,,f,0.405,,,,,2,Female,24,59.9372947575,American English,fricative_categorical_boundary,2018_Jun_07_1128,
Sounds/,Sounds/NewWord_f_onset_isolate_s_onset_isolate_25.wav,NewWord_f_onset_isolate_s_onset_isolate_,25,,,,,,,,,,,,,,,,,0,11,11,10,,,,,,,,,,,s,0.669,,,,,2,Female,24,59.9372947575,American English,fricative_categorical_boundary,2018_Jun_07_1128,
Sounds/,Sounds/NewWord_f_onset_isolate_s_onset_isolate_29.wav,NewWord_f_onset_isolate_s_onset_isolate_,29,,,,,,,,,,,,,,,,,0,12,12,12,,,,,,,,,,,s,1.654,,,,,2,Female,24,59.9372947575,American English,fricative_categorical_boundary,2018_Jun_07_1128,
Sounds/,Sounds/NewWord_f_onset_isolate_s_onset_isolate_11.wav,NewWord_f_onset_isolate_s_onset_isolate_,11,,,,,,,,,,,,,,,,,0,13,13,3,,,,,,,,,,,f,0.52,,,,,2,Female,24,59.9372947575,American English,fricative_categorical_boundary,2018_Jun_07_1128,
Sounds/,Sounds/NewWord_f_onset_isolate_s_onset_isolate_1.wav,NewWord_f_onset_isolate_s_onset_isolate_,1,,,,,,,,,,,,,,,,,1,0,14,0,,,,,,,,,,,f,0.469,,,,,2,Female,24,59.9372947575,American English,fricative_categorical_boundary,2018_Jun_07_1128,
Sounds/,Sounds/NewWord_f_onset_isolate_s_onset_isolate_27.wav,NewWord_f_onset_isolate_s_onset_isolate_,27,,,,,,,,,,,,,,,,,1,1,15,11,,,,,,,,,,,s,0.453,,,,,2,Female,24,59.9372947575,American English,fricative_categorical_boundary,2018_Jun_07_1128,
Sounds/,Sounds/NewWord_f_onset_isolate_s_onset_isolate_7.wav,NewWord_f_onset_isolate_s_onset_isolate_,7,,,,,,,,,,,,,,,,,1,2,16,1,,,,,,,,,,,f,1.104,,,,,2,Female,24,59.9372947575,American English,fricative_categorical_boundary,2018_Jun_07_1128,
Sounds/,Sounds/NewWord_f_onset_isolate_s_onset_isolate_17.wav,NewWord_f_onset_isolate_s_onset_isolate_,17,,,,,,,,,,,,,,,,,1,3,17,6,,,,,,,,,,,f,0.402,,,,,2,Female,24,59.9372947575,American English,fricative_categorical_boundary,2018_Jun_07_1128,
Sounds/,Sounds/NewWord_f_onset_isolate_s_onset_isolate_15.wav,NewWord_f_onset_isolate_s_onset_isolate_,15,,,,,,,,,,,,,,,,,1,4,18,5,,,,,,,,,,,f,0.586,,,,,2,Female,24,59.9372947575,American English,fricative_categorical_boundary,2018_Jun_07_1128,
Sounds/,Sounds/NewWord_f_onset_isolate_s_onset_isolate_25.wav,NewWord_f_onset_isolate_s_onset_isolate_,25,,,,,,,,,,,,,,,,,1,5,19,10,,,,,,,,,,,s,1.187,,,,,2,Female,24,59.9372947575,American English,fricative_categorical_boundary,2018_Jun_07_1128,
Sounds/,Sounds/NewWord_f_onset_isolate_s_onset_isolate_29.wav,NewWord_f_onset_isolate_s_onset_isolate_,29,,,,,,,,,,,,,,,,,1,6,20,12,,,,,,,,,,,s,1.17,,,,,2,Female,24,59.9372947575,American English,fricative_categorical_boundary,2018_Jun_07_1128,
Sounds/,Sounds/NewWord_f_onset_isolate_s_onset_isolate_21.wav,NewWord_f_onset_isolate_s_onset_isolate_,21,,,,,,,,,,,,,,,,,1,7,21,8,,,,,,,,,,,f,0.636,,,,,2,Female,24,59.9372947575,American English,fricative_categorical_boundary,2018_Jun_07_1128,
Sounds/,Sounds/NewWord_f_onset_isolate_s_onset_isolate_9.wav,NewWord_f_onset_isolate_s_onset_isolate_,9,,,,,,,,,,,,,,,,,1,8,22,2,,,,,,,,,,,f,0.536,,,,,2,Female,24,59.9372947575,American English,fricative_categorical_boundary,2018_Jun_07_1128,
Sounds/,Sounds/NewWord_f_onset_isolate_s_onset_isolate_19.wav,NewWord_f_onset_isolate_s_onset_isolate_,19,,,,,,,,,,,,,,,,,1,9,23,7,,,,,,,,,,,f,1.119,,,,,2,Female,24,59.9372947575,American English,fricative_categorical_boundary,2018_Jun_07_1128,
Sounds/,Sounds/NewWord_f_onset_isolate_s_onset_isolate_23.wav,NewWord_f_onset_isolate_s_onset_isolate_,23,,,,,,,,,,,,,,,,,1,10,24,9,,,,,,,,,,,s,0.419,,,,,2,Female,24,59.9372947575,American English,fricative_categorical_boundary,2018_Jun_07_1128,
Sounds/,Sounds/NewWord_f_onset_isolate_s_onset_isolate_13.wav,NewWord_f_onset_isolate_s_onset_isolate_,13,,,,,,,,,,,,,,,,,1,11,25,4,,,,,,,,,,,f,0.636,,,,,2,Female,24,59.9372947575,American English,fricative_categorical_boundary,2018_Jun_07_1128,
Sounds/,Sounds/NewWord_f_onset_isolate_s_onset_isolate_41.wav,NewWord_f_onset_isolate_s_onset_isolate_,41,,,,,,,,,,,,,,,,,1,12,26,13,,,,,,,,,,,s,0.502,,,,,2,Female,24,59.9372947575,American English,fricative_categorical_boundary,2018_Jun_07_1128,
Sounds/,Sounds/NewWord_f_onset_isolate_s_onset_isolate_11.wav,NewWord_f_onset_isolate_s_onset_isolate_,11,,,,,,,,,,,,,,,,,1,13,27,3,,,,,,,,,,,f,0.42,,,,,2,Female,24,59.9372947575,American English,fricative_categorical_boundary,2018_Jun_07_1128,
Sounds/,Sounds/NewWord_f_onset_isolate_s_onset_isolate_25.wav,NewWord_f_onset_isolate_s_onset_isolate_,25,,,,,,,,,,,,,,,,,2,0,28,10,,,,,,,,,,,f,1.471,,,,,2,Female,24,59.9372947575,American English,fricative_categorical_boundary,2018_Jun_07_1128,
Sounds/,Sounds/NewWord_f_onset_isolate_s_onset_isolate_9.wav,NewWord_f_onset_isolate_s_onset_isolate_,9,,,,,,,,,,,,,,,,,2,1,29,2,,,,,,,,,,,f,0.402,,,,,2,Female,24,59.9372947575,American English,fricative_categorical_boundary,2018_Jun_07_1128,
Sounds/,Sounds/NewWord_f_onset_isolate_s_onset_isolate_23.wav,NewWord_f_onset_isolate_s_onset_isolate_,23,,,,,,,,,,,,,,,,,2,2,30,9,,,,,,,,,,,s,0.469,,,,,2,Female,24,59.9372947575,American English,fricative_categorical_boundary,2018_Jun_07_1128,
Sounds/,Sounds/NewWord_f_onset_isolate_s_onset_isolate_29.wav,NewWord_f_onset_isolate_s_onset_isolate_,29,,,,,,,,,,,,,,,,,2,3,31,12,,,,,,,,,,,s,0.419,,,,,2,Female,24,59.9372947575,American English,fricative_categorical_boundary,2018_Jun_07_1128,
Sounds/,Sounds/NewWord_f_onset_isolate_s_onset_isolate_7.wav,NewWord_f_onset_isolate_s_onset_isolate_,7,,,,,,,,,,,,,,,,,2,4,32,1,,,,,,,,,,,f,0.502,,,,,2,Female,24,59.9372947575,American English,fricative_categorical_boundary,2018_Jun_07_1128,
Sounds/,Sounds/NewWord_f_onset_isolate_s_onset_isolate_1.wav,NewWord_f_onset_isolate_s_onset_isolate_,1,,,,,,,,,,,,,,,,,2,5,33,0,,,,,,,,,,,f,0.402,,,,,2,Female,24,59.9372947575,American English,fricative_categorical_boundary,2018_Jun_07_1128,
Sounds/,Sounds/NewWord_f_onset_isolate_s_onset_isolate_27.wav,NewWord_f_onset_isolate_s_onset_isolate_,27,,,,,,,,,,,,,,,,,2,6,34,11,,,,,,,,,,,s,0.569,,,,,2,Female,24,59.9372947575,American English,fricative_categorical_boundary,2018_Jun_07_1128,
Sounds/,Sounds/NewWord_f_onset_isolate_s_onset_isolate_19.wav,NewWord_f_onset_isolate_s_onset_isolate_,19,,,,,,,,,,,,,,,,,2,7,35,7,,,,,,,,,,,f,0.669,,,,,2,Female,24,59.9372947575,American English,fricative_categorical_boundary,2018_Jun_07_1128,
Sounds/,Sounds/NewWord_f_onset_isolate_s_onset_isolate_13.wav,NewWord_f_onset_isolate_s_onset_isolate_,13,,,,,,,,,,,,,,,,,2,8,36,4,,,,,,,,,,,f,0.403,,,,,2,Female,24,59.9372947575,American English,fricative_categorical_boundary,2018_Jun_07_1128,
Sounds/,Sounds/NewWord_f_onset_isolate_s_onset_isolate_15.wav,NewWord_f_onset_isolate_s_onset_isolate_,15,,,,,,,,,,,,,,,,,2,9,37,5,,,,,,,,,,,f,0.405,,,,,2,Female,24,59.9372947575,American English,fricative_categorical_boundary,2018_Jun_07_1128,
Sounds/,Sounds/NewWord_f_onset_isolate_s_onset_isolate_11.wav,NewWord_f_onset_isolate_s_onset_isolate_,11,,,,,,,,,,,,,,,,,2,10,38,3,,,,,,,,,,,f,0.403,,,,,2,Female,24,59.9372947575,American English,fricative_categorical_boundary,2018_Jun_07_1128,
Sounds/,Sounds/NewWord_f_onset_isolate_s_onset_isolate_17.wav,NewWord_f_onset_isolate_s_onset_isolate_,17,,,,,,,,,,,,,,,,,2,11,39,6,,,,,,,,,,,f,0.403,,,,,2,Female,24,59.9372947575,American English,fricative_categorical_boundary,2018_Jun_07_1128,
Sounds/,Sounds/NewWord_f_onset_isolate_s_onset_isolate_21.wav,NewWord_f_onset_isolate_s_onset_isolate_,21,,,,,,,,,,,,,,,,,2,12,40,8,,,,,,,,,,,f,1.087,,,,,2,Female,24,59.9372947575,American English,fricative_categorical_boundary,2018_Jun_07_1128,
Sounds/,Sounds/NewWord_f_onset_isolate_s_onset_isolate_41.wav,NewWord_f_onset_isolate_s_onset_isolate_,41,,,,,,,,,,,,,,,,,2,13,41,13,,,,,,,,,,,s,0.502,,,,,2,Female,24,59.9372947575,American English,fricative_categorical_boundary,2018_Jun_07_1128,
Sounds/,Sounds/NewWord_f_onset_isolate_s_onset_isolate_13.wav,NewWord_f_onset_isolate_s_onset_isolate_,13,,,,,,,,,,,,,,,,,3,0,42,4,,,,,,,,,,,f,0.536,,,,,2,Female,24,59.9372947575,American English,fricative_categorical_boundary,2018_Jun_07_1128,
Sounds/,Sounds/NewWord_f_onset_isolate_s_onset_isolate_23.wav,NewWord_f_onset_isolate_s_onset_isolate_,23,,,,,,,,,,,,,,,,,3,1,43,9,,,,,,,,,,,f,0.853,,,,,2,Female,24,59.9372947575,American English,fricative_categorical_boundary,2018_Jun_07_1128,
Sounds/,Sounds/NewWord_f_onset_isolate_s_onset_isolate_11.wav,NewWord_f_onset_isolate_s_onset_isolate_,11,,,,,,,,,,,,,,,,,3,2,44,3,,,,,,,,,,,f,0.402,,,,,2,Female,24,59.9372947575,American English,fricative_categorical_boundary,2018_Jun_07_1128,
Sounds/,Sounds/NewWord_f_onset_isolate_s_onset_isolate_19.wav,NewWord_f_onset_isolate_s_onset_isolate_,19,,,,,,,,,,,,,,,,,3,3,45,7,,,,,,,,,,,s,0.402,,,,,2,Female,24,59.9372947575,American English,fricative_categorical_boundary,2018_Jun_07_1128,
Sounds/,Sounds/NewWord_f_onset_isolate_s_onset_isolate_29.wav,NewWord_f_onset_isolate_s_onset_isolate_,29,,,,,,,,,,,,,,,,,3,4,46,12,,,,,,,,,,,s,1.12,,,,,2,Female,24,59.9372947575,American English,fricative_categorical_boundary,2018_Jun_07_1128,
Sounds/,Sounds/NewWord_f_onset_isolate_s_onset_isolate_9.wav,NewWord_f_onset_isolate_s_onset_isolate_,9,,,,,,,,,,,,,,,,,3,5,47,2,,,,,,,,,,,f,0.418,,,,,2,Female,24,59.9372947575,American English,fricative_categorical_boundary,2018_Jun_07_1128,
Sounds/,Sounds/NewWord_f_onset_isolate_s_onset_isolate_1.wav,NewWord_f_onset_isolate_s_onset_isolate_,1,,,,,,,,,,,,,,,,,3,6,48,0,,,,,,,,,,,f,1.02,,,,,2,Female,24,59.9372947575,American English,fricative_categorical_boundary,2018_Jun_07_1128,
Sounds/,Sounds/NewWord_f_onset_isolate_s_onset_isolate_25.wav,NewWord_f_onset_isolate_s_onset_isolate_,25,,,,,,,,,,,,,,,,,3,7,49,10,,,,,,,,,,,s,0.402,,,,,2,Female,24,59.9372947575,American English,fricative_categorical_boundary,2018_Jun_07_1128,
Sounds/,Sounds/NewWord_f_onset_isolate_s_onset_isolate_7.wav,NewWord_f_onset_isolate_s_onset_isolate_,7,,,,,,,,,,,,,,,,,3,8,50,1,,,,,,,,,,,f,0.519,,,,,2,Female,24,59.9372947575,American English,fricative_categorical_boundary,2018_Jun_07_1128,
Sounds/,Sounds/NewWord_f_onset_isolate_s_onset_isolate_21.wav,NewWord_f_onset_isolate_s_onset_isolate_,21,,,,,,,,,,,,,,,,,3,9,51,8,,,,,,,,,,,s,0.402,,,,,2,Female,24,59.9372947575,American English,fricative_categorical_boundary,2018_Jun_07_1128,
Sounds/,Sounds/NewWord_f_onset_isolate_s_onset_isolate_17.wav,NewWord_f_onset_isolate_s_onset_isolate_,17,,,,,,,,,,,,,,,,,3,10,52,6,,,,,,,,,,,s,0.419,,,,,2,Female,24,59.9372947575,American English,fricative_categorical_boundary,2018_Jun_07_1128,
Sounds/,Sounds/NewWord_f_onset_isolate_s_onset_isolate_41.wav,NewWord_f_onset_isolate_s_onset_isolate_,41,,,,,,,,,,,,,,,,,3,11,53,13,,,,,,,,,,,s,1.404,,,,,2,Female,24,59.9372947575,American English,fricative_categorical_boundary,2018_Jun_07_1128,
Sounds/,Sounds/NewWord_f_onset_isolate_s_onset_isolate_15.wav,NewWord_f_onset_isolate_s_onset_isolate_,15,,,,,,,,,,,,,,,,,3,12,54,5,,,,,,,,,,,f,0.535,,,,,2,Female,24,59.9372947575,American English,fricative_categorical_boundary,2018_Jun_07_1128,
Sounds/,Sounds/NewWord_f_onset_isolate_s_onset_isolate_27.wav,NewWord_f_onset_isolate_s_onset_isolate_,27,,,,,,,,,,,,,,,,,3,13,55,11,,,,,,,,,,,s,1.27,,,,,2,Female,24,59.9372947575,American English,fricative_categorical_boundary,2018_Jun_07_1128,

