source,Stimuli,Prefix,ChosenStep,realvsnonce,soundfile,segment,token,prefix,address,position,type,trials.thisRepN,trials.thisTrialN,trials.thisN,trials.thisIndex,trials_2.thisRepN,trials_2.thisTrialN,trials_2.thisN,trials_2.thisIndex,trials_3.thisRepN,trials_3.thisTrialN,trials_3.thisN,trials_3.thisIndex,mouse_5.x,mouse_5.y,mouse_5.leftButton,mouse_5.midButton,mouse_5.rightButton,mouse.x,mouse.y,mouse.leftButton,mouse.midButton,mouse.rightButton,rating.response,rating.rt,key_resp_2.keys,key_resp_2.rt,key_resp_3.keys,key_resp_3.rt,participant,Gender,Age,frameRate,Native Language,expName,date,
,,,,,,,,,,,,,,,,,,,,,,,,0.103125,-0.238888888889,1,0,0,,,,,,,,,,,,8,female,18,59.9189709655,American English,fricative_categorical_boundary,2018_Feb_12_1718,
,,,,,,,,,,,,,,,,,,,,,,,,,,,,,-0.0864583333333,-0.135185185185,1,0,0,,,,,,,8,female,18,59.9189709655,American English,fricative_categorical_boundary,2018_Feb_12_1718,
Sounds/,Sounds/NewWord_f_onset_isolate_s_onset_isolate_21.wav,NewWord_f_onset_isolate_s_onset_isolate_,21,,,,,,,,,0,0,0,8,,,,,,,,,,,,,,,,,,,s,3.189,,,,,8,female,18,59.9189709655,American English,fricative_categorical_boundary,2018_Feb_12_1718,
Sounds/,Sounds/NewWord_f_onset_isolate_s_onset_isolate_9.wav,NewWord_f_onset_isolate_s_onset_isolate_,9,,,,,,,,,0,1,1,2,,,,,,,,,,,,,,,,,,,f,0.653,,,,,8,female,18,59.9189709655,American English,fricative_categorical_boundary,2018_Feb_12_1718,
Sounds/,Sounds/NewWord_f_onset_isolate_s_onset_isolate_23.wav,NewWord_f_onset_isolate_s_onset_isolate_,23,,,,,,,,,0,2,2,9,,,,,,,,,,,,,,,,,,,s,0.569,,,,,8,female,18,59.9189709655,American English,fricative_categorical_boundary,2018_Feb_12_1718,
Sounds/,Sounds/NewWord_f_onset_isolate_s_onset_isolate_17.wav,NewWord_f_onset_isolate_s_onset_isolate_,17,,,,,,,,,0,3,3,6,,,,,,,,,,,,,,,,,,,s,3.055,,,,,8,female,18,59.9189709655,American English,fricative_categorical_boundary,2018_Feb_12_1718,
Sounds/,Sounds/NewWord_f_onset_isolate_s_onset_isolate_1.wav,NewWord_f_onset_isolate_s_onset_isolate_,1,,,,,,,,,0,4,4,0,,,,,,,,,,,,,,,,,,,s,2.455,,,,,8,female,18,59.9189709655,American English,fricative_categorical_boundary,2018_Feb_12_1718,
Sounds/,Sounds/NewWord_f_onset_isolate_s_onset_isolate_27.wav,NewWord_f_onset_isolate_s_onset_isolate_,27,,,,,,,,,0,5,5,11,,,,,,,,,,,,,,,,,,,s,3.607,,,,,8,female,18,59.9189709655,American English,fricative_categorical_boundary,2018_Feb_12_1718,
Sounds/,Sounds/NewWord_f_onset_isolate_s_onset_isolate_29.wav,NewWord_f_onset_isolate_s_onset_isolate_,29,,,,,,,,,0,6,6,12,,,,,,,,,,,,,,,,,,,s,6.209,,,,,8,female,18,59.9189709655,American English,fricative_categorical_boundary,2018_Feb_12_1718,
Sounds/,Sounds/NewWord_f_onset_isolate_s_onset_isolate_13.wav,NewWord_f_onset_isolate_s_onset_isolate_,13,,,,,,,,,0,7,7,4,,,,,,,,,,,,,,,,,,,s,1.136,,,,,8,female,18,59.9189709655,American English,fricative_categorical_boundary,2018_Feb_12_1718,
Sounds/,Sounds/NewWord_f_onset_isolate_s_onset_isolate_15.wav,NewWord_f_onset_isolate_s_onset_isolate_,15,,,,,,,,,0,8,8,5,,,,,,,,,,,,,,,,,,,f,1.671,,,,,8,female,18,59.9189709655,American English,fricative_categorical_boundary,2018_Feb_12_1718,
Sounds/,Sounds/NewWord_f_onset_isolate_s_onset_isolate_19.wav,NewWord_f_onset_isolate_s_onset_isolate_,19,,,,,,,,,0,9,9,7,,,,,,,,,,,,,,,,,,,s,1.354,,,,,8,female,18,59.9189709655,American English,fricative_categorical_boundary,2018_Feb_12_1718,
Sounds/,Sounds/NewWord_f_onset_isolate_s_onset_isolate_41.wav,NewWord_f_onset_isolate_s_onset_isolate_,41,,,,,,,,,0,10,10,13,,,,,,,,,,,,,,,,,,,s,1.153,,,,,8,female,18,59.9189709655,American English,fricative_categorical_boundary,2018_Feb_12_1718,
Sounds/,Sounds/NewWord_f_onset_isolate_s_onset_isolate_7.wav,NewWord_f_onset_isolate_s_onset_isolate_,7,,,,,,,,,0,11,11,1,,,,,,,,,,,,,,,,,,,f,0.953,,,,,8,female,18,59.9189709655,American English,fricative_categorical_boundary,2018_Feb_12_1718,
Sounds/,Sounds/NewWord_f_onset_isolate_s_onset_isolate_25.wav,NewWord_f_onset_isolate_s_onset_isolate_,25,,,,,,,,,0,12,12,10,,,,,,,,,,,,,,,,,,,s,0.92,,,,,8,female,18,59.9189709655,American English,fricative_categorical_boundary,2018_Feb_12_1718,
Sounds/,Sounds/NewWord_f_onset_isolate_s_onset_isolate_11.wav,NewWord_f_onset_isolate_s_onset_isolate_,11,,,,,,,,,0,13,13,3,,,,,,,,,,,,,,,,,,,f,1.103,,,,,8,female,18,59.9189709655,American English,fricative_categorical_boundary,2018_Feb_12_1718,
Sounds/,Sounds/NewWord_f_onset_isolate_s_onset_isolate_17.wav,NewWord_f_onset_isolate_s_onset_isolate_,17,,,,,,,,,1,0,14,6,,,,,,,,,,,,,,,,,,,f,0.82,,,,,8,female,18,59.9189709655,American English,fricative_categorical_boundary,2018_Feb_12_1718,
Sounds/,Sounds/NewWord_f_onset_isolate_s_onset_isolate_21.wav,NewWord_f_onset_isolate_s_onset_isolate_,21,,,,,,,,,1,1,15,8,,,,,,,,,,,,,,,,,,,f,0.619,,,,,8,female,18,59.9189709655,American English,fricative_categorical_boundary,2018_Feb_12_1718,
Sounds/,Sounds/NewWord_f_onset_isolate_s_onset_isolate_9.wav,NewWord_f_onset_isolate_s_onset_isolate_,9,,,,,,,,,1,2,16,2,,,,,,,,,,,,,,,,,,,f,0.553,,,,,8,female,18,59.9189709655,American English,fricative_categorical_boundary,2018_Feb_12_1718,
Sounds/,Sounds/NewWord_f_onset_isolate_s_onset_isolate_7.wav,NewWord_f_onset_isolate_s_onset_isolate_,7,,,,,,,,,1,3,17,1,,,,,,,,,,,,,,,,,,,f,0.653,,,,,8,female,18,59.9189709655,American English,fricative_categorical_boundary,2018_Feb_12_1718,
Sounds/,Sounds/NewWord_f_onset_isolate_s_onset_isolate_15.wav,NewWord_f_onset_isolate_s_onset_isolate_,15,,,,,,,,,1,4,18,5,,,,,,,,,,,,,,,,,,,s,1.22,,,,,8,female,18,59.9189709655,American English,fricative_categorical_boundary,2018_Feb_12_1718,
Sounds/,Sounds/NewWord_f_onset_isolate_s_onset_isolate_13.wav,NewWord_f_onset_isolate_s_onset_isolate_,13,,,,,,,,,1,5,19,4,,,,,,,,,,,,,,,,,,,f,2.088,,,,,8,female,18,59.9189709655,American English,fricative_categorical_boundary,2018_Feb_12_1718,
Sounds/,Sounds/NewWord_f_onset_isolate_s_onset_isolate_27.wav,NewWord_f_onset_isolate_s_onset_isolate_,27,,,,,,,,,1,6,20,11,,,,,,,,,,,,,,,,,,,f,3.389,,,,,8,female,18,59.9189709655,American English,fricative_categorical_boundary,2018_Feb_12_1718,
Sounds/,Sounds/NewWord_f_onset_isolate_s_onset_isolate_29.wav,NewWord_f_onset_isolate_s_onset_isolate_,29,,,,,,,,,1,7,21,12,,,,,,,,,,,,,,,,,,,s,1.187,,,,,8,female,18,59.9189709655,American English,fricative_categorical_boundary,2018_Feb_12_1718,
Sounds/,Sounds/NewWord_f_onset_isolate_s_onset_isolate_25.wav,NewWord_f_onset_isolate_s_onset_isolate_,25,,,,,,,,,1,8,22,10,,,,,,,,,,,,,,,,,,,f,1.17,,,,,8,female,18,59.9189709655,American English,fricative_categorical_boundary,2018_Feb_12_1718,
Sounds/,Sounds/NewWord_f_onset_isolate_s_onset_isolate_1.wav,NewWord_f_onset_isolate_s_onset_isolate_,1,,,,,,,,,1,9,23,0,,,,,,,,,,,,,,,,,,,f,0.937,,,,,8,female,18,59.9189709655,American English,fricative_categorical_boundary,2018_Feb_12_1718,
Sounds/,Sounds/NewWord_f_onset_isolate_s_onset_isolate_11.wav,NewWord_f_onset_isolate_s_onset_isolate_,11,,,,,,,,,1,10,24,3,,,,,,,,,,,,,,,,,,,f,0.636,,,,,8,female,18,59.9189709655,American English,fricative_categorical_boundary,2018_Feb_12_1718,
Sounds/,Sounds/NewWord_f_onset_isolate_s_onset_isolate_23.wav,NewWord_f_onset_isolate_s_onset_isolate_,23,,,,,,,,,1,11,25,9,,,,,,,,,,,,,,,,,,,s,1.087,,,,,8,female,18,59.9189709655,American English,fricative_categorical_boundary,2018_Feb_12_1718,
Sounds/,Sounds/NewWord_f_onset_isolate_s_onset_isolate_41.wav,NewWord_f_onset_isolate_s_onset_isolate_,41,,,,,,,,,1,12,26,13,,,,,,,,,,,,,,,,,,,s,0.92,,,,,8,female,18,59.9189709655,American English,fricative_categorical_boundary,2018_Feb_12_1718,
Sounds/,Sounds/NewWord_f_onset_isolate_s_onset_isolate_19.wav,NewWord_f_onset_isolate_s_onset_isolate_,19,,,,,,,,,1,13,27,7,,,,,,,,,,,,,,,,,,,f,1.303,,,,,8,female,18,59.9189709655,American English,fricative_categorical_boundary,2018_Feb_12_1718,
Sounds/,Sounds/NewWord_f_onset_isolate_s_onset_isolate_17.wav,NewWord_f_onset_isolate_s_onset_isolate_,17,,,,,,,,,2,0,28,6,,,,,,,,,,,,,,,,,,,f,0.736,,,,,8,female,18,59.9189709655,American English,fricative_categorical_boundary,2018_Feb_12_1718,
Sounds/,Sounds/NewWord_f_onset_isolate_s_onset_isolate_13.wav,NewWord_f_onset_isolate_s_onset_isolate_,13,,,,,,,,,2,1,29,4,,,,,,,,,,,,,,,,,,,f,0.754,,,,,8,female,18,59.9189709655,American English,fricative_categorical_boundary,2018_Feb_12_1718,
Sounds/,Sounds/NewWord_f_onset_isolate_s_onset_isolate_29.wav,NewWord_f_onset_isolate_s_onset_isolate_,29,,,,,,,,,2,2,30,12,,,,,,,,,,,,,,,,,,,s,0.835,,,,,8,female,18,59.9189709655,American English,fricative_categorical_boundary,2018_Feb_12_1718,
Sounds/,Sounds/NewWord_f_onset_isolate_s_onset_isolate_25.wav,NewWord_f_onset_isolate_s_onset_isolate_,25,,,,,,,,,2,3,31,10,,,,,,,,,,,,,,,,,,,s,1.821,,,,,8,female,18,59.9189709655,American English,fricative_categorical_boundary,2018_Feb_12_1718,
Sounds/,Sounds/NewWord_f_onset_isolate_s_onset_isolate_27.wav,NewWord_f_onset_isolate_s_onset_isolate_,27,,,,,,,,,2,4,32,11,,,,,,,,,,,,,,,,,,,s,0.47,,,,,8,female,18,59.9189709655,American English,fricative_categorical_boundary,2018_Feb_12_1718,
Sounds/,Sounds/NewWord_f_onset_isolate_s_onset_isolate_21.wav,NewWord_f_onset_isolate_s_onset_isolate_,21,,,,,,,,,2,5,33,8,,,,,,,,,,,,,,,,,,,f,1.303,,,,,8,female,18,59.9189709655,American English,fricative_categorical_boundary,2018_Feb_12_1718,
Sounds/,Sounds/NewWord_f_onset_isolate_s_onset_isolate_23.wav,NewWord_f_onset_isolate_s_onset_isolate_,23,,,,,,,,,2,6,34,9,,,,,,,,,,,,,,,,,,,s,1.053,,,,,8,female,18,59.9189709655,American English,fricative_categorical_boundary,2018_Feb_12_1718,
Sounds/,Sounds/NewWord_f_onset_isolate_s_onset_isolate_11.wav,NewWord_f_onset_isolate_s_onset_isolate_,11,,,,,,,,,2,7,35,3,,,,,,,,,,,,,,,,,,,f,2.071,,,,,8,female,18,59.9189709655,American English,fricative_categorical_boundary,2018_Feb_12_1718,
Sounds/,Sounds/NewWord_f_onset_isolate_s_onset_isolate_9.wav,NewWord_f_onset_isolate_s_onset_isolate_,9,,,,,,,,,2,8,36,2,,,,,,,,,,,,,,,,,,,f,1.036,,,,,8,female,18,59.9189709655,American English,fricative_categorical_boundary,2018_Feb_12_1718,
Sounds/,Sounds/NewWord_f_onset_isolate_s_onset_isolate_41.wav,NewWord_f_onset_isolate_s_onset_isolate_,41,,,,,,,,,2,9,37,13,,,,,,,,,,,,,,,,,,,s,1.754,,,,,8,female,18,59.9189709655,American English,fricative_categorical_boundary,2018_Feb_12_1718,
Sounds/,Sounds/NewWord_f_onset_isolate_s_onset_isolate_19.wav,NewWord_f_onset_isolate_s_onset_isolate_,19,,,,,,,,,2,10,38,7,,,,,,,,,,,,,,,,,,,f,2.305,,,,,8,female,18,59.9189709655,American English,fricative_categorical_boundary,2018_Feb_12_1718,
Sounds/,Sounds/NewWord_f_onset_isolate_s_onset_isolate_15.wav,NewWord_f_onset_isolate_s_onset_isolate_,15,,,,,,,,,2,11,39,5,,,,,,,,,,,,,,,,,,,s,1.721,,,,,8,female,18,59.9189709655,American English,fricative_categorical_boundary,2018_Feb_12_1718,
Sounds/,Sounds/NewWord_f_onset_isolate_s_onset_isolate_1.wav,NewWord_f_onset_isolate_s_onset_isolate_,1,,,,,,,,,2,12,40,0,,,,,,,,,,,,,,,,,,,f,1.198,,,,,8,female,18,59.9189709655,American English,fricative_categorical_boundary,2018_Feb_12_1718,
Sounds/,Sounds/NewWord_f_onset_isolate_s_onset_isolate_7.wav,NewWord_f_onset_isolate_s_onset_isolate_,7,,,,,,,,,2,13,41,1,,,,,,,,,,,,,,,,,,,f,1.47,,,,,8,female,18,59.9189709655,American English,fricative_categorical_boundary,2018_Feb_12_1718,
Sounds/,Sounds/NewWord_f_onset_isolate_s_onset_isolate_13.wav,NewWord_f_onset_isolate_s_onset_isolate_,13,,,,,,,,,3,0,42,4,,,,,,,,,,,,,,,,,,,f,0.852,,,,,8,female,18,59.9189709655,American English,fricative_categorical_boundary,2018_Feb_12_1718,
Sounds/,Sounds/NewWord_f_onset_isolate_s_onset_isolate_1.wav,NewWord_f_onset_isolate_s_onset_isolate_,1,,,,,,,,,3,1,43,0,,,,,,,,,,,,,,,,,,,f,0.486,,,,,8,female,18,59.9189709655,American English,fricative_categorical_boundary,2018_Feb_12_1718,
Sounds/,Sounds/NewWord_f_onset_isolate_s_onset_isolate_27.wav,NewWord_f_onset_isolate_s_onset_isolate_,27,,,,,,,,,3,2,44,11,,,,,,,,,,,,,,,,,,,s,1.187,,,,,8,female,18,59.9189709655,American English,fricative_categorical_boundary,2018_Feb_12_1718,
Sounds/,Sounds/NewWord_f_onset_isolate_s_onset_isolate_29.wav,NewWord_f_onset_isolate_s_onset_isolate_,29,,,,,,,,,3,3,45,12,,,,,,,,,,,,,,,,,,,s,0.719,,,,,8,female,18,59.9189709655,American English,fricative_categorical_boundary,2018_Feb_12_1718,
Sounds/,Sounds/NewWord_f_onset_isolate_s_onset_isolate_19.wav,NewWord_f_onset_isolate_s_onset_isolate_,19,,,,,,,,,3,4,46,7,,,,,,,,,,,,,,,,,,,f,0.969,,,,,8,female,18,59.9189709655,American English,fricative_categorical_boundary,2018_Feb_12_1718,
Sounds/,Sounds/NewWord_f_onset_isolate_s_onset_isolate_23.wav,NewWord_f_onset_isolate_s_onset_isolate_,23,,,,,,,,,3,5,47,9,,,,,,,,,,,,,,,,,,,f,2.037,,,,,8,female,18,59.9189709655,American English,fricative_categorical_boundary,2018_Feb_12_1718,
Sounds/,Sounds/NewWord_f_onset_isolate_s_onset_isolate_41.wav,NewWord_f_onset_isolate_s_onset_isolate_,41,,,,,,,,,3,6,48,13,,,,,,,,,,,,,,,,,,,s,0.737,,,,,8,female,18,59.9189709655,American English,fricative_categorical_boundary,2018_Feb_12_1718,
Sounds/,Sounds/NewWord_f_onset_isolate_s_onset_isolate_15.wav,NewWord_f_onset_isolate_s_onset_isolate_,15,,,,,,,,,3,7,49,5,,,,,,,,,,,,,,,,,,,f,0.953,,,,,8,female,18,59.9189709655,American English,fricative_categorical_boundary,2018_Feb_12_1718,
Sounds/,Sounds/NewWord_f_onset_isolate_s_onset_isolate_9.wav,NewWord_f_onset_isolate_s_onset_isolate_,9,,,,,,,,,3,8,50,2,,,,,,,,,,,,,,,,,,,f,0.903,,,,,8,female,18,59.9189709655,American English,fricative_categorical_boundary,2018_Feb_12_1718,
Sounds/,Sounds/NewWord_f_onset_isolate_s_onset_isolate_21.wav,NewWord_f_onset_isolate_s_onset_isolate_,21,,,,,,,,,3,9,51,8,,,,,,,,,,,,,,,,,,,s,1.036,,,,,8,female,18,59.9189709655,American English,fricative_categorical_boundary,2018_Feb_12_1718,
Sounds/,Sounds/NewWord_f_onset_isolate_s_onset_isolate_17.wav,NewWord_f_onset_isolate_s_onset_isolate_,17,,,,,,,,,3,10,52,6,,,,,,,,,,,,,,,,,,,f,1.437,,,,,8,female,18,59.9189709655,American English,fricative_categorical_boundary,2018_Feb_12_1718,
Sounds/,Sounds/NewWord_f_onset_isolate_s_onset_isolate_25.wav,NewWord_f_onset_isolate_s_onset_isolate_,25,,,,,,,,,3,11,53,10,,,,,,,,,,,,,,,,,,,s,1.27,,,,,8,female,18,59.9189709655,American English,fricative_categorical_boundary,2018_Feb_12_1718,
Sounds/,Sounds/NewWord_f_onset_isolate_s_onset_isolate_11.wav,NewWord_f_onset_isolate_s_onset_isolate_,11,,,,,,,,,3,12,54,3,,,,,,,,,,,,,,,,,,,s,0.97,,,,,8,female,18,59.9189709655,American English,fricative_categorical_boundary,2018_Feb_12_1718,
Sounds/,Sounds/NewWord_f_onset_isolate_s_onset_isolate_7.wav,NewWord_f_onset_isolate_s_onset_isolate_,7,,,,,,,,,3,13,55,1,,,,,,,,,,,,,,,,,,,f,0.869,,,,,8,female,18,59.9189709655,American English,fricative_categorical_boundary,2018_Feb_12_1718,
,,,,,,,,,,,,,,,,,,,,,,,,,,,,,,,,,,,,space,6.31204080582,,,8,female,18,59.9189709655,American English,fricative_categorical_boundary,2018_Feb_12_1718,
,,,,real,LDTSounds/pen.wav,n/a,pen,None,LDTSounds/,n/a,filler,,,,,0,0,0,40,,,,,,,,,,,,,,,,,,,None,,8,female,18,59.9189709655,American English,fricative_categorical_boundary,2018_Feb_12_1718,
,,,,n/a,LDTSounds/full.wav,f,full,None,LDTSounds/,onset,test,,,,,0,1,1,16,,,,,,,,,,,,,,,,,,,l,2.3718020916,8,female,18,59.9189709655,American English,fricative_categorical_boundary,2018_Feb_12_1718,
,,,,real,LDTSounds/while.wav,n/a,while,None,LDTSounds/,n/a,filler,,,,,0,2,2,48,,,,,,,,,,,,,,,,,,,l,2.60541892052,8,female,18,59.9189709655,American English,fricative_categorical_boundary,2018_Feb_12_1718,
,,,,real,LDTSounds/lump.wav,n/a,lump,None,LDTSounds/,n/a,filler,,,,,0,3,3,54,,,,,,,,,,,,,,,,,,,l,1.10383296013,8,female,18,59.9189709655,American English,fricative_categorical_boundary,2018_Feb_12_1718,
,,,,n/a,LDTSounds/boss.wav,s,boss,None,LDTSounds/,coda,test,,,,,0,4,4,24,,,,,,,,,,,,,,,,,,,l,1.10373687744,8,female,18,59.9189709655,American English,fricative_categorical_boundary,2018_Feb_12_1718,
,,,,real,LDTSounds/tomb.wav,n/a,tomb,None,LDTSounds/,n/a,filler,,,,,0,5,5,35,,,,,,,,,,,,,,,,,,,l,1.18710899353,8,female,18,59.9189709655,American English,fricative_categorical_boundary,2018_Feb_12_1718,
,,,,n/a,LDTSounds/whiff.wav,f,whiff,None,LDTSounds/,coda,test,,,,,0,6,6,5,,,,,,,,,,,,,,,,,,,l,1.3186249733,8,female,18,59.9189709655,American English,fricative_categorical_boundary,2018_Feb_12_1718,
,,,,nonce,LDTSounds/kililitbi.wav,n/a,kililitbi,None,LDTSounds/,n/a,filler,,,,,0,7,7,145,,,,,,,,,,,,,,,,,,,a,2.07135915756,8,female,18,59.9189709655,American English,fricative_categorical_boundary,2018_Feb_12_1718,
,,,,nonce,LDTSounds/dripnalong.wav,n/a,dripnalong,None,LDTSounds/,n/a,filler,,,,,0,8,8,124,,,,,,,,,,,,,,,,,,,a,1.3873860836,8,female,18,59.9189709655,American English,fricative_categorical_boundary,2018_Feb_12_1718,
,,,,nonce,LDTSounds/relnt.wav,n/a,relnt,None,LDTSounds/,n/a,filler,,,,,0,9,9,83,,,,,,,,,,,,,,,,,,,a,1.63754105568,8,female,18,59.9189709655,American English,fricative_categorical_boundary,2018_Feb_12_1718,
,,,,n/a,LDTSounds/geese.wav,s,geese,None,LDTSounds/,coda,test,,,,,0,10,10,23,,,,,,,,,,,,,,,,,,,l,1.15172100067,8,female,18,59.9189709655,American English,fricative_categorical_boundary,2018_Feb_12_1718,
,,,,n/a,LDTSounds/less.wav,s,less,None,LDTSounds/,coda,test,,,,,0,11,11,20,,,,,,,,,,,,,,,,,,,l,1.35393691063,8,female,18,59.9189709655,American English,fricative_categorical_boundary,2018_Feb_12_1718,
,,,,real,LDTSounds/wet.wav,n/a,wet,None,LDTSounds/,n/a,filler,,,,,0,12,12,38,,,,,,,,,,,,,,,,,,,l,0.853239059448,8,female,18,59.9189709655,American English,fricative_categorical_boundary,2018_Feb_12_1718,
,,,,nonce,LDTSounds/rone.wav,n/a,rone,None,LDTSounds/,n/a,filler,,,,,0,13,13,92,,,,,,,,,,,,,,,,,,,l,1.28701806068,8,female,18,59.9189709655,American English,fricative_categorical_boundary,2018_Feb_12_1718,
,,,,real,LDTSounds/butter.wav,n/a,butter,None,LDTSounds/,n/a,filler,,,,,0,14,14,60,,,,,,,,,,,,,,,,,,,l,0.853585004807,8,female,18,59.9189709655,American English,fricative_categorical_boundary,2018_Feb_12_1718,
,,,,n/a,LDTSounds/sash.wav,s,sash,None,LDTSounds/,onset,test,,,,,0,15,15,28,,,,,,,,,,,,,,,,,,,l,1.25364899635,8,female,18,59.9189709655,American English,fricative_categorical_boundary,2018_Feb_12_1718,
,,,,real,LDTSounds/toy.wav,n/a,toy,None,LDTSounds/,n/a,filler,,,,,0,16,16,53,,,,,,,,,,,,,,,,,,,l,0.953356981277,8,female,18,59.9189709655,American English,fricative_categorical_boundary,2018_Feb_12_1718,
,,,,nonce,LDTSounds/radoobling.wav,n/a,radoobling,None,LDTSounds/,n/a,filler,,,,,0,17,17,142,,,,,,,,,,,,,,,,,,,a,1.08712911606,8,female,18,59.9189709655,American English,fricative_categorical_boundary,2018_Feb_12_1718,
,,,,n/a,LDTSounds/fool.wav,f,fool,None,LDTSounds/,onset,test,,,,,0,18,18,15,,,,,,,,,,,,,,,,,,,l,1.17032599449,8,female,18,59.9189709655,American English,fricative_categorical_boundary,2018_Feb_12_1718,
,,,,nonce,LDTSounds/boondatribnok.wav,n/a,boondatribnok,None,LDTSounds/,n/a,filler,,,,,0,19,19,137,,,,,,,,,,,,,,,,,,,a,1.22053599358,8,female,18,59.9189709655,American English,fricative_categorical_boundary,2018_Feb_12_1718,
,,,,n/a,LDTSounds/truss.wav,s,truss,None,LDTSounds/,coda,test,,,,,0,20,20,17,,,,,,,,,,,,,,,,,,,a,1.50429606438,8,female,18,59.9189709655,American English,fricative_categorical_boundary,2018_Feb_12_1718,
,,,,real,LDTSounds/boycott.wav,n/a,boycott,None,LDTSounds/,n/a,filler,,,,,0,21,21,71,,,,,,,,,,,,,,,,,,,l,1.11828184128,8,female,18,59.9189709655,American English,fricative_categorical_boundary,2018_Feb_12_1718,
,,,,n/a,LDTSounds/deuce.wav,s,deuce,None,LDTSounds/,coda,test,,,,,0,22,22,21,,,,,,,,,,,,,,,,,,,l,1.53704595566,8,female,18,59.9189709655,American English,fricative_categorical_boundary,2018_Feb_12_1718,
,,,,nonce,LDTSounds/dewagelin.wav,n/a,dewagelin,None,LDTSounds/,n/a,filler,,,,,0,23,23,143,,,,,,,,,,,,,,,,,,,a,1.35416698456,8,female,18,59.9189709655,American English,fricative_categorical_boundary,2018_Feb_12_1718,
,,,,real,LDTSounds/twin.wav,n/a,twin,None,LDTSounds/,n/a,filler,,,,,0,24,24,44,,,,,,,,,,,,,,,,,,,l,1.05364704132,8,female,18,59.9189709655,American English,fricative_categorical_boundary,2018_Feb_12_1718,
,,,,real,LDTSounds/trooper.wav,n/a,trooper,None,LDTSounds/,n/a,filler,,,,,0,25,25,66,,,,,,,,,,,,,,,,,,,l,1.05369400978,8,female,18,59.9189709655,American English,fricative_categorical_boundary,2018_Feb_12_1718,
,,,,real,LDTSounds/jupiter.wav,n/a,jupiter,None,LDTSounds/,n/a,filler,,,,,0,26,26,74,,,,,,,,,,,,,,,,,,,l,0.953601837158,8,female,18,59.9189709655,American English,fricative_categorical_boundary,2018_Feb_12_1718,
,,,,nonce,LDTSounds/poindool.wav,n/a,poindool,None,LDTSounds/,n/a,filler,,,,,0,27,27,96,,,,,,,,,,,,,,,,,,,a,1.087195158,8,female,18,59.9189709655,American English,fricative_categorical_boundary,2018_Feb_12_1718,
,,,,real,LDTSounds/drip.wav,n/a,drip,None,LDTSounds/,n/a,filler,,,,,0,28,28,51,,,,,,,,,,,,,,,,,,,l,0.886798858643,8,female,18,59.9189709655,American English,fricative_categorical_boundary,2018_Feb_12_1718,
,,,,nonce,LDTSounds/wegring.wav,n/a,wegring,None,LDTSounds/,n/a,filler,,,,,0,29,29,97,,,,,,,,,,,,,,,,,,,a,0.803389072418,8,female,18,59.9189709655,American English,fricative_categorical_boundary,2018_Feb_12_1718,
,,,,real,LDTSounds/building.wav,n/a,building,None,LDTSounds/,n/a,filler,,,,,0,30,30,55,,,,,,,,,,,,,,,,,,,l,0.901290893555,8,female,18,59.9189709655,American English,fricative_categorical_boundary,2018_Feb_12_1718,
,,,,nonce,LDTSounds/roip.wav,n/a,roip,None,LDTSounds/,n/a,filler,,,,,0,31,31,89,,,,,,,,,,,,,,,,,,,a,0.853583097458,8,female,18,59.9189709655,American English,fricative_categorical_boundary,2018_Feb_12_1718,
,,,,nonce,LDTSounds/rone.wav,n/a,rone,None,LDTSounds/,n/a,filler,,,,,0,32,32,79,,,,,,,,,,,,,,,,,,,l,0.853674888611,8,female,18,59.9189709655,American English,fricative_categorical_boundary,2018_Feb_12_1718,
,,,,nonce,LDTSounds/trad.wav,n/a,trad,None,LDTSounds/,n/a,filler,,,,,0,33,33,87,,,,,,,,,,,,,,,,,,,a,1.3038380146,8,female,18,59.9189709655,American English,fricative_categorical_boundary,2018_Feb_12_1718,
,,,,real,LDTSounds/maker.wav,n/a,maker,None,LDTSounds/,n/a,filler,,,,,0,34,34,64,,,,,,,,,,,,,,,,,,,l,1.03659510612,8,female,18,59.9189709655,American English,fricative_categorical_boundary,2018_Feb_12_1718,
,,,,nonce,LDTSounds/magmilnt.wav,n/a,magmilnt,None,LDTSounds/,n/a,filler,,,,,0,35,35,107,,,,,,,,,,,,,,,,,,,a,1.08508205414,8,female,18,59.9189709655,American English,fricative_categorical_boundary,2018_Feb_12_1718,
,,,,nonce,LDTSounds/ratwell.wav,n/a,ratwell,None,LDTSounds/,n/a,filler,,,,,0,36,36,108,,,,,,,,,,,,,,,,,,,a,1.08705186844,8,female,18,59.9189709655,American English,fricative_categorical_boundary,2018_Feb_12_1718,
,,,,real,LDTSounds/toilet.wav,n/a,toilet,None,LDTSounds/,n/a,filler,,,,,0,37,37,67,,,,,,,,,,,,,,,,,,,l,0.886808156967,8,female,18,59.9189709655,American English,fricative_categorical_boundary,2018_Feb_12_1718,
,,,,nonce,LDTSounds/krebdingolee.wav,n/a,krebdingolee,None,LDTSounds/,n/a,filler,,,,,0,38,38,147,,,,,,,,,,,,,,,,,,,a,1.02040696144,8,female,18,59.9189709655,American English,fricative_categorical_boundary,2018_Feb_12_1718,
,,,,nonce,LDTSounds/toin.wav,n/a,toin,None,LDTSounds/,n/a,filler,,,,,0,39,39,88,,,,,,,,,,,,,,,,,,,a,1.17048501968,8,female,18,59.9189709655,American English,fricative_categorical_boundary,2018_Feb_12_1718,
,,,,nonce,LDTSounds/rekmate.wav,n/a,rekmate,None,LDTSounds/,n/a,filler,,,,,0,40,40,103,,,,,,,,,,,,,,,,,,,a,1.75244808197,8,female,18,59.9189709655,American English,fricative_categorical_boundary,2018_Feb_12_1718,
,,,,real,LDTSounds/loot.wav,n/a,loot,None,LDTSounds/,n/a,filler,,,,,0,41,41,37,,,,,,,,,,,,,,,,,,,l,0.870542049408,8,female,18,59.9189709655,American English,fricative_categorical_boundary,2018_Feb_12_1718,
,,,,nonce,LDTSounds/hapekt.wav,n/a,hapekt,None,LDTSounds/,n/a,filler,,,,,0,42,42,116,,,,,,,,,,,,,,,,,,,a,1.65423512459,8,female,18,59.9189709655,American English,fricative_categorical_boundary,2018_Feb_12_1718,
,,,,nonce,LDTSounds/bindilamok.wav,n/a,bindilamok,None,LDTSounds/,n/a,filler,,,,,0,43,43,148,,,,,,,,,,,,,,,,,,,a,1.68772816658,8,female,18,59.9189709655,American English,fricative_categorical_boundary,2018_Feb_12_1718,
,,,,nonce,LDTSounds/troplund.wav,n/a,troplund,None,LDTSounds/,n/a,filler,,,,,0,44,44,98,,,,,,,,,,,,,,,,,,,a,1.30413389206,8,female,18,59.9189709655,American English,fricative_categorical_boundary,2018_Feb_12_1718,
,,,,nonce,LDTSounds/blegondanit.wav,n/a,blegondanit,None,LDTSounds/,n/a,filler,,,,,0,45,45,144,,,,,,,,,,,,,,,,,,,a,1.25390100479,8,female,18,59.9189709655,American English,fricative_categorical_boundary,2018_Feb_12_1718,
,,,,n/a,LDTSounds/chef.wav,f,chef,None,LDTSounds/,coda,test,,,,,0,46,46,1,,,,,,,,,,,,,,,,,,,l,1.08707714081,8,female,18,59.9189709655,American English,fricative_categorical_boundary,2018_Feb_12_1718,
,,,,n/a,LDTSounds/silt.wav,s,silt,None,LDTSounds/,onset,test,,,,,0,47,47,31,,,,,,,,,,,,,,,,,,,l,1.2037050724,8,female,18,59.9189709655,American English,fricative_categorical_boundary,2018_Feb_12_1718,
,,,,real,LDTSounds/yellow.wav,n/a,yellow,None,LDTSounds/,n/a,filler,,,,,0,48,48,73,,,,,,,,,,,,,,,,,,,l,0.953598022461,8,female,18,59.9189709655,American English,fricative_categorical_boundary,2018_Feb_12_1718,
,,,,nonce,LDTSounds/yoomake.wav,n/a,yoomake,None,LDTSounds/,n/a,filler,,,,,0,49,49,99,,,,,,,,,,,,,,,,,,,a,1.13667201996,8,female,18,59.9189709655,American English,fricative_categorical_boundary,2018_Feb_12_1718,
,,,,real,LDTSounds/globe.wav,n/a,globe,None,LDTSounds/,n/a,filler,,,,,0,50,50,52,,,,,,,,,,,,,,,,,,,l,1.1703209877,8,female,18,59.9189709655,American English,fricative_categorical_boundary,2018_Feb_12_1718,
,,,,nonce,LDTSounds/lempok.wav,n/a,lempok,None,LDTSounds/,n/a,filler,,,,,0,51,51,113,,,,,,,,,,,,,,,,,,,a,0.936774015427,8,female,18,59.9189709655,American English,fricative_categorical_boundary,2018_Feb_12_1718,
,,,,n/a,LDTSounds/bliss.wav,s,bliss,None,LDTSounds/,coda,test,,,,,0,52,52,19,,,,,,,,,,,,,,,,,,,l,1.05353808403,8,female,18,59.9189709655,American English,fricative_categorical_boundary,2018_Feb_12_1718,
,,,,real,LDTSounds/will.wav,n/a,will,None,LDTSounds/,n/a,filler,,,,,0,53,53,49,,,,,,,,,,,,,,,,,,,l,0.903488874435,8,female,18,59.9189709655,American English,fricative_categorical_boundary,2018_Feb_12_1718,
,,,,nonce,LDTSounds/queng.wav,n/a,queng,None,LDTSounds/,n/a,filler,,,,,0,54,54,86,,,,,,,,,,,,,,,,,,,l,1.070510149,8,female,18,59.9189709655,American English,fricative_categorical_boundary,2018_Feb_12_1718,
,,,,n/a,LDTSounds/fab.wav,f,fab,None,LDTSounds/,onset,test,,,,,0,55,55,11,,,,,,,,,,,,,,,,,,,a,2.2550599575,8,female,18,59.9189709655,American English,fricative_categorical_boundary,2018_Feb_12_1718,
,,,,nonce,LDTSounds/hoong.wav,n/a,hoong,None,LDTSounds/,n/a,filler,,,,,0,56,56,81,,,,,,,,,,,,,,,,,,,a,1.80428791046,8,female,18,59.9189709655,American English,fricative_categorical_boundary,2018_Feb_12_1718,
,,,,n/a,LDTSounds/sect.wav,s,sect,None,LDTSounds/,onset,test,,,,,0,57,57,26,,,,,,,,,,,,,,,,,,,l,1.6710870266,8,female,18,59.9189709655,American English,fricative_categorical_boundary,2018_Feb_12_1718,
,,,,nonce,LDTSounds/petnole.wav,n/a,petnole,None,LDTSounds/,n/a,filler,,,,,0,58,58,112,,,,,,,,,,,,,,,,,,,a,1.07029986382,8,female,18,59.9189709655,American English,fricative_categorical_boundary,2018_Feb_12_1718,
,,,,n/a,LDTSounds/soup.wav,s,soup,None,LDTSounds/,onset,test,,,,,0,59,59,27,,,,,,,,,,,,,,,,,,,l,1.00355195999,8,female,18,59.9189709655,American English,fricative_categorical_boundary,2018_Feb_12_1718,
,,,,n/a,LDTSounds/fudge.wav,f,fudge,None,LDTSounds/,coda,test,,,,,0,60,60,8,,,,,,,,,,,,,,,,,,,l,0.936928987503,8,female,18,59.9189709655,American English,fricative_categorical_boundary,2018_Feb_12_1718,
,,,,nonce,LDTSounds/datoonmeg.wav,n/a,datoonmeg,None,LDTSounds/,n/a,filler,,,,,0,61,61,133,,,,,,,,,,,,,,,,,,,a,1.18736290932,8,female,18,59.9189709655,American English,fricative_categorical_boundary,2018_Feb_12_1718,
,,,,real,LDTSounds/pillow.wav,n/a,pillow,None,LDTSounds/,n/a,filler,,,,,0,62,62,72,,,,,,,,,,,,,,,,,,,l,0.936934947968,8,female,18,59.9189709655,American English,fricative_categorical_boundary,2018_Feb_12_1718,
,,,,n/a,LDTSounds/deaf.wav,f,deaf,None,LDTSounds/,coda,test,,,,,0,63,63,3,,,,,,,,,,,,,,,,,,,l,1.3686439991,8,female,18,59.9189709655,American English,fricative_categorical_boundary,2018_Feb_12_1718,
,,,,nonce,LDTSounds/yilk.wav,n/a,yilk,None,LDTSounds/,n/a,filler,,,,,0,64,64,82,,,,,,,,,,,,,,,,,,,a,1.40379095078,8,female,18,59.9189709655,American English,fricative_categorical_boundary,2018_Feb_12_1718,
,,,,nonce,LDTSounds/plone.wav,n/a,plone,None,LDTSounds/,n/a,filler,,,,,0,65,65,76,,,,,,,,,,,,,,,,,,,a,1.1036670208,8,female,18,59.9189709655,American English,fricative_categorical_boundary,2018_Feb_12_1718,
,,,,n/a,LDTSounds/bluff.wav,f,bluff,None,LDTSounds/,coda,test,,,,,0,66,66,0,,,,,,,,,,,,,,,,,,,l,1.51864910126,8,female,18,59.9189709655,American English,fricative_categorical_boundary,2018_Feb_12_1718,
,,,,nonce,LDTSounds/hapooli.wav,n/a,hapooli,None,LDTSounds/,n/a,filler,,,,,0,67,67,126,,,,,,,,,,,,,,,,,,,a,1.40400004387,8,female,18,59.9189709655,American English,fricative_categorical_boundary,2018_Feb_12_1718,
,,,,real,LDTSounds/trim.wav,n/a,trim,None,LDTSounds/,n/a,filler,,,,,0,68,68,39,,,,,,,,,,,,,,,,,,,l,1.35374307632,8,female,18,59.9189709655,American English,fricative_categorical_boundary,2018_Feb_12_1718,
,,,,nonce,LDTSounds/waip.wav,n/a,waip,None,LDTSounds/,n/a,filler,,,,,0,69,69,91,,,,,,,,,,,,,,,,,,,l,1.23718905449,8,female,18,59.9189709655,American English,fricative_categorical_boundary,2018_Feb_12_1718,
,,,,real,LDTSounds/data.wav,n/a,data,None,LDTSounds/,n/a,filler,,,,,0,70,70,62,,,,,,,,,,,,,,,,,,,l,0.920043945312,8,female,18,59.9189709655,American English,fricative_categorical_boundary,2018_Feb_12_1718,
,,,,nonce,LDTSounds/twek.wav,n/a,twek,None,LDTSounds/,n/a,filler,,,,,0,71,71,80,,,,,,,,,,,,,,,,,,,a,0.97007894516,8,female,18,59.9189709655,American English,fricative_categorical_boundary,2018_Feb_12_1718,
,,,,n/a,LDTSounds/poof.wav,f,poof,None,LDTSounds/,coda,test,,,,,0,72,72,4,,,,,,,,,,,,,,,,,,,l,1.05385494232,8,female,18,59.9189709655,American English,fricative_categorical_boundary,2018_Feb_12_1718,
,,,,nonce,LDTSounds/himp.wav,n/a,himp,None,LDTSounds/,n/a,filler,,,,,0,73,73,75,,,,,,,,,,,,,,,,,,,l,1.65444612503,8,female,18,59.9189709655,American English,fricative_categorical_boundary,2018_Feb_12_1718,
,,,,nonce,LDTSounds/himnapile.wav,n/a,himnapile,None,LDTSounds/,n/a,filler,,,,,0,74,74,128,,,,,,,,,,,,,,,,,,,a,1.08694887161,8,female,18,59.9189709655,American English,fricative_categorical_boundary,2018_Feb_12_1718,
,,,,real,LDTSounds/baking.wav,n/a,baking,None,LDTSounds/,n/a,filler,,,,,0,75,75,69,,,,,,,,,,,,,,,,,,,l,1.33726906776,8,female,18,59.9189709655,American English,fricative_categorical_boundary,2018_Feb_12_1718,
,,,,nonce,LDTSounds/ledmon.wav,n/a,ledmon,None,LDTSounds/,n/a,filler,,,,,0,76,76,94,,,,,,,,,,,,,,,,,,,a,1.35403609276,8,female,18,59.9189709655,American English,fricative_categorical_boundary,2018_Feb_12_1718,
,,,,nonce,LDTSounds/metroy.wav,n/a,metroy,None,LDTSounds/,n/a,filler,,,,,0,77,77,100,,,,,,,,,,,,,,,,,,,a,1.32065701485,8,female,18,59.9189709655,American English,fricative_categorical_boundary,2018_Feb_12_1718,
,,,,n/a,LDTSounds/such.wav,s,such,None,LDTSounds/,onset,test,,,,,0,78,78,25,,,,,,,,,,,,,,,,,,,l,1.05378293991,8,female,18,59.9189709655,American English,fricative_categorical_boundary,2018_Feb_12_1718,
,,,,n/a,LDTSounds/fig.wav,f,fig,None,LDTSounds/,onset,test,,,,,0,79,79,13,,,,,,,,,,,,,,,,,,,l,0.970245838165,8,female,18,59.9189709655,American English,fricative_categorical_boundary,2018_Feb_12_1718,
,,,,nonce,LDTSounds/tridalondit.wav,n/a,tridalondit,None,LDTSounds/,n/a,filler,,,,,0,80,80,146,,,,,,,,,,,,,,,,,,,a,1.48747706413,8,female,18,59.9189709655,American English,fricative_categorical_boundary,2018_Feb_12_1718,
,,,,n/a,LDTSounds/felt.wav,f,felt,None,LDTSounds/,onset,test,,,,,0,81,81,9,,,,,,,,,,,,,,,,,,,l,1.0535941124,8,female,18,59.9189709655,American English,fricative_categorical_boundary,2018_Feb_12_1718,
,,,,nonce,LDTSounds/retlid.wav,n/a,retlid,None,LDTSounds/,n/a,filler,,,,,0,82,82,105,,,,,,,,,,,,,,,,,,,a,1.87116503716,8,female,18,59.9189709655,American English,fricative_categorical_boundary,2018_Feb_12_1718,
,,,,nonce,LDTSounds/weg.wav,n/a,weg,None,LDTSounds/,n/a,filler,,,,,0,83,83,78,,,,,,,,,,,,,,,,,,,a,1.75434017181,8,female,18,59.9189709655,American English,fricative_categorical_boundary,2018_Feb_12_1718,
,,,,nonce,LDTSounds/habapithloo.wav,n/a,habapithloo,None,LDTSounds/,n/a,filler,,,,,0,84,84,136,,,,,,,,,,,,,,,,,,,a,1.13702702522,8,female,18,59.9189709655,American English,fricative_categorical_boundary,2018_Feb_12_1718,
,,,,nonce,LDTSounds/wiblee.wav,n/a,wiblee,None,LDTSounds/,n/a,filler,,,,,0,85,85,115,,,,,,,,,,,,,,,,,,,a,1.07032299042,8,female,18,59.9189709655,American English,fricative_categorical_boundary,2018_Feb_12_1718,
,,,,nonce,LDTSounds/libmadoop.wav,n/a,libmadoop,None,LDTSounds/,n/a,filler,,,,,0,86,86,117,,,,,,,,,,,,,,,,,,,a,1.85441613197,8,female,18,59.9189709655,American English,fricative_categorical_boundary,2018_Feb_12_1718,
,,,,nonce,LDTSounds/bidbowk.wav,n/a,bidbowk,None,LDTSounds/,n/a,filler,,,,,0,87,87,109,,,,,,,,,,,,,,,,,,,a,1.45393800735,8,female,18,59.9189709655,American English,fricative_categorical_boundary,2018_Feb_12_1718,
,,,,nonce,LDTSounds/habalipdee.wav,n/a,habalipdee,None,LDTSounds/,n/a,filler,,,,,0,88,88,140,,,,,,,,,,,,,,,,,,,a,1.63752889633,8,female,18,59.9189709655,American English,fricative_categorical_boundary,2018_Feb_12_1718,
,,,,real,LDTSounds/tuba.wav,n/a,tuba,None,LDTSounds/,n/a,filler,,,,,0,89,89,57,,,,,,,,,,,,,,,,,,,l,1.05379605293,8,female,18,59.9189709655,American English,fricative_categorical_boundary,2018_Feb_12_1718,
,,,,n/a,LDTSounds/kiss.wav,s,kiss,None,LDTSounds/,coda,test,,,,,0,90,90,22,,,,,,,,,,,,,,,,,,,l,1.25391411781,8,female,18,59.9189709655,American English,fricative_categorical_boundary,2018_Feb_12_1718,
,,,,nonce,LDTSounds/wegtamlip.wav,n/a,wegtamlip,None,LDTSounds/,n/a,filler,,,,,0,91,91,120,,,,,,,,,,,,,,,,,,,a,0.953461885452,8,female,18,59.9189709655,American English,fricative_categorical_boundary,2018_Feb_12_1718,
,,,,real,LDTSounds/rat.wav,n/a,rat,None,LDTSounds/,n/a,filler,,,,,0,92,92,47,,,,,,,,,,,,,,,,,,,l,1.08711194992,8,female,18,59.9189709655,American English,fricative_categorical_boundary,2018_Feb_12_1718,
,,,,n/a,LDTSounds/soon.wav,s,soon,None,LDTSounds/,onset,test,,,,,0,93,93,32,,,,,,,,,,,,,,,,,,,l,1.72093296051,8,female,18,59.9189709655,American English,fricative_categorical_boundary,2018_Feb_12_1718,
,,,,nonce,LDTSounds/rivathrog.wav,n/a,rivathrog,None,LDTSounds/,n/a,filler,,,,,0,94,94,131,,,,,,,,,,,,,,,,,,,a,0.953720092773,8,female,18,59.9189709655,American English,fricative_categorical_boundary,2018_Feb_12_1718,
,,,,real,LDTSounds/lick.wav,n/a,lick,None,LDTSounds/,n/a,filler,,,,,0,95,95,41,,,,,,,,,,,,,,,,,,,l,1.01990890503,8,female,18,59.9189709655,American English,fricative_categorical_boundary,2018_Feb_12_1718,
,,,,nonce,LDTSounds/lopenad.wav,n/a,lopenad,None,LDTSounds/,n/a,filler,,,,,0,96,96,123,,,,,,,,,,,,,,,,,,,a,1.73768091202,8,female,18,59.9189709655,American English,fricative_categorical_boundary,2018_Feb_12_1718,
,,,,n/a,LDTSounds/fish.wav,f,fish,None,LDTSounds/,onset,test,,,,,0,97,97,14,,,,,,,,,,,,,,,,,,,l,1.30383300781,8,female,18,59.9189709655,American English,fricative_categorical_boundary,2018_Feb_12_1718,
,,,,nonce,LDTSounds/giblo.wav,n/a,giblo,None,LDTSounds/,n/a,filler,,,,,0,98,98,93,,,,,,,,,,,,,,,,,,,a,0.903740167618,8,female,18,59.9189709655,American English,fricative_categorical_boundary,2018_Feb_12_1718,
,,,,real,LDTSounds/treaty.wav,n/a,treaty,None,LDTSounds/,n/a,filler,,,,,0,99,99,65,,,,,,,,,,,,,,,,,,,l,1.0702419281,8,female,18,59.9189709655,American English,fricative_categorical_boundary,2018_Feb_12_1718,
,,,,nonce,LDTSounds/mitger.wav,n/a,mitger,None,LDTSounds/,n/a,filler,,,,,0,100,100,111,,,,,,,,,,,,,,,,,,,a,1.80240988731,8,female,18,59.9189709655,American English,fricative_categorical_boundary,2018_Feb_12_1718,
,,,,n/a,LDTSounds/sip.wav,s,sip,None,LDTSounds/,onset,test,,,,,0,101,101,30,,,,,,,,,,,,,,,,,,,l,1.28703904152,8,female,18,59.9189709655,American English,fricative_categorical_boundary,2018_Feb_12_1718,
,,,,nonce,LDTSounds/pendalimt.wav,n/a,pendalimt,None,LDTSounds/,n/a,filler,,,,,0,102,102,118,,,,,,,,,,,,,,,,,,,a,1.32055401802,8,female,18,59.9189709655,American English,fricative_categorical_boundary,2018_Feb_12_1718,
,,,,real,LDTSounds/typing.wav,n/a,typing,None,LDTSounds/,n/a,filler,,,,,0,103,103,70,,,,,,,,,,,,,,,,,,,l,1.13688898087,8,female,18,59.9189709655,American English,fricative_categorical_boundary,2018_Feb_12_1718,
,,,,real,LDTSounds/line.wav,n/a,line,None,LDTSounds/,n/a,filler,,,,,0,104,104,46,,,,,,,,,,,,,,,,,,,l,1.10364508629,8,female,18,59.9189709655,American English,fricative_categorical_boundary,2018_Feb_12_1718,
,,,,nonce,LDTSounds/hundapegnort.wav,n/a,hundapegnort,None,LDTSounds/,n/a,filler,,,,,0,105,105,141,,,,,,,,,,,,,,,,,,,a,1.1869661808,8,female,18,59.9189709655,American English,fricative_categorical_boundary,2018_Feb_12_1718,
,,,,nonce,LDTSounds/yoodalin.wav,n/a,yoodalin,None,LDTSounds/,n/a,filler,,,,,0,106,106,125,,,,,,,,,,,,,,,,,,,a,1.03718495369,8,female,18,59.9189709655,American English,fricative_categorical_boundary,2018_Feb_12_1718,
,,,,nonce,LDTSounds/doonagort.wav,n/a,doonagort,None,LDTSounds/,n/a,filler,,,,,0,107,107,127,,,,,,,,,,,,,,,,,,,a,0.786741018295,8,female,18,59.9189709655,American English,fricative_categorical_boundary,2018_Feb_12_1718,
,,,,nonce,LDTSounds/yoog.wav,n/a,yoog,None,LDTSounds/,n/a,filler,,,,,0,108,108,90,,,,,,,,,,,,,,,,,,,a,1.77121305466,8,female,18,59.9189709655,American English,fricative_categorical_boundary,2018_Feb_12_1718,
,,,,n/a,LDTSounds/cliff.wav,f,cliff,None,LDTSounds/,coda,test,,,,,0,109,109,2,,,,,,,,,,,,,,,,,,,l,1.75228905678,8,female,18,59.9189709655,American English,fricative_categorical_boundary,2018_Feb_12_1718,
,,,,real,LDTSounds/laker.wav,n/a,laker,None,LDTSounds/,n/a,filler,,,,,0,110,110,58,,,,,,,,,,,,,,,,,,,a,2.15482091904,8,female,18,59.9189709655,American English,fricative_categorical_boundary,2018_Feb_12_1718,
,,,,nonce,LDTSounds/gelp.wav,n/a,gelp,None,LDTSounds/,n/a,filler,,,,,0,111,111,85,,,,,,,,,,,,,,,,,,,l,1.33765101433,8,female,18,59.9189709655,American English,fricative_categorical_boundary,2018_Feb_12_1718,
,,,,nonce,LDTSounds/noopalingdo.wav,n/a,noopalingdo,None,LDTSounds/,n/a,filler,,,,,0,112,112,135,,,,,,,,,,,,,,,,,,,a,1.00362992287,8,female,18,59.9189709655,American English,fricative_categorical_boundary,2018_Feb_12_1718,
,,,,nonce,LDTSounds/kinudiplo.wav,n/a,kinudiplo,None,LDTSounds/,n/a,filler,,,,,0,113,113,149,,,,,,,,,,,,,,,,,,,a,1.2037320137,8,female,18,59.9189709655,American English,fricative_categorical_boundary,2018_Feb_12_1718,
,,,,nonce,LDTSounds/plagtorin.wav,n/a,plagtorin,None,LDTSounds/,n/a,filler,,,,,0,114,114,134,,,,,,,,,,,,,,,,,,,a,1.35402011871,8,female,18,59.9189709655,American English,fricative_categorical_boundary,2018_Feb_12_1718,
,,,,n/a,LDTSounds/sulk.wav,s,sulk,None,LDTSounds/,onset,test,,,,,0,115,115,33,,,,,,,,,,,,,,,,,,,l,1.32039880753,8,female,18,59.9189709655,American English,fricative_categorical_boundary,2018_Feb_12_1718,
,,,,nonce,LDTSounds/poginito.wav,n/a,poginito,None,LDTSounds/,n/a,filler,,,,,0,116,116,139,,,,,,,,,,,,,,,,,,,a,1.5043361187,8,female,18,59.9189709655,American English,fricative_categorical_boundary,2018_Feb_12_1718,
,,,,nonce,LDTSounds/deemlond.wav,n/a,deemlond,None,LDTSounds/,n/a,filler,,,,,0,117,117,104,,,,,,,,,,,,,,,,,,,a,1.60416007042,8,female,18,59.9189709655,American English,fricative_categorical_boundary,2018_Feb_12_1718,
,,,,n/a,LDTSounds/fade.wav,f,fade,None,LDTSounds/,onset,test,,,,,0,118,118,12,,,,,,,,,,,,,,,,,,,l,1.63754701614,8,female,18,59.9189709655,American English,fricative_categorical_boundary,2018_Feb_12_1718,
,,,,nonce,LDTSounds/trongolemp.wav,n/a,trongolemp,None,LDTSounds/,n/a,filler,,,,,0,119,119,130,,,,,,,,,,,,,,,,,,,a,1.28717088699,8,female,18,59.9189709655,American English,fricative_categorical_boundary,2018_Feb_12_1718,
,,,,real,LDTSounds/mole.wav,n/a,mole,None,LDTSounds/,n/a,filler,,,,,0,120,120,42,,,,,,,,,,,,,,,,,,,l,1.13717412949,8,female,18,59.9189709655,American English,fricative_categorical_boundary,2018_Feb_12_1718,
,,,,nonce,LDTSounds/kabalingno.wav,n/a,kabalingno,None,LDTSounds/,n/a,filler,,,,,0,121,121,138,,,,,,,,,,,,,,,,,,,a,1.38726305962,8,female,18,59.9189709655,American English,fricative_categorical_boundary,2018_Feb_12_1718,
,,,,real,LDTSounds/lemur.wav,n/a,lemur,None,LDTSounds/,n/a,filler,,,,,0,122,122,68,,,,,,,,,,,,,,,,,,,l,1.03675913811,8,female,18,59.9189709655,American English,fricative_categorical_boundary,2018_Feb_12_1718,
,,,,real,LDTSounds/right.wav,n/a,right,None,LDTSounds/,n/a,filler,,,,,0,123,123,36,,,,,,,,,,,,,,,,,,,l,0.970365047455,8,female,18,59.9189709655,American English,fricative_categorical_boundary,2018_Feb_12_1718,
,,,,real,LDTSounds/little.wav,n/a,little,None,LDTSounds/,n/a,filler,,,,,0,124,124,61,,,,,,,,,,,,,,,,,,,l,0.853379964828,8,female,18,59.9189709655,American English,fricative_categorical_boundary,2018_Feb_12_1718,
,,,,nonce,LDTSounds/pingloon.wav,n/a,pingloon,None,LDTSounds/,n/a,filler,,,,,0,125,125,110,,,,,,,,,,,,,,,,,,,a,1.15381097794,8,female,18,59.9189709655,American English,fricative_categorical_boundary,2018_Feb_12_1718,
,,,,nonce,LDTSounds/trag.wav,n/a,trag,None,LDTSounds/,n/a,filler,,,,,0,126,126,84,,,,,,,,,,,,,,,,,,,a,1.78549790382,8,female,18,59.9189709655,American English,fricative_categorical_boundary,2018_Feb_12_1718,
,,,,real,LDTSounds/liquor.wav,n/a,liquor,None,LDTSounds/,n/a,filler,,,,,0,127,127,63,,,,,,,,,,,,,,,,,,,l,1.45424008369,8,female,18,59.9189709655,American English,fricative_categorical_boundary,2018_Feb_12_1718,
,,,,n/a,LDTSounds/cough.wav,f,cough,None,LDTSounds/,coda,test,,,,,0,128,128,7,,,,,,,,,,,,,,,,,,,l,1.27061986923,8,female,18,59.9189709655,American English,fricative_categorical_boundary,2018_Feb_12_1718,
,,,,real,LDTSounds/truck.wav,n/a,truck,None,LDTSounds/,n/a,filler,,,,,0,129,129,34,,,,,,,,,,,,,,,,,,,l,1.98808217049,8,female,18,59.9189709655,American English,fricative_categorical_boundary,2018_Feb_12_1718,
,,,,nonce,LDTSounds/drataloob.wav,n/a,drataloob,None,LDTSounds/,n/a,filler,,,,,0,130,130,129,,,,,,,,,,,,,,,,,,,a,1.08691692352,8,female,18,59.9189709655,American English,fricative_categorical_boundary,2018_Feb_12_1718,
,,,,nonce,LDTSounds/ligbee.wav,n/a,ligbee,None,LDTSounds/,n/a,filler,,,,,0,131,131,95,,,,,,,,,,,,,,,,,,,a,1.98788404465,8,female,18,59.9189709655,American English,fricative_categorical_boundary,2018_Feb_12_1718,
,,,,nonce,LDTSounds/kebnoti.wav,n/a,kebnoti,None,LDTSounds/,n/a,filler,,,,,0,132,132,121,,,,,,,,,,,,,,,,,,,a,1.58772492409,8,female,18,59.9189709655,American English,fricative_categorical_boundary,2018_Feb_12_1718,
,,,,real,LDTSounds/lake.wav,n/a,lake,None,LDTSounds/,n/a,filler,,,,,0,133,133,45,,,,,,,,,,,,,,,,,,,l,1.00345206261,8,female,18,59.9189709655,American English,fricative_categorical_boundary,2018_Feb_12_1718,
,,,,nonce,LDTSounds/cridamlo.wav,n/a,cridamlo,None,LDTSounds/,n/a,filler,,,,,0,134,134,122,,,,,,,,,,,,,,,,,,,a,1.20365095139,8,female,18,59.9189709655,American English,fricative_categorical_boundary,2018_Feb_12_1718,
,,,,n/a,LDTSounds/food.wav,f,food,None,LDTSounds/,onset,test,,,,,0,135,135,10,,,,,,,,,,,,,,,,,,,l,1.25378584862,8,female,18,59.9189709655,American English,fricative_categorical_boundary,2018_Feb_12_1718,
,,,,n/a,LDTSounds/chess.wav,s,chess,None,LDTSounds/,coda,test,,,,,0,136,136,18,,,,,,,,,,,,,,,,,,,l,1.27030992508,8,female,18,59.9189709655,American English,fricative_categorical_boundary,2018_Feb_12_1718,
,,,,nonce,LDTSounds/yoogul.wav,n/a,yoogul,None,LDTSounds/,n/a,filler,,,,,0,137,137,102,,,,,,,,,,,,,,,,,,,l,1.28530693054,8,female,18,59.9189709655,American English,fricative_categorical_boundary,2018_Feb_12_1718,
,,,,real,LDTSounds/rowboat.wav,n/a,rowboat,None,LDTSounds/,n/a,filler,,,,,0,138,138,56,,,,,,,,,,,,,,,,,,,l,1.83771896362,8,female,18,59.9189709655,American English,fricative_categorical_boundary,2018_Feb_12_1718,
,,,,nonce,LDTSounds/heen.wav,n/a,heen,None,LDTSounds/,n/a,filler,,,,,0,139,139,77,,,,,,,,,,,,,,,,,,,l,1.97126412392,8,female,18,59.9189709655,American English,fricative_categorical_boundary,2018_Feb_12_1718,
,,,,nonce,LDTSounds/taklibd.wav,n/a,taklibd,None,LDTSounds/,n/a,filler,,,,,0,140,140,101,,,,,,,,,,,,,,,,,,,a,1.65429615974,8,female,18,59.9189709655,American English,fricative_categorical_boundary,2018_Feb_12_1718,
,,,,nonce,LDTSounds/kotlim.wav,n/a,kotlim,None,LDTSounds/,n/a,filler,,,,,0,141,141,114,,,,,,,,,,,,,,,,,,,a,1.4707300663,8,female,18,59.9189709655,American English,fricative_categorical_boundary,2018_Feb_12_1718,
,,,,n/a,LDTSounds/say.wav,s,say,None,LDTSounds/,onset,test,,,,,0,142,142,29,,,,,,,,,,,,,,,,,,,l,1.28734588623,8,female,18,59.9189709655,American English,fricative_categorical_boundary,2018_Feb_12_1718,
,,,,nonce,LDTSounds/cratbool.wav,n/a,cratbool,None,LDTSounds/,n/a,filler,,,,,0,143,143,106,,,,,,,,,,,,,,,,,,,a,1.42076182365,8,female,18,59.9189709655,American English,fricative_categorical_boundary,2018_Feb_12_1718,
,,,,real,LDTSounds/mall.wav,n/a,mall,None,LDTSounds/,n/a,filler,,,,,0,144,144,43,,,,,,,,,,,,,,,,,,,l,1.08723092079,8,female,18,59.9189709655,American English,fricative_categorical_boundary,2018_Feb_12_1718,
,,,,n/a,LDTSounds/beef.wav,f,beef,None,LDTSounds/,coda,test,,,,,0,145,145,6,,,,,,,,,,,,,,,,,,,l,1.28731203079,8,female,18,59.9189709655,American English,fricative_categorical_boundary,2018_Feb_12_1718,
,,,,nonce,LDTSounds/midaran.wav,n/a,midaran,None,LDTSounds/,n/a,filler,,,,,0,146,146,119,,,,,,,,,,,,,,,,,,,a,1.80443406105,8,female,18,59.9189709655,American English,fricative_categorical_boundary,2018_Feb_12_1718,
,,,,real,LDTSounds/daydream.wav,n/a,daydream,None,LDTSounds/,n/a,filler,,,,,0,147,147,59,,,,,,,,,,,,,,,,,,,l,1.120429039,8,female,18,59.9189709655,American English,fricative_categorical_boundary,2018_Feb_12_1718,
,,,,nonce,LDTSounds/podaling.wav,n/a,podaling,None,LDTSounds/,n/a,filler,,,,,0,148,148,132,,,,,,,,,,,,,,,,,,,a,1.00336289406,8,female,18,59.9189709655,American English,fricative_categorical_boundary,2018_Feb_12_1718,
,,,,real,LDTSounds/day.wav,n/a,day,None,LDTSounds/,n/a,filler,,,,,0,149,149,50,,,,,,,,,,,,,,,,,,,l,0.819915056229,8,female,18,59.9189709655,American English,fricative_categorical_boundary,2018_Feb_12_1718,
,,,,,,,,,,,,,,,,,,,,,,,,,,,,,-0.0979166666667,-0.366666666667,1,0,0,,,,,,,8,female,18,59.9189709655,American English,fricative_categorical_boundary,2018_Feb_12_1718,
Sounds/,Sounds/NewWord_f_onset_isolate_s_onset_isolate_11.wav,NewWord_f_onset_isolate_s_onset_isolate_,11,,,,,,,,,,,,,,,,,0,0,0,3,,,,,,,,,,,f,0.753,,,,,8,female,18,59.9189709655,American English,fricative_categorical_boundary,2018_Feb_12_1718,
Sounds/,Sounds/NewWord_f_onset_isolate_s_onset_isolate_21.wav,NewWord_f_onset_isolate_s_onset_isolate_,21,,,,,,,,,,,,,,,,,0,1,1,8,,,,,,,,,,,f,0.903,,,,,8,female,18,59.9189709655,American English,fricative_categorical_boundary,2018_Feb_12_1718,
Sounds/,Sounds/NewWord_f_onset_isolate_s_onset_isolate_27.wav,NewWord_f_onset_isolate_s_onset_isolate_,27,,,,,,,,,,,,,,,,,0,2,2,11,,,,,,,,,,,s,1.571,,,,,8,female,18,59.9189709655,American English,fricative_categorical_boundary,2018_Feb_12_1718,
Sounds/,Sounds/NewWord_f_onset_isolate_s_onset_isolate_1.wav,NewWord_f_onset_isolate_s_onset_isolate_,1,,,,,,,,,,,,,,,,,0,3,3,0,,,,,,,,,,,f,0.435,,,,,8,female,18,59.9189709655,American English,fricative_categorical_boundary,2018_Feb_12_1718,
Sounds/,Sounds/NewWord_f_onset_isolate_s_onset_isolate_25.wav,NewWord_f_onset_isolate_s_onset_isolate_,25,,,,,,,,,,,,,,,,,0,4,4,10,,,,,,,,,,,s,1.02,,,,,8,female,18,59.9189709655,American English,fricative_categorical_boundary,2018_Feb_12_1718,
Sounds/,Sounds/NewWord_f_onset_isolate_s_onset_isolate_9.wav,NewWord_f_onset_isolate_s_onset_isolate_,9,,,,,,,,,,,,,,,,,0,5,5,2,,,,,,,,,,,f,0.703,,,,,8,female,18,59.9189709655,American English,fricative_categorical_boundary,2018_Feb_12_1718,
Sounds/,Sounds/NewWord_f_onset_isolate_s_onset_isolate_13.wav,NewWord_f_onset_isolate_s_onset_isolate_,13,,,,,,,,,,,,,,,,,0,6,6,4,,,,,,,,,,,f,0.787,,,,,8,female,18,59.9189709655,American English,fricative_categorical_boundary,2018_Feb_12_1718,
Sounds/,Sounds/NewWord_f_onset_isolate_s_onset_isolate_19.wav,NewWord_f_onset_isolate_s_onset_isolate_,19,,,,,,,,,,,,,,,,,0,7,7,7,,,,,,,,,,,f,0.653,,,,,8,female,18,59.9189709655,American English,fricative_categorical_boundary,2018_Feb_12_1718,
Sounds/,Sounds/NewWord_f_onset_isolate_s_onset_isolate_17.wav,NewWord_f_onset_isolate_s_onset_isolate_,17,,,,,,,,,,,,,,,,,0,8,8,6,,,,,,,,,,,f,0.77,,,,,8,female,18,59.9189709655,American English,fricative_categorical_boundary,2018_Feb_12_1718,
Sounds/,Sounds/NewWord_f_onset_isolate_s_onset_isolate_41.wav,NewWord_f_onset_isolate_s_onset_isolate_,41,,,,,,,,,,,,,,,,,0,9,9,13,,,,,,,,,,,s,0.736,,,,,8,female,18,59.9189709655,American English,fricative_categorical_boundary,2018_Feb_12_1718,
Sounds/,Sounds/NewWord_f_onset_isolate_s_onset_isolate_23.wav,NewWord_f_onset_isolate_s_onset_isolate_,23,,,,,,,,,,,,,,,,,0,10,10,9,,,,,,,,,,,s,2.171,,,,,8,female,18,59.9189709655,American English,fricative_categorical_boundary,2018_Feb_12_1718,
Sounds/,Sounds/NewWord_f_onset_isolate_s_onset_isolate_7.wav,NewWord_f_onset_isolate_s_onset_isolate_,7,,,,,,,,,,,,,,,,,0,11,11,1,,,,,,,,,,,f,1.287,,,,,8,female,18,59.9189709655,American English,fricative_categorical_boundary,2018_Feb_12_1718,
Sounds/,Sounds/NewWord_f_onset_isolate_s_onset_isolate_15.wav,NewWord_f_onset_isolate_s_onset_isolate_,15,,,,,,,,,,,,,,,,,0,12,12,5,,,,,,,,,,,f,0.92,,,,,8,female,18,59.9189709655,American English,fricative_categorical_boundary,2018_Feb_12_1718,
Sounds/,Sounds/NewWord_f_onset_isolate_s_onset_isolate_29.wav,NewWord_f_onset_isolate_s_onset_isolate_,29,,,,,,,,,,,,,,,,,0,13,13,12,,,,,,,,,,,s,0.953,,,,,8,female,18,59.9189709655,American English,fricative_categorical_boundary,2018_Feb_12_1718,
Sounds/,Sounds/NewWord_f_onset_isolate_s_onset_isolate_21.wav,NewWord_f_onset_isolate_s_onset_isolate_,21,,,,,,,,,,,,,,,,,1,0,14,8,,,,,,,,,,,s,1.17,,,,,8,female,18,59.9189709655,American English,fricative_categorical_boundary,2018_Feb_12_1718,
Sounds/,Sounds/NewWord_f_onset_isolate_s_onset_isolate_19.wav,NewWord_f_onset_isolate_s_onset_isolate_,19,,,,,,,,,,,,,,,,,1,1,15,7,,,,,,,,,,,f,1.303,,,,,8,female,18,59.9189709655,American English,fricative_categorical_boundary,2018_Feb_12_1718,
Sounds/,Sounds/NewWord_f_onset_isolate_s_onset_isolate_25.wav,NewWord_f_onset_isolate_s_onset_isolate_,25,,,,,,,,,,,,,,,,,1,2,16,10,,,,,,,,,,,s,0.686,,,,,8,female,18,59.9189709655,American English,fricative_categorical_boundary,2018_Feb_12_1718,
Sounds/,Sounds/NewWord_f_onset_isolate_s_onset_isolate_11.wav,NewWord_f_onset_isolate_s_onset_isolate_,11,,,,,,,,,,,,,,,,,1,3,17,3,,,,,,,,,,,f,0.686,,,,,8,female,18,59.9189709655,American English,fricative_categorical_boundary,2018_Feb_12_1718,
Sounds/,Sounds/NewWord_f_onset_isolate_s_onset_isolate_23.wav,NewWord_f_onset_isolate_s_onset_isolate_,23,,,,,,,,,,,,,,,,,1,4,18,9,,,,,,,,,,,s,1.804,,,,,8,female,18,59.9189709655,American English,fricative_categorical_boundary,2018_Feb_12_1718,
Sounds/,Sounds/NewWord_f_onset_isolate_s_onset_isolate_9.wav,NewWord_f_onset_isolate_s_onset_isolate_,9,,,,,,,,,,,,,,,,,1,5,19,2,,,,,,,,,,,f,0.803,,,,,8,female,18,59.9189709655,American English,fricative_categorical_boundary,2018_Feb_12_1718,
Sounds/,Sounds/NewWord_f_onset_isolate_s_onset_isolate_27.wav,NewWord_f_onset_isolate_s_onset_isolate_,27,,,,,,,,,,,,,,,,,1,6,20,11,,,,,,,,,,,s,1.037,,,,,8,female,18,59.9189709655,American English,fricative_categorical_boundary,2018_Feb_12_1718,
Sounds/,Sounds/NewWord_f_onset_isolate_s_onset_isolate_7.wav,NewWord_f_onset_isolate_s_onset_isolate_,7,,,,,,,,,,,,,,,,,1,7,21,1,,,,,,,,,,,f,0.737,,,,,8,female,18,59.9189709655,American English,fricative_categorical_boundary,2018_Feb_12_1718,
Sounds/,Sounds/NewWord_f_onset_isolate_s_onset_isolate_41.wav,NewWord_f_onset_isolate_s_onset_isolate_,41,,,,,,,,,,,,,,,,,1,8,22,13,,,,,,,,,,,s,0.553,,,,,8,female,18,59.9189709655,American English,fricative_categorical_boundary,2018_Feb_12_1718,
Sounds/,Sounds/NewWord_f_onset_isolate_s_onset_isolate_13.wav,NewWord_f_onset_isolate_s_onset_isolate_,13,,,,,,,,,,,,,,,,,1,9,23,4,,,,,,,,,,,f,0.72,,,,,8,female,18,59.9189709655,American English,fricative_categorical_boundary,2018_Feb_12_1718,
Sounds/,Sounds/NewWord_f_onset_isolate_s_onset_isolate_15.wav,NewWord_f_onset_isolate_s_onset_isolate_,15,,,,,,,,,,,,,,,,,1,10,24,5,,,,,,,,,,,f,0.502,,,,,8,female,18,59.9189709655,American English,fricative_categorical_boundary,2018_Feb_12_1718,
Sounds/,Sounds/NewWord_f_onset_isolate_s_onset_isolate_1.wav,NewWord_f_onset_isolate_s_onset_isolate_,1,,,,,,,,,,,,,,,,,1,11,25,0,,,,,,,,,,,f,0.403,,,,,8,female,18,59.9189709655,American English,fricative_categorical_boundary,2018_Feb_12_1718,
Sounds/,Sounds/NewWord_f_onset_isolate_s_onset_isolate_29.wav,NewWord_f_onset_isolate_s_onset_isolate_,29,,,,,,,,,,,,,,,,,1,12,26,12,,,,,,,,,,,s,0.419,,,,,8,female,18,59.9189709655,American English,fricative_categorical_boundary,2018_Feb_12_1718,
Sounds/,Sounds/NewWord_f_onset_isolate_s_onset_isolate_17.wav,NewWord_f_onset_isolate_s_onset_isolate_,17,,,,,,,,,,,,,,,,,1,13,27,6,,,,,,,,,,,f,0.586,,,,,8,female,18,59.9189709655,American English,fricative_categorical_boundary,2018_Feb_12_1718,
Sounds/,Sounds/NewWord_f_onset_isolate_s_onset_isolate_27.wav,NewWord_f_onset_isolate_s_onset_isolate_,27,,,,,,,,,,,,,,,,,2,0,28,11,,,,,,,,,,,s,0.553,,,,,8,female,18,59.9189709655,American English,fricative_categorical_boundary,2018_Feb_12_1718,
Sounds/,Sounds/NewWord_f_onset_isolate_s_onset_isolate_7.wav,NewWord_f_onset_isolate_s_onset_isolate_,7,,,,,,,,,,,,,,,,,2,1,29,1,,,,,,,,,,,f,0.52,,,,,8,female,18,59.9189709655,American English,fricative_categorical_boundary,2018_Feb_12_1718,
Sounds/,Sounds/NewWord_f_onset_isolate_s_onset_isolate_11.wav,NewWord_f_onset_isolate_s_onset_isolate_,11,,,,,,,,,,,,,,,,,2,2,30,3,,,,,,,,,,,f,0.47,,,,,8,female,18,59.9189709655,American English,fricative_categorical_boundary,2018_Feb_12_1718,
Sounds/,Sounds/NewWord_f_onset_isolate_s_onset_isolate_17.wav,NewWord_f_onset_isolate_s_onset_isolate_,17,,,,,,,,,,,,,,,,,2,3,31,6,,,,,,,,,,,f,0.619,,,,,8,female,18,59.9189709655,American English,fricative_categorical_boundary,2018_Feb_12_1718,
Sounds/,Sounds/NewWord_f_onset_isolate_s_onset_isolate_13.wav,NewWord_f_onset_isolate_s_onset_isolate_,13,,,,,,,,,,,,,,,,,2,4,32,4,,,,,,,,,,,f,0.403,,,,,8,female,18,59.9189709655,American English,fricative_categorical_boundary,2018_Feb_12_1718,
Sounds/,Sounds/NewWord_f_onset_isolate_s_onset_isolate_25.wav,NewWord_f_onset_isolate_s_onset_isolate_,25,,,,,,,,,,,,,,,,,2,5,33,10,,,,,,,,,,,s,0.569,,,,,8,female,18,59.9189709655,American English,fricative_categorical_boundary,2018_Feb_12_1718,
Sounds/,Sounds/NewWord_f_onset_isolate_s_onset_isolate_41.wav,NewWord_f_onset_isolate_s_onset_isolate_,41,,,,,,,,,,,,,,,,,2,6,34,13,,,,,,,,,,,s,0.403,,,,,8,female,18,59.9189709655,American English,fricative_categorical_boundary,2018_Feb_12_1718,
Sounds/,Sounds/NewWord_f_onset_isolate_s_onset_isolate_29.wav,NewWord_f_onset_isolate_s_onset_isolate_,29,,,,,,,,,,,,,,,,,2,7,35,12,,,,,,,,,,,s,0.419,,,,,8,female,18,59.9189709655,American English,fricative_categorical_boundary,2018_Feb_12_1718,
Sounds/,Sounds/NewWord_f_onset_isolate_s_onset_isolate_21.wav,NewWord_f_onset_isolate_s_onset_isolate_,21,,,,,,,,,,,,,,,,,2,8,36,8,,,,,,,,,,,s,1.103,,,,,8,female,18,59.9189709655,American English,fricative_categorical_boundary,2018_Feb_12_1718,
Sounds/,Sounds/NewWord_f_onset_isolate_s_onset_isolate_9.wav,NewWord_f_onset_isolate_s_onset_isolate_,9,,,,,,,,,,,,,,,,,2,9,37,2,,,,,,,,,,,f,0.77,,,,,8,female,18,59.9189709655,American English,fricative_categorical_boundary,2018_Feb_12_1718,
Sounds/,Sounds/NewWord_f_onset_isolate_s_onset_isolate_19.wav,NewWord_f_onset_isolate_s_onset_isolate_,19,,,,,,,,,,,,,,,,,2,10,38,7,,,,,,,,,,,f,0.653,,,,,8,female,18,59.9189709655,American English,fricative_categorical_boundary,2018_Feb_12_1718,
Sounds/,Sounds/NewWord_f_onset_isolate_s_onset_isolate_23.wav,NewWord_f_onset_isolate_s_onset_isolate_,23,,,,,,,,,,,,,,,,,2,11,39,9,,,,,,,,,,,f,0.419,,,,,8,female,18,59.9189709655,American English,fricative_categorical_boundary,2018_Feb_12_1718,
Sounds/,Sounds/NewWord_f_onset_isolate_s_onset_isolate_1.wav,NewWord_f_onset_isolate_s_onset_isolate_,1,,,,,,,,,,,,,,,,,2,12,40,0,,,,,,,,,,,f,0.403,,,,,8,female,18,59.9189709655,American English,fricative_categorical_boundary,2018_Feb_12_1718,
Sounds/,Sounds/NewWord_f_onset_isolate_s_onset_isolate_15.wav,NewWord_f_onset_isolate_s_onset_isolate_,15,,,,,,,,,,,,,,,,,2,13,41,5,,,,,,,,,,,f,0.403,,,,,8,female,18,59.9189709655,American English,fricative_categorical_boundary,2018_Feb_12_1718,
Sounds/,Sounds/NewWord_f_onset_isolate_s_onset_isolate_19.wav,NewWord_f_onset_isolate_s_onset_isolate_,19,,,,,,,,,,,,,,,,,3,0,42,7,,,,,,,,,,,s,0.586,,,,,8,female,18,59.9189709655,American English,fricative_categorical_boundary,2018_Feb_12_1718,
Sounds/,Sounds/NewWord_f_onset_isolate_s_onset_isolate_17.wav,NewWord_f_onset_isolate_s_onset_isolate_,17,,,,,,,,,,,,,,,,,3,1,43,6,,,,,,,,,,,f,1.069,,,,,8,female,18,59.9189709655,American English,fricative_categorical_boundary,2018_Feb_12_1718,
Sounds/,Sounds/NewWord_f_onset_isolate_s_onset_isolate_29.wav,NewWord_f_onset_isolate_s_onset_isolate_,29,,,,,,,,,,,,,,,,,3,2,44,12,,,,,,,,,,,s,0.569,,,,,8,female,18,59.9189709655,American English,fricative_categorical_boundary,2018_Feb_12_1718,
Sounds/,Sounds/NewWord_f_onset_isolate_s_onset_isolate_21.wav,NewWord_f_onset_isolate_s_onset_isolate_,21,,,,,,,,,,,,,,,,,3,3,45,8,,,,,,,,,,,f,0.619,,,,,8,female,18,59.9189709655,American English,fricative_categorical_boundary,2018_Feb_12_1718,
Sounds/,Sounds/NewWord_f_onset_isolate_s_onset_isolate_1.wav,NewWord_f_onset_isolate_s_onset_isolate_,1,,,,,,,,,,,,,,,,,3,4,46,0,,,,,,,,,,,f,0.653,,,,,8,female,18,59.9189709655,American English,fricative_categorical_boundary,2018_Feb_12_1718,
Sounds/,Sounds/NewWord_f_onset_isolate_s_onset_isolate_13.wav,NewWord_f_onset_isolate_s_onset_isolate_,13,,,,,,,,,,,,,,,,,3,5,47,4,,,,,,,,,,,f,0.553,,,,,8,female,18,59.9189709655,American English,fricative_categorical_boundary,2018_Feb_12_1718,
Sounds/,Sounds/NewWord_f_onset_isolate_s_onset_isolate_27.wav,NewWord_f_onset_isolate_s_onset_isolate_,27,,,,,,,,,,,,,,,,,3,6,48,11,,,,,,,,,,,s,1.17,,,,,8,female,18,59.9189709655,American English,fricative_categorical_boundary,2018_Feb_12_1718,
Sounds/,Sounds/NewWord_f_onset_isolate_s_onset_isolate_25.wav,NewWord_f_onset_isolate_s_onset_isolate_,25,,,,,,,,,,,,,,,,,3,7,49,10,,,,,,,,,,,s,0.987,,,,,8,female,18,59.9189709655,American English,fricative_categorical_boundary,2018_Feb_12_1718,
Sounds/,Sounds/NewWord_f_onset_isolate_s_onset_isolate_41.wav,NewWord_f_onset_isolate_s_onset_isolate_,41,,,,,,,,,,,,,,,,,3,8,50,13,,,,,,,,,,,s,0.501,,,,,8,female,18,59.9189709655,American English,fricative_categorical_boundary,2018_Feb_12_1718,
Sounds/,Sounds/NewWord_f_onset_isolate_s_onset_isolate_9.wav,NewWord_f_onset_isolate_s_onset_isolate_,9,,,,,,,,,,,,,,,,,3,9,51,2,,,,,,,,,,,f,0.703,,,,,8,female,18,59.9189709655,American English,fricative_categorical_boundary,2018_Feb_12_1718,
Sounds/,Sounds/NewWord_f_onset_isolate_s_onset_isolate_7.wav,NewWord_f_onset_isolate_s_onset_isolate_,7,,,,,,,,,,,,,,,,,3,10,52,1,,,,,,,,,,,f,0.67,,,,,8,female,18,59.9189709655,American English,fricative_categorical_boundary,2018_Feb_12_1718,
Sounds/,Sounds/NewWord_f_onset_isolate_s_onset_isolate_23.wav,NewWord_f_onset_isolate_s_onset_isolate_,23,,,,,,,,,,,,,,,,,3,11,53,9,,,,,,,,,,,s,0.669,,,,,8,female,18,59.9189709655,American English,fricative_categorical_boundary,2018_Feb_12_1718,
Sounds/,Sounds/NewWord_f_onset_isolate_s_onset_isolate_15.wav,NewWord_f_onset_isolate_s_onset_isolate_,15,,,,,,,,,,,,,,,,,3,12,54,5,,,,,,,,,,,f,1.287,,,,,8,female,18,59.9189709655,American English,fricative_categorical_boundary,2018_Feb_12_1718,
Sounds/,Sounds/NewWord_f_onset_isolate_s_onset_isolate_11.wav,NewWord_f_onset_isolate_s_onset_isolate_,11,,,,,,,,,,,,,,,,,3,13,55,3,,,,,,,,,,,f,0.405,,,,,8,female,18,59.9189709655,American English,fricative_categorical_boundary,2018_Feb_12_1718,

