﻿ChosenStep,Prefix,source,Stimuli,token,type,segment,position,syllablecount,realvsnonce,prefix,address,soundfile,trials.thisRepN,trials.thisTrialN,trials.thisN,trials.thisIndex,trials_2.thisRepN,trials_2.thisTrialN,trials_2.thisN,trials_2.thisIndex,trials_3.thisRepN,trials_3.thisTrialN,trials_3.thisN,trials_3.thisIndex,mouse_5.x,mouse_5.y,mouse_5.leftButton,mouse_5.midButton,mouse_5.rightButton,mouse.x,mouse.y,mouse.leftButton,mouse.midButton,mouse.rightButton,rating.response,rating.rt,key_resp_2.keys,key_resp_2.rt,key_resp_3.keys,key_resp_3.rt,Gender,Age,participant,Native Language,date,expName,psychopyVersion,frameRate,
,,,,,,,,,,,,,,,,,,,,,,,,,0.07083333333333333,-0.4074074074074074,1,0,0,,,,,,,,,,,,Female,19,006,American English,2019_Mar_28_1335,fricative_categorical_boundary,3.0.4,59.93888523376422,
,,,,,,,,,,,,,,,,,,,,,,,,,,,,,,0.028125,-0.3685185185185185,1,0,0,,,,,,,Female,19,006,American English,2019_Mar_28_1335,fricative_categorical_boundary,3.0.4,59.93888523376422,
25,NewWord_fbackonset_sbackonset_,LowBackContinuum/,LowBackContinuum/NewWord_fbackonset_sbackonset_25.wav,,,,,,,,,,0,0,0,10,,,,,,,,,,,,,,,,,,,s,3.123,,,,,Female,19,006,American English,2019_Mar_28_1335,fricative_categorical_boundary,3.0.4,59.93888523376422,
17,NewWord_fbackonset_sbackonset_,LowBackContinuum/,LowBackContinuum/NewWord_fbackonset_sbackonset_17.wav,,,,,,,,,,0,1,1,6,,,,,,,,,,,,,,,,,,,s,1.17,,,,,Female,19,006,American English,2019_Mar_28_1335,fricative_categorical_boundary,3.0.4,59.93888523376422,
19,NewWord_fbackonset_sbackonset_,LowBackContinuum/,LowBackContinuum/NewWord_fbackonset_sbackonset_19.wav,,,,,,,,,,0,2,2,7,,,,,,,,,,,,,,,,,,,s,7.328,,,,,Female,19,006,American English,2019_Mar_28_1335,fricative_categorical_boundary,3.0.4,59.93888523376422,
7,NewWord_fbackonset_sbackonset_,LowBackContinuum/,LowBackContinuum/NewWord_fbackonset_sbackonset_7.wav,,,,,,,,,,0,3,3,1,,,,,,,,,,,,,,,,,,,s,2.489,,,,,Female,19,006,American English,2019_Mar_28_1335,fricative_categorical_boundary,3.0.4,59.93888523376422,
27,NewWord_fbackonset_sbackonset_,LowBackContinuum/,LowBackContinuum/NewWord_fbackonset_sbackonset_27.wav,,,,,,,,,,0,4,4,11,,,,,,,,,,,,,,,,,,,s,5.526,,,,,Female,19,006,American English,2019_Mar_28_1335,fricative_categorical_boundary,3.0.4,59.93888523376422,
11,NewWord_fbackonset_sbackonset_,LowBackContinuum/,LowBackContinuum/NewWord_fbackonset_sbackonset_11.wav,,,,,,,,,,0,5,5,3,,,,,,,,,,,,,,,,,,,s,2.772,,,,,Female,19,006,American English,2019_Mar_28_1335,fricative_categorical_boundary,3.0.4,59.93888523376422,
9,NewWord_fbackonset_sbackonset_,LowBackContinuum/,LowBackContinuum/NewWord_fbackonset_sbackonset_9.wav,,,,,,,,,,0,6,6,2,,,,,,,,,,,,,,,,,,,s,9.662,,,,,Female,19,006,American English,2019_Mar_28_1335,fricative_categorical_boundary,3.0.4,59.93888523376422,
29,NewWord_fbackonset_sbackonset_,LowBackContinuum/,LowBackContinuum/NewWord_fbackonset_sbackonset_29.wav,,,,,,,,,,0,7,7,12,,,,,,,,,,,,,,,,,,,s,7.161,,,,,Female,19,006,American English,2019_Mar_28_1335,fricative_categorical_boundary,3.0.4,59.93888523376422,
21,NewWord_fbackonset_sbackonset_,LowBackContinuum/,LowBackContinuum/NewWord_fbackonset_sbackonset_21.wav,,,,,,,,,,0,8,8,8,,,,,,,,,,,,,,,,,,,s,4.576,,,,,Female,19,006,American English,2019_Mar_28_1335,fricative_categorical_boundary,3.0.4,59.93888523376422,
41,NewWord_fbackonset_sbackonset_,LowBackContinuum/,LowBackContinuum/NewWord_fbackonset_sbackonset_41.wav,,,,,,,,,,0,9,9,13,,,,,,,,,,,,,,,,,,,s,3.323,,,,,Female,19,006,American English,2019_Mar_28_1335,fricative_categorical_boundary,3.0.4,59.93888523376422,
1,NewWord_fbackonset_sbackonset_,LowBackContinuum/,LowBackContinuum/NewWord_fbackonset_sbackonset_1.wav,,,,,,,,,,0,10,10,0,,,,,,,,,,,,,,,,,,,s,16.488,,,,,Female,19,006,American English,2019_Mar_28_1335,fricative_categorical_boundary,3.0.4,59.93888523376422,
23,NewWord_fbackonset_sbackonset_,LowBackContinuum/,LowBackContinuum/NewWord_fbackonset_sbackonset_23.wav,,,,,,,,,,0,11,11,9,,,,,,,,,,,,,,,,,,,s,1.522,,,,,Female,19,006,American English,2019_Mar_28_1335,fricative_categorical_boundary,3.0.4,59.93888523376422,
13,NewWord_fbackonset_sbackonset_,LowBackContinuum/,LowBackContinuum/NewWord_fbackonset_sbackonset_13.wav,,,,,,,,,,0,12,12,4,,,,,,,,,,,,,,,,,,,s,0.571,,,,,Female,19,006,American English,2019_Mar_28_1335,fricative_categorical_boundary,3.0.4,59.93888523376422,
15,NewWord_fbackonset_sbackonset_,LowBackContinuum/,LowBackContinuum/NewWord_fbackonset_sbackonset_15.wav,,,,,,,,,,0,13,13,5,,,,,,,,,,,,,,,,,,,s,1.303,,,,,Female,19,006,American English,2019_Mar_28_1335,fricative_categorical_boundary,3.0.4,59.93888523376422,
29,NewWord_fbackonset_sbackonset_,LowBackContinuum/,LowBackContinuum/NewWord_fbackonset_sbackonset_29.wav,,,,,,,,,,1,0,14,12,,,,,,,,,,,,,,,,,,,s,1.972,,,,,Female,19,006,American English,2019_Mar_28_1335,fricative_categorical_boundary,3.0.4,59.93888523376422,
9,NewWord_fbackonset_sbackonset_,LowBackContinuum/,LowBackContinuum/NewWord_fbackonset_sbackonset_9.wav,,,,,,,,,,1,1,15,2,,,,,,,,,,,,,,,,,,,s,0.587,,,,,Female,19,006,American English,2019_Mar_28_1335,fricative_categorical_boundary,3.0.4,59.93888523376422,
13,NewWord_fbackonset_sbackonset_,LowBackContinuum/,LowBackContinuum/NewWord_fbackonset_sbackonset_13.wav,,,,,,,,,,1,2,16,4,,,,,,,,,,,,,,,,,,,s,0.404,,,,,Female,19,006,American English,2019_Mar_28_1335,fricative_categorical_boundary,3.0.4,59.93888523376422,
41,NewWord_fbackonset_sbackonset_,LowBackContinuum/,LowBackContinuum/NewWord_fbackonset_sbackonset_41.wav,,,,,,,,,,1,3,17,13,,,,,,,,,,,,,,,,,,,s,2.856,,,,,Female,19,006,American English,2019_Mar_28_1335,fricative_categorical_boundary,3.0.4,59.93888523376422,
25,NewWord_fbackonset_sbackonset_,LowBackContinuum/,LowBackContinuum/NewWord_fbackonset_sbackonset_25.wav,,,,,,,,,,1,4,18,10,,,,,,,,,,,,,,,,,,,s,1.838,,,,,Female,19,006,American English,2019_Mar_28_1335,fricative_categorical_boundary,3.0.4,59.93888523376422,
23,NewWord_fbackonset_sbackonset_,LowBackContinuum/,LowBackContinuum/NewWord_fbackonset_sbackonset_23.wav,,,,,,,,,,1,5,19,9,,,,,,,,,,,,,,,,,,,s,0.653,,,,,Female,19,006,American English,2019_Mar_28_1335,fricative_categorical_boundary,3.0.4,59.93888523376422,
15,NewWord_fbackonset_sbackonset_,LowBackContinuum/,LowBackContinuum/NewWord_fbackonset_sbackonset_15.wav,,,,,,,,,,1,6,20,5,,,,,,,,,,,,,,,,,,,s,3.19,,,,,Female,19,006,American English,2019_Mar_28_1335,fricative_categorical_boundary,3.0.4,59.93888523376422,
27,NewWord_fbackonset_sbackonset_,LowBackContinuum/,LowBackContinuum/NewWord_fbackonset_sbackonset_27.wav,,,,,,,,,,1,7,21,11,,,,,,,,,,,,,,,,,,,s,2.356,,,,,Female,19,006,American English,2019_Mar_28_1335,fricative_categorical_boundary,3.0.4,59.93888523376422,
19,NewWord_fbackonset_sbackonset_,LowBackContinuum/,LowBackContinuum/NewWord_fbackonset_sbackonset_19.wav,,,,,,,,,,1,8,22,7,,,,,,,,,,,,,,,,,,,s,12.983,,,,,Female,19,006,American English,2019_Mar_28_1335,fricative_categorical_boundary,3.0.4,59.93888523376422,
1,NewWord_fbackonset_sbackonset_,LowBackContinuum/,LowBackContinuum/NewWord_fbackonset_sbackonset_1.wav,,,,,,,,,,1,9,23,0,,,,,,,,,,,,,,,,,,,s,1.571,,,,,Female,19,006,American English,2019_Mar_28_1335,fricative_categorical_boundary,3.0.4,59.93888523376422,
17,NewWord_fbackonset_sbackonset_,LowBackContinuum/,LowBackContinuum/NewWord_fbackonset_sbackonset_17.wav,,,,,,,,,,1,10,24,6,,,,,,,,,,,,,,,,,,,s,0.57,,,,,Female,19,006,American English,2019_Mar_28_1335,fricative_categorical_boundary,3.0.4,59.93888523376422,
21,NewWord_fbackonset_sbackonset_,LowBackContinuum/,LowBackContinuum/NewWord_fbackonset_sbackonset_21.wav,,,,,,,,,,1,11,25,8,,,,,,,,,,,,,,,,,,,s,1.688,,,,,Female,19,006,American English,2019_Mar_28_1335,fricative_categorical_boundary,3.0.4,59.93888523376422,
11,NewWord_fbackonset_sbackonset_,LowBackContinuum/,LowBackContinuum/NewWord_fbackonset_sbackonset_11.wav,,,,,,,,,,1,12,26,3,,,,,,,,,,,,,,,,,,,s,0.637,,,,,Female,19,006,American English,2019_Mar_28_1335,fricative_categorical_boundary,3.0.4,59.93888523376422,
7,NewWord_fbackonset_sbackonset_,LowBackContinuum/,LowBackContinuum/NewWord_fbackonset_sbackonset_7.wav,,,,,,,,,,1,13,27,1,,,,,,,,,,,,,,,,,,,s,0.404,,,,,Female,19,006,American English,2019_Mar_28_1335,fricative_categorical_boundary,3.0.4,59.93888523376422,
41,NewWord_fbackonset_sbackonset_,LowBackContinuum/,LowBackContinuum/NewWord_fbackonset_sbackonset_41.wav,,,,,,,,,,2,0,28,13,,,,,,,,,,,,,,,,,,,s,0.938,,,,,Female,19,006,American English,2019_Mar_28_1335,fricative_categorical_boundary,3.0.4,59.93888523376422,
25,NewWord_fbackonset_sbackonset_,LowBackContinuum/,LowBackContinuum/NewWord_fbackonset_sbackonset_25.wav,,,,,,,,,,2,1,29,10,,,,,,,,,,,,,,,,,,,s,0.853,,,,,Female,19,006,American English,2019_Mar_28_1335,fricative_categorical_boundary,3.0.4,59.93888523376422,
23,NewWord_fbackonset_sbackonset_,LowBackContinuum/,LowBackContinuum/NewWord_fbackonset_sbackonset_23.wav,,,,,,,,,,2,2,30,9,,,,,,,,,,,,,,,,,,,s,0.788,,,,,Female,19,006,American English,2019_Mar_28_1335,fricative_categorical_boundary,3.0.4,59.93888523376422,
27,NewWord_fbackonset_sbackonset_,LowBackContinuum/,LowBackContinuum/NewWord_fbackonset_sbackonset_27.wav,,,,,,,,,,2,3,31,11,,,,,,,,,,,,,,,,,,,s,0.905,,,,,Female,19,006,American English,2019_Mar_28_1335,fricative_categorical_boundary,3.0.4,59.93888523376422,
7,NewWord_fbackonset_sbackonset_,LowBackContinuum/,LowBackContinuum/NewWord_fbackonset_sbackonset_7.wav,,,,,,,,,,2,4,32,1,,,,,,,,,,,,,,,,,,,s,0.403,,,,,Female,19,006,American English,2019_Mar_28_1335,fricative_categorical_boundary,3.0.4,59.93888523376422,
1,NewWord_fbackonset_sbackonset_,LowBackContinuum/,LowBackContinuum/NewWord_fbackonset_sbackonset_1.wav,,,,,,,,,,2,5,33,0,,,,,,,,,,,,,,,,,,,s,0.603,,,,,Female,19,006,American English,2019_Mar_28_1335,fricative_categorical_boundary,3.0.4,59.93888523376422,
17,NewWord_fbackonset_sbackonset_,LowBackContinuum/,LowBackContinuum/NewWord_fbackonset_sbackonset_17.wav,,,,,,,,,,2,6,34,6,,,,,,,,,,,,,,,,,,,s,0.403,,,,,Female,19,006,American English,2019_Mar_28_1335,fricative_categorical_boundary,3.0.4,59.93888523376422,
13,NewWord_fbackonset_sbackonset_,LowBackContinuum/,LowBackContinuum/NewWord_fbackonset_sbackonset_13.wav,,,,,,,,,,2,7,35,4,,,,,,,,,,,,,,,,,,,s,7.077,,,,,Female,19,006,American English,2019_Mar_28_1335,fricative_categorical_boundary,3.0.4,59.93888523376422,
9,NewWord_fbackonset_sbackonset_,LowBackContinuum/,LowBackContinuum/NewWord_fbackonset_sbackonset_9.wav,,,,,,,,,,2,8,36,2,,,,,,,,,,,,,,,,,,,s,4.524,,,,,Female,19,006,American English,2019_Mar_28_1335,fricative_categorical_boundary,3.0.4,59.93888523376422,
11,NewWord_fbackonset_sbackonset_,LowBackContinuum/,LowBackContinuum/NewWord_fbackonset_sbackonset_11.wav,,,,,,,,,,2,9,37,3,,,,,,,,,,,,,,,,,,,s,3.491,,,,,Female,19,006,American English,2019_Mar_28_1335,fricative_categorical_boundary,3.0.4,59.93888523376422,
15,NewWord_fbackonset_sbackonset_,LowBackContinuum/,LowBackContinuum/NewWord_fbackonset_sbackonset_15.wav,,,,,,,,,,2,10,38,5,,,,,,,,,,,,,,,,,,,s,0.42,,,,,Female,19,006,American English,2019_Mar_28_1335,fricative_categorical_boundary,3.0.4,59.93888523376422,
19,NewWord_fbackonset_sbackonset_,LowBackContinuum/,LowBackContinuum/NewWord_fbackonset_sbackonset_19.wav,,,,,,,,,,2,11,39,7,,,,,,,,,,,,,,,,,,,s,1.888,,,,,Female,19,006,American English,2019_Mar_28_1335,fricative_categorical_boundary,3.0.4,59.93888523376422,
21,NewWord_fbackonset_sbackonset_,LowBackContinuum/,LowBackContinuum/NewWord_fbackonset_sbackonset_21.wav,,,,,,,,,,2,12,40,8,,,,,,,,,,,,,,,,,,,s,2.489,,,,,Female,19,006,American English,2019_Mar_28_1335,fricative_categorical_boundary,3.0.4,59.93888523376422,
29,NewWord_fbackonset_sbackonset_,LowBackContinuum/,LowBackContinuum/NewWord_fbackonset_sbackonset_29.wav,,,,,,,,,,2,13,41,12,,,,,,,,,,,,,,,,,,,s,3.657,,,,,Female,19,006,American English,2019_Mar_28_1335,fricative_categorical_boundary,3.0.4,59.93888523376422,
19,NewWord_fbackonset_sbackonset_,LowBackContinuum/,LowBackContinuum/NewWord_fbackonset_sbackonset_19.wav,,,,,,,,,,3,0,42,7,,,,,,,,,,,,,,,,,,,s,1.654,,,,,Female,19,006,American English,2019_Mar_28_1335,fricative_categorical_boundary,3.0.4,59.93888523376422,
9,NewWord_fbackonset_sbackonset_,LowBackContinuum/,LowBackContinuum/NewWord_fbackonset_sbackonset_9.wav,,,,,,,,,,3,1,43,2,,,,,,,,,,,,,,,,,,,s,1.671,,,,,Female,19,006,American English,2019_Mar_28_1335,fricative_categorical_boundary,3.0.4,59.93888523376422,
41,NewWord_fbackonset_sbackonset_,LowBackContinuum/,LowBackContinuum/NewWord_fbackonset_sbackonset_41.wav,,,,,,,,,,3,2,44,13,,,,,,,,,,,,,,,,,,,s,1.387,,,,,Female,19,006,American English,2019_Mar_28_1335,fricative_categorical_boundary,3.0.4,59.93888523376422,
1,NewWord_fbackonset_sbackonset_,LowBackContinuum/,LowBackContinuum/NewWord_fbackonset_sbackonset_1.wav,,,,,,,,,,3,3,45,0,,,,,,,,,,,,,,,,,,,s,0.753,,,,,Female,19,006,American English,2019_Mar_28_1335,fricative_categorical_boundary,3.0.4,59.93888523376422,
15,NewWord_fbackonset_sbackonset_,LowBackContinuum/,LowBackContinuum/NewWord_fbackonset_sbackonset_15.wav,,,,,,,,,,3,4,46,5,,,,,,,,,,,,,,,,,,,s,1.021,,,,,Female,19,006,American English,2019_Mar_28_1335,fricative_categorical_boundary,3.0.4,59.93888523376422,
27,NewWord_fbackonset_sbackonset_,LowBackContinuum/,LowBackContinuum/NewWord_fbackonset_sbackonset_27.wav,,,,,,,,,,3,5,47,11,,,,,,,,,,,,,,,,,,,s,1.321,,,,,Female,19,006,American English,2019_Mar_28_1335,fricative_categorical_boundary,3.0.4,59.93888523376422,
21,NewWord_fbackonset_sbackonset_,LowBackContinuum/,LowBackContinuum/NewWord_fbackonset_sbackonset_21.wav,,,,,,,,,,3,6,48,8,,,,,,,,,,,,,,,,,,,s,1.238,,,,,Female,19,006,American English,2019_Mar_28_1335,fricative_categorical_boundary,3.0.4,59.93888523376422,
11,NewWord_fbackonset_sbackonset_,LowBackContinuum/,LowBackContinuum/NewWord_fbackonset_sbackonset_11.wav,,,,,,,,,,3,7,49,3,,,,,,,,,,,,,,,,,,,s,1.004,,,,,Female,19,006,American English,2019_Mar_28_1335,fricative_categorical_boundary,3.0.4,59.93888523376422,
7,NewWord_fbackonset_sbackonset_,LowBackContinuum/,LowBackContinuum/NewWord_fbackonset_sbackonset_7.wav,,,,,,,,,,3,8,50,1,,,,,,,,,,,,,,,,,,,s,0.587,,,,,Female,19,006,American English,2019_Mar_28_1335,fricative_categorical_boundary,3.0.4,59.93888523376422,
13,NewWord_fbackonset_sbackonset_,LowBackContinuum/,LowBackContinuum/NewWord_fbackonset_sbackonset_13.wav,,,,,,,,,,3,9,51,4,,,,,,,,,,,,,,,,,,,s,2.99,,,,,Female,19,006,American English,2019_Mar_28_1335,fricative_categorical_boundary,3.0.4,59.93888523376422,
25,NewWord_fbackonset_sbackonset_,LowBackContinuum/,LowBackContinuum/NewWord_fbackonset_sbackonset_25.wav,,,,,,,,,,3,10,52,10,,,,,,,,,,,,,,,,,,,s,0.408,,,,,Female,19,006,American English,2019_Mar_28_1335,fricative_categorical_boundary,3.0.4,59.93888523376422,
23,NewWord_fbackonset_sbackonset_,LowBackContinuum/,LowBackContinuum/NewWord_fbackonset_sbackonset_23.wav,,,,,,,,,,3,11,53,9,,,,,,,,,,,,,,,,,,,s,0.754,,,,,Female,19,006,American English,2019_Mar_28_1335,fricative_categorical_boundary,3.0.4,59.93888523376422,
29,NewWord_fbackonset_sbackonset_,LowBackContinuum/,LowBackContinuum/NewWord_fbackonset_sbackonset_29.wav,,,,,,,,,,3,12,54,12,,,,,,,,,,,,,,,,,,,s,0.403,,,,,Female,19,006,American English,2019_Mar_28_1335,fricative_categorical_boundary,3.0.4,59.93888523376422,
17,NewWord_fbackonset_sbackonset_,LowBackContinuum/,LowBackContinuum/NewWord_fbackonset_sbackonset_17.wav,,,,,,,,,,3,13,55,6,,,,,,,,,,,,,,,,,,,s,4.407,,,,,Female,19,006,American English,2019_Mar_28_1335,fricative_categorical_boundary,3.0.4,59.93888523376422,
,,,,,,,,,,,,,,,,,,,,,,,,,,,,,,,,,,,,,space,12.467221245000474,,,Female,19,006,American English,2019_Mar_28_1335,fricative_categorical_boundary,3.0.4,59.93888523376422,
,,,,toilet,filler,None,None,None,real,None,LDTSounds/,LDTSounds/toilet.wav,,,,,0,0,0,67,,,,,,,,,,,,,,,,,,,l,2.6382538389998444,Female,19,006,American English,2019_Mar_28_1335,fricative_categorical_boundary,3.0.4,59.93888523376422,
,,,,kebnoti,filler,None,None,None,nonce,None,LDTSounds/,LDTSounds/kebnoti.wav,,,,,0,1,1,121,,,,,,,,,,,,,,,,,,,l,2.955117588000576,Female,19,006,American English,2019_Mar_28_1335,fricative_categorical_boundary,3.0.4,59.93888523376422,
,,,,REEF,test,f,coda,1.0,None,None,LDTSounds/,LDTSounds/REEF.wav,,,,,0,2,2,14,,,,,,,,,,,,,,,,,,,l,1.0526102679996256,Female,19,006,American English,2019_Mar_28_1335,fricative_categorical_boundary,3.0.4,59.93888523376422,
,,,,toin,filler,None,None,None,nonce,None,LDTSounds/,LDTSounds/toin.wav,,,,,0,3,3,88,,,,,,,,,,,,,,,,,,,a,2.5378025939999134,Female,19,006,American English,2019_Mar_28_1335,fricative_categorical_boundary,3.0.4,59.93888523376422,
,,,,blegondanit,filler,None,None,None,nonce,None,LDTSounds/,LDTSounds/blegondanit.wav,,,,,0,4,4,144,,,,,,,,,,,,,,,,,,,a,2.0372637519994896,Female,19,006,American English,2019_Mar_28_1335,fricative_categorical_boundary,3.0.4,59.93888523376422,
,,,,GEESE,test,s,coda,1.0,None,None,LDTSounds/,LDTSounds/GEESE.wav,,,,,0,5,5,18,,,,,,,,,,,,,,,,,,,l,1.2370449250001911,Female,19,006,American English,2019_Mar_28_1335,fricative_categorical_boundary,3.0.4,59.93888523376422,
,,,,wet,filler,None,None,None,real,None,LDTSounds/,LDTSounds/wet.wav,,,,,0,6,6,38,,,,,,,,,,,,,,,,,,,l,0.9368421879999005,Female,19,006,American English,2019_Mar_28_1335,fricative_categorical_boundary,3.0.4,59.93888523376422,
,,,,gelp,filler,None,None,None,nonce,None,LDTSounds/,LDTSounds/gelp.wav,,,,,0,7,7,85,,,,,,,,,,,,,,,,,,,a,1.9210679779998827,Female,19,006,American English,2019_Mar_28_1335,fricative_categorical_boundary,3.0.4,59.93888523376422,
,,,,twek,filler,None,None,None,nonce,None,LDTSounds/,LDTSounds/twek.wav,,,,,0,8,8,80,,,,,,,,,,,,,,,,,,,a,2.4552589969998735,Female,19,006,American English,2019_Mar_28_1335,fricative_categorical_boundary,3.0.4,59.93888523376422,
,,,,ratwell,filler,None,None,None,nonce,None,LDTSounds/,LDTSounds/ratwell.wav,,,,,0,9,9,108,,,,,,,,,,,,,,,,,,,a,1.6372741390005103,Female,19,006,American English,2019_Mar_28_1335,fricative_categorical_boundary,3.0.4,59.93888523376422,
,,,,trooper,filler,None,None,None,real,None,LDTSounds/,LDTSounds/trooper.wav,,,,,0,10,10,66,,,,,,,,,,,,,,,,,,,l,1.1537830920005945,Female,19,006,American English,2019_Mar_28_1335,fricative_categorical_boundary,3.0.4,59.93888523376422,
,,,,pingloon,filler,None,None,None,nonce,None,LDTSounds/,LDTSounds/pingloon.wav,,,,,0,11,11,110,,,,,,,,,,,,,,,,,,,a,1.1371385909997116,Female,19,006,American English,2019_Mar_28_1335,fricative_categorical_boundary,3.0.4,59.93888523376422,
,,,,podaling,filler,None,None,None,nonce,None,LDTSounds/,LDTSounds/podaling.wav,,,,,0,12,12,132,,,,,,,,,,,,,,,,,,,a,0.9866000860001805,Female,19,006,American English,2019_Mar_28_1335,fricative_categorical_boundary,3.0.4,59.93888523376422,
,,,,SICK,test,s,onset,1.0,None,None,LDTSounds/,LDTSounds/SICK.wav,,,,,0,13,13,29,,,,,,,,,,,,,,,,,,,l,0.9871839190000173,Female,19,006,American English,2019_Mar_28_1335,fricative_categorical_boundary,3.0.4,59.93888523376422,
,,,,lump,filler,None,None,None,real,None,LDTSounds/,LDTSounds/lump.wav,,,,,0,14,14,54,,,,,,,,,,,,,,,,,,,l,0.8533406229998945,Female,19,006,American English,2019_Mar_28_1335,fricative_categorical_boundary,3.0.4,59.93888523376422,
,,,,himp,filler,None,None,None,nonce,None,LDTSounds/,LDTSounds/himp.wav,,,,,0,15,15,75,,,,,,,,,,,,,,,,,,,a,2.9219708249993346,Female,19,006,American English,2019_Mar_28_1335,fricative_categorical_boundary,3.0.4,59.93888523376422,
,,,,liquor,filler,None,None,None,real,None,LDTSounds/,LDTSounds/liquor.wav,,,,,0,16,16,63,,,,,,,,,,,,,,,,,,,l,0.8871525960003055,Female,19,006,American English,2019_Mar_28_1335,fricative_categorical_boundary,3.0.4,59.93888523376422,
,,,,yoog,filler,None,None,None,nonce,None,LDTSounds/,LDTSounds/yoog.wav,,,,,0,17,17,90,,,,,,,,,,,,,,,,,,,a,1.3868618879996575,Female,19,006,American English,2019_Mar_28_1335,fricative_categorical_boundary,3.0.4,59.93888523376422,
,,,,FIEND,test,f,onset,1.0,None,None,LDTSounds/,LDTSounds/FIEND.wav,,,,,0,18,18,7,,,,,,,,,,,,,,,,,,,a,1.2544142570004624,Female,19,006,American English,2019_Mar_28_1335,fricative_categorical_boundary,3.0.4,59.93888523376422,
,,,,pendalimt,filler,None,None,None,nonce,None,LDTSounds/,LDTSounds/pendalimt.wav,,,,,0,19,19,118,,,,,,,,,,,,,,,,,,,a,1.7043454790000396,Female,19,006,American English,2019_Mar_28_1335,fricative_categorical_boundary,3.0.4,59.93888523376422,
,,,,KISS,test,s,coda,1.0,None,None,LDTSounds/,LDTSounds/KISS.wav,,,,,0,20,20,19,,,,,,,,,,,,,,,,,,,l,0.8360612719998244,Female,19,006,American English,2019_Mar_28_1335,fricative_categorical_boundary,3.0.4,59.93888523376422,
,,,,poginito,filler,None,None,None,nonce,None,LDTSounds/,LDTSounds/poginito.wav,,,,,0,21,21,139,,,,,,,,,,,,,,,,,,,a,1.420090070999322,Female,19,006,American English,2019_Mar_28_1335,fricative_categorical_boundary,3.0.4,59.93888523376422,
,,,,FELINE,test,f,onset,2.0,None,None,LDTSounds/,LDTSounds/FELINE.wav,,,,,0,22,22,2,,,,,,,,,,,,,,,,,,,a,1.820025662000262,Female,19,006,American English,2019_Mar_28_1335,fricative_categorical_boundary,3.0.4,59.93888523376422,
,,,,SEEING,test,s,onset,2.0,None,None,LDTSounds/,LDTSounds/SEEING.wav,,,,,0,23,23,23,,,,,,,,,,,,,,,,,,,l,1.1702149900002041,Female,19,006,American English,2019_Mar_28_1335,fricative_categorical_boundary,3.0.4,59.93888523376422,
,,,,bidbowk,filler,None,None,None,nonce,None,LDTSounds/,LDTSounds/bidbowk.wav,,,,,0,24,24,109,,,,,,,,,,,,,,,,,,,a,1.2029338479997023,Female,19,006,American English,2019_Mar_28_1335,fricative_categorical_boundary,3.0.4,59.93888523376422,
,,,,while,filler,None,None,None,real,None,LDTSounds/,LDTSounds/while.wav,,,,,0,25,25,48,,,,,,,,,,,,,,,,,,,l,1.1036027239997566,Female,19,006,American English,2019_Mar_28_1335,fricative_categorical_boundary,3.0.4,59.93888523376422,
,,,,weg,filler,None,None,None,nonce,None,LDTSounds/,LDTSounds/weg.wav,,,,,0,26,26,78,,,,,,,,,,,,,,,,,,,a,1.0036493560000963,Female,19,006,American English,2019_Mar_28_1335,fricative_categorical_boundary,3.0.4,59.93888523376422,
,,,,FETAL,test,f,onset,2.0,None,None,LDTSounds/,LDTSounds/FETAL.wav,,,,,0,27,27,4,,,,,,,,,,,,,,,,,,,l,1.119760275999397,Female,19,006,American English,2019_Mar_28_1335,fricative_categorical_boundary,3.0.4,59.93888523376422,
,,,,SIM,test,s,onset,1.0,None,None,LDTSounds/,LDTSounds/SIM.wav,,,,,0,28,28,31,,,,,,,,,,,,,,,,,,,l,1.1196331669998472,Female,19,006,American English,2019_Mar_28_1335,fricative_categorical_boundary,3.0.4,59.93888523376422,
,,,,habapithloo,filler,None,None,None,nonce,None,LDTSounds/,LDTSounds/habapithloo.wav,,,,,0,29,29,136,,,,,,,,,,,,,,,,,,,a,1.4878210020006009,Female,19,006,American English,2019_Mar_28_1335,fricative_categorical_boundary,3.0.4,59.93888523376422,
,,,,taklibd,filler,None,None,None,nonce,None,LDTSounds/,LDTSounds/taklibd.wav,,,,,0,30,30,101,,,,,,,,,,,,,,,,,,,a,1.4872833819999869,Female,19,006,American English,2019_Mar_28_1335,fricative_categorical_boundary,3.0.4,59.93888523376422,
,,,,FIFTH,test,f,onset,1.0,None,None,LDTSounds/,LDTSounds/FIFTH.wav,,,,,0,31,31,8,,,,,,,,,,,,,,,,,,,l,0.986556181999731,Female,19,006,American English,2019_Mar_28_1335,fricative_categorical_boundary,3.0.4,59.93888523376422,
,,,,little,filler,None,None,None,real,None,LDTSounds/,LDTSounds/little.wav,,,,,0,32,32,61,,,,,,,,,,,,,,,,,,,l,1.3701503619995492,Female,19,006,American English,2019_Mar_28_1335,fricative_categorical_boundary,3.0.4,59.93888523376422,
,,,,himnapile,filler,None,None,None,nonce,None,LDTSounds/,LDTSounds/himnapile.wav,,,,,0,33,33,128,,,,,,,,,,,,,,,,,,,a,0.9863625810003214,Female,19,006,American English,2019_Mar_28_1335,fricative_categorical_boundary,3.0.4,59.93888523376422,
,,,,daydream,filler,None,None,None,real,None,LDTSounds/,LDTSounds/daydream.wav,,,,,0,34,34,59,,,,,,,,,,,,,,,,,,,l,1.0200557299995126,Female,19,006,American English,2019_Mar_28_1335,fricative_categorical_boundary,3.0.4,59.93888523376422,
,,,,yoodalin,filler,None,None,None,nonce,None,LDTSounds/,LDTSounds/yoodalin.wav,,,,,0,35,35,125,,,,,,,,,,,,,,,,,,,a,0.9198232069993537,Female,19,006,American English,2019_Mar_28_1335,fricative_categorical_boundary,3.0.4,59.93888523376422,
,,,,lemur,filler,None,None,None,real,None,LDTSounds/,LDTSounds/lemur.wav,,,,,0,36,36,68,,,,,,,,,,,,,,,,,,,l,2.3857574020003085,Female,19,006,American English,2019_Mar_28_1335,fricative_categorical_boundary,3.0.4,59.93888523376422,
,,,,SEATED,test,s,onset,2.0,None,None,LDTSounds/,LDTSounds/SEATED.wav,,,,,0,37,37,22,,,,,,,,,,,,,,,,,,,l,1.320282299999235,Female,19,006,American English,2019_Mar_28_1335,fricative_categorical_boundary,3.0.4,59.93888523376422,
,,,,pillow,filler,None,None,None,real,None,LDTSounds/,LDTSounds/pillow.wav,,,,,0,38,38,72,,,,,,,,,,,,,,,,,,,l,0.9028570830005265,Female,19,006,American English,2019_Mar_28_1335,fricative_categorical_boundary,3.0.4,59.93888523376422,
,,,,tomb,filler,None,None,None,real,None,LDTSounds/,LDTSounds/tomb.wav,,,,,0,39,39,35,,,,,,,,,,,,,,,,,,,l,1.2531001149991425,Female,19,006,American English,2019_Mar_28_1335,fricative_categorical_boundary,3.0.4,59.93888523376422,
,,,,lake,filler,None,None,None,real,None,LDTSounds/,LDTSounds/lake.wav,,,,,0,40,40,45,,,,,,,,,,,,,,,,,,,l,0.903424138000446,Female,19,006,American English,2019_Mar_28_1335,fricative_categorical_boundary,3.0.4,59.93888523376422,
,,,,hapekt,filler,None,None,None,nonce,None,LDTSounds/,LDTSounds/hapekt.wav,,,,,0,41,41,116,,,,,,,,,,,,,,,,,,,a,1.2530802809997112,Female,19,006,American English,2019_Mar_28_1335,fricative_categorical_boundary,3.0.4,59.93888523376422,
,,,,SEEKER,test,s,onset,2.0,None,None,LDTSounds/,LDTSounds/SEEKER.wav,,,,,0,42,42,25,,,,,,,,,,,,,,,,,,,a,2.171544470000299,Female,19,006,American English,2019_Mar_28_1335,fricative_categorical_boundary,3.0.4,59.93888523376422,
,,,,ledmon,filler,None,None,None,nonce,None,LDTSounds/,LDTSounds/ledmon.wav,,,,,0,43,43,94,,,,,,,,,,,,,,,,,,,a,1.40309931199954,Female,19,006,American English,2019_Mar_28_1335,fricative_categorical_boundary,3.0.4,59.93888523376422,
,,,,krebdingolee,filler,None,None,None,nonce,None,LDTSounds/,LDTSounds/krebdingolee.wav,,,,,0,44,44,147,,,,,,,,,,,,,,,,,,,a,1.0866818429994964,Female,19,006,American English,2019_Mar_28_1335,fricative_categorical_boundary,3.0.4,59.93888523376422,
,,,,twin,filler,None,None,None,real,None,LDTSounds/,LDTSounds/twin.wav,,,,,0,45,45,44,,,,,,,,,,,,,,,,,,,l,0.9862284159999035,Female,19,006,American English,2019_Mar_28_1335,fricative_categorical_boundary,3.0.4,59.93888523376422,
,,,,PIECE,test,s,coda,1.0,None,None,LDTSounds/,LDTSounds/PIECE.wav,,,,,0,46,46,20,,,,,,,,,,,,,,,,,,,l,0.9028687640002317,Female,19,006,American English,2019_Mar_28_1335,fricative_categorical_boundary,3.0.4,59.93888523376422,
,,,,yoogul,filler,None,None,None,nonce,None,LDTSounds/,LDTSounds/yoogul.wav,,,,,0,47,47,102,,,,,,,,,,,,,,,,,,,a,0.9368415700000696,Female,19,006,American English,2019_Mar_28_1335,fricative_categorical_boundary,3.0.4,59.93888523376422,
,,,,FILTH,test,f,onset,1.0,None,None,LDTSounds/,LDTSounds/FILTH.wav,,,,,0,48,48,12,,,,,,,,,,,,,,,,,,,l,1.286875572000099,Female,19,006,American English,2019_Mar_28_1335,fricative_categorical_boundary,3.0.4,59.93888523376422,
,,,,midaran,filler,None,None,None,nonce,None,LDTSounds/,LDTSounds/midaran.wav,,,,,0,49,49,119,,,,,,,,,,,,,,,,,,,a,1.2040611749998789,Female,19,006,American English,2019_Mar_28_1335,fricative_categorical_boundary,3.0.4,59.93888523376422,
,,,,plone,filler,None,None,None,nonce,None,LDTSounds/,LDTSounds/plone.wav,,,,,0,50,50,76,,,,,,,,,,,,,,,,,,,a,1.0032081680001284,Female,19,006,American English,2019_Mar_28_1335,fricative_categorical_boundary,3.0.4,59.93888523376422,
,,,,FILL,test,f,onset,1.0,None,None,LDTSounds/,LDTSounds/FILL.wav,,,,,0,51,51,10,,,,,,,,,,,,,,,,,,,l,0.7862832219998381,Female,19,006,American English,2019_Mar_28_1335,fricative_categorical_boundary,3.0.4,59.93888523376422,
,,,,hapooli,filler,None,None,None,nonce,None,LDTSounds/,LDTSounds/hapooli.wav,,,,,0,52,52,126,,,,,,,,,,,,,,,,,,,a,0.9039653109994106,Female,19,006,American English,2019_Mar_28_1335,fricative_categorical_boundary,3.0.4,59.93888523376422,
,,,,poindool,filler,None,None,None,nonce,None,LDTSounds/,LDTSounds/poindool.wav,,,,,0,53,53,96,,,,,,,,,,,,,,,,,,,a,1.2370684950001305,Female,19,006,American English,2019_Mar_28_1335,fricative_categorical_boundary,3.0.4,59.93888523376422,
,,,,wegtamlip,filler,None,None,None,nonce,None,LDTSounds/,LDTSounds/wegtamlip.wav,,,,,0,54,54,120,,,,,,,,,,,,,,,,,,,a,1.1375216070000533,Female,19,006,American English,2019_Mar_28_1335,fricative_categorical_boundary,3.0.4,59.93888523376422,
,,,,mole,filler,None,None,None,real,None,LDTSounds/,LDTSounds/mole.wav,,,,,0,55,55,42,,,,,,,,,,,,,,,,,,,l,1.1369255660001727,Female,19,006,American English,2019_Mar_28_1335,fricative_categorical_boundary,3.0.4,59.93888523376422,
,,,,toy,filler,None,None,None,real,None,LDTSounds/,LDTSounds/toy.wav,,,,,0,56,56,53,,,,,,,,,,,,,,,,,,,l,0.8031184649998977,Female,19,006,American English,2019_Mar_28_1335,fricative_categorical_boundary,3.0.4,59.93888523376422,
,,,,cratbool,filler,None,None,None,nonce,None,LDTSounds/,LDTSounds/cratbool.wav,,,,,0,57,57,106,,,,,,,,,,,,,,,,,,,l,1.3702978429992072,Female,19,006,American English,2019_Mar_28_1335,fricative_categorical_boundary,3.0.4,59.93888523376422,
,,,,FEMALE,test,f,onset,2.0,None,None,LDTSounds/,LDTSounds/FEMALE.wav,,,,,0,58,58,3,,,,,,,,,,,,,,,,,,,l,0.9359507290000693,Female,19,006,American English,2019_Mar_28_1335,fricative_categorical_boundary,3.0.4,59.93888523376422,
,,,,libmadoop,filler,None,None,None,nonce,None,LDTSounds/,LDTSounds/libmadoop.wav,,,,,0,59,59,117,,,,,,,,,,,,,,,,,,,a,1.0533810669994637,Female,19,006,American English,2019_Mar_28_1335,fricative_categorical_boundary,3.0.4,59.93888523376422,
,,,,FIJI,test,f,onset,2.0,None,None,LDTSounds/,LDTSounds/FIJI.wav,,,,,0,60,60,9,,,,,,,,,,,,,,,,,,,l,1.0692719809994742,Female,19,006,American English,2019_Mar_28_1335,fricative_categorical_boundary,3.0.4,59.93888523376422,
,,,,petnole,filler,None,None,None,nonce,None,LDTSounds/,LDTSounds/petnole.wav,,,,,0,61,61,112,,,,,,,,,,,,,,,,,,,l,1.2202555220001159,Female,19,006,American English,2019_Mar_28_1335,fricative_categorical_boundary,3.0.4,59.93888523376422,
,,,,dewagelin,filler,None,None,None,nonce,None,LDTSounds/,LDTSounds/dewagelin.wav,,,,,0,62,62,143,,,,,,,,,,,,,,,,,,,a,1.070476552999935,Female,19,006,American English,2019_Mar_28_1335,fricative_categorical_boundary,3.0.4,59.93888523376422,
,,,,cridamlo,filler,None,None,None,nonce,None,LDTSounds/,LDTSounds/cridamlo.wav,,,,,0,63,63,122,,,,,,,,,,,,,,,,,,,a,1.4040995250006745,Female,19,006,American English,2019_Mar_28_1335,fricative_categorical_boundary,3.0.4,59.93888523376422,
,,,,rivathrog,filler,None,None,None,nonce,None,LDTSounds/,LDTSounds/rivathrog.wav,,,,,0,64,64,131,,,,,,,,,,,,,,,,,,,a,1.1704985310007032,Female,19,006,American English,2019_Mar_28_1335,fricative_categorical_boundary,3.0.4,59.93888523376422,
,,,,plagtorin,filler,None,None,None,nonce,None,LDTSounds/,LDTSounds/plagtorin.wav,,,,,0,65,65,134,,,,,,,,,,,,,,,,,,,a,1.020416356000169,Female,19,006,American English,2019_Mar_28_1335,fricative_categorical_boundary,3.0.4,59.93888523376422,
,,,,will,filler,None,None,None,real,None,LDTSounds/,LDTSounds/will.wav,,,,,0,66,66,49,,,,,,,,,,,,,,,,,,,l,0.9193958009991547,Female,19,006,American English,2019_Mar_28_1335,fricative_categorical_boundary,3.0.4,59.93888523376422,
,,,,dripnalong,filler,None,None,None,nonce,None,LDTSounds/,LDTSounds/dripnalong.wav,,,,,0,67,67,124,,,,,,,,,,,,,,,,,,,a,1.0366435149999234,Female,19,006,American English,2019_Mar_28_1335,fricative_categorical_boundary,3.0.4,59.93888523376422,
,,,,waip,filler,None,None,None,nonce,None,LDTSounds/,LDTSounds/waip.wav,,,,,0,68,68,91,,,,,,,,,,,,,,,,,,,l,1.0364495099993292,Female,19,006,American English,2019_Mar_28_1335,fricative_categorical_boundary,3.0.4,59.93888523376422,
,,,,noopalingdo,filler,None,None,None,nonce,None,LDTSounds/,LDTSounds/noopalingdo.wav,,,,,0,69,69,135,,,,,,,,,,,,,,,,,,,a,1.0034550159998616,Female,19,006,American English,2019_Mar_28_1335,fricative_categorical_boundary,3.0.4,59.93888523376422,
,,,,FIB,test,f,onset,1.0,None,None,LDTSounds/,LDTSounds/FIB.wav,,,,,0,70,70,6,,,,,,,,,,,,,,,,,,,a,1.771669827999176,Female,19,006,American English,2019_Mar_28_1335,fricative_categorical_boundary,3.0.4,59.93888523376422,
,,,,pen,filler,None,None,None,real,None,LDTSounds/,LDTSounds/pen.wav,,,,,0,71,71,40,,,,,,,,,,,,,,,,,,,l,2.0040533549999964,Female,19,006,American English,2019_Mar_28_1335,fricative_categorical_boundary,3.0.4,59.93888523376422,
,,,,tuba,filler,None,None,None,real,None,LDTSounds/,LDTSounds/tuba.wav,,,,,0,72,72,57,,,,,,,,,,,,,,,,,,,a,1.0689898499995252,Female,19,006,American English,2019_Mar_28_1335,fricative_categorical_boundary,3.0.4,59.93888523376422,
,,,,trag,filler,None,None,None,nonce,None,LDTSounds/,LDTSounds/trag.wav,,,,,0,73,73,84,,,,,,,,,,,,,,,,,,,a,1.5702301049996095,Female,19,006,American English,2019_Mar_28_1335,fricative_categorical_boundary,3.0.4,59.93888523376422,
,,,,SEEPING,test,s,onset,2.0,None,None,LDTSounds/,LDTSounds/SEEPING.wav,,,,,0,74,74,27,,,,,,,,,,,,,,,,,,,a,1.7376096999996662,Female,19,006,American English,2019_Mar_28_1335,fricative_categorical_boundary,3.0.4,59.93888523376422,
,,,,tridalondit,filler,None,None,None,nonce,None,LDTSounds/,LDTSounds/tridalondit.wav,,,,,0,75,75,146,,,,,,,,,,,,,,,,,,,a,1.3703972989997055,Female,19,006,American English,2019_Mar_28_1335,fricative_categorical_boundary,3.0.4,59.93888523376422,
,,,,hoong,filler,None,None,None,nonce,None,LDTSounds/,LDTSounds/hoong.wav,,,,,0,76,76,81,,,,,,,,,,,,,,,,,,,a,1.2027391169995099,Female,19,006,American English,2019_Mar_28_1335,fricative_categorical_boundary,3.0.4,59.93888523376422,
,,,,kililitbi,filler,None,None,None,nonce,None,LDTSounds/,LDTSounds/kililitbi.wav,,,,,0,77,77,145,,,,,,,,,,,,,,,,,,,a,0.9534302510000998,Female,19,006,American English,2019_Mar_28_1335,fricative_categorical_boundary,3.0.4,59.93888523376422,
,,,,ligbee,filler,None,None,None,nonce,None,LDTSounds/,LDTSounds/ligbee.wav,,,,,0,78,78,95,,,,,,,,,,,,,,,,,,,a,1.5547754950002854,Female,19,006,American English,2019_Mar_28_1335,fricative_categorical_boundary,3.0.4,59.93888523376422,
,,,,rat,filler,None,None,None,real,None,LDTSounds/,LDTSounds/rat.wav,,,,,0,79,79,47,,,,,,,,,,,,,,,,,,,l,1.2373468910000156,Female,19,006,American English,2019_Mar_28_1335,fricative_categorical_boundary,3.0.4,59.93888523376422,
,,,,magmilnt,filler,None,None,None,nonce,None,LDTSounds/,LDTSounds/magmilnt.wav,,,,,0,80,80,107,,,,,,,,,,,,,,,,,,,a,2.1209566850002375,Female,19,006,American English,2019_Mar_28_1335,fricative_categorical_boundary,3.0.4,59.93888523376422,
,,,,trad,filler,None,None,None,nonce,None,LDTSounds/,LDTSounds/trad.wav,,,,,0,81,81,87,,,,,,,,,,,,,,,,,,,a,1.8036803470004088,Female,19,006,American English,2019_Mar_28_1335,fricative_categorical_boundary,3.0.4,59.93888523376422,
,,,,mall,filler,None,None,None,real,None,LDTSounds/,LDTSounds/mall.wav,,,,,0,82,82,43,,,,,,,,,,,,,,,,,,,l,1.353687619000084,Female,19,006,American English,2019_Mar_28_1335,fricative_categorical_boundary,3.0.4,59.93888523376422,
,,,,building,filler,None,None,None,real,None,LDTSounds/,LDTSounds/building.wav,,,,,0,83,83,55,,,,,,,,,,,,,,,,,,,l,1.0695042379993538,Female,19,006,American English,2019_Mar_28_1335,fricative_categorical_boundary,3.0.4,59.93888523376422,
,,,,yellow,filler,None,None,None,real,None,LDTSounds/,LDTSounds/yellow.wav,,,,,0,84,84,73,,,,,,,,,,,,,,,,,,,l,1.8888266000003568,Female,19,006,American English,2019_Mar_28_1335,fricative_categorical_boundary,3.0.4,59.93888523376422,
,,,,typing,filler,None,None,None,real,None,LDTSounds/,LDTSounds/typing.wav,,,,,0,85,85,70,,,,,,,,,,,,,,,,,,,l,1.0179661929996655,Female,19,006,American English,2019_Mar_28_1335,fricative_categorical_boundary,3.0.4,59.93888523376422,
,,,,kotlim,filler,None,None,None,nonce,None,LDTSounds/,LDTSounds/kotlim.wav,,,,,0,86,86,114,,,,,,,,,,,,,,,,,,,a,1.3039166990001831,Female,19,006,American English,2019_Mar_28_1335,fricative_categorical_boundary,3.0.4,59.93888523376422,
,,,,laker,filler,None,None,None,real,None,LDTSounds/,LDTSounds/laker.wav,,,,,0,87,87,58,,,,,,,,,,,,,,,,,,,a,1.2203608440004245,Female,19,006,American English,2019_Mar_28_1335,fricative_categorical_boundary,3.0.4,59.93888523376422,
,,,,butter,filler,None,None,None,real,None,LDTSounds/,LDTSounds/butter.wav,,,,,0,88,88,60,,,,,,,,,,,,,,,,,,,l,0.8693658619995404,Female,19,006,American English,2019_Mar_28_1335,fricative_categorical_boundary,3.0.4,59.93888523376422,
,,,,drip,filler,None,None,None,real,None,LDTSounds/,LDTSounds/drip.wav,,,,,0,89,89,51,,,,,,,,,,,,,,,,,,,l,0.7532881279994399,Female,19,006,American English,2019_Mar_28_1335,fricative_categorical_boundary,3.0.4,59.93888523376422,
,,,,trim,filler,None,None,None,real,None,LDTSounds/,LDTSounds/trim.wav,,,,,0,90,90,39,,,,,,,,,,,,,,,,,,,l,0.8363343180008087,Female,19,006,American English,2019_Mar_28_1335,fricative_categorical_boundary,3.0.4,59.93888523376422,
,,,,rowboat,filler,None,None,None,real,None,LDTSounds/,LDTSounds/rowboat.wav,,,,,0,91,91,56,,,,,,,,,,,,,,,,,,,l,1.1197826809993785,Female,19,006,American English,2019_Mar_28_1335,fricative_categorical_boundary,3.0.4,59.93888523376422,
,,,,right,filler,None,None,None,real,None,LDTSounds/,LDTSounds/right.wav,,,,,0,92,92,36,,,,,,,,,,,,,,,,,,,l,0.9868846159997702,Female,19,006,American English,2019_Mar_28_1335,fricative_categorical_boundary,3.0.4,59.93888523376422,
,,,,heen,filler,None,None,None,nonce,None,LDTSounds/,LDTSounds/heen.wav,,,,,0,93,93,77,,,,,,,,,,,,,,,,,,,a,1.0876337789995887,Female,19,006,American English,2019_Mar_28_1335,fricative_categorical_boundary,3.0.4,59.93888523376422,
,,,,boondatribnok,filler,None,None,None,nonce,None,LDTSounds/,LDTSounds/boondatribnok.wav,,,,,0,94,94,137,,,,,,,,,,,,,,,,,,,a,1.336115754000275,Female,19,006,American English,2019_Mar_28_1335,fricative_categorical_boundary,3.0.4,59.93888523376422,
,,,,metroy,filler,None,None,None,nonce,None,LDTSounds/,LDTSounds/metroy.wav,,,,,0,95,95,100,,,,,,,,,,,,,,,,,,,a,1.5351726119997693,Female,19,006,American English,2019_Mar_28_1335,fricative_categorical_boundary,3.0.4,59.93888523376422,
,,,,bindilamok,filler,None,None,None,nonce,None,LDTSounds/,LDTSounds/bindilamok.wav,,,,,0,96,96,148,,,,,,,,,,,,,,,,,,,a,1.0530782700006966,Female,19,006,American English,2019_Mar_28_1335,fricative_categorical_boundary,3.0.4,59.93888523376422,
,,,,wegring,filler,None,None,None,nonce,None,LDTSounds/,LDTSounds/wegring.wav,,,,,0,97,97,97,,,,,,,,,,,,,,,,,,,a,1.2531172120006886,Female,19,006,American English,2019_Mar_28_1335,fricative_categorical_boundary,3.0.4,59.93888523376422,
,,,,loot,filler,None,None,None,real,None,LDTSounds/,LDTSounds/loot.wav,,,,,0,98,98,37,,,,,,,,,,,,,,,,,,,a,1.4548292979998223,Female,19,006,American English,2019_Mar_28_1335,fricative_categorical_boundary,3.0.4,59.93888523376422,
,,,,globe,filler,None,None,None,real,None,LDTSounds/,LDTSounds/globe.wav,,,,,0,99,99,52,,,,,,,,,,,,,,,,,,,l,1.1863303640002414,Female,19,006,American English,2019_Mar_28_1335,fricative_categorical_boundary,3.0.4,59.93888523376422,
,,,,FEEBLE,test,f,onset,2.0,None,None,LDTSounds/,LDTSounds/FEEBLE.wav,,,,,0,100,100,1,,,,,,,,,,,,,,,,,,,a,1.0534664869992412,Female,19,006,American English,2019_Mar_28_1335,fricative_categorical_boundary,3.0.4,59.93888523376422,
,,,,WHIFF,test,f,coda,1.0,None,None,LDTSounds/,LDTSounds/WHIFF.wav,,,,,0,101,101,16,,,,,,,,,,,,,,,,,,,l,1.954437300999416,Female,19,006,American English,2019_Mar_28_1335,fricative_categorical_boundary,3.0.4,59.93888523376422,
,,,,roip,filler,None,None,None,nonce,None,LDTSounds/,LDTSounds/roip.wav,,,,,0,102,102,89,,,,,,,,,,,,,,,,,,,a,1.3029216450004242,Female,19,006,American English,2019_Mar_28_1335,fricative_categorical_boundary,3.0.4,59.93888523376422,
,,,,lopenad,filler,None,None,None,nonce,None,LDTSounds/,LDTSounds/lopenad.wav,,,,,0,103,103,123,,,,,,,,,,,,,,,,,,,a,1.1197853209996538,Female,19,006,American English,2019_Mar_28_1335,fricative_categorical_boundary,3.0.4,59.93888523376422,
,,,,THIEF,test,f,coda,1.0,None,None,LDTSounds/,LDTSounds/THIEF.wav,,,,,0,104,104,15,,,,,,,,,,,,,,,,,,,a,0.9192762960001346,Female,19,006,American English,2019_Mar_28_1335,fricative_categorical_boundary,3.0.4,59.93888523376422,
,,,,SILK,test,s,onset,1.0,None,None,LDTSounds/,LDTSounds/SILK.wav,,,,,0,105,105,30,,,,,,,,,,,,,,,,,,,l,1.0702258869996513,Female,19,006,American English,2019_Mar_28_1335,fricative_categorical_boundary,3.0.4,59.93888523376422,
,,,,rone,filler,None,None,None,nonce,None,LDTSounds/,LDTSounds/rone.wav,,,,,0,106,106,79,,,,,,,,,,,,,,,,,,,a,1.3877803550003591,Female,19,006,American English,2019_Mar_28_1335,fricative_categorical_boundary,3.0.4,59.93888523376422,
,,,,CLIFF,test,f,coda,1.0,None,None,LDTSounds/,LDTSounds/CLIFF.wav,,,,,0,107,107,0,,,,,,,,,,,,,,,,,,,a,1.537676535999708,Female,19,006,American English,2019_Mar_28_1335,fricative_categorical_boundary,3.0.4,59.93888523376422,
,,,,data,filler,None,None,None,real,None,LDTSounds/,LDTSounds/data.wav,,,,,0,108,108,62,,,,,,,,,,,,,,,,,,,a,1.4861665480002557,Female,19,006,American English,2019_Mar_28_1335,fricative_categorical_boundary,3.0.4,59.93888523376422,
,,,,yoomake,filler,None,None,None,nonce,None,LDTSounds/,LDTSounds/yoomake.wav,,,,,0,109,109,99,,,,,,,,,,,,,,,,,,,a,1.7366396249999525,Female,19,006,American English,2019_Mar_28_1335,fricative_categorical_boundary,3.0.4,59.93888523376422,
,,,,yilk,filler,None,None,None,nonce,None,LDTSounds/,LDTSounds/yilk.wav,,,,,0,110,110,82,,,,,,,,,,,,,,,,,,,a,1.2375785949998317,Female,19,006,American English,2019_Mar_28_1335,fricative_categorical_boundary,3.0.4,59.93888523376422,
,,,,BLISS,test,s,coda,1.0,None,None,LDTSounds/,LDTSounds/BLISS.wav,,,,,0,111,111,17,,,,,,,,,,,,,,,,,,,a,1.0704121560002022,Female,19,006,American English,2019_Mar_28_1335,fricative_categorical_boundary,3.0.4,59.93888523376422,
,,,,SING,test,s,onset,1.0,None,None,LDTSounds/,LDTSounds/SING.wav,,,,,0,112,112,32,,,,,,,,,,,,,,,,,,,l,1.2194443059997866,Female,19,006,American English,2019_Mar_28_1335,fricative_categorical_boundary,3.0.4,59.93888523376422,
,,,,baking,filler,None,None,None,real,None,LDTSounds/,LDTSounds/baking.wav,,,,,0,113,113,69,,,,,,,,,,,,,,,,,,,l,1.3014015720000316,Female,19,006,American English,2019_Mar_28_1335,fricative_categorical_boundary,3.0.4,59.93888523376422,
,,,,FILM,test,f,onset,1.0,None,None,LDTSounds/,LDTSounds/FILM.wav,,,,,0,114,114,11,,,,,,,,,,,,,,,,,,,l,0.9368757180000102,Female,19,006,American English,2019_Mar_28_1335,fricative_categorical_boundary,3.0.4,59.93888523376422,
,,,,datoonmeg,filler,None,None,None,nonce,None,LDTSounds/,LDTSounds/datoonmeg.wav,,,,,0,115,115,133,,,,,,,,,,,,,,,,,,,a,1.1531725889999507,Female,19,006,American English,2019_Mar_28_1335,fricative_categorical_boundary,3.0.4,59.93888523376422,
,,,,FEVER,test,f,onset,2.0,None,None,LDTSounds/,LDTSounds/FEVER.wav,,,,,0,116,116,5,,,,,,,,,,,,,,,,,,,l,0.8691374099998939,Female,19,006,American English,2019_Mar_28_1335,fricative_categorical_boundary,3.0.4,59.93888523376422,
,,,,truck,filler,None,None,None,real,None,LDTSounds/,LDTSounds/truck.wav,,,,,0,117,117,34,,,,,,,,,,,,,,,,,,,l,0.9869517589995667,Female,19,006,American English,2019_Mar_28_1335,fricative_categorical_boundary,3.0.4,59.93888523376422,
,,,,day,filler,None,None,None,real,None,LDTSounds/,LDTSounds/day.wav,,,,,0,118,118,50,,,,,,,,,,,,,,,,,,,l,0.7861373470004764,Female,19,006,American English,2019_Mar_28_1335,fricative_categorical_boundary,3.0.4,59.93888523376422,
,,,,SEEK,test,s,onset,1.0,None,None,LDTSounds/,LDTSounds/SEEK.wav,,,,,0,119,119,24,,,,,,,,,,,,,,,,,,,l,0.8195888780001042,Female,19,006,American English,2019_Mar_28_1335,fricative_categorical_boundary,3.0.4,59.93888523376422,
,,,,line,filler,None,None,None,real,None,LDTSounds/,LDTSounds/line.wav,,,,,0,120,120,46,,,,,,,,,,,,,,,,,,,l,1.0364568909999434,Female,19,006,American English,2019_Mar_28_1335,fricative_categorical_boundary,3.0.4,59.93888523376422,
,,,,wiblee,filler,None,None,None,nonce,None,LDTSounds/,LDTSounds/wiblee.wav,,,,,0,121,121,115,,,,,,,,,,,,,,,,,,,a,0.9533998349998001,Female,19,006,American English,2019_Mar_28_1335,fricative_categorical_boundary,3.0.4,59.93888523376422,
,,,,trongolemp,filler,None,None,None,nonce,None,LDTSounds/,LDTSounds/trongolemp.wav,,,,,0,122,122,130,,,,,,,,,,,,,,,,,,,a,1.1530397320002521,Female,19,006,American English,2019_Mar_28_1335,fricative_categorical_boundary,3.0.4,59.93888523376422,
,,,,retlid,filler,None,None,None,nonce,None,LDTSounds/,LDTSounds/retlid.wav,,,,,0,123,123,105,,,,,,,,,,,,,,,,,,,a,1.036775616000341,Female,19,006,American English,2019_Mar_28_1335,fricative_categorical_boundary,3.0.4,59.93888523376422,
,,,,queng,filler,None,None,None,nonce,None,LDTSounds/,LDTSounds/queng.wav,,,,,0,124,124,86,,,,,,,,,,,,,,,,,,,l,1.4870067439997001,Female,19,006,American English,2019_Mar_28_1335,fricative_categorical_boundary,3.0.4,59.93888523376422,
,,,,SEAGULL,test,s,onset,2.0,None,None,LDTSounds/,LDTSounds/SEAGULL.wav,,,,,0,125,125,21,,,,,,,,,,,,,,,,,,,l,1.086620000000039,Female,19,006,American English,2019_Mar_28_1335,fricative_categorical_boundary,3.0.4,59.93888523376422,
,,,,kinudiplo,filler,None,None,None,nonce,None,LDTSounds/,LDTSounds/kinudiplo.wav,,,,,0,126,126,149,,,,,,,,,,,,,,,,,,,a,1.1869645610004227,Female,19,006,American English,2019_Mar_28_1335,fricative_categorical_boundary,3.0.4,59.93888523376422,
,,,,lempok,filler,None,None,None,nonce,None,LDTSounds/,LDTSounds/lempok.wav,,,,,0,127,127,113,,,,,,,,,,,,,,,,,,,a,2.435993322000286,Female,19,006,American English,2019_Mar_28_1335,fricative_categorical_boundary,3.0.4,59.93888523376422,
,,,,treaty,filler,None,None,None,real,None,LDTSounds/,LDTSounds/treaty.wav,,,,,0,128,128,65,,,,,,,,,,,,,,,,,,,a,1.1373513569997158,Female,19,006,American English,2019_Mar_28_1335,fricative_categorical_boundary,3.0.4,59.93888523376422,
,,,,rone,filler,None,None,None,nonce,None,LDTSounds/,LDTSounds/rone.wav,,,,,0,129,129,92,,,,,,,,,,,,,,,,,,,l,0.9200310040005206,Female,19,006,American English,2019_Mar_28_1335,fricative_categorical_boundary,3.0.4,59.93888523376422,
,,,,relnt,filler,None,None,None,nonce,None,LDTSounds/,LDTSounds/relnt.wav,,,,,0,130,130,83,,,,,,,,,,,,,,,,,,,a,1.2708358939999016,Female,19,006,American English,2019_Mar_28_1335,fricative_categorical_boundary,3.0.4,59.93888523376422,
,,,,rekmate,filler,None,None,None,nonce,None,LDTSounds/,LDTSounds/rekmate.wav,,,,,0,131,131,103,,,,,,,,,,,,,,,,,,,a,2.0042612560000634,Female,19,006,American English,2019_Mar_28_1335,fricative_categorical_boundary,3.0.4,59.93888523376422,
,,,,deemlond,filler,None,None,None,nonce,None,LDTSounds/,LDTSounds/deemlond.wav,,,,,0,132,132,104,,,,,,,,,,,,,,,,,,,a,1.0362401490001503,Female,19,006,American English,2019_Mar_28_1335,fricative_categorical_boundary,3.0.4,59.93888523376422,
,,,,doonagort,filler,None,None,None,nonce,None,LDTSounds/,LDTSounds/doonagort.wav,,,,,0,133,133,127,,,,,,,,,,,,,,,,,,,a,1.00240844200016,Female,19,006,American English,2019_Mar_28_1335,fricative_categorical_boundary,3.0.4,59.93888523376422,
,,,,boycott,filler,None,None,None,real,None,LDTSounds/,LDTSounds/boycott.wav,,,,,0,134,134,71,,,,,,,,,,,,,,,,,,,l,1.0043481100001372,Female,19,006,American English,2019_Mar_28_1335,fricative_categorical_boundary,3.0.4,59.93888523376422,
,,,,drataloob,filler,None,None,None,nonce,None,LDTSounds/,LDTSounds/drataloob.wav,,,,,0,135,135,129,,,,,,,,,,,,,,,,,,,a,1.020941684000718,Female,19,006,American English,2019_Mar_28_1335,fricative_categorical_boundary,3.0.4,59.93888523376422,
,,,,lick,filler,None,None,None,real,None,LDTSounds/,LDTSounds/lick.wav,,,,,0,136,136,41,,,,,,,,,,,,,,,,,,,l,0.9522237740002311,Female,19,006,American English,2019_Mar_28_1335,fricative_categorical_boundary,3.0.4,59.93888523376422,
,,,,hundapegnort,filler,None,None,None,nonce,None,LDTSounds/,LDTSounds/hundapegnort.wav,,,,,0,137,137,141,,,,,,,,,,,,,,,,,,,a,2.4683271799995055,Female,19,006,American English,2019_Mar_28_1335,fricative_categorical_boundary,3.0.4,59.93888523376422,
,,,,SEEM,test,s,onset,1.0,None,None,LDTSounds/,LDTSounds/SEEM.wav,,,,,0,138,138,26,,,,,,,,,,,,,,,,,,,a,2.8384990320000725,Female,19,006,American English,2019_Mar_28_1335,fricative_categorical_boundary,3.0.4,59.93888523376422,
,,,,SEETHING,test,s,onset,2.0,None,None,LDTSounds/,LDTSounds/SEETHING.wav,,,,,0,139,139,28,,,,,,,,,,,,,,,,,,,a,1.4039727939998556,Female,19,006,American English,2019_Mar_28_1335,fricative_categorical_boundary,3.0.4,59.93888523376422,
,,,,radoobling,filler,None,None,None,nonce,None,LDTSounds/,LDTSounds/radoobling.wav,,,,,0,140,140,142,,,,,,,,,,,,,,,,,,,a,1.0539052680005625,Female,19,006,American English,2019_Mar_28_1335,fricative_categorical_boundary,3.0.4,59.93888523376422,
,,,,FISH,test,f,onset,1.0,None,None,LDTSounds/,LDTSounds/FISH.wav,,,,,0,141,141,13,,,,,,,,,,,,,,,,,,,l,0.9367101029993137,Female,19,006,American English,2019_Mar_28_1335,fricative_categorical_boundary,3.0.4,59.93888523376422,
,,,,maker,filler,None,None,None,real,None,LDTSounds/,LDTSounds/maker.wav,,,,,0,142,142,64,,,,,,,,,,,,,,,,,,,l,0.9708853080001063,Female,19,006,American English,2019_Mar_28_1335,fricative_categorical_boundary,3.0.4,59.93888523376422,
,,,,SIP,test,s,onset,1.0,None,None,LDTSounds/,LDTSounds/SIP.wav,,,,,0,143,143,33,,,,,,,,,,,,,,,,,,,l,0.9702678090006884,Female,19,006,American English,2019_Mar_28_1335,fricative_categorical_boundary,3.0.4,59.93888523376422,
,,,,jupiter,filler,None,None,None,real,None,LDTSounds/,LDTSounds/jupiter.wav,,,,,0,144,144,74,,,,,,,,,,,,,,,,,,,l,0.9513637239997479,Female,19,006,American English,2019_Mar_28_1335,fricative_categorical_boundary,3.0.4,59.93888523376422,
,,,,mitger,filler,None,None,None,nonce,None,LDTSounds/,LDTSounds/mitger.wav,,,,,0,145,145,111,,,,,,,,,,,,,,,,,,,l,1.3532833079998454,Female,19,006,American English,2019_Mar_28_1335,fricative_categorical_boundary,3.0.4,59.93888523376422,
,,,,kabalingno,filler,None,None,None,nonce,None,LDTSounds/,LDTSounds/kabalingno.wav,,,,,0,146,146,138,,,,,,,,,,,,,,,,,,,a,1.237128243999905,Female,19,006,American English,2019_Mar_28_1335,fricative_categorical_boundary,3.0.4,59.93888523376422,
,,,,troplund,filler,None,None,None,nonce,None,LDTSounds/,LDTSounds/troplund.wav,,,,,0,147,147,98,,,,,,,,,,,,,,,,,,,a,1.888202506000198,Female,19,006,American English,2019_Mar_28_1335,fricative_categorical_boundary,3.0.4,59.93888523376422,
,,,,giblo,filler,None,None,None,nonce,None,LDTSounds/,LDTSounds/giblo.wav,,,,,0,148,148,93,,,,,,,,,,,,,,,,,,,a,1.2037953629996991,Female,19,006,American English,2019_Mar_28_1335,fricative_categorical_boundary,3.0.4,59.93888523376422,
,,,,habalipdee,filler,None,None,None,nonce,None,LDTSounds/,LDTSounds/habalipdee.wav,,,,,0,149,149,140,,,,,,,,,,,,,,,,,,,a,1.3709667389994138,Female,19,006,American English,2019_Mar_28_1335,fricative_categorical_boundary,3.0.4,59.93888523376422,
,,,,,,,,,,,,,,,,,,,,,,,,,,,,,,-0.1375,-0.48148148148148145,1,0,0,,,,,,,Female,19,006,American English,2019_Mar_28_1335,fricative_categorical_boundary,3.0.4,59.93888523376422,
11,NewWord_fbackonset_sbackonset_,LowBackContinuum/,LowBackContinuum/NewWord_fbackonset_sbackonset_11.wav,,,,,,,,,,,,,,,,,,0,0,0,3,,,,,,,,,,,s,1.421,,,,,Female,19,006,American English,2019_Mar_28_1335,fricative_categorical_boundary,3.0.4,59.93888523376422,
41,NewWord_fbackonset_sbackonset_,LowBackContinuum/,LowBackContinuum/NewWord_fbackonset_sbackonset_41.wav,,,,,,,,,,,,,,,,,,0,1,1,13,,,,,,,,,,,s,0.403,,,,,Female,19,006,American English,2019_Mar_28_1335,fricative_categorical_boundary,3.0.4,59.93888523376422,
9,NewWord_fbackonset_sbackonset_,LowBackContinuum/,LowBackContinuum/NewWord_fbackonset_sbackonset_9.wav,,,,,,,,,,,,,,,,,,0,2,2,2,,,,,,,,,,,s,2.756,,,,,Female,19,006,American English,2019_Mar_28_1335,fricative_categorical_boundary,3.0.4,59.93888523376422,
25,NewWord_fbackonset_sbackonset_,LowBackContinuum/,LowBackContinuum/NewWord_fbackonset_sbackonset_25.wav,,,,,,,,,,,,,,,,,,0,3,3,10,,,,,,,,,,,s,2.272,,,,,Female,19,006,American English,2019_Mar_28_1335,fricative_categorical_boundary,3.0.4,59.93888523376422,
15,NewWord_fbackonset_sbackonset_,LowBackContinuum/,LowBackContinuum/NewWord_fbackonset_sbackonset_15.wav,,,,,,,,,,,,,,,,,,0,4,4,5,,,,,,,,,,,s,1.304,,,,,Female,19,006,American English,2019_Mar_28_1335,fricative_categorical_boundary,3.0.4,59.93888523376422,
7,NewWord_fbackonset_sbackonset_,LowBackContinuum/,LowBackContinuum/NewWord_fbackonset_sbackonset_7.wav,,,,,,,,,,,,,,,,,,0,5,5,1,,,,,,,,,,,s,0.469,,,,,Female,19,006,American English,2019_Mar_28_1335,fricative_categorical_boundary,3.0.4,59.93888523376422,
27,NewWord_fbackonset_sbackonset_,LowBackContinuum/,LowBackContinuum/NewWord_fbackonset_sbackonset_27.wav,,,,,,,,,,,,,,,,,,0,6,6,11,,,,,,,,,,,s,0.404,,,,,Female,19,006,American English,2019_Mar_28_1335,fricative_categorical_boundary,3.0.4,59.93888523376422,
1,NewWord_fbackonset_sbackonset_,LowBackContinuum/,LowBackContinuum/NewWord_fbackonset_sbackonset_1.wav,,,,,,,,,,,,,,,,,,0,7,7,0,,,,,,,,,,,s,1.236,,,,,Female,19,006,American English,2019_Mar_28_1335,fricative_categorical_boundary,3.0.4,59.93888523376422,
23,NewWord_fbackonset_sbackonset_,LowBackContinuum/,LowBackContinuum/NewWord_fbackonset_sbackonset_23.wav,,,,,,,,,,,,,,,,,,0,8,8,9,,,,,,,,,,,s,0.403,,,,,Female,19,006,American English,2019_Mar_28_1335,fricative_categorical_boundary,3.0.4,59.93888523376422,
17,NewWord_fbackonset_sbackonset_,LowBackContinuum/,LowBackContinuum/NewWord_fbackonset_sbackonset_17.wav,,,,,,,,,,,,,,,,,,0,9,9,6,,,,,,,,,,,s,1.787,,,,,Female,19,006,American English,2019_Mar_28_1335,fricative_categorical_boundary,3.0.4,59.93888523376422,
13,NewWord_fbackonset_sbackonset_,LowBackContinuum/,LowBackContinuum/NewWord_fbackonset_sbackonset_13.wav,,,,,,,,,,,,,,,,,,0,10,10,4,,,,,,,,,,,s,1.572,,,,,Female,19,006,American English,2019_Mar_28_1335,fricative_categorical_boundary,3.0.4,59.93888523376422,
19,NewWord_fbackonset_sbackonset_,LowBackContinuum/,LowBackContinuum/NewWord_fbackonset_sbackonset_19.wav,,,,,,,,,,,,,,,,,,0,11,11,7,,,,,,,,,,,s,0.837,,,,,Female,19,006,American English,2019_Mar_28_1335,fricative_categorical_boundary,3.0.4,59.93888523376422,
29,NewWord_fbackonset_sbackonset_,LowBackContinuum/,LowBackContinuum/NewWord_fbackonset_sbackonset_29.wav,,,,,,,,,,,,,,,,,,0,12,12,12,,,,,,,,,,,s,1.522,,,,,Female,19,006,American English,2019_Mar_28_1335,fricative_categorical_boundary,3.0.4,59.93888523376422,
21,NewWord_fbackonset_sbackonset_,LowBackContinuum/,LowBackContinuum/NewWord_fbackonset_sbackonset_21.wav,,,,,,,,,,,,,,,,,,0,13,13,8,,,,,,,,,,,s,0.42,,,,,Female,19,006,American English,2019_Mar_28_1335,fricative_categorical_boundary,3.0.4,59.93888523376422,
19,NewWord_fbackonset_sbackonset_,LowBackContinuum/,LowBackContinuum/NewWord_fbackonset_sbackonset_19.wav,,,,,,,,,,,,,,,,,,1,0,14,7,,,,,,,,,,,s,1.605,,,,,Female,19,006,American English,2019_Mar_28_1335,fricative_categorical_boundary,3.0.4,59.93888523376422,
21,NewWord_fbackonset_sbackonset_,LowBackContinuum/,LowBackContinuum/NewWord_fbackonset_sbackonset_21.wav,,,,,,,,,,,,,,,,,,1,1,15,8,,,,,,,,,,,s,1.038,,,,,Female,19,006,American English,2019_Mar_28_1335,fricative_categorical_boundary,3.0.4,59.93888523376422,
7,NewWord_fbackonset_sbackonset_,LowBackContinuum/,LowBackContinuum/NewWord_fbackonset_sbackonset_7.wav,,,,,,,,,,,,,,,,,,1,2,16,1,,,,,,,,,,,f,1.587,,,,,Female,19,006,American English,2019_Mar_28_1335,fricative_categorical_boundary,3.0.4,59.93888523376422,
23,NewWord_fbackonset_sbackonset_,LowBackContinuum/,LowBackContinuum/NewWord_fbackonset_sbackonset_23.wav,,,,,,,,,,,,,,,,,,1,3,17,9,,,,,,,,,,,s,1.454,,,,,Female,19,006,American English,2019_Mar_28_1335,fricative_categorical_boundary,3.0.4,59.93888523376422,
9,NewWord_fbackonset_sbackonset_,LowBackContinuum/,LowBackContinuum/NewWord_fbackonset_sbackonset_9.wav,,,,,,,,,,,,,,,,,,1,4,18,2,,,,,,,,,,,s,0.419,,,,,Female,19,006,American English,2019_Mar_28_1335,fricative_categorical_boundary,3.0.4,59.93888523376422,
13,NewWord_fbackonset_sbackonset_,LowBackContinuum/,LowBackContinuum/NewWord_fbackonset_sbackonset_13.wav,,,,,,,,,,,,,,,,,,1,5,19,4,,,,,,,,,,,f,1.254,,,,,Female,19,006,American English,2019_Mar_28_1335,fricative_categorical_boundary,3.0.4,59.93888523376422,
29,NewWord_fbackonset_sbackonset_,LowBackContinuum/,LowBackContinuum/NewWord_fbackonset_sbackonset_29.wav,,,,,,,,,,,,,,,,,,1,6,20,12,,,,,,,,,,,s,0.619,,,,,Female,19,006,American English,2019_Mar_28_1335,fricative_categorical_boundary,3.0.4,59.93888523376422,
41,NewWord_fbackonset_sbackonset_,LowBackContinuum/,LowBackContinuum/NewWord_fbackonset_sbackonset_41.wav,,,,,,,,,,,,,,,,,,1,7,21,13,,,,,,,,,,,s,0.671,,,,,Female,19,006,American English,2019_Mar_28_1335,fricative_categorical_boundary,3.0.4,59.93888523376422,
27,NewWord_fbackonset_sbackonset_,LowBackContinuum/,LowBackContinuum/NewWord_fbackonset_sbackonset_27.wav,,,,,,,,,,,,,,,,,,1,8,22,11,,,,,,,,,,,s,0.403,,,,,Female,19,006,American English,2019_Mar_28_1335,fricative_categorical_boundary,3.0.4,59.93888523376422,
17,NewWord_fbackonset_sbackonset_,LowBackContinuum/,LowBackContinuum/NewWord_fbackonset_sbackonset_17.wav,,,,,,,,,,,,,,,,,,1,9,23,6,,,,,,,,,,,s,0.437,,,,,Female,19,006,American English,2019_Mar_28_1335,fricative_categorical_boundary,3.0.4,59.93888523376422,
1,NewWord_fbackonset_sbackonset_,LowBackContinuum/,LowBackContinuum/NewWord_fbackonset_sbackonset_1.wav,,,,,,,,,,,,,,,,,,1,10,24,0,,,,,,,,,,,f,0.619,,,,,Female,19,006,American English,2019_Mar_28_1335,fricative_categorical_boundary,3.0.4,59.93888523376422,
25,NewWord_fbackonset_sbackonset_,LowBackContinuum/,LowBackContinuum/NewWord_fbackonset_sbackonset_25.wav,,,,,,,,,,,,,,,,,,1,11,25,10,,,,,,,,,,,s,2.338,,,,,Female,19,006,American English,2019_Mar_28_1335,fricative_categorical_boundary,3.0.4,59.93888523376422,
11,NewWord_fbackonset_sbackonset_,LowBackContinuum/,LowBackContinuum/NewWord_fbackonset_sbackonset_11.wav,,,,,,,,,,,,,,,,,,1,12,26,3,,,,,,,,,,,f,1.271,,,,,Female,19,006,American English,2019_Mar_28_1335,fricative_categorical_boundary,3.0.4,59.93888523376422,
15,NewWord_fbackonset_sbackonset_,LowBackContinuum/,LowBackContinuum/NewWord_fbackonset_sbackonset_15.wav,,,,,,,,,,,,,,,,,,1,13,27,5,,,,,,,,,,,s,0.636,,,,,Female,19,006,American English,2019_Mar_28_1335,fricative_categorical_boundary,3.0.4,59.93888523376422,
27,NewWord_fbackonset_sbackonset_,LowBackContinuum/,LowBackContinuum/NewWord_fbackonset_sbackonset_27.wav,,,,,,,,,,,,,,,,,,2,0,28,11,,,,,,,,,,,s,0.403,,,,,Female,19,006,American English,2019_Mar_28_1335,fricative_categorical_boundary,3.0.4,59.93888523376422,
23,NewWord_fbackonset_sbackonset_,LowBackContinuum/,LowBackContinuum/NewWord_fbackonset_sbackonset_23.wav,,,,,,,,,,,,,,,,,,2,1,29,9,,,,,,,,,,,s,0.953,,,,,Female,19,006,American English,2019_Mar_28_1335,fricative_categorical_boundary,3.0.4,59.93888523376422,
29,NewWord_fbackonset_sbackonset_,LowBackContinuum/,LowBackContinuum/NewWord_fbackonset_sbackonset_29.wav,,,,,,,,,,,,,,,,,,2,2,30,12,,,,,,,,,,,s,1.171,,,,,Female,19,006,American English,2019_Mar_28_1335,fricative_categorical_boundary,3.0.4,59.93888523376422,
25,NewWord_fbackonset_sbackonset_,LowBackContinuum/,LowBackContinuum/NewWord_fbackonset_sbackonset_25.wav,,,,,,,,,,,,,,,,,,2,3,31,10,,,,,,,,,,,s,0.738,,,,,Female,19,006,American English,2019_Mar_28_1335,fricative_categorical_boundary,3.0.4,59.93888523376422,
1,NewWord_fbackonset_sbackonset_,LowBackContinuum/,LowBackContinuum/NewWord_fbackonset_sbackonset_1.wav,,,,,,,,,,,,,,,,,,2,4,32,0,,,,,,,,,,,f,0.786,,,,,Female,19,006,American English,2019_Mar_28_1335,fricative_categorical_boundary,3.0.4,59.93888523376422,
11,NewWord_fbackonset_sbackonset_,LowBackContinuum/,LowBackContinuum/NewWord_fbackonset_sbackonset_11.wav,,,,,,,,,,,,,,,,,,2,5,33,3,,,,,,,,,,,f,0.587,,,,,Female,19,006,American English,2019_Mar_28_1335,fricative_categorical_boundary,3.0.4,59.93888523376422,
9,NewWord_fbackonset_sbackonset_,LowBackContinuum/,LowBackContinuum/NewWord_fbackonset_sbackonset_9.wav,,,,,,,,,,,,,,,,,,2,6,34,2,,,,,,,,,,,f,0.403,,,,,Female,19,006,American English,2019_Mar_28_1335,fricative_categorical_boundary,3.0.4,59.93888523376422,
13,NewWord_fbackonset_sbackonset_,LowBackContinuum/,LowBackContinuum/NewWord_fbackonset_sbackonset_13.wav,,,,,,,,,,,,,,,,,,2,7,35,4,,,,,,,,,,,f,0.753,,,,,Female,19,006,American English,2019_Mar_28_1335,fricative_categorical_boundary,3.0.4,59.93888523376422,
41,NewWord_fbackonset_sbackonset_,LowBackContinuum/,LowBackContinuum/NewWord_fbackonset_sbackonset_41.wav,,,,,,,,,,,,,,,,,,2,8,36,13,,,,,,,,,,,f,0.403,,,,,Female,19,006,American English,2019_Mar_28_1335,fricative_categorical_boundary,3.0.4,59.93888523376422,
15,NewWord_fbackonset_sbackonset_,LowBackContinuum/,LowBackContinuum/NewWord_fbackonset_sbackonset_15.wav,,,,,,,,,,,,,,,,,,2,9,37,5,,,,,,,,,,,f,0.437,,,,,Female,19,006,American English,2019_Mar_28_1335,fricative_categorical_boundary,3.0.4,59.93888523376422,
21,NewWord_fbackonset_sbackonset_,LowBackContinuum/,LowBackContinuum/NewWord_fbackonset_sbackonset_21.wav,,,,,,,,,,,,,,,,,,2,10,38,8,,,,,,,,,,,f,0.42,,,,,Female,19,006,American English,2019_Mar_28_1335,fricative_categorical_boundary,3.0.4,59.93888523376422,
19,NewWord_fbackonset_sbackonset_,LowBackContinuum/,LowBackContinuum/NewWord_fbackonset_sbackonset_19.wav,,,,,,,,,,,,,,,,,,2,11,39,7,,,,,,,,,,,s,1.037,,,,,Female,19,006,American English,2019_Mar_28_1335,fricative_categorical_boundary,3.0.4,59.93888523376422,
17,NewWord_fbackonset_sbackonset_,LowBackContinuum/,LowBackContinuum/NewWord_fbackonset_sbackonset_17.wav,,,,,,,,,,,,,,,,,,2,12,40,6,,,,,,,,,,,s,0.986,,,,,Female,19,006,American English,2019_Mar_28_1335,fricative_categorical_boundary,3.0.4,59.93888523376422,
7,NewWord_fbackonset_sbackonset_,LowBackContinuum/,LowBackContinuum/NewWord_fbackonset_sbackonset_7.wav,,,,,,,,,,,,,,,,,,2,13,41,1,,,,,,,,,,,f,1.838,,,,,Female,19,006,American English,2019_Mar_28_1335,fricative_categorical_boundary,3.0.4,59.93888523376422,
25,NewWord_fbackonset_sbackonset_,LowBackContinuum/,LowBackContinuum/NewWord_fbackonset_sbackonset_25.wav,,,,,,,,,,,,,,,,,,3,0,42,10,,,,,,,,,,,s,0.67,,,,,Female,19,006,American English,2019_Mar_28_1335,fricative_categorical_boundary,3.0.4,59.93888523376422,
29,NewWord_fbackonset_sbackonset_,LowBackContinuum/,LowBackContinuum/NewWord_fbackonset_sbackonset_29.wav,,,,,,,,,,,,,,,,,,3,1,43,12,,,,,,,,,,,s,3.023,,,,,Female,19,006,American English,2019_Mar_28_1335,fricative_categorical_boundary,3.0.4,59.93888523376422,
23,NewWord_fbackonset_sbackonset_,LowBackContinuum/,LowBackContinuum/NewWord_fbackonset_sbackonset_23.wav,,,,,,,,,,,,,,,,,,3,2,44,9,,,,,,,,,,,s,0.837,,,,,Female,19,006,American English,2019_Mar_28_1335,fricative_categorical_boundary,3.0.4,59.93888523376422,
19,NewWord_fbackonset_sbackonset_,LowBackContinuum/,LowBackContinuum/NewWord_fbackonset_sbackonset_19.wav,,,,,,,,,,,,,,,,,,3,3,45,7,,,,,,,,,,,s,0.954,,,,,Female,19,006,American English,2019_Mar_28_1335,fricative_categorical_boundary,3.0.4,59.93888523376422,
17,NewWord_fbackonset_sbackonset_,LowBackContinuum/,LowBackContinuum/NewWord_fbackonset_sbackonset_17.wav,,,,,,,,,,,,,,,,,,3,4,46,6,,,,,,,,,,,s,0.787,,,,,Female,19,006,American English,2019_Mar_28_1335,fricative_categorical_boundary,3.0.4,59.93888523376422,
15,NewWord_fbackonset_sbackonset_,LowBackContinuum/,LowBackContinuum/NewWord_fbackonset_sbackonset_15.wav,,,,,,,,,,,,,,,,,,3,5,47,5,,,,,,,,,,,s,0.403,,,,,Female,19,006,American English,2019_Mar_28_1335,fricative_categorical_boundary,3.0.4,59.93888523376422,
9,NewWord_fbackonset_sbackonset_,LowBackContinuum/,LowBackContinuum/NewWord_fbackonset_sbackonset_9.wav,,,,,,,,,,,,,,,,,,3,6,48,2,,,,,,,,,,,f,1.321,,,,,Female,19,006,American English,2019_Mar_28_1335,fricative_categorical_boundary,3.0.4,59.93888523376422,
11,NewWord_fbackonset_sbackonset_,LowBackContinuum/,LowBackContinuum/NewWord_fbackonset_sbackonset_11.wav,,,,,,,,,,,,,,,,,,3,7,49,3,,,,,,,,,,,f,0.552,,,,,Female,19,006,American English,2019_Mar_28_1335,fricative_categorical_boundary,3.0.4,59.93888523376422,
27,NewWord_fbackonset_sbackonset_,LowBackContinuum/,LowBackContinuum/NewWord_fbackonset_sbackonset_27.wav,,,,,,,,,,,,,,,,,,3,8,50,11,,,,,,,,,,,f,0.419,,,,,Female,19,006,American English,2019_Mar_28_1335,fricative_categorical_boundary,3.0.4,59.93888523376422,
1,NewWord_fbackonset_sbackonset_,LowBackContinuum/,LowBackContinuum/NewWord_fbackonset_sbackonset_1.wav,,,,,,,,,,,,,,,,,,3,9,51,0,,,,,,,,,,,f,0.42,,,,,Female,19,006,American English,2019_Mar_28_1335,fricative_categorical_boundary,3.0.4,59.93888523376422,
7,NewWord_fbackonset_sbackonset_,LowBackContinuum/,LowBackContinuum/NewWord_fbackonset_sbackonset_7.wav,,,,,,,,,,,,,,,,,,3,10,52,1,,,,,,,,,,,f,0.553,,,,,Female,19,006,American English,2019_Mar_28_1335,fricative_categorical_boundary,3.0.4,59.93888523376422,
21,NewWord_fbackonset_sbackonset_,LowBackContinuum/,LowBackContinuum/NewWord_fbackonset_sbackonset_21.wav,,,,,,,,,,,,,,,,,,3,11,53,8,,,,,,,,,,,s,0.704,,,,,Female,19,006,American English,2019_Mar_28_1335,fricative_categorical_boundary,3.0.4,59.93888523376422,
41,NewWord_fbackonset_sbackonset_,LowBackContinuum/,LowBackContinuum/NewWord_fbackonset_sbackonset_41.wav,,,,,,,,,,,,,,,,,,3,12,54,13,,,,,,,,,,,s,0.987,,,,,Female,19,006,American English,2019_Mar_28_1335,fricative_categorical_boundary,3.0.4,59.93888523376422,
13,NewWord_fbackonset_sbackonset_,LowBackContinuum/,LowBackContinuum/NewWord_fbackonset_sbackonset_13.wav,,,,,,,,,,,,,,,,,,3,13,55,4,,,,,,,,,,,s,0.97,,,,,Female,19,006,American English,2019_Mar_28_1335,fricative_categorical_boundary,3.0.4,59.93888523376422,
