ChosenStep,Prefix,source,Stimuli,token,type,segment,position,syllablecount,realvsnonce,prefix,address,soundfile,trials.thisRepN,trials.thisTrialN,trials.thisN,trials.thisIndex,trials_2.thisRepN,trials_2.thisTrialN,trials_2.thisN,trials_2.thisIndex,trials_3.thisRepN,trials_3.thisTrialN,trials_3.thisN,trials_3.thisIndex,rating.response,rating.rt,key_resp_2.keys,key_resp_2.rt,key_resp_3.keys,key_resp_3.rt,participant,Gender,Age,frameRate,Native Language,expName,date,
,,,,,,,,,,,,,,,,,,,,,,,,,,,,,,,114,Female,19,59.984697431027605,American English,fricative_categorical_boundary,2019_Nov_15_1241,
,,,,,,,,,,,,,,,,,,,,,,,,,,,,,,,114,Female,19,59.984697431027605,American English,fricative_categorical_boundary,2019_Nov_15_1241,
1,NewWord_fbackonset_sbackonset_,LowBackContinuum/,LowBackContinuum/NewWord_fbackonset_sbackonset_1.wav,,,,,,,,,,0,0,0,0,,,,,,,,,f,3.44,,,,,114,Female,19,59.984697431027605,American English,fricative_categorical_boundary,2019_Nov_15_1241,
9,NewWord_fbackonset_sbackonset_,LowBackContinuum/,LowBackContinuum/NewWord_fbackonset_sbackonset_9.wav,,,,,,,,,,0,1,1,2,,,,,,,,,f,0.819,,,,,114,Female,19,59.984697431027605,American English,fricative_categorical_boundary,2019_Nov_15_1241,
7,NewWord_fbackonset_sbackonset_,LowBackContinuum/,LowBackContinuum/NewWord_fbackonset_sbackonset_7.wav,,,,,,,,,,0,2,2,1,,,,,,,,,f,3.439,,,,,114,Female,19,59.984697431027605,American English,fricative_categorical_boundary,2019_Nov_15_1241,
21,NewWord_fbackonset_sbackonset_,LowBackContinuum/,LowBackContinuum/NewWord_fbackonset_sbackonset_21.wav,,,,,,,,,,0,3,3,8,,,,,,,,,s,1.02,,,,,114,Female,19,59.984697431027605,American English,fricative_categorical_boundary,2019_Nov_15_1241,
17,NewWord_fbackonset_sbackonset_,LowBackContinuum/,LowBackContinuum/NewWord_fbackonset_sbackonset_17.wav,,,,,,,,,,0,4,4,6,,,,,,,,,s,0.986,,,,,114,Female,19,59.984697431027605,American English,fricative_categorical_boundary,2019_Nov_15_1241,
25,NewWord_fbackonset_sbackonset_,LowBackContinuum/,LowBackContinuum/NewWord_fbackonset_sbackonset_25.wav,,,,,,,,,,0,5,5,10,,,,,,,,,s,1.003,,,,,114,Female,19,59.984697431027605,American English,fricative_categorical_boundary,2019_Nov_15_1241,
41,NewWord_fbackonset_sbackonset_,LowBackContinuum/,LowBackContinuum/NewWord_fbackonset_sbackonset_41.wav,,,,,,,,,,0,6,6,13,,,,,,,,,s,0.82,,,,,114,Female,19,59.984697431027605,American English,fricative_categorical_boundary,2019_Nov_15_1241,
29,NewWord_fbackonset_sbackonset_,LowBackContinuum/,LowBackContinuum/NewWord_fbackonset_sbackonset_29.wav,,,,,,,,,,0,7,7,12,,,,,,,,,s,0.485,,,,,114,Female,19,59.984697431027605,American English,fricative_categorical_boundary,2019_Nov_15_1241,
19,NewWord_fbackonset_sbackonset_,LowBackContinuum/,LowBackContinuum/NewWord_fbackonset_sbackonset_19.wav,,,,,,,,,,0,8,8,7,,,,,,,,,s,0.403,,,,,114,Female,19,59.984697431027605,American English,fricative_categorical_boundary,2019_Nov_15_1241,
23,NewWord_fbackonset_sbackonset_,LowBackContinuum/,LowBackContinuum/NewWord_fbackonset_sbackonset_23.wav,,,,,,,,,,0,9,9,9,,,,,,,,,s,0.403,,,,,114,Female,19,59.984697431027605,American English,fricative_categorical_boundary,2019_Nov_15_1241,
13,NewWord_fbackonset_sbackonset_,LowBackContinuum/,LowBackContinuum/NewWord_fbackonset_sbackonset_13.wav,,,,,,,,,,0,10,10,4,,,,,,,,,s,1.471,,,,,114,Female,19,59.984697431027605,American English,fricative_categorical_boundary,2019_Nov_15_1241,
15,NewWord_fbackonset_sbackonset_,LowBackContinuum/,LowBackContinuum/NewWord_fbackonset_sbackonset_15.wav,,,,,,,,,,0,11,11,5,,,,,,,,,s,0.72,,,,,114,Female,19,59.984697431027605,American English,fricative_categorical_boundary,2019_Nov_15_1241,
11,NewWord_fbackonset_sbackonset_,LowBackContinuum/,LowBackContinuum/NewWord_fbackonset_sbackonset_11.wav,,,,,,,,,,0,12,12,3,,,,,,,,,f,0.687,,,,,114,Female,19,59.984697431027605,American English,fricative_categorical_boundary,2019_Nov_15_1241,
27,NewWord_fbackonset_sbackonset_,LowBackContinuum/,LowBackContinuum/NewWord_fbackonset_sbackonset_27.wav,,,,,,,,,,0,13,13,11,,,,,,,,,s,0.67,,,,,114,Female,19,59.984697431027605,American English,fricative_categorical_boundary,2019_Nov_15_1241,
7,NewWord_fbackonset_sbackonset_,LowBackContinuum/,LowBackContinuum/NewWord_fbackonset_sbackonset_7.wav,,,,,,,,,,1,0,14,1,,,,,,,,,f,0.903,,,,,114,Female,19,59.984697431027605,American English,fricative_categorical_boundary,2019_Nov_15_1241,
9,NewWord_fbackonset_sbackonset_,LowBackContinuum/,LowBackContinuum/NewWord_fbackonset_sbackonset_9.wav,,,,,,,,,,1,1,15,2,,,,,,,,,f,0.419,,,,,114,Female,19,59.984697431027605,American English,fricative_categorical_boundary,2019_Nov_15_1241,
29,NewWord_fbackonset_sbackonset_,LowBackContinuum/,LowBackContinuum/NewWord_fbackonset_sbackonset_29.wav,,,,,,,,,,1,2,16,12,,,,,,,,,s,0.836,,,,,114,Female,19,59.984697431027605,American English,fricative_categorical_boundary,2019_Nov_15_1241,
13,NewWord_fbackonset_sbackonset_,LowBackContinuum/,LowBackContinuum/NewWord_fbackonset_sbackonset_13.wav,,,,,,,,,,1,3,17,4,,,,,,,,,f,1.171,,,,,114,Female,19,59.984697431027605,American English,fricative_categorical_boundary,2019_Nov_15_1241,
21,NewWord_fbackonset_sbackonset_,LowBackContinuum/,LowBackContinuum/NewWord_fbackonset_sbackonset_21.wav,,,,,,,,,,1,4,18,8,,,,,,,,,s,0.553,,,,,114,Female,19,59.984697431027605,American English,fricative_categorical_boundary,2019_Nov_15_1241,
1,NewWord_fbackonset_sbackonset_,LowBackContinuum/,LowBackContinuum/NewWord_fbackonset_sbackonset_1.wav,,,,,,,,,,1,5,19,0,,,,,,,,,f,0.403,,,,,114,Female,19,59.984697431027605,American English,fricative_categorical_boundary,2019_Nov_15_1241,
41,NewWord_fbackonset_sbackonset_,LowBackContinuum/,LowBackContinuum/NewWord_fbackonset_sbackonset_41.wav,,,,,,,,,,1,6,20,13,,,,,,,,,s,0.47,,,,,114,Female,19,59.984697431027605,American English,fricative_categorical_boundary,2019_Nov_15_1241,
15,NewWord_fbackonset_sbackonset_,LowBackContinuum/,LowBackContinuum/NewWord_fbackonset_sbackonset_15.wav,,,,,,,,,,1,7,21,5,,,,,,,,,s,0.403,,,,,114,Female,19,59.984697431027605,American English,fricative_categorical_boundary,2019_Nov_15_1241,
25,NewWord_fbackonset_sbackonset_,LowBackContinuum/,LowBackContinuum/NewWord_fbackonset_sbackonset_25.wav,,,,,,,,,,1,8,22,10,,,,,,,,,s,0.403,,,,,114,Female,19,59.984697431027605,American English,fricative_categorical_boundary,2019_Nov_15_1241,
17,NewWord_fbackonset_sbackonset_,LowBackContinuum/,LowBackContinuum/NewWord_fbackonset_sbackonset_17.wav,,,,,,,,,,1,9,23,6,,,,,,,,,s,0.403,,,,,114,Female,19,59.984697431027605,American English,fricative_categorical_boundary,2019_Nov_15_1241,
19,NewWord_fbackonset_sbackonset_,LowBackContinuum/,LowBackContinuum/NewWord_fbackonset_sbackonset_19.wav,,,,,,,,,,1,10,24,7,,,,,,,,,s,0.403,,,,,114,Female,19,59.984697431027605,American English,fricative_categorical_boundary,2019_Nov_15_1241,
23,NewWord_fbackonset_sbackonset_,LowBackContinuum/,LowBackContinuum/NewWord_fbackonset_sbackonset_23.wav,,,,,,,,,,1,11,25,9,,,,,,,,,s,0.403,,,,,114,Female,19,59.984697431027605,American English,fricative_categorical_boundary,2019_Nov_15_1241,
11,NewWord_fbackonset_sbackonset_,LowBackContinuum/,LowBackContinuum/NewWord_fbackonset_sbackonset_11.wav,,,,,,,,,,1,12,26,3,,,,,,,,,s,1.237,,,,,114,Female,19,59.984697431027605,American English,fricative_categorical_boundary,2019_Nov_15_1241,
27,NewWord_fbackonset_sbackonset_,LowBackContinuum/,LowBackContinuum/NewWord_fbackonset_sbackonset_27.wav,,,,,,,,,,1,13,27,11,,,,,,,,,s,0.403,,,,,114,Female,19,59.984697431027605,American English,fricative_categorical_boundary,2019_Nov_15_1241,
23,NewWord_fbackonset_sbackonset_,LowBackContinuum/,LowBackContinuum/NewWord_fbackonset_sbackonset_23.wav,,,,,,,,,,2,0,28,9,,,,,,,,,s,0.853,,,,,114,Female,19,59.984697431027605,American English,fricative_categorical_boundary,2019_Nov_15_1241,
27,NewWord_fbackonset_sbackonset_,LowBackContinuum/,LowBackContinuum/NewWord_fbackonset_sbackonset_27.wav,,,,,,,,,,2,1,29,11,,,,,,,,,s,0.453,,,,,114,Female,19,59.984697431027605,American English,fricative_categorical_boundary,2019_Nov_15_1241,
15,NewWord_fbackonset_sbackonset_,LowBackContinuum/,LowBackContinuum/NewWord_fbackonset_sbackonset_15.wav,,,,,,,,,,2,2,30,5,,,,,,,,,s,0.419,,,,,114,Female,19,59.984697431027605,American English,fricative_categorical_boundary,2019_Nov_15_1241,
41,NewWord_fbackonset_sbackonset_,LowBackContinuum/,LowBackContinuum/NewWord_fbackonset_sbackonset_41.wav,,,,,,,,,,2,3,31,13,,,,,,,,,s,0.403,,,,,114,Female,19,59.984697431027605,American English,fricative_categorical_boundary,2019_Nov_15_1241,
7,NewWord_fbackonset_sbackonset_,LowBackContinuum/,LowBackContinuum/NewWord_fbackonset_sbackonset_7.wav,,,,,,,,,,2,4,32,1,,,,,,,,,f,0.619,,,,,114,Female,19,59.984697431027605,American English,fricative_categorical_boundary,2019_Nov_15_1241,
13,NewWord_fbackonset_sbackonset_,LowBackContinuum/,LowBackContinuum/NewWord_fbackonset_sbackonset_13.wav,,,,,,,,,,2,5,33,4,,,,,,,,,f,0.403,,,,,114,Female,19,59.984697431027605,American English,fricative_categorical_boundary,2019_Nov_15_1241,
17,NewWord_fbackonset_sbackonset_,LowBackContinuum/,LowBackContinuum/NewWord_fbackonset_sbackonset_17.wav,,,,,,,,,,2,6,34,6,,,,,,,,,s,2.939,,,,,114,Female,19,59.984697431027605,American English,fricative_categorical_boundary,2019_Nov_15_1241,
19,NewWord_fbackonset_sbackonset_,LowBackContinuum/,LowBackContinuum/NewWord_fbackonset_sbackonset_19.wav,,,,,,,,,,2,7,35,7,,,,,,,,,s,0.419,,,,,114,Female,19,59.984697431027605,American English,fricative_categorical_boundary,2019_Nov_15_1241,
9,NewWord_fbackonset_sbackonset_,LowBackContinuum/,LowBackContinuum/NewWord_fbackonset_sbackonset_9.wav,,,,,,,,,,2,8,36,2,,,,,,,,,f,0.52,,,,,114,Female,19,59.984697431027605,American English,fricative_categorical_boundary,2019_Nov_15_1241,
21,NewWord_fbackonset_sbackonset_,LowBackContinuum/,LowBackContinuum/NewWord_fbackonset_sbackonset_21.wav,,,,,,,,,,2,9,37,8,,,,,,,,,s,0.419,,,,,114,Female,19,59.984697431027605,American English,fricative_categorical_boundary,2019_Nov_15_1241,
29,NewWord_fbackonset_sbackonset_,LowBackContinuum/,LowBackContinuum/NewWord_fbackonset_sbackonset_29.wav,,,,,,,,,,2,10,38,12,,,,,,,,,s,0.486,,,,,114,Female,19,59.984697431027605,American English,fricative_categorical_boundary,2019_Nov_15_1241,
1,NewWord_fbackonset_sbackonset_,LowBackContinuum/,LowBackContinuum/NewWord_fbackonset_sbackonset_1.wav,,,,,,,,,,2,11,39,0,,,,,,,,,f,1.237,,,,,114,Female,19,59.984697431027605,American English,fricative_categorical_boundary,2019_Nov_15_1241,
25,NewWord_fbackonset_sbackonset_,LowBackContinuum/,LowBackContinuum/NewWord_fbackonset_sbackonset_25.wav,,,,,,,,,,2,12,40,10,,,,,,,,,s,0.587,,,,,114,Female,19,59.984697431027605,American English,fricative_categorical_boundary,2019_Nov_15_1241,
11,NewWord_fbackonset_sbackonset_,LowBackContinuum/,LowBackContinuum/NewWord_fbackonset_sbackonset_11.wav,,,,,,,,,,2,13,41,3,,,,,,,,,f,0.403,,,,,114,Female,19,59.984697431027605,American English,fricative_categorical_boundary,2019_Nov_15_1241,
27,NewWord_fbackonset_sbackonset_,LowBackContinuum/,LowBackContinuum/NewWord_fbackonset_sbackonset_27.wav,,,,,,,,,,3,0,42,11,,,,,,,,,s,0.402,,,,,114,Female,19,59.984697431027605,American English,fricative_categorical_boundary,2019_Nov_15_1241,
29,NewWord_fbackonset_sbackonset_,LowBackContinuum/,LowBackContinuum/NewWord_fbackonset_sbackonset_29.wav,,,,,,,,,,3,1,43,12,,,,,,,,,s,0.553,,,,,114,Female,19,59.984697431027605,American English,fricative_categorical_boundary,2019_Nov_15_1241,
13,NewWord_fbackonset_sbackonset_,LowBackContinuum/,LowBackContinuum/NewWord_fbackonset_sbackonset_13.wav,,,,,,,,,,3,2,44,4,,,,,,,,,f,1.272,,,,,114,Female,19,59.984697431027605,American English,fricative_categorical_boundary,2019_Nov_15_1241,
7,NewWord_fbackonset_sbackonset_,LowBackContinuum/,LowBackContinuum/NewWord_fbackonset_sbackonset_7.wav,,,,,,,,,,3,3,45,1,,,,,,,,,f,2.655,,,,,114,Female,19,59.984697431027605,American English,fricative_categorical_boundary,2019_Nov_15_1241,
25,NewWord_fbackonset_sbackonset_,LowBackContinuum/,LowBackContinuum/NewWord_fbackonset_sbackonset_25.wav,,,,,,,,,,3,4,46,10,,,,,,,,,s,0.586,,,,,114,Female,19,59.984697431027605,American English,fricative_categorical_boundary,2019_Nov_15_1241,
23,NewWord_fbackonset_sbackonset_,LowBackContinuum/,LowBackContinuum/NewWord_fbackonset_sbackonset_23.wav,,,,,,,,,,3,5,47,9,,,,,,,,,s,0.403,,,,,114,Female,19,59.984697431027605,American English,fricative_categorical_boundary,2019_Nov_15_1241,
17,NewWord_fbackonset_sbackonset_,LowBackContinuum/,LowBackContinuum/NewWord_fbackonset_sbackonset_17.wav,,,,,,,,,,3,6,48,6,,,,,,,,,s,0.403,,,,,114,Female,19,59.984697431027605,American English,fricative_categorical_boundary,2019_Nov_15_1241,
21,NewWord_fbackonset_sbackonset_,LowBackContinuum/,LowBackContinuum/NewWord_fbackonset_sbackonset_21.wav,,,,,,,,,,3,7,49,8,,,,,,,,,s,0.404,,,,,114,Female,19,59.984697431027605,American English,fricative_categorical_boundary,2019_Nov_15_1241,
19,NewWord_fbackonset_sbackonset_,LowBackContinuum/,LowBackContinuum/NewWord_fbackonset_sbackonset_19.wav,,,,,,,,,,3,8,50,7,,,,,,,,,s,0.403,,,,,114,Female,19,59.984697431027605,American English,fricative_categorical_boundary,2019_Nov_15_1241,
11,NewWord_fbackonset_sbackonset_,LowBackContinuum/,LowBackContinuum/NewWord_fbackonset_sbackonset_11.wav,,,,,,,,,,3,9,51,3,,,,,,,,,f,0.636,,,,,114,Female,19,59.984697431027605,American English,fricative_categorical_boundary,2019_Nov_15_1241,
41,NewWord_fbackonset_sbackonset_,LowBackContinuum/,LowBackContinuum/NewWord_fbackonset_sbackonset_41.wav,,,,,,,,,,3,10,52,13,,,,,,,,,s,0.77,,,,,114,Female,19,59.984697431027605,American English,fricative_categorical_boundary,2019_Nov_15_1241,
1,NewWord_fbackonset_sbackonset_,LowBackContinuum/,LowBackContinuum/NewWord_fbackonset_sbackonset_1.wav,,,,,,,,,,3,11,53,0,,,,,,,,,f,1.036,,,,,114,Female,19,59.984697431027605,American English,fricative_categorical_boundary,2019_Nov_15_1241,
9,NewWord_fbackonset_sbackonset_,LowBackContinuum/,LowBackContinuum/NewWord_fbackonset_sbackonset_9.wav,,,,,,,,,,3,12,54,2,,,,,,,,,f,0.407,,,,,114,Female,19,59.984697431027605,American English,fricative_categorical_boundary,2019_Nov_15_1241,
15,NewWord_fbackonset_sbackonset_,LowBackContinuum/,LowBackContinuum/NewWord_fbackonset_sbackonset_15.wav,,,,,,,,,,3,13,55,5,,,,,,,,,s,0.82,,,,,114,Female,19,59.984697431027605,American English,fricative_categorical_boundary,2019_Nov_15_1241,
,,,,,,,,,,,,,,,,,,,,,,,,,,,space,13.8196299076,,,114,Female,19,59.984697431027605,American English,fricative_categorical_boundary,2019_Nov_15_1241,
,,,,SEEPING,test,s,onset,2.0,None,None,LDTSounds/,LDTSounds/SEEPING.wav,,,,,0,0,0,27,,,,,,,,,l,3.18934893608,114,Female,19,59.984697431027605,American English,fricative_categorical_boundary,2019_Nov_15_1241,
,,,,himnapile,filler,None,None,None,nonce,None,LDTSounds/,LDTSounds/himnapile.wav,,,,,0,1,1,128,,,,,,,,,a,2.80437517166,114,Female,19,59.984697431027605,American English,fricative_categorical_boundary,2019_Nov_15_1241,
,,,,toy,filler,None,None,None,real,None,LDTSounds/,LDTSounds/toy.wav,,,,,0,2,2,53,,,,,,,,,l,2.03782200813,114,Female,19,59.984697431027605,American English,fricative_categorical_boundary,2019_Nov_15_1241,
,,,,FELINE,test,f,onset,2.0,None,None,LDTSounds/,LDTSounds/FELINE.wav,,,,,0,3,3,2,,,,,,,,,l,2.18752789497,114,Female,19,59.984697431027605,American English,fricative_categorical_boundary,2019_Nov_15_1241,
,,,,SICK,test,s,onset,1.0,None,None,LDTSounds/,LDTSounds/SICK.wav,,,,,0,4,4,29,,,,,,,,,l,1.3371360302,114,Female,19,59.984697431027605,American English,fricative_categorical_boundary,2019_Nov_15_1241,
,,,,podaling,filler,None,None,None,nonce,None,LDTSounds/,LDTSounds/podaling.wav,,,,,0,5,5,132,,,,,,,,,a,1.33515405655,114,Female,19,59.984697431027605,American English,fricative_categorical_boundary,2019_Nov_15_1241,
,,,,daydream,filler,None,None,None,real,None,LDTSounds/,LDTSounds/daydream.wav,,,,,0,6,6,59,,,,,,,,,l,1.22169303894,114,Female,19,59.984697431027605,American English,fricative_categorical_boundary,2019_Nov_15_1241,
,,,,SING,test,s,onset,1.0,None,None,LDTSounds/,LDTSounds/SING.wav,,,,,0,7,7,32,,,,,,,,,l,1.15282678604,114,Female,19,59.984697431027605,American English,fricative_categorical_boundary,2019_Nov_15_1241,
,,,,wegring,filler,None,None,None,nonce,None,LDTSounds/,LDTSounds/wegring.wav,,,,,0,8,8,97,,,,,,,,,a,2.18738293648,114,Female,19,59.984697431027605,American English,fricative_categorical_boundary,2019_Nov_15_1241,
,,,,drip,filler,None,None,None,real,None,LDTSounds/,LDTSounds/drip.wav,,,,,0,9,9,51,,,,,,,,,l,1.28709316254,114,Female,19,59.984697431027605,American English,fricative_categorical_boundary,2019_Nov_15_1241,
,,,,mole,filler,None,None,None,real,None,LDTSounds/,LDTSounds/mole.wav,,,,,0,10,10,42,,,,,,,,,l,1.418156147,114,Female,19,59.984697431027605,American English,fricative_categorical_boundary,2019_Nov_15_1241,
,,,,yoog,filler,None,None,None,nonce,None,LDTSounds/,LDTSounds/yoog.wav,,,,,0,11,11,90,,,,,,,,,a,2.15497303009,114,Female,19,59.984697431027605,American English,fricative_categorical_boundary,2019_Nov_15_1241,
,,,,heen,filler,None,None,None,nonce,None,LDTSounds/,LDTSounds/heen.wav,,,,,0,12,12,77,,,,,,,,,a,2.25524497032,114,Female,19,59.984697431027605,American English,fricative_categorical_boundary,2019_Nov_15_1241,
,,,,wiblee,filler,None,None,None,nonce,None,LDTSounds/,LDTSounds/wiblee.wav,,,,,0,13,13,115,,,,,,,,,a,2.43815898895,114,Female,19,59.984697431027605,American English,fricative_categorical_boundary,2019_Nov_15_1241,
,,,,tuba,filler,None,None,None,real,None,LDTSounds/,LDTSounds/tuba.wav,,,,,0,14,14,57,,,,,,,,,l,1.78796696663,114,Female,19,59.984697431027605,American English,fricative_categorical_boundary,2019_Nov_15_1241,
,,,,lake,filler,None,None,None,real,None,LDTSounds/,LDTSounds/lake.wav,,,,,0,15,15,45,,,,,,,,,l,1.13654589653,114,Female,19,59.984697431027605,American English,fricative_categorical_boundary,2019_Nov_15_1241,
,,,,kotlim,filler,None,None,None,nonce,None,LDTSounds/,LDTSounds/kotlim.wav,,,,,0,16,16,114,,,,,,,,,a,2.03637599945,114,Female,19,59.984697431027605,American English,fricative_categorical_boundary,2019_Nov_15_1241,
,,,,hapooli,filler,None,None,None,nonce,None,LDTSounds/,LDTSounds/hapooli.wav,,,,,0,17,17,126,,,,,,,,,a,1.48745107651,114,Female,19,59.984697431027605,American English,fricative_categorical_boundary,2019_Nov_15_1241,
,,,,wegtamlip,filler,None,None,None,nonce,None,LDTSounds/,LDTSounds/wegtamlip.wav,,,,,0,18,18,120,,,,,,,,,a,1.30381608009,114,Female,19,59.984697431027605,American English,fricative_categorical_boundary,2019_Nov_15_1241,
,,,,SILK,test,s,onset,1.0,None,None,LDTSounds/,LDTSounds/SILK.wav,,,,,0,19,19,30,,,,,,,,,l,1.1202340126,114,Female,19,59.984697431027605,American English,fricative_categorical_boundary,2019_Nov_15_1241,
,,,,tomb,filler,None,None,None,real,None,LDTSounds/,LDTSounds/tomb.wav,,,,,0,20,20,35,,,,,,,,,l,1.15358996391,114,Female,19,59.984697431027605,American English,fricative_categorical_boundary,2019_Nov_15_1241,
,,,,lopenad,filler,None,None,None,nonce,None,LDTSounds/,LDTSounds/lopenad.wav,,,,,0,21,21,123,,,,,,,,,a,1.72162699699,114,Female,19,59.984697431027605,American English,fricative_categorical_boundary,2019_Nov_15_1241,
,,,,SEEING,test,s,onset,2.0,None,None,LDTSounds/,LDTSounds/SEEING.wav,,,,,0,22,22,23,,,,,,,,,l,1.43837308884,114,Female,19,59.984697431027605,American English,fricative_categorical_boundary,2019_Nov_15_1241,
,,,,SIM,test,s,onset,1.0,None,None,LDTSounds/,LDTSounds/SIM.wav,,,,,0,23,23,31,,,,,,,,,l,1.78773593903,114,Female,19,59.984697431027605,American English,fricative_categorical_boundary,2019_Nov_15_1241,
,,,,FEMALE,test,f,onset,2.0,None,None,LDTSounds/,LDTSounds/FEMALE.wav,,,,,0,24,24,3,,,,,,,,,l,1.15390396118,114,Female,19,59.984697431027605,American English,fricative_categorical_boundary,2019_Nov_15_1241,
,,,,FIJI,test,f,onset,2.0,None,None,LDTSounds/,LDTSounds/FIJI.wav,,,,,0,25,25,9,,,,,,,,,l,1.05371999741,114,Female,19,59.984697431027605,American English,fricative_categorical_boundary,2019_Nov_15_1241,
,,,,globe,filler,None,None,None,real,None,LDTSounds/,LDTSounds/globe.wav,,,,,0,26,26,52,,,,,,,,,l,1.12039709091,114,Female,19,59.984697431027605,American English,fricative_categorical_boundary,2019_Nov_15_1241,
,,,,noopalingdo,filler,None,None,None,nonce,None,LDTSounds/,LDTSounds/noopalingdo.wav,,,,,0,27,27,135,,,,,,,,,a,1.15428209305,114,Female,19,59.984697431027605,American English,fricative_categorical_boundary,2019_Nov_15_1241,
,,,,kebnoti,filler,None,None,None,nonce,None,LDTSounds/,LDTSounds/kebnoti.wav,,,,,0,28,28,121,,,,,,,,,a,1.08609104156,114,Female,19,59.984697431027605,American English,fricative_categorical_boundary,2019_Nov_15_1241,
,,,,FIB,test,f,onset,1.0,None,None,LDTSounds/,LDTSounds/FIB.wav,,,,,0,29,29,6,,,,,,,,,l,1.25419688225,114,Female,19,59.984697431027605,American English,fricative_categorical_boundary,2019_Nov_15_1241,
,,,,mall,filler,None,None,None,real,None,LDTSounds/,LDTSounds/mall.wav,,,,,0,30,30,43,,,,,,,,,l,0.953243017197,114,Female,19,59.984697431027605,American English,fricative_categorical_boundary,2019_Nov_15_1241,
,,,,hapekt,filler,None,None,None,nonce,None,LDTSounds/,LDTSounds/hapekt.wav,,,,,0,31,31,116,,,,,,,,,a,1.58733391762,114,Female,19,59.984697431027605,American English,fricative_categorical_boundary,2019_Nov_15_1241,
,,,,FILM,test,f,onset,1.0,None,None,LDTSounds/,LDTSounds/FILM.wav,,,,,0,32,32,11,,,,,,,,,l,0.936037063599,114,Female,19,59.984697431027605,American English,fricative_categorical_boundary,2019_Nov_15_1241,
,,,,PIECE,test,s,coda,1.0,None,None,LDTSounds/,LDTSounds/PIECE.wav,,,,,0,33,33,20,,,,,,,,,l,0.785702943802,114,Female,19,59.984697431027605,American English,fricative_categorical_boundary,2019_Nov_15_1241,
,,,,SIP,test,s,onset,1.0,None,None,LDTSounds/,LDTSounds/SIP.wav,,,,,0,34,34,33,,,,,,,,,l,1.00375103951,114,Female,19,59.984697431027605,American English,fricative_categorical_boundary,2019_Nov_15_1241,
,,,,data,filler,None,None,None,real,None,LDTSounds/,LDTSounds/data.wav,,,,,0,35,35,62,,,,,,,,,l,0.85308599472,114,Female,19,59.984697431027605,American English,fricative_categorical_boundary,2019_Nov_15_1241,
,,,,trim,filler,None,None,None,real,None,LDTSounds/,LDTSounds/trim.wav,,,,,0,36,36,39,,,,,,,,,l,0.886404037476,114,Female,19,59.984697431027605,American English,fricative_categorical_boundary,2019_Nov_15_1241,
,,,,pendalimt,filler,None,None,None,nonce,None,LDTSounds/,LDTSounds/pendalimt.wav,,,,,0,37,37,118,,,,,,,,,a,1.31998085976,114,Female,19,59.984697431027605,American English,fricative_categorical_boundary,2019_Nov_15_1241,
,,,,lemur,filler,None,None,None,real,None,LDTSounds/,LDTSounds/lemur.wav,,,,,0,38,38,68,,,,,,,,,l,0.936569929123,114,Female,19,59.984697431027605,American English,fricative_categorical_boundary,2019_Nov_15_1241,
,,,,loot,filler,None,None,None,real,None,LDTSounds/,LDTSounds/loot.wav,,,,,0,39,39,37,,,,,,,,,l,0.736468076706,114,Female,19,59.984697431027605,American English,fricative_categorical_boundary,2019_Nov_15_1241,
,,,,little,filler,None,None,None,real,None,LDTSounds/,LDTSounds/little.wav,,,,,0,40,40,61,,,,,,,,,l,0.853238105774,114,Female,19,59.984697431027605,American English,fricative_categorical_boundary,2019_Nov_15_1241,
,,,,doonagort,filler,None,None,None,nonce,None,LDTSounds/,LDTSounds/doonagort.wav,,,,,0,41,41,127,,,,,,,,,a,1.10135102272,114,Female,19,59.984697431027605,American English,fricative_categorical_boundary,2019_Nov_15_1241,
,,,,queng,filler,None,None,None,nonce,None,LDTSounds/,LDTSounds/queng.wav,,,,,0,42,42,86,,,,,,,,,a,1.03577113152,114,Female,19,59.984697431027605,American English,fricative_categorical_boundary,2019_Nov_15_1241,
,,,,typing,filler,None,None,None,real,None,LDTSounds/,LDTSounds/typing.wav,,,,,0,43,43,70,,,,,,,,,l,1.18766617775,114,Female,19,59.984697431027605,American English,fricative_categorical_boundary,2019_Nov_15_1241,
,,,,FETAL,test,f,onset,2.0,None,None,LDTSounds/,LDTSounds/FETAL.wav,,,,,0,44,44,4,,,,,,,,,l,1.12084698677,114,Female,19,59.984697431027605,American English,fricative_categorical_boundary,2019_Nov_15_1241,
,,,,twin,filler,None,None,None,real,None,LDTSounds/,LDTSounds/twin.wav,,,,,0,45,45,44,,,,,,,,,l,0.967924833298,114,Female,19,59.984697431027605,American English,fricative_categorical_boundary,2019_Nov_15_1241,
,,,,cridamlo,filler,None,None,None,nonce,None,LDTSounds/,LDTSounds/cridamlo.wav,,,,,0,46,46,122,,,,,,,,,a,0.936359167099,114,Female,19,59.984697431027605,American English,fricative_categorical_boundary,2019_Nov_15_1241,
,,,,troplund,filler,None,None,None,nonce,None,LDTSounds/,LDTSounds/troplund.wav,,,,,0,47,47,98,,,,,,,,,a,1.30428290367,114,Female,19,59.984697431027605,American English,fricative_categorical_boundary,2019_Nov_15_1241,
,,,,SEAGULL,test,s,onset,2.0,None,None,LDTSounds/,LDTSounds/SEAGULL.wav,,,,,0,48,48,21,,,,,,,,,l,1.10476517677,114,Female,19,59.984697431027605,American English,fricative_categorical_boundary,2019_Nov_15_1241,
,,,,kinudiplo,filler,None,None,None,nonce,None,LDTSounds/,LDTSounds/kinudiplo.wav,,,,,0,49,49,149,,,,,,,,,a,1.28638315201,114,Female,19,59.984697431027605,American English,fricative_categorical_boundary,2019_Nov_15_1241,
,,,,rone,filler,None,None,None,nonce,None,LDTSounds/,LDTSounds/rone.wav,,,,,0,50,50,79,,,,,,,,,a,3.18850111961,114,Female,19,59.984697431027605,American English,fricative_categorical_boundary,2019_Nov_15_1241,
,,,,tridalondit,filler,None,None,None,nonce,None,LDTSounds/,LDTSounds/tridalondit.wav,,,,,0,51,51,146,,,,,,,,,a,1.18736195564,114,Female,19,59.984697431027605,American English,fricative_categorical_boundary,2019_Nov_15_1241,
,,,,SEEM,test,s,onset,1.0,None,None,LDTSounds/,LDTSounds/SEEM.wav,,,,,0,52,52,26,,,,,,,,,l,1.05341410637,114,Female,19,59.984697431027605,American English,fricative_categorical_boundary,2019_Nov_15_1241,
,,,,krebdingolee,filler,None,None,None,nonce,None,LDTSounds/,LDTSounds/krebdingolee.wav,,,,,0,53,53,147,,,,,,,,,a,1.12047505379,114,Female,19,59.984697431027605,American English,fricative_categorical_boundary,2019_Nov_15_1241,
,,,,hoong,filler,None,None,None,nonce,None,LDTSounds/,LDTSounds/hoong.wav,,,,,0,54,54,81,,,,,,,,,l,1.35419511795,114,Female,19,59.984697431027605,American English,fricative_categorical_boundary,2019_Nov_15_1241,
,,,,kililitbi,filler,None,None,None,nonce,None,LDTSounds/,LDTSounds/kililitbi.wav,,,,,0,55,55,145,,,,,,,,,a,1.10454702377,114,Female,19,59.984697431027605,American English,fricative_categorical_boundary,2019_Nov_15_1241,
,,,,midaran,filler,None,None,None,nonce,None,LDTSounds/,LDTSounds/midaran.wav,,,,,0,56,56,119,,,,,,,,,a,1.03655195236,114,Female,19,59.984697431027605,American English,fricative_categorical_boundary,2019_Nov_15_1241,
,,,,lempok,filler,None,None,None,nonce,None,LDTSounds/,LDTSounds/lempok.wav,,,,,0,57,57,113,,,,,,,,,a,1.22054696083,114,Female,19,59.984697431027605,American English,fricative_categorical_boundary,2019_Nov_15_1241,
,,,,relnt,filler,None,None,None,nonce,None,LDTSounds/,LDTSounds/relnt.wav,,,,,0,58,58,83,,,,,,,,,a,1.17024087906,114,Female,19,59.984697431027605,American English,fricative_categorical_boundary,2019_Nov_15_1241,
,,,,FIFTH,test,f,onset,1.0,None,None,LDTSounds/,LDTSounds/FIFTH.wav,,,,,0,59,59,8,,,,,,,,,l,1.03579211235,114,Female,19,59.984697431027605,American English,fricative_categorical_boundary,2019_Nov_15_1241,
,,,,day,filler,None,None,None,real,None,LDTSounds/,LDTSounds/day.wav,,,,,0,60,60,50,,,,,,,,,l,0.95352602005,114,Female,19,59.984697431027605,American English,fricative_categorical_boundary,2019_Nov_15_1241,
,,,,roip,filler,None,None,None,nonce,None,LDTSounds/,LDTSounds/roip.wav,,,,,0,61,61,89,,,,,,,,,a,1.32022380829,114,Female,19,59.984697431027605,American English,fricative_categorical_boundary,2019_Nov_15_1241,
,,,,THIEF,test,f,coda,1.0,None,None,LDTSounds/,LDTSounds/THIEF.wav,,,,,0,62,62,15,,,,,,,,,l,0.936604976654,114,Female,19,59.984697431027605,American English,fricative_categorical_boundary,2019_Nov_15_1241,
,,,,twek,filler,None,None,None,nonce,None,LDTSounds/,LDTSounds/twek.wav,,,,,0,63,63,80,,,,,,,,,a,1.15451717377,114,Female,19,59.984697431027605,American English,fricative_categorical_boundary,2019_Nov_15_1241,
,,,,rone,filler,None,None,None,nonce,None,LDTSounds/,LDTSounds/rone.wav,,,,,0,64,64,92,,,,,,,,,a,1.67001581192,114,Female,19,59.984697431027605,American English,fricative_categorical_boundary,2019_Nov_15_1241,
,,,,poginito,filler,None,None,None,nonce,None,LDTSounds/,LDTSounds/poginito.wav,,,,,0,65,65,139,,,,,,,,,a,1.15374994278,114,Female,19,59.984697431027605,American English,fricative_categorical_boundary,2019_Nov_15_1241,
,,,,butter,filler,None,None,None,real,None,LDTSounds/,LDTSounds/butter.wav,,,,,0,66,66,60,,,,,,,,,l,0.836855888367,114,Female,19,59.984697431027605,American English,fricative_categorical_boundary,2019_Nov_15_1241,
,,,,toin,filler,None,None,None,nonce,None,LDTSounds/,LDTSounds/toin.wav,,,,,0,67,67,88,,,,,,,,,a,1.72027015686,114,Female,19,59.984697431027605,American English,fricative_categorical_boundary,2019_Nov_15_1241,
,,,,CLIFF,test,f,coda,1.0,None,None,LDTSounds/,LDTSounds/CLIFF.wav,,,,,0,68,68,0,,,,,,,,,l,1.28731584549,114,Female,19,59.984697431027605,American English,fricative_categorical_boundary,2019_Nov_15_1241,
,,,,ligbee,filler,None,None,None,nonce,None,LDTSounds/,LDTSounds/ligbee.wav,,,,,0,69,69,95,,,,,,,,,a,1.13694691658,114,Female,19,59.984697431027605,American English,fricative_categorical_boundary,2019_Nov_15_1241,
,,,,toilet,filler,None,None,None,real,None,LDTSounds/,LDTSounds/toilet.wav,,,,,0,70,70,67,,,,,,,,,l,1.2367169857,114,Female,19,59.984697431027605,American English,fricative_categorical_boundary,2019_Nov_15_1241,
,,,,wet,filler,None,None,None,real,None,LDTSounds/,LDTSounds/wet.wav,,,,,0,71,71,38,,,,,,,,,l,0.985965013504,114,Female,19,59.984697431027605,American English,fricative_categorical_boundary,2019_Nov_15_1241,
,,,,habapithloo,filler,None,None,None,nonce,None,LDTSounds/,LDTSounds/habapithloo.wav,,,,,0,72,72,136,,,,,,,,,a,1.0538380146,114,Female,19,59.984697431027605,American English,fricative_categorical_boundary,2019_Nov_15_1241,
,,,,himp,filler,None,None,None,nonce,None,LDTSounds/,LDTSounds/himp.wav,,,,,0,73,73,75,,,,,,,,,a,1.40376496315,114,Female,19,59.984697431027605,American English,fricative_categorical_boundary,2019_Nov_15_1241,
,,,,pingloon,filler,None,None,None,nonce,None,LDTSounds/,LDTSounds/pingloon.wav,,,,,0,74,74,110,,,,,,,,,a,1.17010307312,114,Female,19,59.984697431027605,American English,fricative_categorical_boundary,2019_Nov_15_1241,
,,,,will,filler,None,None,None,real,None,LDTSounds/,LDTSounds/will.wav,,,,,0,75,75,49,,,,,,,,,l,0.920222043991,114,Female,19,59.984697431027605,American English,fricative_categorical_boundary,2019_Nov_15_1241,
,,,,trongolemp,filler,None,None,None,nonce,None,LDTSounds/,LDTSounds/trongolemp.wav,,,,,0,76,76,130,,,,,,,,,a,1.02060294151,114,Female,19,59.984697431027605,American English,fricative_categorical_boundary,2019_Nov_15_1241,
,,,,right,filler,None,None,None,real,None,LDTSounds/,LDTSounds/right.wav,,,,,0,77,77,36,,,,,,,,,l,1.01974201202,114,Female,19,59.984697431027605,American English,fricative_categorical_boundary,2019_Nov_15_1241,
,,,,weg,filler,None,None,None,nonce,None,LDTSounds/,LDTSounds/weg.wav,,,,,0,78,78,78,,,,,,,,,a,1.57009100914,114,Female,19,59.984697431027605,American English,fricative_categorical_boundary,2019_Nov_15_1241,
,,,,bindilamok,filler,None,None,None,nonce,None,LDTSounds/,LDTSounds/bindilamok.wav,,,,,0,79,79,148,,,,,,,,,a,1.15459513664,114,Female,19,59.984697431027605,American English,fricative_categorical_boundary,2019_Nov_15_1241,
,,,,rowboat,filler,None,None,None,real,None,LDTSounds/,LDTSounds/rowboat.wav,,,,,0,80,80,56,,,,,,,,,l,1.00274896622,114,Female,19,59.984697431027605,American English,fricative_categorical_boundary,2019_Nov_15_1241,
,,,,yoogul,filler,None,None,None,nonce,None,LDTSounds/,LDTSounds/yoogul.wav,,,,,0,81,81,102,,,,,,,,,a,1.73764204979,114,Female,19,59.984697431027605,American English,fricative_categorical_boundary,2019_Nov_15_1241,
,,,,building,filler,None,None,None,real,None,LDTSounds/,LDTSounds/building.wav,,,,,0,82,82,55,,,,,,,,,l,0.836499929428,114,Female,19,59.984697431027605,American English,fricative_categorical_boundary,2019_Nov_15_1241,
,,,,baking,filler,None,None,None,real,None,LDTSounds/,LDTSounds/baking.wav,,,,,0,83,83,69,,,,,,,,,l,0.819470882416,114,Female,19,59.984697431027605,American English,fricative_categorical_boundary,2019_Nov_15_1241,
,,,,bidbowk,filler,None,None,None,nonce,None,LDTSounds/,LDTSounds/bidbowk.wav,,,,,0,84,84,109,,,,,,,,,a,2.45477890968,114,Female,19,59.984697431027605,American English,fricative_categorical_boundary,2019_Nov_15_1241,
,,,,dripnalong,filler,None,None,None,nonce,None,LDTSounds/,LDTSounds/dripnalong.wav,,,,,0,85,85,124,,,,,,,,,a,1.35390591621,114,Female,19,59.984697431027605,American English,fricative_categorical_boundary,2019_Nov_15_1241,
,,,,ratwell,filler,None,None,None,nonce,None,LDTSounds/,LDTSounds/ratwell.wav,,,,,0,86,86,108,,,,,,,,,a,1.25420093536,114,Female,19,59.984697431027605,American English,fricative_categorical_boundary,2019_Nov_15_1241,
,,,,boycott,filler,None,None,None,real,None,LDTSounds/,LDTSounds/boycott.wav,,,,,0,87,87,71,,,,,,,,,l,0.886735916138,114,Female,19,59.984697431027605,American English,fricative_categorical_boundary,2019_Nov_15_1241,
,,,,trooper,filler,None,None,None,real,None,LDTSounds/,LDTSounds/trooper.wav,,,,,0,88,88,66,,,,,,,,,l,1.00355887413,114,Female,19,59.984697431027605,American English,fricative_categorical_boundary,2019_Nov_15_1241,
,,,,SEEKER,test,s,onset,2.0,None,None,LDTSounds/,LDTSounds/SEEKER.wav,,,,,0,89,89,25,,,,,,,,,l,0.919938087463,114,Female,19,59.984697431027605,American English,fricative_categorical_boundary,2019_Nov_15_1241,
,,,,KISS,test,s,coda,1.0,None,None,LDTSounds/,LDTSounds/KISS.wav,,,,,0,90,90,19,,,,,,,,,l,0.952671051025,114,Female,19,59.984697431027605,American English,fricative_categorical_boundary,2019_Nov_15_1241,
,,,,plagtorin,filler,None,None,None,nonce,None,LDTSounds/,LDTSounds/plagtorin.wav,,,,,0,91,91,134,,,,,,,,,a,1.11966705322,114,Female,19,59.984697431027605,American English,fricative_categorical_boundary,2019_Nov_15_1241,
,,,,yoomake,filler,None,None,None,nonce,None,LDTSounds/,LDTSounds/yoomake.wav,,,,,0,92,92,99,,,,,,,,,a,2.63843917847,114,Female,19,59.984697431027605,American English,fricative_categorical_boundary,2019_Nov_15_1241,
,,,,blegondanit,filler,None,None,None,nonce,None,LDTSounds/,LDTSounds/blegondanit.wav,,,,,0,93,93,144,,,,,,,,,a,1.30371999741,114,Female,19,59.984697431027605,American English,fricative_categorical_boundary,2019_Nov_15_1241,
,,,,treaty,filler,None,None,None,real,None,LDTSounds/,LDTSounds/treaty.wav,,,,,0,94,94,65,,,,,,,,,l,1.10337591171,114,Female,19,59.984697431027605,American English,fricative_categorical_boundary,2019_Nov_15_1241,
,,,,maker,filler,None,None,None,real,None,LDTSounds/,LDTSounds/maker.wav,,,,,0,95,95,64,,,,,,,,,l,0.969424962997,114,Female,19,59.984697431027605,American English,fricative_categorical_boundary,2019_Nov_15_1241,
,,,,yilk,filler,None,None,None,nonce,None,LDTSounds/,LDTSounds/yilk.wav,,,,,0,96,96,82,,,,,,,,,l,1.02094912529,114,Female,19,59.984697431027605,American English,fricative_categorical_boundary,2019_Nov_15_1241,
,,,,line,filler,None,None,None,real,None,LDTSounds/,LDTSounds/line.wav,,,,,0,97,97,46,,,,,,,,,l,1.13732910156,114,Female,19,59.984697431027605,American English,fricative_categorical_boundary,2019_Nov_15_1241,
,,,,rat,filler,None,None,None,real,None,LDTSounds/,LDTSounds/rat.wav,,,,,0,98,98,47,,,,,,,,,l,1.12048816681,114,Female,19,59.984697431027605,American English,fricative_categorical_boundary,2019_Nov_15_1241,
,,,,ledmon,filler,None,None,None,nonce,None,LDTSounds/,LDTSounds/ledmon.wav,,,,,0,99,99,94,,,,,,,,,a,1.18702197075,114,Female,19,59.984697431027605,American English,fricative_categorical_boundary,2019_Nov_15_1241,
,,,,taklibd,filler,None,None,None,nonce,None,LDTSounds/,LDTSounds/taklibd.wav,,,,,0,100,100,101,,,,,,,,,a,1.303647995,114,Female,19,59.984697431027605,American English,fricative_categorical_boundary,2019_Nov_15_1241,
,,,,BLISS,test,s,coda,1.0,None,None,LDTSounds/,LDTSounds/BLISS.wav,,,,,0,101,101,17,,,,,,,,,l,0.885200023651,114,Female,19,59.984697431027605,American English,fricative_categorical_boundary,2019_Nov_15_1241,
,,,,SEEK,test,s,onset,1.0,None,None,LDTSounds/,LDTSounds/SEEK.wav,,,,,0,102,102,24,,,,,,,,,l,1.3862991333,114,Female,19,59.984697431027605,American English,fricative_categorical_boundary,2019_Nov_15_1241,
,,,,FISH,test,f,onset,1.0,None,None,LDTSounds/,LDTSounds/FISH.wav,,,,,0,103,103,13,,,,,,,,,l,0.953129768372,114,Female,19,59.984697431027605,American English,fricative_categorical_boundary,2019_Nov_15_1241,
,,,,waip,filler,None,None,None,nonce,None,LDTSounds/,LDTSounds/waip.wav,,,,,0,104,104,91,,,,,,,,,a,1.23699307442,114,Female,19,59.984697431027605,American English,fricative_categorical_boundary,2019_Nov_15_1241,
,,,,poindool,filler,None,None,None,nonce,None,LDTSounds/,LDTSounds/poindool.wav,,,,,0,105,105,96,,,,,,,,,a,1.07043290138,114,Female,19,59.984697431027605,American English,fricative_categorical_boundary,2019_Nov_15_1241,
,,,,FEVER,test,f,onset,2.0,None,None,LDTSounds/,LDTSounds/FEVER.wav,,,,,0,106,106,5,,,,,,,,,a,1.2042131424,114,Female,19,59.984697431027605,American English,fricative_categorical_boundary,2019_Nov_15_1241,
,,,,trag,filler,None,None,None,nonce,None,LDTSounds/,LDTSounds/trag.wav,,,,,0,107,107,84,,,,,,,,,a,1.70380496979,114,Female,19,59.984697431027605,American English,fricative_categorical_boundary,2019_Nov_15_1241,
,,,,libmadoop,filler,None,None,None,nonce,None,LDTSounds/,LDTSounds/libmadoop.wav,,,,,0,108,108,117,,,,,,,,,a,1.42045211792,114,Female,19,59.984697431027605,American English,fricative_categorical_boundary,2019_Nov_15_1241,
,,,,kabalingno,filler,None,None,None,nonce,None,LDTSounds/,LDTSounds/kabalingno.wav,,,,,0,109,109,138,,,,,,,,,a,1.28712415695,114,Female,19,59.984697431027605,American English,fricative_categorical_boundary,2019_Nov_15_1241,
,,,,metroy,filler,None,None,None,nonce,None,LDTSounds/,LDTSounds/metroy.wav,,,,,0,110,110,100,,,,,,,,,a,1.52063989639,114,Female,19,59.984697431027605,American English,fricative_categorical_boundary,2019_Nov_15_1241,
,,,,REEF,test,f,coda,1.0,None,None,LDTSounds/,LDTSounds/REEF.wav,,,,,0,111,111,14,,,,,,,,,l,0.970254898071,114,Female,19,59.984697431027605,American English,fricative_categorical_boundary,2019_Nov_15_1241,
,,,,dewagelin,filler,None,None,None,nonce,None,LDTSounds/,LDTSounds/dewagelin.wav,,,,,0,112,112,143,,,,,,,,,a,1.28504705429,114,Female,19,59.984697431027605,American English,fricative_categorical_boundary,2019_Nov_15_1241,
,,,,deemlond,filler,None,None,None,nonce,None,LDTSounds/,LDTSounds/deemlond.wav,,,,,0,113,113,104,,,,,,,,,a,0.936069011688,114,Female,19,59.984697431027605,American English,fricative_categorical_boundary,2019_Nov_15_1241,
,,,,SEETHING,test,s,onset,2.0,None,None,LDTSounds/,LDTSounds/SEETHING.wav,,,,,0,114,114,28,,,,,,,,,a,0.937361955643,114,Female,19,59.984697431027605,American English,fricative_categorical_boundary,2019_Nov_15_1241,
,,,,truck,filler,None,None,None,real,None,LDTSounds/,LDTSounds/truck.wav,,,,,0,115,115,34,,,,,,,,,l,0.987518072128,114,Female,19,59.984697431027605,American English,fricative_categorical_boundary,2019_Nov_15_1241,
,,,,datoonmeg,filler,None,None,None,nonce,None,LDTSounds/,LDTSounds/datoonmeg.wav,,,,,0,116,116,133,,,,,,,,,a,1.1201300621,114,Female,19,59.984697431027605,American English,fricative_categorical_boundary,2019_Nov_15_1241,
,,,,SEATED,test,s,onset,2.0,None,None,LDTSounds/,LDTSounds/SEATED.wav,,,,,0,117,117,22,,,,,,,,,l,1.12028217316,114,Female,19,59.984697431027605,American English,fricative_categorical_boundary,2019_Nov_15_1241,
,,,,FILTH,test,f,onset,1.0,None,None,LDTSounds/,LDTSounds/FILTH.wav,,,,,0,118,118,12,,,,,,,,,l,0.853267908096,114,Female,19,59.984697431027605,American English,fricative_categorical_boundary,2019_Nov_15_1241,
,,,,laker,filler,None,None,None,real,None,LDTSounds/,LDTSounds/laker.wav,,,,,0,119,119,58,,,,,,,,,l,1.01918101311,114,Female,19,59.984697431027605,American English,fricative_categorical_boundary,2019_Nov_15_1241,
,,,,giblo,filler,None,None,None,nonce,None,LDTSounds/,LDTSounds/giblo.wav,,,,,0,120,120,93,,,,,,,,,a,1.53662204742,114,Female,19,59.984697431027605,American English,fricative_categorical_boundary,2019_Nov_15_1241,
,,,,magmilnt,filler,None,None,None,nonce,None,LDTSounds/,LDTSounds/magmilnt.wav,,,,,0,121,121,107,,,,,,,,,a,1.30407691002,114,Female,19,59.984697431027605,American English,fricative_categorical_boundary,2019_Nov_15_1241,
,,,,GEESE,test,s,coda,1.0,None,None,LDTSounds/,LDTSounds/GEESE.wav,,,,,0,122,122,18,,,,,,,,,l,1.25346112251,114,Female,19,59.984697431027605,American English,fricative_categorical_boundary,2019_Nov_15_1241,
,,,,liquor,filler,None,None,None,real,None,LDTSounds/,LDTSounds/liquor.wav,,,,,0,123,123,63,,,,,,,,,l,1.02013301849,114,Female,19,59.984697431027605,American English,fricative_categorical_boundary,2019_Nov_15_1241,
,,,,boondatribnok,filler,None,None,None,nonce,None,LDTSounds/,LDTSounds/boondatribnok.wav,,,,,0,124,124,137,,,,,,,,,a,1.73733711243,114,Female,19,59.984697431027605,American English,fricative_categorical_boundary,2019_Nov_15_1241,
,,,,trad,filler,None,None,None,nonce,None,LDTSounds/,LDTSounds/trad.wav,,,,,0,125,125,87,,,,,,,,,a,1.38691806793,114,Female,19,59.984697431027605,American English,fricative_categorical_boundary,2019_Nov_15_1241,
,,,,mitger,filler,None,None,None,nonce,None,LDTSounds/,LDTSounds/mitger.wav,,,,,0,126,126,111,,,,,,,,,a,2.52193498611,114,Female,19,59.984697431027605,American English,fricative_categorical_boundary,2019_Nov_15_1241,
,,,,rekmate,filler,None,None,None,nonce,None,LDTSounds/,LDTSounds/rekmate.wav,,,,,0,127,127,103,,,,,,,,,l,1.1200978756,114,Female,19,59.984697431027605,American English,fricative_categorical_boundary,2019_Nov_15_1241,
,,,,radoobling,filler,None,None,None,nonce,None,LDTSounds/,LDTSounds/radoobling.wav,,,,,0,128,128,142,,,,,,,,,a,1.15381407738,114,Female,19,59.984697431027605,American English,fricative_categorical_boundary,2019_Nov_15_1241,
,,,,cratbool,filler,None,None,None,nonce,None,LDTSounds/,LDTSounds/cratbool.wav,,,,,0,129,129,106,,,,,,,,,a,1.6373770237,114,Female,19,59.984697431027605,American English,fricative_categorical_boundary,2019_Nov_15_1241,
,,,,WHIFF,test,f,coda,1.0,None,None,LDTSounds/,LDTSounds/WHIFF.wav,,,,,0,130,130,16,,,,,,,,,l,1.1872420311,114,Female,19,59.984697431027605,American English,fricative_categorical_boundary,2019_Nov_15_1241,
,,,,habalipdee,filler,None,None,None,nonce,None,LDTSounds/,LDTSounds/habalipdee.wav,,,,,0,131,131,140,,,,,,,,,a,1.05328702927,114,Female,19,59.984697431027605,American English,fricative_categorical_boundary,2019_Nov_15_1241,
,,,,retlid,filler,None,None,None,nonce,None,LDTSounds/,LDTSounds/retlid.wav,,,,,0,132,132,105,,,,,,,,,a,1.02133703232,114,Female,19,59.984697431027605,American English,fricative_categorical_boundary,2019_Nov_15_1241,
,,,,FIEND,test,f,onset,1.0,None,None,LDTSounds/,LDTSounds/FIEND.wav,,,,,0,133,133,7,,,,,,,,,l,1.51875090599,114,Female,19,59.984697431027605,American English,fricative_categorical_boundary,2019_Nov_15_1241,
,,,,while,filler,None,None,None,real,None,LDTSounds/,LDTSounds/while.wav,,,,,0,134,134,48,,,,,,,,,l,1.40357899666,114,Female,19,59.984697431027605,American English,fricative_categorical_boundary,2019_Nov_15_1241,
,,,,lump,filler,None,None,None,real,None,LDTSounds/,LDTSounds/lump.wav,,,,,0,135,135,54,,,,,,,,,l,1.23725199699,114,Female,19,59.984697431027605,American English,fricative_categorical_boundary,2019_Nov_15_1241,
,,,,yoodalin,filler,None,None,None,nonce,None,LDTSounds/,LDTSounds/yoodalin.wav,,,,,0,136,136,125,,,,,,,,,a,2.42168307304,114,Female,19,59.984697431027605,American English,fricative_categorical_boundary,2019_Nov_15_1241,
,,,,FILL,test,f,onset,1.0,None,None,LDTSounds/,LDTSounds/FILL.wav,,,,,0,137,137,10,,,,,,,,,l,0.970597982407,114,Female,19,59.984697431027605,American English,fricative_categorical_boundary,2019_Nov_15_1241,
,,,,drataloob,filler,None,None,None,nonce,None,LDTSounds/,LDTSounds/drataloob.wav,,,,,0,138,138,129,,,,,,,,,a,1.15358090401,114,Female,19,59.984697431027605,American English,fricative_categorical_boundary,2019_Nov_15_1241,
,,,,gelp,filler,None,None,None,nonce,None,LDTSounds/,LDTSounds/gelp.wav,,,,,0,139,139,85,,,,,,,,,l,1.43651199341,114,Female,19,59.984697431027605,American English,fricative_categorical_boundary,2019_Nov_15_1241,
,,,,yellow,filler,None,None,None,real,None,LDTSounds/,LDTSounds/yellow.wav,,,,,0,140,140,73,,,,,,,,,l,0.986077070236,114,Female,19,59.984697431027605,American English,fricative_categorical_boundary,2019_Nov_15_1241,
,,,,pen,filler,None,None,None,real,None,LDTSounds/,LDTSounds/pen.wav,,,,,0,141,141,40,,,,,,,,,l,0.853390932083,114,Female,19,59.984697431027605,American English,fricative_categorical_boundary,2019_Nov_15_1241,
,,,,pillow,filler,None,None,None,real,None,LDTSounds/,LDTSounds/pillow.wav,,,,,0,142,142,72,,,,,,,,,l,0.870429992676,114,Female,19,59.984697431027605,American English,fricative_categorical_boundary,2019_Nov_15_1241,
,,,,petnole,filler,None,None,None,nonce,None,LDTSounds/,LDTSounds/petnole.wav,,,,,0,143,143,112,,,,,,,,,a,1.02005195618,114,Female,19,59.984697431027605,American English,fricative_categorical_boundary,2019_Nov_15_1241,
,,,,rivathrog,filler,None,None,None,nonce,None,LDTSounds/,LDTSounds/rivathrog.wav,,,,,0,144,144,131,,,,,,,,,a,1.10254621506,114,Female,19,59.984697431027605,American English,fricative_categorical_boundary,2019_Nov_15_1241,
,,,,FEEBLE,test,f,onset,2.0,None,None,LDTSounds/,LDTSounds/FEEBLE.wav,,,,,0,145,145,1,,,,,,,,,l,1.22059702873,114,Female,19,59.984697431027605,American English,fricative_categorical_boundary,2019_Nov_15_1241,
,,,,jupiter,filler,None,None,None,real,None,LDTSounds/,LDTSounds/jupiter.wav,,,,,0,146,146,74,,,,,,,,,l,1.21956992149,114,Female,19,59.984697431027605,American English,fricative_categorical_boundary,2019_Nov_15_1241,
,,,,plone,filler,None,None,None,nonce,None,LDTSounds/,LDTSounds/plone.wav,,,,,0,147,147,76,,,,,,,,,a,1.67107987404,114,Female,19,59.984697431027605,American English,fricative_categorical_boundary,2019_Nov_15_1241,
,,,,hundapegnort,filler,None,None,None,nonce,None,LDTSounds/,LDTSounds/hundapegnort.wav,,,,,0,148,148,141,,,,,,,,,a,1.68762898445,114,Female,19,59.984697431027605,American English,fricative_categorical_boundary,2019_Nov_15_1241,
,,,,lick,filler,None,None,None,real,None,LDTSounds/,LDTSounds/lick.wav,,,,,0,149,149,41,,,,,,,,,l,1.20496988297,114,Female,19,59.984697431027605,American English,fricative_categorical_boundary,2019_Nov_15_1241,
,,,,,,,,,,,,,,,,,,,,,,,,,,,,,,,114,Female,19,59.984697431027605,American English,fricative_categorical_boundary,2019_Nov_15_1241,
29,NewWord_fbackonset_sbackonset_,LowBackContinuum/,LowBackContinuum/NewWord_fbackonset_sbackonset_29.wav,,,,,,,,,,,,,,,,,,0,0,0,12,s,2.69,,,,,114,Female,19,59.984697431027605,American English,fricative_categorical_boundary,2019_Nov_15_1241,
9,NewWord_fbackonset_sbackonset_,LowBackContinuum/,LowBackContinuum/NewWord_fbackonset_sbackonset_9.wav,,,,,,,,,,,,,,,,,,0,1,1,2,f,0.406,,,,,114,Female,19,59.984697431027605,American English,fricative_categorical_boundary,2019_Nov_15_1241,
1,NewWord_fbackonset_sbackonset_,LowBackContinuum/,LowBackContinuum/NewWord_fbackonset_sbackonset_1.wav,,,,,,,,,,,,,,,,,,0,2,2,0,f,4.49,,,,,114,Female,19,59.984697431027605,American English,fricative_categorical_boundary,2019_Nov_15_1241,
17,NewWord_fbackonset_sbackonset_,LowBackContinuum/,LowBackContinuum/NewWord_fbackonset_sbackonset_17.wav,,,,,,,,,,,,,,,,,,0,3,3,6,s,0.536,,,,,114,Female,19,59.984697431027605,American English,fricative_categorical_boundary,2019_Nov_15_1241,
11,NewWord_fbackonset_sbackonset_,LowBackContinuum/,LowBackContinuum/NewWord_fbackonset_sbackonset_11.wav,,,,,,,,,,,,,,,,,,0,4,4,3,f,1.004,,,,,114,Female,19,59.984697431027605,American English,fricative_categorical_boundary,2019_Nov_15_1241,
27,NewWord_fbackonset_sbackonset_,LowBackContinuum/,LowBackContinuum/NewWord_fbackonset_sbackonset_27.wav,,,,,,,,,,,,,,,,,,0,5,5,11,s,0.403,,,,,114,Female,19,59.984697431027605,American English,fricative_categorical_boundary,2019_Nov_15_1241,
25,NewWord_fbackonset_sbackonset_,LowBackContinuum/,LowBackContinuum/NewWord_fbackonset_sbackonset_25.wav,,,,,,,,,,,,,,,,,,0,6,6,10,s,2.321,,,,,114,Female,19,59.984697431027605,American English,fricative_categorical_boundary,2019_Nov_15_1241,
41,NewWord_fbackonset_sbackonset_,LowBackContinuum/,LowBackContinuum/NewWord_fbackonset_sbackonset_41.wav,,,,,,,,,,,,,,,,,,0,7,7,13,s,0.403,,,,,114,Female,19,59.984697431027605,American English,fricative_categorical_boundary,2019_Nov_15_1241,
21,NewWord_fbackonset_sbackonset_,LowBackContinuum/,LowBackContinuum/NewWord_fbackonset_sbackonset_21.wav,,,,,,,,,,,,,,,,,,0,8,8,8,s,0.419,,,,,114,Female,19,59.984697431027605,American English,fricative_categorical_boundary,2019_Nov_15_1241,
15,NewWord_fbackonset_sbackonset_,LowBackContinuum/,LowBackContinuum/NewWord_fbackonset_sbackonset_15.wav,,,,,,,,,,,,,,,,,,0,9,9,5,s,0.82,,,,,114,Female,19,59.984697431027605,American English,fricative_categorical_boundary,2019_Nov_15_1241,
7,NewWord_fbackonset_sbackonset_,LowBackContinuum/,LowBackContinuum/NewWord_fbackonset_sbackonset_7.wav,,,,,,,,,,,,,,,,,,0,10,10,1,f,1.504,,,,,114,Female,19,59.984697431027605,American English,fricative_categorical_boundary,2019_Nov_15_1241,
19,NewWord_fbackonset_sbackonset_,LowBackContinuum/,LowBackContinuum/NewWord_fbackonset_sbackonset_19.wav,,,,,,,,,,,,,,,,,,0,11,11,7,s,1.22,,,,,114,Female,19,59.984697431027605,American English,fricative_categorical_boundary,2019_Nov_15_1241,
13,NewWord_fbackonset_sbackonset_,LowBackContinuum/,LowBackContinuum/NewWord_fbackonset_sbackonset_13.wav,,,,,,,,,,,,,,,,,,0,12,12,4,f,0.519,,,,,114,Female,19,59.984697431027605,American English,fricative_categorical_boundary,2019_Nov_15_1241,
23,NewWord_fbackonset_sbackonset_,LowBackContinuum/,LowBackContinuum/NewWord_fbackonset_sbackonset_23.wav,,,,,,,,,,,,,,,,,,0,13,13,9,s,0.486,,,,,114,Female,19,59.984697431027605,American English,fricative_categorical_boundary,2019_Nov_15_1241,
27,NewWord_fbackonset_sbackonset_,LowBackContinuum/,LowBackContinuum/NewWord_fbackonset_sbackonset_27.wav,,,,,,,,,,,,,,,,,,1,0,14,11,s,0.405,,,,,114,Female,19,59.984697431027605,American English,fricative_categorical_boundary,2019_Nov_15_1241,
1,NewWord_fbackonset_sbackonset_,LowBackContinuum/,LowBackContinuum/NewWord_fbackonset_sbackonset_1.wav,,,,,,,,,,,,,,,,,,1,1,15,0,f,0.603,,,,,114,Female,19,59.984697431027605,American English,fricative_categorical_boundary,2019_Nov_15_1241,
7,NewWord_fbackonset_sbackonset_,LowBackContinuum/,LowBackContinuum/NewWord_fbackonset_sbackonset_7.wav,,,,,,,,,,,,,,,,,,1,2,16,1,f,2.105,,,,,114,Female,19,59.984697431027605,American English,fricative_categorical_boundary,2019_Nov_15_1241,
17,NewWord_fbackonset_sbackonset_,LowBackContinuum/,LowBackContinuum/NewWord_fbackonset_sbackonset_17.wav,,,,,,,,,,,,,,,,,,1,3,17,6,s,0.836,,,,,114,Female,19,59.984697431027605,American English,fricative_categorical_boundary,2019_Nov_15_1241,
13,NewWord_fbackonset_sbackonset_,LowBackContinuum/,LowBackContinuum/NewWord_fbackonset_sbackonset_13.wav,,,,,,,,,,,,,,,,,,1,4,18,4,f,0.67,,,,,114,Female,19,59.984697431027605,American English,fricative_categorical_boundary,2019_Nov_15_1241,
9,NewWord_fbackonset_sbackonset_,LowBackContinuum/,LowBackContinuum/NewWord_fbackonset_sbackonset_9.wav,,,,,,,,,,,,,,,,,,1,5,19,2,f,0.403,,,,,114,Female,19,59.984697431027605,American English,fricative_categorical_boundary,2019_Nov_15_1241,
25,NewWord_fbackonset_sbackonset_,LowBackContinuum/,LowBackContinuum/NewWord_fbackonset_sbackonset_25.wav,,,,,,,,,,,,,,,,,,1,6,20,10,s,0.92,,,,,114,Female,19,59.984697431027605,American English,fricative_categorical_boundary,2019_Nov_15_1241,
29,NewWord_fbackonset_sbackonset_,LowBackContinuum/,LowBackContinuum/NewWord_fbackonset_sbackonset_29.wav,,,,,,,,,,,,,,,,,,1,7,21,12,s,0.519,,,,,114,Female,19,59.984697431027605,American English,fricative_categorical_boundary,2019_Nov_15_1241,
41,NewWord_fbackonset_sbackonset_,LowBackContinuum/,LowBackContinuum/NewWord_fbackonset_sbackonset_41.wav,,,,,,,,,,,,,,,,,,1,8,22,13,s,0.619,,,,,114,Female,19,59.984697431027605,American English,fricative_categorical_boundary,2019_Nov_15_1241,
23,NewWord_fbackonset_sbackonset_,LowBackContinuum/,LowBackContinuum/NewWord_fbackonset_sbackonset_23.wav,,,,,,,,,,,,,,,,,,1,9,23,9,s,0.62,,,,,114,Female,19,59.984697431027605,American English,fricative_categorical_boundary,2019_Nov_15_1241,
11,NewWord_fbackonset_sbackonset_,LowBackContinuum/,LowBackContinuum/NewWord_fbackonset_sbackonset_11.wav,,,,,,,,,,,,,,,,,,1,10,24,3,f,0.519,,,,,114,Female,19,59.984697431027605,American English,fricative_categorical_boundary,2019_Nov_15_1241,
15,NewWord_fbackonset_sbackonset_,LowBackContinuum/,LowBackContinuum/NewWord_fbackonset_sbackonset_15.wav,,,,,,,,,,,,,,,,,,1,11,25,5,f,0.837,,,,,114,Female,19,59.984697431027605,American English,fricative_categorical_boundary,2019_Nov_15_1241,
21,NewWord_fbackonset_sbackonset_,LowBackContinuum/,LowBackContinuum/NewWord_fbackonset_sbackonset_21.wav,,,,,,,,,,,,,,,,,,1,12,26,8,s,0.536,,,,,114,Female,19,59.984697431027605,American English,fricative_categorical_boundary,2019_Nov_15_1241,
19,NewWord_fbackonset_sbackonset_,LowBackContinuum/,LowBackContinuum/NewWord_fbackonset_sbackonset_19.wav,,,,,,,,,,,,,,,,,,1,13,27,7,s,0.97,,,,,114,Female,19,59.984697431027605,American English,fricative_categorical_boundary,2019_Nov_15_1241,
9,NewWord_fbackonset_sbackonset_,LowBackContinuum/,LowBackContinuum/NewWord_fbackonset_sbackonset_9.wav,,,,,,,,,,,,,,,,,,2,0,28,2,f,0.403,,,,,114,Female,19,59.984697431027605,American English,fricative_categorical_boundary,2019_Nov_15_1241,
27,NewWord_fbackonset_sbackonset_,LowBackContinuum/,LowBackContinuum/NewWord_fbackonset_sbackonset_27.wav,,,,,,,,,,,,,,,,,,2,1,29,11,s,0.403,,,,,114,Female,19,59.984697431027605,American English,fricative_categorical_boundary,2019_Nov_15_1241,
41,NewWord_fbackonset_sbackonset_,LowBackContinuum/,LowBackContinuum/NewWord_fbackonset_sbackonset_41.wav,,,,,,,,,,,,,,,,,,2,2,30,13,s,0.403,,,,,114,Female,19,59.984697431027605,American English,fricative_categorical_boundary,2019_Nov_15_1241,
25,NewWord_fbackonset_sbackonset_,LowBackContinuum/,LowBackContinuum/NewWord_fbackonset_sbackonset_25.wav,,,,,,,,,,,,,,,,,,2,3,31,10,s,0.403,,,,,114,Female,19,59.984697431027605,American English,fricative_categorical_boundary,2019_Nov_15_1241,
1,NewWord_fbackonset_sbackonset_,LowBackContinuum/,LowBackContinuum/NewWord_fbackonset_sbackonset_1.wav,,,,,,,,,,,,,,,,,,2,4,32,0,f,0.669,,,,,114,Female,19,59.984697431027605,American English,fricative_categorical_boundary,2019_Nov_15_1241,
13,NewWord_fbackonset_sbackonset_,LowBackContinuum/,LowBackContinuum/NewWord_fbackonset_sbackonset_13.wav,,,,,,,,,,,,,,,,,,2,5,33,4,f,0.586,,,,,114,Female,19,59.984697431027605,American English,fricative_categorical_boundary,2019_Nov_15_1241,
7,NewWord_fbackonset_sbackonset_,LowBackContinuum/,LowBackContinuum/NewWord_fbackonset_sbackonset_7.wav,,,,,,,,,,,,,,,,,,2,6,34,1,f,0.686,,,,,114,Female,19,59.984697431027605,American English,fricative_categorical_boundary,2019_Nov_15_1241,
15,NewWord_fbackonset_sbackonset_,LowBackContinuum/,LowBackContinuum/NewWord_fbackonset_sbackonset_15.wav,,,,,,,,,,,,,,,,,,2,7,35,5,s,1.537,,,,,114,Female,19,59.984697431027605,American English,fricative_categorical_boundary,2019_Nov_15_1241,
11,NewWord_fbackonset_sbackonset_,LowBackContinuum/,LowBackContinuum/NewWord_fbackonset_sbackonset_11.wav,,,,,,,,,,,,,,,,,,2,8,36,3,f,1.304,,,,,114,Female,19,59.984697431027605,American English,fricative_categorical_boundary,2019_Nov_15_1241,
21,NewWord_fbackonset_sbackonset_,LowBackContinuum/,LowBackContinuum/NewWord_fbackonset_sbackonset_21.wav,,,,,,,,,,,,,,,,,,2,9,37,8,s,0.885,,,,,114,Female,19,59.984697431027605,American English,fricative_categorical_boundary,2019_Nov_15_1241,
19,NewWord_fbackonset_sbackonset_,LowBackContinuum/,LowBackContinuum/NewWord_fbackonset_sbackonset_19.wav,,,,,,,,,,,,,,,,,,2,10,38,7,s,0.419,,,,,114,Female,19,59.984697431027605,American English,fricative_categorical_boundary,2019_Nov_15_1241,
29,NewWord_fbackonset_sbackonset_,LowBackContinuum/,LowBackContinuum/NewWord_fbackonset_sbackonset_29.wav,,,,,,,,,,,,,,,,,,2,11,39,12,s,0.837,,,,,114,Female,19,59.984697431027605,American English,fricative_categorical_boundary,2019_Nov_15_1241,
23,NewWord_fbackonset_sbackonset_,LowBackContinuum/,LowBackContinuum/NewWord_fbackonset_sbackonset_23.wav,,,,,,,,,,,,,,,,,,2,12,40,9,s,0.486,,,,,114,Female,19,59.984697431027605,American English,fricative_categorical_boundary,2019_Nov_15_1241,
17,NewWord_fbackonset_sbackonset_,LowBackContinuum/,LowBackContinuum/NewWord_fbackonset_sbackonset_17.wav,,,,,,,,,,,,,,,,,,2,13,41,6,s,0.403,,,,,114,Female,19,59.984697431027605,American English,fricative_categorical_boundary,2019_Nov_15_1241,
41,NewWord_fbackonset_sbackonset_,LowBackContinuum/,LowBackContinuum/NewWord_fbackonset_sbackonset_41.wav,,,,,,,,,,,,,,,,,,3,0,42,13,s,0.519,,,,,114,Female,19,59.984697431027605,American English,fricative_categorical_boundary,2019_Nov_15_1241,
11,NewWord_fbackonset_sbackonset_,LowBackContinuum/,LowBackContinuum/NewWord_fbackonset_sbackonset_11.wav,,,,,,,,,,,,,,,,,,3,1,43,3,f,1.104,,,,,114,Female,19,59.984697431027605,American English,fricative_categorical_boundary,2019_Nov_15_1241,
1,NewWord_fbackonset_sbackonset_,LowBackContinuum/,LowBackContinuum/NewWord_fbackonset_sbackonset_1.wav,,,,,,,,,,,,,,,,,,3,2,44,0,f,1.003,,,,,114,Female,19,59.984697431027605,American English,fricative_categorical_boundary,2019_Nov_15_1241,
9,NewWord_fbackonset_sbackonset_,LowBackContinuum/,LowBackContinuum/NewWord_fbackonset_sbackonset_9.wav,,,,,,,,,,,,,,,,,,3,3,45,2,f,0.403,,,,,114,Female,19,59.984697431027605,American English,fricative_categorical_boundary,2019_Nov_15_1241,
25,NewWord_fbackonset_sbackonset_,LowBackContinuum/,LowBackContinuum/NewWord_fbackonset_sbackonset_25.wav,,,,,,,,,,,,,,,,,,3,4,46,10,s,0.554,,,,,114,Female,19,59.984697431027605,American English,fricative_categorical_boundary,2019_Nov_15_1241,
17,NewWord_fbackonset_sbackonset_,LowBackContinuum/,LowBackContinuum/NewWord_fbackonset_sbackonset_17.wav,,,,,,,,,,,,,,,,,,3,5,47,6,f,1.822,,,,,114,Female,19,59.984697431027605,American English,fricative_categorical_boundary,2019_Nov_15_1241,
23,NewWord_fbackonset_sbackonset_,LowBackContinuum/,LowBackContinuum/NewWord_fbackonset_sbackonset_23.wav,,,,,,,,,,,,,,,,,,3,6,48,9,s,0.82,,,,,114,Female,19,59.984697431027605,American English,fricative_categorical_boundary,2019_Nov_15_1241,
7,NewWord_fbackonset_sbackonset_,LowBackContinuum/,LowBackContinuum/NewWord_fbackonset_sbackonset_7.wav,,,,,,,,,,,,,,,,,,3,7,49,1,f,0.769,,,,,114,Female,19,59.984697431027605,American English,fricative_categorical_boundary,2019_Nov_15_1241,
21,NewWord_fbackonset_sbackonset_,LowBackContinuum/,LowBackContinuum/NewWord_fbackonset_sbackonset_21.wav,,,,,,,,,,,,,,,,,,3,8,50,8,s,1.07,,,,,114,Female,19,59.984697431027605,American English,fricative_categorical_boundary,2019_Nov_15_1241,
27,NewWord_fbackonset_sbackonset_,LowBackContinuum/,LowBackContinuum/NewWord_fbackonset_sbackonset_27.wav,,,,,,,,,,,,,,,,,,3,9,51,11,s,0.82,,,,,114,Female,19,59.984697431027605,American English,fricative_categorical_boundary,2019_Nov_15_1241,
15,NewWord_fbackonset_sbackonset_,LowBackContinuum/,LowBackContinuum/NewWord_fbackonset_sbackonset_15.wav,,,,,,,,,,,,,,,,,,3,10,52,5,f,0.819,,,,,114,Female,19,59.984697431027605,American English,fricative_categorical_boundary,2019_Nov_15_1241,
29,NewWord_fbackonset_sbackonset_,LowBackContinuum/,LowBackContinuum/NewWord_fbackonset_sbackonset_29.wav,,,,,,,,,,,,,,,,,,3,11,53,12,s,0.619,,,,,114,Female,19,59.984697431027605,American English,fricative_categorical_boundary,2019_Nov_15_1241,
13,NewWord_fbackonset_sbackonset_,LowBackContinuum/,LowBackContinuum/NewWord_fbackonset_sbackonset_13.wav,,,,,,,,,,,,,,,,,,3,12,54,4,f,0.753,,,,,114,Female,19,59.984697431027605,American English,fricative_categorical_boundary,2019_Nov_15_1241,
19,NewWord_fbackonset_sbackonset_,LowBackContinuum/,LowBackContinuum/NewWord_fbackonset_sbackonset_19.wav,,,,,,,,,,,,,,,,,,3,13,55,7,f,0.603,,,,,114,Female,19,59.984697431027605,American English,fricative_categorical_boundary,2019_Nov_15_1241,
