ChosenStep,Prefix,source,Stimuli,token,type,segment,position,syllablecount,realvsnonce,prefix,address,soundfile,trials.thisRepN,trials.thisTrialN,trials.thisN,trials.thisIndex,trials_2.thisRepN,trials_2.thisTrialN,trials_2.thisN,trials_2.thisIndex,trials_3.thisRepN,trials_3.thisTrialN,trials_3.thisN,trials_3.thisIndex,rating.response,rating.rt,key_resp_2.keys,key_resp_2.rt,key_resp_3.keys,key_resp_3.rt,participant,Gender,Age,frameRate,Native Language,expName,date,
,,,,,,,,,,,,,,,,,,,,,,,,,,,,,,,9,Female,20,59.65622639845594,American English,fricative_categorical_boundary,2019_Feb_27_1545,
,,,,,,,,,,,,,,,,,,,,,,,,,,,,,,,9,Female,20,59.65622639845594,American English,fricative_categorical_boundary,2019_Feb_27_1545,
1,NewWord_fbackonset_sbackonset_,LowBackContinuum/,LowBackContinuum/NewWord_fbackonset_sbackonset_1.wav,,,,,,,,,,0,0,0,0,,,,,,,,,f,4.774,,,,,9,Female,20,59.65622639845594,American English,fricative_categorical_boundary,2019_Feb_27_1545,
23,NewWord_fbackonset_sbackonset_,LowBackContinuum/,LowBackContinuum/NewWord_fbackonset_sbackonset_23.wav,,,,,,,,,,0,1,1,9,,,,,,,,,f,1.153,,,,,9,Female,20,59.65622639845594,American English,fricative_categorical_boundary,2019_Feb_27_1545,
7,NewWord_fbackonset_sbackonset_,LowBackContinuum/,LowBackContinuum/NewWord_fbackonset_sbackonset_7.wav,,,,,,,,,,0,2,2,1,,,,,,,,,f,0.569,,,,,9,Female,20,59.65622639845594,American English,fricative_categorical_boundary,2019_Feb_27_1545,
41,NewWord_fbackonset_sbackonset_,LowBackContinuum/,LowBackContinuum/NewWord_fbackonset_sbackonset_41.wav,,,,,,,,,,0,3,3,13,,,,,,,,,s,0.97,,,,,9,Female,20,59.65622639845594,American English,fricative_categorical_boundary,2019_Feb_27_1545,
15,NewWord_fbackonset_sbackonset_,LowBackContinuum/,LowBackContinuum/NewWord_fbackonset_sbackonset_15.wav,,,,,,,,,,0,4,4,5,,,,,,,,,f,0.603,,,,,9,Female,20,59.65622639845594,American English,fricative_categorical_boundary,2019_Feb_27_1545,
29,NewWord_fbackonset_sbackonset_,LowBackContinuum/,LowBackContinuum/NewWord_fbackonset_sbackonset_29.wav,,,,,,,,,,0,5,5,12,,,,,,,,,s,0.803,,,,,9,Female,20,59.65622639845594,American English,fricative_categorical_boundary,2019_Feb_27_1545,
11,NewWord_fbackonset_sbackonset_,LowBackContinuum/,LowBackContinuum/NewWord_fbackonset_sbackonset_11.wav,,,,,,,,,,0,6,6,3,,,,,,,,,f,0.552,,,,,9,Female,20,59.65622639845594,American English,fricative_categorical_boundary,2019_Feb_27_1545,
25,NewWord_fbackonset_sbackonset_,LowBackContinuum/,LowBackContinuum/NewWord_fbackonset_sbackonset_25.wav,,,,,,,,,,0,7,7,10,,,,,,,,,s,0.839,,,,,9,Female,20,59.65622639845594,American English,fricative_categorical_boundary,2019_Feb_27_1545,
13,NewWord_fbackonset_sbackonset_,LowBackContinuum/,LowBackContinuum/NewWord_fbackonset_sbackonset_13.wav,,,,,,,,,,0,8,8,4,,,,,,,,,f,0.52,,,,,9,Female,20,59.65622639845594,American English,fricative_categorical_boundary,2019_Feb_27_1545,
21,NewWord_fbackonset_sbackonset_,LowBackContinuum/,LowBackContinuum/NewWord_fbackonset_sbackonset_21.wav,,,,,,,,,,0,9,9,8,,,,,,,,,f,0.636,,,,,9,Female,20,59.65622639845594,American English,fricative_categorical_boundary,2019_Feb_27_1545,
17,NewWord_fbackonset_sbackonset_,LowBackContinuum/,LowBackContinuum/NewWord_fbackonset_sbackonset_17.wav,,,,,,,,,,0,10,10,6,,,,,,,,,f,0.703,,,,,9,Female,20,59.65622639845594,American English,fricative_categorical_boundary,2019_Feb_27_1545,
9,NewWord_fbackonset_sbackonset_,LowBackContinuum/,LowBackContinuum/NewWord_fbackonset_sbackonset_9.wav,,,,,,,,,,0,11,11,2,,,,,,,,,f,0.47,,,,,9,Female,20,59.65622639845594,American English,fricative_categorical_boundary,2019_Feb_27_1545,
19,NewWord_fbackonset_sbackonset_,LowBackContinuum/,LowBackContinuum/NewWord_fbackonset_sbackonset_19.wav,,,,,,,,,,0,12,12,7,,,,,,,,,f,0.403,,,,,9,Female,20,59.65622639845594,American English,fricative_categorical_boundary,2019_Feb_27_1545,
27,NewWord_fbackonset_sbackonset_,LowBackContinuum/,LowBackContinuum/NewWord_fbackonset_sbackonset_27.wav,,,,,,,,,,0,13,13,11,,,,,,,,,f,2.322,,,,,9,Female,20,59.65622639845594,American English,fricative_categorical_boundary,2019_Feb_27_1545,
21,NewWord_fbackonset_sbackonset_,LowBackContinuum/,LowBackContinuum/NewWord_fbackonset_sbackonset_21.wav,,,,,,,,,,1,0,14,8,,,,,,,,,f,0.92,,,,,9,Female,20,59.65622639845594,American English,fricative_categorical_boundary,2019_Feb_27_1545,
23,NewWord_fbackonset_sbackonset_,LowBackContinuum/,LowBackContinuum/NewWord_fbackonset_sbackonset_23.wav,,,,,,,,,,1,1,15,9,,,,,,,,,f,0.403,,,,,9,Female,20,59.65622639845594,American English,fricative_categorical_boundary,2019_Feb_27_1545,
9,NewWord_fbackonset_sbackonset_,LowBackContinuum/,LowBackContinuum/NewWord_fbackonset_sbackonset_9.wav,,,,,,,,,,1,2,16,2,,,,,,,,,f,0.586,,,,,9,Female,20,59.65622639845594,American English,fricative_categorical_boundary,2019_Feb_27_1545,
41,NewWord_fbackonset_sbackonset_,LowBackContinuum/,LowBackContinuum/NewWord_fbackonset_sbackonset_41.wav,,,,,,,,,,1,3,17,13,,,,,,,,,s,0.736,,,,,9,Female,20,59.65622639845594,American English,fricative_categorical_boundary,2019_Feb_27_1545,
15,NewWord_fbackonset_sbackonset_,LowBackContinuum/,LowBackContinuum/NewWord_fbackonset_sbackonset_15.wav,,,,,,,,,,1,4,18,5,,,,,,,,,f,0.569,,,,,9,Female,20,59.65622639845594,American English,fricative_categorical_boundary,2019_Feb_27_1545,
1,NewWord_fbackonset_sbackonset_,LowBackContinuum/,LowBackContinuum/NewWord_fbackonset_sbackonset_1.wav,,,,,,,,,,1,5,19,0,,,,,,,,,f,0.422,,,,,9,Female,20,59.65622639845594,American English,fricative_categorical_boundary,2019_Feb_27_1545,
11,NewWord_fbackonset_sbackonset_,LowBackContinuum/,LowBackContinuum/NewWord_fbackonset_sbackonset_11.wav,,,,,,,,,,1,6,20,3,,,,,,,,,f,0.686,,,,,9,Female,20,59.65622639845594,American English,fricative_categorical_boundary,2019_Feb_27_1545,
13,NewWord_fbackonset_sbackonset_,LowBackContinuum/,LowBackContinuum/NewWord_fbackonset_sbackonset_13.wav,,,,,,,,,,1,7,21,4,,,,,,,,,f,2.289,,,,,9,Female,20,59.65622639845594,American English,fricative_categorical_boundary,2019_Feb_27_1545,
25,NewWord_fbackonset_sbackonset_,LowBackContinuum/,LowBackContinuum/NewWord_fbackonset_sbackonset_25.wav,,,,,,,,,,1,8,22,10,,,,,,,,,f,0.819,,,,,9,Female,20,59.65622639845594,American English,fricative_categorical_boundary,2019_Feb_27_1545,
7,NewWord_fbackonset_sbackonset_,LowBackContinuum/,LowBackContinuum/NewWord_fbackonset_sbackonset_7.wav,,,,,,,,,,1,9,23,1,,,,,,,,,f,1.888,,,,,9,Female,20,59.65622639845594,American English,fricative_categorical_boundary,2019_Feb_27_1545,
17,NewWord_fbackonset_sbackonset_,LowBackContinuum/,LowBackContinuum/NewWord_fbackonset_sbackonset_17.wav,,,,,,,,,,1,10,24,6,,,,,,,,,f,0.653,,,,,9,Female,20,59.65622639845594,American English,fricative_categorical_boundary,2019_Feb_27_1545,
19,NewWord_fbackonset_sbackonset_,LowBackContinuum/,LowBackContinuum/NewWord_fbackonset_sbackonset_19.wav,,,,,,,,,,1,11,25,7,,,,,,,,,f,0.486,,,,,9,Female,20,59.65622639845594,American English,fricative_categorical_boundary,2019_Feb_27_1545,
27,NewWord_fbackonset_sbackonset_,LowBackContinuum/,LowBackContinuum/NewWord_fbackonset_sbackonset_27.wav,,,,,,,,,,1,12,26,11,,,,,,,,,s,1.321,,,,,9,Female,20,59.65622639845594,American English,fricative_categorical_boundary,2019_Feb_27_1545,
29,NewWord_fbackonset_sbackonset_,LowBackContinuum/,LowBackContinuum/NewWord_fbackonset_sbackonset_29.wav,,,,,,,,,,1,13,27,12,,,,,,,,,s,1.17,,,,,9,Female,20,59.65622639845594,American English,fricative_categorical_boundary,2019_Feb_27_1545,
21,NewWord_fbackonset_sbackonset_,LowBackContinuum/,LowBackContinuum/NewWord_fbackonset_sbackonset_21.wav,,,,,,,,,,2,0,28,8,,,,,,,,,f,1.004,,,,,9,Female,20,59.65622639845594,American English,fricative_categorical_boundary,2019_Feb_27_1545,
25,NewWord_fbackonset_sbackonset_,LowBackContinuum/,LowBackContinuum/NewWord_fbackonset_sbackonset_25.wav,,,,,,,,,,2,1,29,10,,,,,,,,,f,0.603,,,,,9,Female,20,59.65622639845594,American English,fricative_categorical_boundary,2019_Feb_27_1545,
13,NewWord_fbackonset_sbackonset_,LowBackContinuum/,LowBackContinuum/NewWord_fbackonset_sbackonset_13.wav,,,,,,,,,,2,2,30,4,,,,,,,,,f,0.57,,,,,9,Female,20,59.65622639845594,American English,fricative_categorical_boundary,2019_Feb_27_1545,
23,NewWord_fbackonset_sbackonset_,LowBackContinuum/,LowBackContinuum/NewWord_fbackonset_sbackonset_23.wav,,,,,,,,,,2,3,31,9,,,,,,,,,f,0.636,,,,,9,Female,20,59.65622639845594,American English,fricative_categorical_boundary,2019_Feb_27_1545,
7,NewWord_fbackonset_sbackonset_,LowBackContinuum/,LowBackContinuum/NewWord_fbackonset_sbackonset_7.wav,,,,,,,,,,2,4,32,1,,,,,,,,,f,0.569,,,,,9,Female,20,59.65622639845594,American English,fricative_categorical_boundary,2019_Feb_27_1545,
9,NewWord_fbackonset_sbackonset_,LowBackContinuum/,LowBackContinuum/NewWord_fbackonset_sbackonset_9.wav,,,,,,,,,,2,5,33,2,,,,,,,,,f,1.255,,,,,9,Female,20,59.65622639845594,American English,fricative_categorical_boundary,2019_Feb_27_1545,
11,NewWord_fbackonset_sbackonset_,LowBackContinuum/,LowBackContinuum/NewWord_fbackonset_sbackonset_11.wav,,,,,,,,,,2,6,34,3,,,,,,,,,f,0.485,,,,,9,Female,20,59.65622639845594,American English,fricative_categorical_boundary,2019_Feb_27_1545,
29,NewWord_fbackonset_sbackonset_,LowBackContinuum/,LowBackContinuum/NewWord_fbackonset_sbackonset_29.wav,,,,,,,,,,2,7,35,12,,,,,,,,,s,1.855,,,,,9,Female,20,59.65622639845594,American English,fricative_categorical_boundary,2019_Feb_27_1545,
15,NewWord_fbackonset_sbackonset_,LowBackContinuum/,LowBackContinuum/NewWord_fbackonset_sbackonset_15.wav,,,,,,,,,,2,8,36,5,,,,,,,,,f,0.787,,,,,9,Female,20,59.65622639845594,American English,fricative_categorical_boundary,2019_Feb_27_1545,
1,NewWord_fbackonset_sbackonset_,LowBackContinuum/,LowBackContinuum/NewWord_fbackonset_sbackonset_1.wav,,,,,,,,,,2,9,37,0,,,,,,,,,f,0.72,,,,,9,Female,20,59.65622639845594,American English,fricative_categorical_boundary,2019_Feb_27_1545,
27,NewWord_fbackonset_sbackonset_,LowBackContinuum/,LowBackContinuum/NewWord_fbackonset_sbackonset_27.wav,,,,,,,,,,2,10,38,11,,,,,,,,,s,0.703,,,,,9,Female,20,59.65622639845594,American English,fricative_categorical_boundary,2019_Feb_27_1545,
17,NewWord_fbackonset_sbackonset_,LowBackContinuum/,LowBackContinuum/NewWord_fbackonset_sbackonset_17.wav,,,,,,,,,,2,11,39,6,,,,,,,,,f,0.52,,,,,9,Female,20,59.65622639845594,American English,fricative_categorical_boundary,2019_Feb_27_1545,
19,NewWord_fbackonset_sbackonset_,LowBackContinuum/,LowBackContinuum/NewWord_fbackonset_sbackonset_19.wav,,,,,,,,,,2,12,40,7,,,,,,,,,f,0.686,,,,,9,Female,20,59.65622639845594,American English,fricative_categorical_boundary,2019_Feb_27_1545,
41,NewWord_fbackonset_sbackonset_,LowBackContinuum/,LowBackContinuum/NewWord_fbackonset_sbackonset_41.wav,,,,,,,,,,2,13,41,13,,,,,,,,,s,0.486,,,,,9,Female,20,59.65622639845594,American English,fricative_categorical_boundary,2019_Feb_27_1545,
7,NewWord_fbackonset_sbackonset_,LowBackContinuum/,LowBackContinuum/NewWord_fbackonset_sbackonset_7.wav,,,,,,,,,,3,0,42,1,,,,,,,,,f,1.687,,,,,9,Female,20,59.65622639845594,American English,fricative_categorical_boundary,2019_Feb_27_1545,
9,NewWord_fbackonset_sbackonset_,LowBackContinuum/,LowBackContinuum/NewWord_fbackonset_sbackonset_9.wav,,,,,,,,,,3,1,43,2,,,,,,,,,f,0.552,,,,,9,Female,20,59.65622639845594,American English,fricative_categorical_boundary,2019_Feb_27_1545,
27,NewWord_fbackonset_sbackonset_,LowBackContinuum/,LowBackContinuum/NewWord_fbackonset_sbackonset_27.wav,,,,,,,,,,3,2,44,11,,,,,,,,,s,0.536,,,,,9,Female,20,59.65622639845594,American English,fricative_categorical_boundary,2019_Feb_27_1545,
21,NewWord_fbackonset_sbackonset_,LowBackContinuum/,LowBackContinuum/NewWord_fbackonset_sbackonset_21.wav,,,,,,,,,,3,3,45,8,,,,,,,,,s,0.819,,,,,9,Female,20,59.65622639845594,American English,fricative_categorical_boundary,2019_Feb_27_1545,
23,NewWord_fbackonset_sbackonset_,LowBackContinuum/,LowBackContinuum/NewWord_fbackonset_sbackonset_23.wav,,,,,,,,,,3,4,46,9,,,,,,,,,s,0.503,,,,,9,Female,20,59.65622639845594,American English,fricative_categorical_boundary,2019_Feb_27_1545,
1,NewWord_fbackonset_sbackonset_,LowBackContinuum/,LowBackContinuum/NewWord_fbackonset_sbackonset_1.wav,,,,,,,,,,3,5,47,0,,,,,,,,,f,0.919,,,,,9,Female,20,59.65622639845594,American English,fricative_categorical_boundary,2019_Feb_27_1545,
13,NewWord_fbackonset_sbackonset_,LowBackContinuum/,LowBackContinuum/NewWord_fbackonset_sbackonset_13.wav,,,,,,,,,,3,6,48,4,,,,,,,,,f,0.436,,,,,9,Female,20,59.65622639845594,American English,fricative_categorical_boundary,2019_Feb_27_1545,
17,NewWord_fbackonset_sbackonset_,LowBackContinuum/,LowBackContinuum/NewWord_fbackonset_sbackonset_17.wav,,,,,,,,,,3,7,49,6,,,,,,,,,f,1.086,,,,,9,Female,20,59.65622639845594,American English,fricative_categorical_boundary,2019_Feb_27_1545,
25,NewWord_fbackonset_sbackonset_,LowBackContinuum/,LowBackContinuum/NewWord_fbackonset_sbackonset_25.wav,,,,,,,,,,3,8,50,10,,,,,,,,,s,0.802,,,,,9,Female,20,59.65622639845594,American English,fricative_categorical_boundary,2019_Feb_27_1545,
29,NewWord_fbackonset_sbackonset_,LowBackContinuum/,LowBackContinuum/NewWord_fbackonset_sbackonset_29.wav,,,,,,,,,,3,9,51,12,,,,,,,,,s,0.402,,,,,9,Female,20,59.65622639845594,American English,fricative_categorical_boundary,2019_Feb_27_1545,
15,NewWord_fbackonset_sbackonset_,LowBackContinuum/,LowBackContinuum/NewWord_fbackonset_sbackonset_15.wav,,,,,,,,,,3,10,52,5,,,,,,,,,f,0.553,,,,,9,Female,20,59.65622639845594,American English,fricative_categorical_boundary,2019_Feb_27_1545,
11,NewWord_fbackonset_sbackonset_,LowBackContinuum/,LowBackContinuum/NewWord_fbackonset_sbackonset_11.wav,,,,,,,,,,3,11,53,3,,,,,,,,,f,0.653,,,,,9,Female,20,59.65622639845594,American English,fricative_categorical_boundary,2019_Feb_27_1545,
41,NewWord_fbackonset_sbackonset_,LowBackContinuum/,LowBackContinuum/NewWord_fbackonset_sbackonset_41.wav,,,,,,,,,,3,12,54,13,,,,,,,,,s,0.47,,,,,9,Female,20,59.65622639845594,American English,fricative_categorical_boundary,2019_Feb_27_1545,
19,NewWord_fbackonset_sbackonset_,LowBackContinuum/,LowBackContinuum/NewWord_fbackonset_sbackonset_19.wav,,,,,,,,,,3,13,55,7,,,,,,,,,f,0.753,,,,,9,Female,20,59.65622639845594,American English,fricative_categorical_boundary,2019_Feb_27_1545,
,,,,,,,,,,,,,,,,,,,,,,,,,,,space,14.954310894,,,9,Female,20,59.65622639845594,American English,fricative_categorical_boundary,2019_Feb_27_1545,
,,,,lopenad,filler,None,None,None,nonce,None,LDTSounds/,LDTSounds/lopenad.wav,,,,,0,0,0,123,,,,,,,,,a,4.99192810059,9,Female,20,59.65622639845594,American English,fricative_categorical_boundary,2019_Feb_27_1545,
,,,,hapooli,filler,None,None,None,nonce,None,LDTSounds/,LDTSounds/hapooli.wav,,,,,0,1,1,126,,,,,,,,,a,1.25383806229,9,Female,20,59.65622639845594,American English,fricative_categorical_boundary,2019_Feb_27_1545,
,,,,noopalingdo,filler,None,None,None,nonce,None,LDTSounds/,LDTSounds/noopalingdo.wav,,,,,0,2,2,135,,,,,,,,,a,1.35338807106,9,Female,20,59.65622639845594,American English,fricative_categorical_boundary,2019_Feb_27_1545,
,,,,kinudiplo,filler,None,None,None,nonce,None,LDTSounds/,LDTSounds/kinudiplo.wav,,,,,0,3,3,149,,,,,,,,,a,1.43685913086,9,Female,20,59.65622639845594,American English,fricative_categorical_boundary,2019_Feb_27_1545,
,,,,toin,filler,None,None,None,nonce,None,LDTSounds/,LDTSounds/toin.wav,,,,,0,4,4,88,,,,,,,,,a,4.15682482719,9,Female,20,59.65622639845594,American English,fricative_categorical_boundary,2019_Feb_27_1545,
,,,,trag,filler,None,None,None,nonce,None,LDTSounds/,LDTSounds/trag.wav,,,,,0,5,5,84,,,,,,,,,l,2.32074189186,9,Female,20,59.65622639845594,American English,fricative_categorical_boundary,2019_Feb_27_1545,
,,,,line,filler,None,None,None,real,None,LDTSounds/,LDTSounds/line.wav,,,,,0,6,6,46,,,,,,,,,l,1.42069816589,9,Female,20,59.65622639845594,American English,fricative_categorical_boundary,2019_Feb_27_1545,
,,,,rone,filler,None,None,None,nonce,None,LDTSounds/,LDTSounds/rone.wav,,,,,0,7,7,92,,,,,,,,,l,2.5887260437,9,Female,20,59.65622639845594,American English,fricative_categorical_boundary,2019_Feb_27_1545,
,,,,CLIFF,test,f,coda,1.0,None,None,LDTSounds/,LDTSounds/CLIFF.wav,,,,,0,8,8,0,,,,,,,,,l,0.786660909653,9,Female,20,59.65622639845594,American English,fricative_categorical_boundary,2019_Feb_27_1545,
,,,,gelp,filler,None,None,None,nonce,None,LDTSounds/,LDTSounds/gelp.wav,,,,,0,9,9,85,,,,,,,,,a,1.20358395576,9,Female,20,59.65622639845594,American English,fricative_categorical_boundary,2019_Feb_27_1545,
,,,,kililitbi,filler,None,None,None,nonce,None,LDTSounds/,LDTSounds/kililitbi.wav,,,,,0,10,10,145,,,,,,,,,a,1.2703909874,9,Female,20,59.65622639845594,American English,fricative_categorical_boundary,2019_Feb_27_1545,
,,,,FISH,test,f,onset,1.0,None,None,LDTSounds/,LDTSounds/FISH.wav,,,,,0,11,11,13,,,,,,,,,l,1.38743805885,9,Female,20,59.65622639845594,American English,fricative_categorical_boundary,2019_Feb_27_1545,
,,,,SEEM,test,s,onset,1.0,None,None,LDTSounds/,LDTSounds/SEEM.wav,,,,,0,12,12,26,,,,,,,,,l,1.02029204369,9,Female,20,59.65622639845594,American English,fricative_categorical_boundary,2019_Feb_27_1545,
,,,,lemur,filler,None,None,None,real,None,LDTSounds/,LDTSounds/lemur.wav,,,,,0,13,13,68,,,,,,,,,l,0.919099092484,9,Female,20,59.65622639845594,American English,fricative_categorical_boundary,2019_Feb_27_1545,
,,,,dewagelin,filler,None,None,None,nonce,None,LDTSounds/,LDTSounds/dewagelin.wav,,,,,0,14,14,143,,,,,,,,,a,1.75363993645,9,Female,20,59.65622639845594,American English,fricative_categorical_boundary,2019_Feb_27_1545,
,,,,yoog,filler,None,None,None,nonce,None,LDTSounds/,LDTSounds/yoog.wav,,,,,0,15,15,90,,,,,,,,,a,3.00492191315,9,Female,20,59.65622639845594,American English,fricative_categorical_boundary,2019_Feb_27_1545,
,,,,SEATED,test,s,onset,2.0,None,None,LDTSounds/,LDTSounds/SEATED.wav,,,,,0,16,16,22,,,,,,,,,l,1.47029185295,9,Female,20,59.65622639845594,American English,fricative_categorical_boundary,2019_Feb_27_1545,
,,,,magmilnt,filler,None,None,None,nonce,None,LDTSounds/,LDTSounds/magmilnt.wav,,,,,0,17,17,107,,,,,,,,,l,1.58791303635,9,Female,20,59.65622639845594,American English,fricative_categorical_boundary,2019_Feb_27_1545,
,,,,tomb,filler,None,None,None,real,None,LDTSounds/,LDTSounds/tomb.wav,,,,,0,18,18,35,,,,,,,,,l,1.0862159729,9,Female,20,59.65622639845594,American English,fricative_categorical_boundary,2019_Feb_27_1545,
,,,,weg,filler,None,None,None,nonce,None,LDTSounds/,LDTSounds/weg.wav,,,,,0,19,19,78,,,,,,,,,l,0.987141132355,9,Female,20,59.65622639845594,American English,fricative_categorical_boundary,2019_Feb_27_1545,
,,,,kebnoti,filler,None,None,None,nonce,None,LDTSounds/,LDTSounds/kebnoti.wav,,,,,0,20,20,121,,,,,,,,,a,1.22026586533,9,Female,20,59.65622639845594,American English,fricative_categorical_boundary,2019_Feb_27_1545,
,,,,rivathrog,filler,None,None,None,nonce,None,LDTSounds/,LDTSounds/rivathrog.wav,,,,,0,21,21,131,,,,,,,,,a,2.02153301239,9,Female,20,59.65622639845594,American English,fricative_categorical_boundary,2019_Feb_27_1545,
,,,,bindilamok,filler,None,None,None,nonce,None,LDTSounds/,LDTSounds/bindilamok.wav,,,,,0,22,22,148,,,,,,,,,a,1.47031497955,9,Female,20,59.65622639845594,American English,fricative_categorical_boundary,2019_Feb_27_1545,
,,,,kotlim,filler,None,None,None,nonce,None,LDTSounds/,LDTSounds/kotlim.wav,,,,,0,23,23,114,,,,,,,,,a,1.28793787956,9,Female,20,59.65622639845594,American English,fricative_categorical_boundary,2019_Feb_27_1545,
,,,,drip,filler,None,None,None,real,None,LDTSounds/,LDTSounds/drip.wav,,,,,0,24,24,51,,,,,,,,,l,1.06824803352,9,Female,20,59.65622639845594,American English,fricative_categorical_boundary,2019_Feb_27_1545,
,,,,relnt,filler,None,None,None,nonce,None,LDTSounds/,LDTSounds/relnt.wav,,,,,0,25,25,83,,,,,,,,,a,1.25355100632,9,Female,20,59.65622639845594,American English,fricative_categorical_boundary,2019_Feb_27_1545,
,,,,rat,filler,None,None,None,real,None,LDTSounds/,LDTSounds/rat.wav,,,,,0,26,26,47,,,,,,,,,l,1.40397310257,9,Female,20,59.65622639845594,American English,fricative_categorical_boundary,2019_Feb_27_1545,
,,,,poginito,filler,None,None,None,nonce,None,LDTSounds/,LDTSounds/poginito.wav,,,,,0,27,27,139,,,,,,,,,a,1.57065296173,9,Female,20,59.65622639845594,American English,fricative_categorical_boundary,2019_Feb_27_1545,
,,,,pen,filler,None,None,None,real,None,LDTSounds/,LDTSounds/pen.wav,,,,,0,28,28,40,,,,,,,,,l,1.1696369648,9,Female,20,59.65622639845594,American English,fricative_categorical_boundary,2019_Feb_27_1545,
,,,,truck,filler,None,None,None,real,None,LDTSounds/,LDTSounds/truck.wav,,,,,0,29,29,34,,,,,,,,,l,1.17003202438,9,Female,20,59.65622639845594,American English,fricative_categorical_boundary,2019_Feb_27_1545,
,,,,SEEK,test,s,onset,1.0,None,None,LDTSounds/,LDTSounds/SEEK.wav,,,,,0,30,30,24,,,,,,,,,l,1.42115497589,9,Female,20,59.65622639845594,American English,fricative_categorical_boundary,2019_Feb_27_1545,
,,,,will,filler,None,None,None,real,None,LDTSounds/,LDTSounds/will.wav,,,,,0,31,31,49,,,,,,,,,l,0.736552000046,9,Female,20,59.65622639845594,American English,fricative_categorical_boundary,2019_Feb_27_1545,
,,,,plone,filler,None,None,None,nonce,None,LDTSounds/,LDTSounds/plone.wav,,,,,0,32,32,76,,,,,,,,,a,1.43472504616,9,Female,20,59.65622639845594,American English,fricative_categorical_boundary,2019_Feb_27_1545,
,,,,FEEBLE,test,f,onset,2.0,None,None,LDTSounds/,LDTSounds/FEEBLE.wav,,,,,0,33,33,1,,,,,,,,,l,1.18668007851,9,Female,20,59.65622639845594,American English,fricative_categorical_boundary,2019_Feb_27_1545,
,,,,rone,filler,None,None,None,nonce,None,LDTSounds/,LDTSounds/rone.wav,,,,,0,34,34,79,,,,,,,,,l,1.0541908741,9,Female,20,59.65622639845594,American English,fricative_categorical_boundary,2019_Feb_27_1545,
,,,,cratbool,filler,None,None,None,nonce,None,LDTSounds/,LDTSounds/cratbool.wav,,,,,0,35,35,106,,,,,,,,,a,1.60400700569,9,Female,20,59.65622639845594,American English,fricative_categorical_boundary,2019_Feb_27_1545,
,,,,SIM,test,s,onset,1.0,None,None,LDTSounds/,LDTSounds/SIM.wav,,,,,0,36,36,31,,,,,,,,,l,0.953370809555,9,Female,20,59.65622639845594,American English,fricative_categorical_boundary,2019_Feb_27_1545,
,,,,data,filler,None,None,None,real,None,LDTSounds/,LDTSounds/data.wav,,,,,0,37,37,62,,,,,,,,,l,1.187073946,9,Female,20,59.65622639845594,American English,fricative_categorical_boundary,2019_Feb_27_1545,
,,,,mole,filler,None,None,None,real,None,LDTSounds/,LDTSounds/mole.wav,,,,,0,38,38,42,,,,,,,,,l,1.15328502655,9,Female,20,59.65622639845594,American English,fricative_categorical_boundary,2019_Feb_27_1545,
,,,,butter,filler,None,None,None,real,None,LDTSounds/,LDTSounds/butter.wav,,,,,0,39,39,60,,,,,,,,,l,0.903601884842,9,Female,20,59.65622639845594,American English,fricative_categorical_boundary,2019_Feb_27_1545,
,,,,deemlond,filler,None,None,None,nonce,None,LDTSounds/,LDTSounds/deemlond.wav,,,,,0,40,40,104,,,,,,,,,a,2.05395293236,9,Female,20,59.65622639845594,American English,fricative_categorical_boundary,2019_Feb_27_1545,
,,,,toilet,filler,None,None,None,real,None,LDTSounds/,LDTSounds/toilet.wav,,,,,0,41,41,67,,,,,,,,,l,0.936975002289,9,Female,20,59.65622639845594,American English,fricative_categorical_boundary,2019_Feb_27_1545,
,,,,hapekt,filler,None,None,None,nonce,None,LDTSounds/,LDTSounds/hapekt.wav,,,,,0,42,42,116,,,,,,,,,a,1.33671784401,9,Female,20,59.65622639845594,American English,fricative_categorical_boundary,2019_Feb_27_1545,
,,,,mall,filler,None,None,None,real,None,LDTSounds/,LDTSounds/mall.wav,,,,,0,43,43,43,,,,,,,,,a,1.02004218102,9,Female,20,59.65622639845594,American English,fricative_categorical_boundary,2019_Feb_27_1545,
,,,,baking,filler,None,None,None,real,None,LDTSounds/,LDTSounds/baking.wav,,,,,0,44,44,69,,,,,,,,,l,0.667849063873,9,Female,20,59.65622639845594,American English,fricative_categorical_boundary,2019_Feb_27_1545,
,,,,tridalondit,filler,None,None,None,nonce,None,LDTSounds/,LDTSounds/tridalondit.wav,,,,,0,45,45,146,,,,,,,,,a,1.68778395653,9,Female,20,59.65622639845594,American English,fricative_categorical_boundary,2019_Feb_27_1545,
,,,,SING,test,s,onset,1.0,None,None,LDTSounds/,LDTSounds/SING.wav,,,,,0,46,46,32,,,,,,,,,l,0.952818155289,9,Female,20,59.65622639845594,American English,fricative_categorical_boundary,2019_Feb_27_1545,
,,,,BLISS,test,s,coda,1.0,None,None,LDTSounds/,LDTSounds/BLISS.wav,,,,,0,47,47,17,,,,,,,,,l,0.803017854691,9,Female,20,59.65622639845594,American English,fricative_categorical_boundary,2019_Feb_27_1545,
,,,,rowboat,filler,None,None,None,real,None,LDTSounds/,LDTSounds/rowboat.wav,,,,,0,48,48,56,,,,,,,,,l,1.25383400917,9,Female,20,59.65622639845594,American English,fricative_categorical_boundary,2019_Feb_27_1545,
,,,,metroy,filler,None,None,None,nonce,None,LDTSounds/,LDTSounds/metroy.wav,,,,,0,49,49,100,,,,,,,,,a,1.55454707146,9,Female,20,59.65622639845594,American English,fricative_categorical_boundary,2019_Feb_27_1545,
,,,,SEETHING,test,s,onset,2.0,None,None,LDTSounds/,LDTSounds/SEETHING.wav,,,,,0,50,50,28,,,,,,,,,l,1.2875161171,9,Female,20,59.65622639845594,American English,fricative_categorical_boundary,2019_Feb_27_1545,
,,,,FILL,test,f,onset,1.0,None,None,LDTSounds/,LDTSounds/FILL.wav,,,,,0,51,51,10,,,,,,,,,l,1.08650898933,9,Female,20,59.65622639845594,American English,fricative_categorical_boundary,2019_Feb_27_1545,
,,,,PIECE,test,s,coda,1.0,None,None,LDTSounds/,LDTSounds/PIECE.wav,,,,,0,52,52,20,,,,,,,,,l,0.837168931961,9,Female,20,59.65622639845594,American English,fricative_categorical_boundary,2019_Feb_27_1545,
,,,,krebdingolee,filler,None,None,None,nonce,None,LDTSounds/,LDTSounds/krebdingolee.wav,,,,,0,53,53,147,,,,,,,,,a,1.18728303909,9,Female,20,59.65622639845594,American English,fricative_categorical_boundary,2019_Feb_27_1545,
,,,,FEMALE,test,f,onset,2.0,None,None,LDTSounds/,LDTSounds/FEMALE.wav,,,,,0,54,54,3,,,,,,,,,l,1.03661489487,9,Female,20,59.65622639845594,American English,fricative_categorical_boundary,2019_Feb_27_1545,
,,,,SEEKER,test,s,onset,2.0,None,None,LDTSounds/,LDTSounds/SEEKER.wav,,,,,0,55,55,25,,,,,,,,,l,1.55414605141,9,Female,20,59.65622639845594,American English,fricative_categorical_boundary,2019_Feb_27_1545,
,,,,ratwell,filler,None,None,None,nonce,None,LDTSounds/,LDTSounds/ratwell.wav,,,,,0,56,56,108,,,,,,,,,a,1.27040886879,9,Female,20,59.65622639845594,American English,fricative_categorical_boundary,2019_Feb_27_1545,
,,,,ligbee,filler,None,None,None,nonce,None,LDTSounds/,LDTSounds/ligbee.wav,,,,,0,57,57,95,,,,,,,,,a,1.48705816269,9,Female,20,59.65622639845594,American English,fricative_categorical_boundary,2019_Feb_27_1545,
,,,,FETAL,test,f,onset,2.0,None,None,LDTSounds/,LDTSounds/FETAL.wav,,,,,0,58,58,4,,,,,,,,,l,0.954490184784,9,Female,20,59.65622639845594,American English,fricative_categorical_boundary,2019_Feb_27_1545,
,,,,loot,filler,None,None,None,real,None,LDTSounds/,LDTSounds/loot.wav,,,,,0,59,59,37,,,,,,,,,l,0.970103979111,9,Female,20,59.65622639845594,American English,fricative_categorical_boundary,2019_Feb_27_1545,
,,,,roip,filler,None,None,None,nonce,None,LDTSounds/,LDTSounds/roip.wav,,,,,0,60,60,89,,,,,,,,,a,0.920087099075,9,Female,20,59.65622639845594,American English,fricative_categorical_boundary,2019_Feb_27_1545,
,,,,yoodalin,filler,None,None,None,nonce,None,LDTSounds/,LDTSounds/yoodalin.wav,,,,,0,61,61,125,,,,,,,,,a,1.4206469059,9,Female,20,59.65622639845594,American English,fricative_categorical_boundary,2019_Feb_27_1545,
,,,,datoonmeg,filler,None,None,None,nonce,None,LDTSounds/,LDTSounds/datoonmeg.wav,,,,,0,62,62,133,,,,,,,,,a,1.9872739315,9,Female,20,59.65622639845594,American English,fricative_categorical_boundary,2019_Feb_27_1545,
,,,,SEEPING,test,s,onset,2.0,None,None,LDTSounds/,LDTSounds/SEEPING.wav,,,,,0,63,63,27,,,,,,,,,l,1.35402202606,9,Female,20,59.65622639845594,American English,fricative_categorical_boundary,2019_Feb_27_1545,
,,,,jupiter,filler,None,None,None,real,None,LDTSounds/,LDTSounds/jupiter.wav,,,,,0,64,64,74,,,,,,,,,l,0.87024307251,9,Female,20,59.65622639845594,American English,fricative_categorical_boundary,2019_Feb_27_1545,
,,,,FELINE,test,f,onset,2.0,None,None,LDTSounds/,LDTSounds/FELINE.wav,,,,,0,65,65,2,,,,,,,,,l,1.4015481472,9,Female,20,59.65622639845594,American English,fricative_categorical_boundary,2019_Feb_27_1545,
,,,,FIEND,test,f,onset,1.0,None,None,LDTSounds/,LDTSounds/FIEND.wav,,,,,0,66,66,7,,,,,,,,,l,2.60535788536,9,Female,20,59.65622639845594,American English,fricative_categorical_boundary,2019_Feb_27_1545,
,,,,yoogul,filler,None,None,None,nonce,None,LDTSounds/,LDTSounds/yoogul.wav,,,,,0,67,67,102,,,,,,,,,l,1.37052083015,9,Female,20,59.65622639845594,American English,fricative_categorical_boundary,2019_Feb_27_1545,
,,,,GEESE,test,s,coda,1.0,None,None,LDTSounds/,LDTSounds/GEESE.wav,,,,,0,68,68,18,,,,,,,,,l,0.834379911423,9,Female,20,59.65622639845594,American English,fricative_categorical_boundary,2019_Feb_27_1545,
,,,,blegondanit,filler,None,None,None,nonce,None,LDTSounds/,LDTSounds/blegondanit.wav,,,,,0,69,69,144,,,,,,,,,a,1.41889190674,9,Female,20,59.65622639845594,American English,fricative_categorical_boundary,2019_Feb_27_1545,
,,,,rekmate,filler,None,None,None,nonce,None,LDTSounds/,LDTSounds/rekmate.wav,,,,,0,70,70,103,,,,,,,,,a,1.10394906998,9,Female,20,59.65622639845594,American English,fricative_categorical_boundary,2019_Feb_27_1545,
,,,,FIB,test,f,onset,1.0,None,None,LDTSounds/,LDTSounds/FIB.wav,,,,,0,71,71,6,,,,,,,,,l,1.02028989792,9,Female,20,59.65622639845594,American English,fricative_categorical_boundary,2019_Feb_27_1545,
,,,,yellow,filler,None,None,None,real,None,LDTSounds/,LDTSounds/yellow.wav,,,,,0,72,72,73,,,,,,,,,l,0.80295920372,9,Female,20,59.65622639845594,American English,fricative_categorical_boundary,2019_Feb_27_1545,
,,,,bidbowk,filler,None,None,None,nonce,None,LDTSounds/,LDTSounds/bidbowk.wav,,,,,0,73,73,109,,,,,,,,,a,1.05359387398,9,Female,20,59.65622639845594,American English,fricative_categorical_boundary,2019_Feb_27_1545,
,,,,twek,filler,None,None,None,nonce,None,LDTSounds/,LDTSounds/twek.wav,,,,,0,74,74,80,,,,,,,,,a,1.78751921654,9,Female,20,59.65622639845594,American English,fricative_categorical_boundary,2019_Feb_27_1545,
,,,,habalipdee,filler,None,None,None,nonce,None,LDTSounds/,LDTSounds/habalipdee.wav,,,,,0,75,75,140,,,,,,,,,a,1.2877779007,9,Female,20,59.65622639845594,American English,fricative_categorical_boundary,2019_Feb_27_1545,
,,,,typing,filler,None,None,None,real,None,LDTSounds/,LDTSounds/typing.wav,,,,,0,76,76,70,,,,,,,,,l,1.1031358242,9,Female,20,59.65622639845594,American English,fricative_categorical_boundary,2019_Feb_27_1545,
,,,,poindool,filler,None,None,None,nonce,None,LDTSounds/,LDTSounds/poindool.wav,,,,,0,77,77,96,,,,,,,,,a,1.43709492683,9,Female,20,59.65622639845594,American English,fricative_categorical_boundary,2019_Feb_27_1545,
,,,,SEEING,test,s,onset,2.0,None,None,LDTSounds/,LDTSounds/SEEING.wav,,,,,0,78,78,23,,,,,,,,,l,1.32072710991,9,Female,20,59.65622639845594,American English,fricative_categorical_boundary,2019_Feb_27_1545,
,,,,wegring,filler,None,None,None,nonce,None,LDTSounds/,LDTSounds/wegring.wav,,,,,0,79,79,97,,,,,,,,,a,1.01979398727,9,Female,20,59.65622639845594,American English,fricative_categorical_boundary,2019_Feb_27_1545,
,,,,WHIFF,test,f,coda,1.0,None,None,LDTSounds/,LDTSounds/WHIFF.wav,,,,,0,80,80,16,,,,,,,,,l,1.90317893028,9,Female,20,59.65622639845594,American English,fricative_categorical_boundary,2019_Feb_27_1545,
,,,,mitger,filler,None,None,None,nonce,None,LDTSounds/,LDTSounds/mitger.wav,,,,,0,81,81,111,,,,,,,,,a,1.21856188774,9,Female,20,59.65622639845594,American English,fricative_categorical_boundary,2019_Feb_27_1545,
,,,,habapithloo,filler,None,None,None,nonce,None,LDTSounds/,LDTSounds/habapithloo.wav,,,,,0,82,82,136,,,,,,,,,a,1.13684201241,9,Female,20,59.65622639845594,American English,fricative_categorical_boundary,2019_Feb_27_1545,
,,,,retlid,filler,None,None,None,nonce,None,LDTSounds/,LDTSounds/retlid.wav,,,,,0,83,83,105,,,,,,,,,a,1.03684902191,9,Female,20,59.65622639845594,American English,fricative_categorical_boundary,2019_Feb_27_1545,
,,,,yoomake,filler,None,None,None,nonce,None,LDTSounds/,LDTSounds/yoomake.wav,,,,,0,84,84,99,,,,,,,,,a,1.00317692757,9,Female,20,59.65622639845594,American English,fricative_categorical_boundary,2019_Feb_27_1545,
,,,,ledmon,filler,None,None,None,nonce,None,LDTSounds/,LDTSounds/ledmon.wav,,,,,0,85,85,94,,,,,,,,,a,1.02058291435,9,Female,20,59.65622639845594,American English,fricative_categorical_boundary,2019_Feb_27_1545,
,,,,lick,filler,None,None,None,real,None,LDTSounds/,LDTSounds/lick.wav,,,,,0,86,86,41,,,,,,,,,l,1.00322794914,9,Female,20,59.65622639845594,American English,fricative_categorical_boundary,2019_Feb_27_1545,
,,,,tuba,filler,None,None,None,real,None,LDTSounds/,LDTSounds/tuba.wav,,,,,0,87,87,57,,,,,,,,,l,1.00369000435,9,Female,20,59.65622639845594,American English,fricative_categorical_boundary,2019_Feb_27_1545,
,,,,FILM,test,f,onset,1.0,None,None,LDTSounds/,LDTSounds/FILM.wav,,,,,0,88,88,11,,,,,,,,,l,0.719851016998,9,Female,20,59.65622639845594,American English,fricative_categorical_boundary,2019_Feb_27_1545,
,,,,doonagort,filler,None,None,None,nonce,None,LDTSounds/,LDTSounds/doonagort.wav,,,,,0,89,89,127,,,,,,,,,a,1.1028380394,9,Female,20,59.65622639845594,American English,fricative_categorical_boundary,2019_Feb_27_1545,
,,,,globe,filler,None,None,None,real,None,LDTSounds/,LDTSounds/globe.wav,,,,,0,90,90,52,,,,,,,,,l,0.970453977585,9,Female,20,59.65622639845594,American English,fricative_categorical_boundary,2019_Feb_27_1545,
,,,,radoobling,filler,None,None,None,nonce,None,LDTSounds/,LDTSounds/radoobling.wav,,,,,0,91,91,142,,,,,,,,,a,0.95448589325,9,Female,20,59.65622639845594,American English,fricative_categorical_boundary,2019_Feb_27_1545,
,,,,waip,filler,None,None,None,nonce,None,LDTSounds/,LDTSounds/waip.wav,,,,,0,92,92,91,,,,,,,,,a,2.137789011,9,Female,20,59.65622639845594,American English,fricative_categorical_boundary,2019_Feb_27_1545,
,,,,boondatribnok,filler,None,None,None,nonce,None,LDTSounds/,LDTSounds/boondatribnok.wav,,,,,0,93,93,137,,,,,,,,,a,1.48769021034,9,Female,20,59.65622639845594,American English,fricative_categorical_boundary,2019_Feb_27_1545,
,,,,laker,filler,None,None,None,real,None,LDTSounds/,LDTSounds/laker.wav,,,,,0,94,94,58,,,,,,,,,l,1.06959319115,9,Female,20,59.65622639845594,American English,fricative_categorical_boundary,2019_Feb_27_1545,
,,,,himp,filler,None,None,None,nonce,None,LDTSounds/,LDTSounds/himp.wav,,,,,0,95,95,75,,,,,,,,,a,3.00655508041,9,Female,20,59.65622639845594,American English,fricative_categorical_boundary,2019_Feb_27_1545,
,,,,yilk,filler,None,None,None,nonce,None,LDTSounds/,LDTSounds/yilk.wav,,,,,0,96,96,82,,,,,,,,,a,1.0878880024,9,Female,20,59.65622639845594,American English,fricative_categorical_boundary,2019_Feb_27_1545,
,,,,FIFTH,test,f,onset,1.0,None,None,LDTSounds/,LDTSounds/FIFTH.wav,,,,,0,97,97,8,,,,,,,,,l,0.787250041962,9,Female,20,59.65622639845594,American English,fricative_categorical_boundary,2019_Feb_27_1545,
,,,,lump,filler,None,None,None,real,None,LDTSounds/,LDTSounds/lump.wav,,,,,0,98,98,54,,,,,,,,,l,0.771054029465,9,Female,20,59.65622639845594,American English,fricative_categorical_boundary,2019_Feb_27_1545,
,,,,taklibd,filler,None,None,None,nonce,None,LDTSounds/,LDTSounds/taklibd.wav,,,,,0,99,99,101,,,,,,,,,a,1.43819499016,9,Female,20,59.65622639845594,American English,fricative_categorical_boundary,2019_Feb_27_1545,
,,,,pendalimt,filler,None,None,None,nonce,None,LDTSounds/,LDTSounds/pendalimt.wav,,,,,0,100,100,118,,,,,,,,,a,1.28763508797,9,Female,20,59.65622639845594,American English,fricative_categorical_boundary,2019_Feb_27_1545,
,,,,giblo,filler,None,None,None,nonce,None,LDTSounds/,LDTSounds/giblo.wav,,,,,0,101,101,93,,,,,,,,,a,0.921976089478,9,Female,20,59.65622639845594,American English,fricative_categorical_boundary,2019_Feb_27_1545,
,,,,boycott,filler,None,None,None,real,None,LDTSounds/,LDTSounds/boycott.wav,,,,,0,102,102,71,,,,,,,,,l,0.987144947052,9,Female,20,59.65622639845594,American English,fricative_categorical_boundary,2019_Feb_27_1545,
,,,,FIJI,test,f,onset,2.0,None,None,LDTSounds/,LDTSounds/FIJI.wav,,,,,0,103,103,9,,,,,,,,,l,1.33825302124,9,Female,20,59.65622639845594,American English,fricative_categorical_boundary,2019_Feb_27_1545,
,,,,cridamlo,filler,None,None,None,nonce,None,LDTSounds/,LDTSounds/cridamlo.wav,,,,,0,104,104,122,,,,,,,,,a,3.22051215172,9,Female,20,59.65622639845594,American English,fricative_categorical_boundary,2019_Feb_27_1545,
,,,,dripnalong,filler,None,None,None,nonce,None,LDTSounds/,LDTSounds/dripnalong.wav,,,,,0,105,105,124,,,,,,,,,a,1.23805713654,9,Female,20,59.65622639845594,American English,fricative_categorical_boundary,2019_Feb_27_1545,
,,,,pingloon,filler,None,None,None,nonce,None,LDTSounds/,LDTSounds/pingloon.wav,,,,,0,106,106,110,,,,,,,,,a,1.33880805969,9,Female,20,59.65622639845594,American English,fricative_categorical_boundary,2019_Feb_27_1545,
,,,,FILTH,test,f,onset,1.0,None,None,LDTSounds/,LDTSounds/FILTH.wav,,,,,0,107,107,12,,,,,,,,,l,2.15611410141,9,Female,20,59.65622639845594,American English,fricative_categorical_boundary,2019_Feb_27_1545,
,,,,building,filler,None,None,None,real,None,LDTSounds/,LDTSounds/building.wav,,,,,0,108,108,55,,,,,,,,,l,0.93798494339,9,Female,20,59.65622639845594,American English,fricative_categorical_boundary,2019_Feb_27_1545,
,,,,REEF,test,f,coda,1.0,None,None,LDTSounds/,LDTSounds/REEF.wav,,,,,0,109,109,14,,,,,,,,,l,0.986914873123,9,Female,20,59.65622639845594,American English,fricative_categorical_boundary,2019_Feb_27_1545,
,,,,maker,filler,None,None,None,real,None,LDTSounds/,LDTSounds/maker.wav,,,,,0,110,110,64,,,,,,,,,l,1.38727402687,9,Female,20,59.65622639845594,American English,fricative_categorical_boundary,2019_Feb_27_1545,
,,,,while,filler,None,None,None,real,None,LDTSounds/,LDTSounds/while.wav,,,,,0,111,111,48,,,,,,,,,l,1.02171611786,9,Female,20,59.65622639845594,American English,fricative_categorical_boundary,2019_Feb_27_1545,
,,,,KISS,test,s,coda,1.0,None,None,LDTSounds/,LDTSounds/KISS.wav,,,,,0,112,112,19,,,,,,,,,l,0.870151996613,9,Female,20,59.65622639845594,American English,fricative_categorical_boundary,2019_Feb_27_1545,
,,,,hoong,filler,None,None,None,nonce,None,LDTSounds/,LDTSounds/hoong.wav,,,,,0,113,113,81,,,,,,,,,a,1.35545086861,9,Female,20,59.65622639845594,American English,fricative_categorical_boundary,2019_Feb_27_1545,
,,,,trooper,filler,None,None,None,real,None,LDTSounds/,LDTSounds/trooper.wav,,,,,0,114,114,66,,,,,,,,,l,1.738530159,9,Female,20,59.65622639845594,American English,fricative_categorical_boundary,2019_Feb_27_1545,
,,,,treaty,filler,None,None,None,real,None,LDTSounds/,LDTSounds/treaty.wav,,,,,0,115,115,65,,,,,,,,,a,1.27149605751,9,Female,20,59.65622639845594,American English,fricative_categorical_boundary,2019_Feb_27_1545,
,,,,himnapile,filler,None,None,None,nonce,None,LDTSounds/,LDTSounds/himnapile.wav,,,,,0,116,116,128,,,,,,,,,a,1.88854002953,9,Female,20,59.65622639845594,American English,fricative_categorical_boundary,2019_Feb_27_1545,
,,,,wet,filler,None,None,None,real,None,LDTSounds/,LDTSounds/wet.wav,,,,,0,117,117,38,,,,,,,,,l,1.06754207611,9,Female,20,59.65622639845594,American English,fricative_categorical_boundary,2019_Feb_27_1545,
,,,,trad,filler,None,None,None,nonce,None,LDTSounds/,LDTSounds/trad.wav,,,,,0,118,118,87,,,,,,,,,a,2.10575604439,9,Female,20,59.65622639845594,American English,fricative_categorical_boundary,2019_Feb_27_1545,
,,,,lake,filler,None,None,None,real,None,LDTSounds/,LDTSounds/lake.wav,,,,,0,119,119,45,,,,,,,,,l,0.954671144485,9,Female,20,59.65622639845594,American English,fricative_categorical_boundary,2019_Feb_27_1545,
,,,,toy,filler,None,None,None,real,None,LDTSounds/,LDTSounds/toy.wav,,,,,0,120,120,53,,,,,,,,,l,0.820702791214,9,Female,20,59.65622639845594,American English,fricative_categorical_boundary,2019_Feb_27_1545,
,,,,twin,filler,None,None,None,real,None,LDTSounds/,LDTSounds/twin.wav,,,,,0,121,121,44,,,,,,,,,l,0.921262025833,9,Female,20,59.65622639845594,American English,fricative_categorical_boundary,2019_Feb_27_1545,
,,,,SICK,test,s,onset,1.0,None,None,LDTSounds/,LDTSounds/SICK.wav,,,,,0,122,122,29,,,,,,,,,l,0.971369028091,9,Female,20,59.65622639845594,American English,fricative_categorical_boundary,2019_Feb_27_1545,
,,,,little,filler,None,None,None,real,None,LDTSounds/,LDTSounds/little.wav,,,,,0,123,123,61,,,,,,,,,l,0.671214818954,9,Female,20,59.65622639845594,American English,fricative_categorical_boundary,2019_Feb_27_1545,
,,,,day,filler,None,None,None,real,None,LDTSounds/,LDTSounds/day.wav,,,,,0,124,124,50,,,,,,,,,l,0.75072312355,9,Female,20,59.65622639845594,American English,fricative_categorical_boundary,2019_Feb_27_1545,
,,,,THIEF,test,f,coda,1.0,None,None,LDTSounds/,LDTSounds/THIEF.wav,,,,,0,125,125,15,,,,,,,,,l,0.704494953156,9,Female,20,59.65622639845594,American English,fricative_categorical_boundary,2019_Feb_27_1545,
,,,,queng,filler,None,None,None,nonce,None,LDTSounds/,LDTSounds/queng.wav,,,,,0,126,126,86,,,,,,,,,a,1.05458402634,9,Female,20,59.65622639845594,American English,fricative_categorical_boundary,2019_Feb_27_1545,
,,,,trongolemp,filler,None,None,None,nonce,None,LDTSounds/,LDTSounds/trongolemp.wav,,,,,0,127,127,130,,,,,,,,,a,5.12611508369,9,Female,20,59.65622639845594,American English,fricative_categorical_boundary,2019_Feb_27_1545,
,,,,hundapegnort,filler,None,None,None,nonce,None,LDTSounds/,LDTSounds/hundapegnort.wav,,,,,0,128,128,141,,,,,,,,,a,1.38809800148,9,Female,20,59.65622639845594,American English,fricative_categorical_boundary,2019_Feb_27_1545,
,,,,midaran,filler,None,None,None,nonce,None,LDTSounds/,LDTSounds/midaran.wav,,,,,0,129,129,119,,,,,,,,,a,1.30515217781,9,Female,20,59.65622639845594,American English,fricative_categorical_boundary,2019_Feb_27_1545,
,,,,petnole,filler,None,None,None,nonce,None,LDTSounds/,LDTSounds/petnole.wav,,,,,0,130,130,112,,,,,,,,,a,1.22171401978,9,Female,20,59.65622639845594,American English,fricative_categorical_boundary,2019_Feb_27_1545,
,,,,FEVER,test,f,onset,2.0,None,None,LDTSounds/,LDTSounds/FEVER.wav,,,,,0,131,131,5,,,,,,,,,l,1.22135806084,9,Female,20,59.65622639845594,American English,fricative_categorical_boundary,2019_Feb_27_1545,
,,,,SIP,test,s,onset,1.0,None,None,LDTSounds/,LDTSounds/SIP.wav,,,,,0,132,132,33,,,,,,,,,l,1.22169208527,9,Female,20,59.65622639845594,American English,fricative_categorical_boundary,2019_Feb_27_1545,
,,,,lempok,filler,None,None,None,nonce,None,LDTSounds/,LDTSounds/lempok.wav,,,,,0,133,133,113,,,,,,,,,a,5.89368987083,9,Female,20,59.65622639845594,American English,fricative_categorical_boundary,2019_Feb_27_1545,
,,,,wiblee,filler,None,None,None,nonce,None,LDTSounds/,LDTSounds/wiblee.wav,,,,,0,134,134,115,,,,,,,,,a,1.2382838726,9,Female,20,59.65622639845594,American English,fricative_categorical_boundary,2019_Feb_27_1545,
,,,,libmadoop,filler,None,None,None,nonce,None,LDTSounds/,LDTSounds/libmadoop.wav,,,,,0,135,135,117,,,,,,,,,a,1.65439987183,9,Female,20,59.65622639845594,American English,fricative_categorical_boundary,2019_Feb_27_1545,
,,,,troplund,filler,None,None,None,nonce,None,LDTSounds/,LDTSounds/troplund.wav,,,,,0,136,136,98,,,,,,,,,a,1.53875613213,9,Female,20,59.65622639845594,American English,fricative_categorical_boundary,2019_Feb_27_1545,
,,,,pillow,filler,None,None,None,real,None,LDTSounds/,LDTSounds/pillow.wav,,,,,0,137,137,72,,,,,,,,,l,0.721770048141,9,Female,20,59.65622639845594,American English,fricative_categorical_boundary,2019_Feb_27_1545,
,,,,liquor,filler,None,None,None,real,None,LDTSounds/,LDTSounds/liquor.wav,,,,,0,138,138,63,,,,,,,,,l,0.804452896118,9,Female,20,59.65622639845594,American English,fricative_categorical_boundary,2019_Feb_27_1545,
,,,,podaling,filler,None,None,None,nonce,None,LDTSounds/,LDTSounds/podaling.wav,,,,,0,139,139,132,,,,,,,,,a,0.854377985001,9,Female,20,59.65622639845594,American English,fricative_categorical_boundary,2019_Feb_27_1545,
,,,,SILK,test,s,onset,1.0,None,None,LDTSounds/,LDTSounds/SILK.wav,,,,,0,140,140,30,,,,,,,,,l,0.921238899231,9,Female,20,59.65622639845594,American English,fricative_categorical_boundary,2019_Feb_27_1545,
,,,,SEAGULL,test,s,onset,2.0,None,None,LDTSounds/,LDTSounds/SEAGULL.wav,,,,,0,141,141,21,,,,,,,,,l,0.75470495224,9,Female,20,59.65622639845594,American English,fricative_categorical_boundary,2019_Feb_27_1545,
,,,,wegtamlip,filler,None,None,None,nonce,None,LDTSounds/,LDTSounds/wegtamlip.wav,,,,,0,142,142,120,,,,,,,,,a,0.93804192543,9,Female,20,59.65622639845594,American English,fricative_categorical_boundary,2019_Feb_27_1545,
,,,,trim,filler,None,None,None,real,None,LDTSounds/,LDTSounds/trim.wav,,,,,0,143,143,39,,,,,,,,,l,1.32196903229,9,Female,20,59.65622639845594,American English,fricative_categorical_boundary,2019_Feb_27_1545,
,,,,plagtorin,filler,None,None,None,nonce,None,LDTSounds/,LDTSounds/plagtorin.wav,,,,,0,144,144,134,,,,,,,,,a,1.20541906357,9,Female,20,59.65622639845594,American English,fricative_categorical_boundary,2019_Feb_27_1545,
,,,,kabalingno,filler,None,None,None,nonce,None,LDTSounds/,LDTSounds/kabalingno.wav,,,,,0,145,145,138,,,,,,,,,a,1.2060148716,9,Female,20,59.65622639845594,American English,fricative_categorical_boundary,2019_Feb_27_1545,
,,,,daydream,filler,None,None,None,real,None,LDTSounds/,LDTSounds/daydream.wav,,,,,0,146,146,59,,,,,,,,,l,0.837692022324,9,Female,20,59.65622639845594,American English,fricative_categorical_boundary,2019_Feb_27_1545,
,,,,drataloob,filler,None,None,None,nonce,None,LDTSounds/,LDTSounds/drataloob.wav,,,,,0,147,147,129,,,,,,,,,a,0.904896974564,9,Female,20,59.65622639845594,American English,fricative_categorical_boundary,2019_Feb_27_1545,
,,,,heen,filler,None,None,None,nonce,None,LDTSounds/,LDTSounds/heen.wav,,,,,0,148,148,77,,,,,,,,,a,1.25517702103,9,Female,20,59.65622639845594,American English,fricative_categorical_boundary,2019_Feb_27_1545,
,,,,right,filler,None,None,None,real,None,LDTSounds/,LDTSounds/right.wav,,,,,0,149,149,36,,,,,,,,,l,1.18824291229,9,Female,20,59.65622639845594,American English,fricative_categorical_boundary,2019_Feb_27_1545,
,,,,,,,,,,,,,,,,,,,,,,,,,,,,,,,9,Female,20,59.65622639845594,American English,fricative_categorical_boundary,2019_Feb_27_1545,
7,NewWord_fbackonset_sbackonset_,LowBackContinuum/,LowBackContinuum/NewWord_fbackonset_sbackonset_7.wav,,,,,,,,,,,,,,,,,,0,0,0,1,f,0.703,,,,,9,Female,20,59.65622639845594,American English,fricative_categorical_boundary,2019_Feb_27_1545,
13,NewWord_fbackonset_sbackonset_,LowBackContinuum/,LowBackContinuum/NewWord_fbackonset_sbackonset_13.wav,,,,,,,,,,,,,,,,,,0,1,1,4,f,0.403,,,,,9,Female,20,59.65622639845594,American English,fricative_categorical_boundary,2019_Feb_27_1545,
27,NewWord_fbackonset_sbackonset_,LowBackContinuum/,LowBackContinuum/NewWord_fbackonset_sbackonset_27.wav,,,,,,,,,,,,,,,,,,0,2,2,11,s,1.603,,,,,9,Female,20,59.65622639845594,American English,fricative_categorical_boundary,2019_Feb_27_1545,
23,NewWord_fbackonset_sbackonset_,LowBackContinuum/,LowBackContinuum/NewWord_fbackonset_sbackonset_23.wav,,,,,,,,,,,,,,,,,,0,3,3,9,f,0.77,,,,,9,Female,20,59.65622639845594,American English,fricative_categorical_boundary,2019_Feb_27_1545,
19,NewWord_fbackonset_sbackonset_,LowBackContinuum/,LowBackContinuum/NewWord_fbackonset_sbackonset_19.wav,,,,,,,,,,,,,,,,,,0,4,4,7,f,0.403,,,,,9,Female,20,59.65622639845594,American English,fricative_categorical_boundary,2019_Feb_27_1545,
1,NewWord_fbackonset_sbackonset_,LowBackContinuum/,LowBackContinuum/NewWord_fbackonset_sbackonset_1.wav,,,,,,,,,,,,,,,,,,0,5,5,0,f,0.419,,,,,9,Female,20,59.65622639845594,American English,fricative_categorical_boundary,2019_Feb_27_1545,
17,NewWord_fbackonset_sbackonset_,LowBackContinuum/,LowBackContinuum/NewWord_fbackonset_sbackonset_17.wav,,,,,,,,,,,,,,,,,,0,6,6,6,f,0.469,,,,,9,Female,20,59.65622639845594,American English,fricative_categorical_boundary,2019_Feb_27_1545,
21,NewWord_fbackonset_sbackonset_,LowBackContinuum/,LowBackContinuum/NewWord_fbackonset_sbackonset_21.wav,,,,,,,,,,,,,,,,,,0,7,7,8,s,0.704,,,,,9,Female,20,59.65622639845594,American English,fricative_categorical_boundary,2019_Feb_27_1545,
41,NewWord_fbackonset_sbackonset_,LowBackContinuum/,LowBackContinuum/NewWord_fbackonset_sbackonset_41.wav,,,,,,,,,,,,,,,,,,0,8,8,13,s,0.418,,,,,9,Female,20,59.65622639845594,American English,fricative_categorical_boundary,2019_Feb_27_1545,
11,NewWord_fbackonset_sbackonset_,LowBackContinuum/,LowBackContinuum/NewWord_fbackonset_sbackonset_11.wav,,,,,,,,,,,,,,,,,,0,9,9,3,f,0.57,,,,,9,Female,20,59.65622639845594,American English,fricative_categorical_boundary,2019_Feb_27_1545,
9,NewWord_fbackonset_sbackonset_,LowBackContinuum/,LowBackContinuum/NewWord_fbackonset_sbackonset_9.wav,,,,,,,,,,,,,,,,,,0,10,10,2,f,0.403,,,,,9,Female,20,59.65622639845594,American English,fricative_categorical_boundary,2019_Feb_27_1545,
25,NewWord_fbackonset_sbackonset_,LowBackContinuum/,LowBackContinuum/NewWord_fbackonset_sbackonset_25.wav,,,,,,,,,,,,,,,,,,0,11,11,10,s,0.419,,,,,9,Female,20,59.65622639845594,American English,fricative_categorical_boundary,2019_Feb_27_1545,
29,NewWord_fbackonset_sbackonset_,LowBackContinuum/,LowBackContinuum/NewWord_fbackonset_sbackonset_29.wav,,,,,,,,,,,,,,,,,,0,12,12,12,s,0.403,,,,,9,Female,20,59.65622639845594,American English,fricative_categorical_boundary,2019_Feb_27_1545,
15,NewWord_fbackonset_sbackonset_,LowBackContinuum/,LowBackContinuum/NewWord_fbackonset_sbackonset_15.wav,,,,,,,,,,,,,,,,,,0,13,13,5,f,0.687,,,,,9,Female,20,59.65622639845594,American English,fricative_categorical_boundary,2019_Feb_27_1545,
21,NewWord_fbackonset_sbackonset_,LowBackContinuum/,LowBackContinuum/NewWord_fbackonset_sbackonset_21.wav,,,,,,,,,,,,,,,,,,1,0,14,8,s,0.768,,,,,9,Female,20,59.65622639845594,American English,fricative_categorical_boundary,2019_Feb_27_1545,
13,NewWord_fbackonset_sbackonset_,LowBackContinuum/,LowBackContinuum/NewWord_fbackonset_sbackonset_13.wav,,,,,,,,,,,,,,,,,,1,1,15,4,f,0.487,,,,,9,Female,20,59.65622639845594,American English,fricative_categorical_boundary,2019_Feb_27_1545,
7,NewWord_fbackonset_sbackonset_,LowBackContinuum/,LowBackContinuum/NewWord_fbackonset_sbackonset_7.wav,,,,,,,,,,,,,,,,,,1,2,16,1,f,0.47,,,,,9,Female,20,59.65622639845594,American English,fricative_categorical_boundary,2019_Feb_27_1545,
25,NewWord_fbackonset_sbackonset_,LowBackContinuum/,LowBackContinuum/NewWord_fbackonset_sbackonset_25.wav,,,,,,,,,,,,,,,,,,1,3,17,10,f,0.419,,,,,9,Female,20,59.65622639845594,American English,fricative_categorical_boundary,2019_Feb_27_1545,
9,NewWord_fbackonset_sbackonset_,LowBackContinuum/,LowBackContinuum/NewWord_fbackonset_sbackonset_9.wav,,,,,,,,,,,,,,,,,,1,4,18,2,f,1.103,,,,,9,Female,20,59.65622639845594,American English,fricative_categorical_boundary,2019_Feb_27_1545,
29,NewWord_fbackonset_sbackonset_,LowBackContinuum/,LowBackContinuum/NewWord_fbackonset_sbackonset_29.wav,,,,,,,,,,,,,,,,,,1,5,19,12,f,0.87,,,,,9,Female,20,59.65622639845594,American English,fricative_categorical_boundary,2019_Feb_27_1545,
17,NewWord_fbackonset_sbackonset_,LowBackContinuum/,LowBackContinuum/NewWord_fbackonset_sbackonset_17.wav,,,,,,,,,,,,,,,,,,1,6,20,6,f,0.838,,,,,9,Female,20,59.65622639845594,American English,fricative_categorical_boundary,2019_Feb_27_1545,
27,NewWord_fbackonset_sbackonset_,LowBackContinuum/,LowBackContinuum/NewWord_fbackonset_sbackonset_27.wav,,,,,,,,,,,,,,,,,,1,7,21,11,s,0.553,,,,,9,Female,20,59.65622639845594,American English,fricative_categorical_boundary,2019_Feb_27_1545,
41,NewWord_fbackonset_sbackonset_,LowBackContinuum/,LowBackContinuum/NewWord_fbackonset_sbackonset_41.wav,,,,,,,,,,,,,,,,,,1,8,22,13,s,0.838,,,,,9,Female,20,59.65622639845594,American English,fricative_categorical_boundary,2019_Feb_27_1545,
23,NewWord_fbackonset_sbackonset_,LowBackContinuum/,LowBackContinuum/NewWord_fbackonset_sbackonset_23.wav,,,,,,,,,,,,,,,,,,1,9,23,9,s,0.42,,,,,9,Female,20,59.65622639845594,American English,fricative_categorical_boundary,2019_Feb_27_1545,
1,NewWord_fbackonset_sbackonset_,LowBackContinuum/,LowBackContinuum/NewWord_fbackonset_sbackonset_1.wav,,,,,,,,,,,,,,,,,,1,10,24,0,f,0.453,,,,,9,Female,20,59.65622639845594,American English,fricative_categorical_boundary,2019_Feb_27_1545,
11,NewWord_fbackonset_sbackonset_,LowBackContinuum/,LowBackContinuum/NewWord_fbackonset_sbackonset_11.wav,,,,,,,,,,,,,,,,,,1,11,25,3,f,0.486,,,,,9,Female,20,59.65622639845594,American English,fricative_categorical_boundary,2019_Feb_27_1545,
15,NewWord_fbackonset_sbackonset_,LowBackContinuum/,LowBackContinuum/NewWord_fbackonset_sbackonset_15.wav,,,,,,,,,,,,,,,,,,1,12,26,5,f,0.954,,,,,9,Female,20,59.65622639845594,American English,fricative_categorical_boundary,2019_Feb_27_1545,
19,NewWord_fbackonset_sbackonset_,LowBackContinuum/,LowBackContinuum/NewWord_fbackonset_sbackonset_19.wav,,,,,,,,,,,,,,,,,,1,13,27,7,f,0.403,,,,,9,Female,20,59.65622639845594,American English,fricative_categorical_boundary,2019_Feb_27_1545,
41,NewWord_fbackonset_sbackonset_,LowBackContinuum/,LowBackContinuum/NewWord_fbackonset_sbackonset_41.wav,,,,,,,,,,,,,,,,,,2,0,28,13,s,0.603,,,,,9,Female,20,59.65622639845594,American English,fricative_categorical_boundary,2019_Feb_27_1545,
23,NewWord_fbackonset_sbackonset_,LowBackContinuum/,LowBackContinuum/NewWord_fbackonset_sbackonset_23.wav,,,,,,,,,,,,,,,,,,2,1,29,9,s,0.737,,,,,9,Female,20,59.65622639845594,American English,fricative_categorical_boundary,2019_Feb_27_1545,
1,NewWord_fbackonset_sbackonset_,LowBackContinuum/,LowBackContinuum/NewWord_fbackonset_sbackonset_1.wav,,,,,,,,,,,,,,,,,,2,2,30,0,f,0.568,,,,,9,Female,20,59.65622639845594,American English,fricative_categorical_boundary,2019_Feb_27_1545,
15,NewWord_fbackonset_sbackonset_,LowBackContinuum/,LowBackContinuum/NewWord_fbackonset_sbackonset_15.wav,,,,,,,,,,,,,,,,,,2,3,31,5,f,0.887,,,,,9,Female,20,59.65622639845594,American English,fricative_categorical_boundary,2019_Feb_27_1545,
21,NewWord_fbackonset_sbackonset_,LowBackContinuum/,LowBackContinuum/NewWord_fbackonset_sbackonset_21.wav,,,,,,,,,,,,,,,,,,2,4,32,8,s,0.47,,,,,9,Female,20,59.65622639845594,American English,fricative_categorical_boundary,2019_Feb_27_1545,
11,NewWord_fbackonset_sbackonset_,LowBackContinuum/,LowBackContinuum/NewWord_fbackonset_sbackonset_11.wav,,,,,,,,,,,,,,,,,,2,5,33,3,f,0.553,,,,,9,Female,20,59.65622639845594,American English,fricative_categorical_boundary,2019_Feb_27_1545,
25,NewWord_fbackonset_sbackonset_,LowBackContinuum/,LowBackContinuum/NewWord_fbackonset_sbackonset_25.wav,,,,,,,,,,,,,,,,,,2,6,34,10,s,0.969,,,,,9,Female,20,59.65622639845594,American English,fricative_categorical_boundary,2019_Feb_27_1545,
17,NewWord_fbackonset_sbackonset_,LowBackContinuum/,LowBackContinuum/NewWord_fbackonset_sbackonset_17.wav,,,,,,,,,,,,,,,,,,2,7,35,6,f,0.503,,,,,9,Female,20,59.65622639845594,American English,fricative_categorical_boundary,2019_Feb_27_1545,
27,NewWord_fbackonset_sbackonset_,LowBackContinuum/,LowBackContinuum/NewWord_fbackonset_sbackonset_27.wav,,,,,,,,,,,,,,,,,,2,8,36,11,s,0.82,,,,,9,Female,20,59.65622639845594,American English,fricative_categorical_boundary,2019_Feb_27_1545,
29,NewWord_fbackonset_sbackonset_,LowBackContinuum/,LowBackContinuum/NewWord_fbackonset_sbackonset_29.wav,,,,,,,,,,,,,,,,,,2,9,37,12,f,0.703,,,,,9,Female,20,59.65622639845594,American English,fricative_categorical_boundary,2019_Feb_27_1545,
19,NewWord_fbackonset_sbackonset_,LowBackContinuum/,LowBackContinuum/NewWord_fbackonset_sbackonset_19.wav,,,,,,,,,,,,,,,,,,2,10,38,7,s,2.038,,,,,9,Female,20,59.65622639845594,American English,fricative_categorical_boundary,2019_Feb_27_1545,
7,NewWord_fbackonset_sbackonset_,LowBackContinuum/,LowBackContinuum/NewWord_fbackonset_sbackonset_7.wav,,,,,,,,,,,,,,,,,,2,11,39,1,f,1.687,,,,,9,Female,20,59.65622639845594,American English,fricative_categorical_boundary,2019_Feb_27_1545,
9,NewWord_fbackonset_sbackonset_,LowBackContinuum/,LowBackContinuum/NewWord_fbackonset_sbackonset_9.wav,,,,,,,,,,,,,,,,,,2,12,40,2,f,0.569,,,,,9,Female,20,59.65622639845594,American English,fricative_categorical_boundary,2019_Feb_27_1545,
13,NewWord_fbackonset_sbackonset_,LowBackContinuum/,LowBackContinuum/NewWord_fbackonset_sbackonset_13.wav,,,,,,,,,,,,,,,,,,2,13,41,4,f,0.469,,,,,9,Female,20,59.65622639845594,American English,fricative_categorical_boundary,2019_Feb_27_1545,
9,NewWord_fbackonset_sbackonset_,LowBackContinuum/,LowBackContinuum/NewWord_fbackonset_sbackonset_9.wav,,,,,,,,,,,,,,,,,,3,0,42,2,f,0.52,,,,,9,Female,20,59.65622639845594,American English,fricative_categorical_boundary,2019_Feb_27_1545,
27,NewWord_fbackonset_sbackonset_,LowBackContinuum/,LowBackContinuum/NewWord_fbackonset_sbackonset_27.wav,,,,,,,,,,,,,,,,,,3,1,43,11,s,0.403,,,,,9,Female,20,59.65622639845594,American English,fricative_categorical_boundary,2019_Feb_27_1545,
13,NewWord_fbackonset_sbackonset_,LowBackContinuum/,LowBackContinuum/NewWord_fbackonset_sbackonset_13.wav,,,,,,,,,,,,,,,,,,3,2,44,4,f,0.503,,,,,9,Female,20,59.65622639845594,American English,fricative_categorical_boundary,2019_Feb_27_1545,
23,NewWord_fbackonset_sbackonset_,LowBackContinuum/,LowBackContinuum/NewWord_fbackonset_sbackonset_23.wav,,,,,,,,,,,,,,,,,,3,3,45,9,s,0.502,,,,,9,Female,20,59.65622639845594,American English,fricative_categorical_boundary,2019_Feb_27_1545,
25,NewWord_fbackonset_sbackonset_,LowBackContinuum/,LowBackContinuum/NewWord_fbackonset_sbackonset_25.wav,,,,,,,,,,,,,,,,,,3,4,46,10,s,0.553,,,,,9,Female,20,59.65622639845594,American English,fricative_categorical_boundary,2019_Feb_27_1545,
21,NewWord_fbackonset_sbackonset_,LowBackContinuum/,LowBackContinuum/NewWord_fbackonset_sbackonset_21.wav,,,,,,,,,,,,,,,,,,3,5,47,8,f,0.786,,,,,9,Female,20,59.65622639845594,American English,fricative_categorical_boundary,2019_Feb_27_1545,
41,NewWord_fbackonset_sbackonset_,LowBackContinuum/,LowBackContinuum/NewWord_fbackonset_sbackonset_41.wav,,,,,,,,,,,,,,,,,,3,6,48,13,s,0.436,,,,,9,Female,20,59.65622639845594,American English,fricative_categorical_boundary,2019_Feb_27_1545,
29,NewWord_fbackonset_sbackonset_,LowBackContinuum/,LowBackContinuum/NewWord_fbackonset_sbackonset_29.wav,,,,,,,,,,,,,,,,,,3,7,49,12,s,0.402,,,,,9,Female,20,59.65622639845594,American English,fricative_categorical_boundary,2019_Feb_27_1545,
11,NewWord_fbackonset_sbackonset_,LowBackContinuum/,LowBackContinuum/NewWord_fbackonset_sbackonset_11.wav,,,,,,,,,,,,,,,,,,3,8,50,3,f,0.719,,,,,9,Female,20,59.65622639845594,American English,fricative_categorical_boundary,2019_Feb_27_1545,
1,NewWord_fbackonset_sbackonset_,LowBackContinuum/,LowBackContinuum/NewWord_fbackonset_sbackonset_1.wav,,,,,,,,,,,,,,,,,,3,9,51,0,f,0.436,,,,,9,Female,20,59.65622639845594,American English,fricative_categorical_boundary,2019_Feb_27_1545,
17,NewWord_fbackonset_sbackonset_,LowBackContinuum/,LowBackContinuum/NewWord_fbackonset_sbackonset_17.wav,,,,,,,,,,,,,,,,,,3,10,52,6,f,0.453,,,,,9,Female,20,59.65622639845594,American English,fricative_categorical_boundary,2019_Feb_27_1545,
19,NewWord_fbackonset_sbackonset_,LowBackContinuum/,LowBackContinuum/NewWord_fbackonset_sbackonset_19.wav,,,,,,,,,,,,,,,,,,3,11,53,7,s,0.57,,,,,9,Female,20,59.65622639845594,American English,fricative_categorical_boundary,2019_Feb_27_1545,
15,NewWord_fbackonset_sbackonset_,LowBackContinuum/,LowBackContinuum/NewWord_fbackonset_sbackonset_15.wav,,,,,,,,,,,,,,,,,,3,12,54,5,f,0.719,,,,,9,Female,20,59.65622639845594,American English,fricative_categorical_boundary,2019_Feb_27_1545,
7,NewWord_fbackonset_sbackonset_,LowBackContinuum/,LowBackContinuum/NewWord_fbackonset_sbackonset_7.wav,,,,,,,,,,,,,,,,,,3,13,55,1,f,1.004,,,,,9,Female,20,59.65622639845594,American English,fricative_categorical_boundary,2019_Feb_27_1545,

