ChosenStep,Prefix,source,Stimuli,token,type,segment,position,syllablecount,realvsnonce,prefix,address,soundfile,trials.thisRepN,trials.thisTrialN,trials.thisN,trials.thisIndex,trials_2.thisRepN,trials_2.thisTrialN,trials_2.thisN,trials_2.thisIndex,trials_3.thisRepN,trials_3.thisTrialN,trials_3.thisN,trials_3.thisIndex,rating.response,rating.rt,key_resp_2.keys,key_resp_2.rt,key_resp_3.keys,key_resp_3.rt,participant,Gender,Age,frameRate,Native Language,expName,date,
,,,,,,,,,,,,,,,,,,,,,,,,,,,,,,,12,male,21,59.967887907924364,American English,fricative_categorical_boundary,2019_Feb_27_1639,
,,,,,,,,,,,,,,,,,,,,,,,,,,,,,,,12,male,21,59.967887907924364,American English,fricative_categorical_boundary,2019_Feb_27_1639,
29,NewWord_fbackonset_sbackonset_,LowBackContinuum/,LowBackContinuum/NewWord_fbackonset_sbackonset_29.wav,,,,,,,,,,0,0,0,12,,,,,,,,,s,3.84,,,,,12,male,21,59.967887907924364,American English,fricative_categorical_boundary,2019_Feb_27_1639,
21,NewWord_fbackonset_sbackonset_,LowBackContinuum/,LowBackContinuum/NewWord_fbackonset_sbackonset_21.wav,,,,,,,,,,0,1,1,8,,,,,,,,,f,6.476,,,,,12,male,21,59.967887907924364,American English,fricative_categorical_boundary,2019_Feb_27_1639,
11,NewWord_fbackonset_sbackonset_,LowBackContinuum/,LowBackContinuum/NewWord_fbackonset_sbackonset_11.wav,,,,,,,,,,0,2,2,3,,,,,,,,,f,0.77,,,,,12,male,21,59.967887907924364,American English,fricative_categorical_boundary,2019_Feb_27_1639,
17,NewWord_fbackonset_sbackonset_,LowBackContinuum/,LowBackContinuum/NewWord_fbackonset_sbackonset_17.wav,,,,,,,,,,0,3,3,6,,,,,,,,,f,0.62,,,,,12,male,21,59.967887907924364,American English,fricative_categorical_boundary,2019_Feb_27_1639,
7,NewWord_fbackonset_sbackonset_,LowBackContinuum/,LowBackContinuum/NewWord_fbackonset_sbackonset_7.wav,,,,,,,,,,0,4,4,1,,,,,,,,,f,0.487,,,,,12,male,21,59.967887907924364,American English,fricative_categorical_boundary,2019_Feb_27_1639,
41,NewWord_fbackonset_sbackonset_,LowBackContinuum/,LowBackContinuum/NewWord_fbackonset_sbackonset_41.wav,,,,,,,,,,0,5,5,13,,,,,,,,,s,0.486,,,,,12,male,21,59.967887907924364,American English,fricative_categorical_boundary,2019_Feb_27_1639,
9,NewWord_fbackonset_sbackonset_,LowBackContinuum/,LowBackContinuum/NewWord_fbackonset_sbackonset_9.wav,,,,,,,,,,0,6,6,2,,,,,,,,,f,2.121,,,,,12,male,21,59.967887907924364,American English,fricative_categorical_boundary,2019_Feb_27_1639,
1,NewWord_fbackonset_sbackonset_,LowBackContinuum/,LowBackContinuum/NewWord_fbackonset_sbackonset_1.wav,,,,,,,,,,0,7,7,0,,,,,,,,,f,0.485,,,,,12,male,21,59.967887907924364,American English,fricative_categorical_boundary,2019_Feb_27_1639,
19,NewWord_fbackonset_sbackonset_,LowBackContinuum/,LowBackContinuum/NewWord_fbackonset_sbackonset_19.wav,,,,,,,,,,0,8,8,7,,,,,,,,,f,4.774,,,,,12,male,21,59.967887907924364,American English,fricative_categorical_boundary,2019_Feb_27_1639,
25,NewWord_fbackonset_sbackonset_,LowBackContinuum/,LowBackContinuum/NewWord_fbackonset_sbackonset_25.wav,,,,,,,,,,0,9,9,10,,,,,,,,,s,0.419,,,,,12,male,21,59.967887907924364,American English,fricative_categorical_boundary,2019_Feb_27_1639,
13,NewWord_fbackonset_sbackonset_,LowBackContinuum/,LowBackContinuum/NewWord_fbackonset_sbackonset_13.wav,,,,,,,,,,0,10,10,4,,,,,,,,,f,0.42,,,,,12,male,21,59.967887907924364,American English,fricative_categorical_boundary,2019_Feb_27_1639,
23,NewWord_fbackonset_sbackonset_,LowBackContinuum/,LowBackContinuum/NewWord_fbackonset_sbackonset_23.wav,,,,,,,,,,0,11,11,9,,,,,,,,,s,1.203,,,,,12,male,21,59.967887907924364,American English,fricative_categorical_boundary,2019_Feb_27_1639,
15,NewWord_fbackonset_sbackonset_,LowBackContinuum/,LowBackContinuum/NewWord_fbackonset_sbackonset_15.wav,,,,,,,,,,0,12,12,5,,,,,,,,,s,1.404,,,,,12,male,21,59.967887907924364,American English,fricative_categorical_boundary,2019_Feb_27_1639,
27,NewWord_fbackonset_sbackonset_,LowBackContinuum/,LowBackContinuum/NewWord_fbackonset_sbackonset_27.wav,,,,,,,,,,0,13,13,11,,,,,,,,,s,0.419,,,,,12,male,21,59.967887907924364,American English,fricative_categorical_boundary,2019_Feb_27_1639,
7,NewWord_fbackonset_sbackonset_,LowBackContinuum/,LowBackContinuum/NewWord_fbackonset_sbackonset_7.wav,,,,,,,,,,1,0,14,1,,,,,,,,,f,0.486,,,,,12,male,21,59.967887907924364,American English,fricative_categorical_boundary,2019_Feb_27_1639,
25,NewWord_fbackonset_sbackonset_,LowBackContinuum/,LowBackContinuum/NewWord_fbackonset_sbackonset_25.wav,,,,,,,,,,1,1,15,10,,,,,,,,,s,0.553,,,,,12,male,21,59.967887907924364,American English,fricative_categorical_boundary,2019_Feb_27_1639,
1,NewWord_fbackonset_sbackonset_,LowBackContinuum/,LowBackContinuum/NewWord_fbackonset_sbackonset_1.wav,,,,,,,,,,1,2,16,0,,,,,,,,,f,0.453,,,,,12,male,21,59.967887907924364,American English,fricative_categorical_boundary,2019_Feb_27_1639,
17,NewWord_fbackonset_sbackonset_,LowBackContinuum/,LowBackContinuum/NewWord_fbackonset_sbackonset_17.wav,,,,,,,,,,1,3,17,6,,,,,,,,,s,0.836,,,,,12,male,21,59.967887907924364,American English,fricative_categorical_boundary,2019_Feb_27_1639,
15,NewWord_fbackonset_sbackonset_,LowBackContinuum/,LowBackContinuum/NewWord_fbackonset_sbackonset_15.wav,,,,,,,,,,1,4,18,5,,,,,,,,,s,0.602,,,,,12,male,21,59.967887907924364,American English,fricative_categorical_boundary,2019_Feb_27_1639,
29,NewWord_fbackonset_sbackonset_,LowBackContinuum/,LowBackContinuum/NewWord_fbackonset_sbackonset_29.wav,,,,,,,,,,1,5,19,12,,,,,,,,,s,0.403,,,,,12,male,21,59.967887907924364,American English,fricative_categorical_boundary,2019_Feb_27_1639,
41,NewWord_fbackonset_sbackonset_,LowBackContinuum/,LowBackContinuum/NewWord_fbackonset_sbackonset_41.wav,,,,,,,,,,1,6,20,13,,,,,,,,,s,0.406,,,,,12,male,21,59.967887907924364,American English,fricative_categorical_boundary,2019_Feb_27_1639,
19,NewWord_fbackonset_sbackonset_,LowBackContinuum/,LowBackContinuum/NewWord_fbackonset_sbackonset_19.wav,,,,,,,,,,1,7,21,7,,,,,,,,,s,3.706,,,,,12,male,21,59.967887907924364,American English,fricative_categorical_boundary,2019_Feb_27_1639,
21,NewWord_fbackonset_sbackonset_,LowBackContinuum/,LowBackContinuum/NewWord_fbackonset_sbackonset_21.wav,,,,,,,,,,1,8,22,8,,,,,,,,,s,4.473,,,,,12,male,21,59.967887907924364,American English,fricative_categorical_boundary,2019_Feb_27_1639,
27,NewWord_fbackonset_sbackonset_,LowBackContinuum/,LowBackContinuum/NewWord_fbackonset_sbackonset_27.wav,,,,,,,,,,1,9,23,11,,,,,,,,,s,0.619,,,,,12,male,21,59.967887907924364,American English,fricative_categorical_boundary,2019_Feb_27_1639,
11,NewWord_fbackonset_sbackonset_,LowBackContinuum/,LowBackContinuum/NewWord_fbackonset_sbackonset_11.wav,,,,,,,,,,1,10,24,3,,,,,,,,,f,0.419,,,,,12,male,21,59.967887907924364,American English,fricative_categorical_boundary,2019_Feb_27_1639,
13,NewWord_fbackonset_sbackonset_,LowBackContinuum/,LowBackContinuum/NewWord_fbackonset_sbackonset_13.wav,,,,,,,,,,1,11,25,4,,,,,,,,,s,0.536,,,,,12,male,21,59.967887907924364,American English,fricative_categorical_boundary,2019_Feb_27_1639,
9,NewWord_fbackonset_sbackonset_,LowBackContinuum/,LowBackContinuum/NewWord_fbackonset_sbackonset_9.wav,,,,,,,,,,1,12,26,2,,,,,,,,,f,0.853,,,,,12,male,21,59.967887907924364,American English,fricative_categorical_boundary,2019_Feb_27_1639,
23,NewWord_fbackonset_sbackonset_,LowBackContinuum/,LowBackContinuum/NewWord_fbackonset_sbackonset_23.wav,,,,,,,,,,1,13,27,9,,,,,,,,,s,0.519,,,,,12,male,21,59.967887907924364,American English,fricative_categorical_boundary,2019_Feb_27_1639,
11,NewWord_fbackonset_sbackonset_,LowBackContinuum/,LowBackContinuum/NewWord_fbackonset_sbackonset_11.wav,,,,,,,,,,2,0,28,3,,,,,,,,,s,1.37,,,,,12,male,21,59.967887907924364,American English,fricative_categorical_boundary,2019_Feb_27_1639,
9,NewWord_fbackonset_sbackonset_,LowBackContinuum/,LowBackContinuum/NewWord_fbackonset_sbackonset_9.wav,,,,,,,,,,2,1,29,2,,,,,,,,,f,0.52,,,,,12,male,21,59.967887907924364,American English,fricative_categorical_boundary,2019_Feb_27_1639,
13,NewWord_fbackonset_sbackonset_,LowBackContinuum/,LowBackContinuum/NewWord_fbackonset_sbackonset_13.wav,,,,,,,,,,2,2,30,4,,,,,,,,,s,0.804,,,,,12,male,21,59.967887907924364,American English,fricative_categorical_boundary,2019_Feb_27_1639,
23,NewWord_fbackonset_sbackonset_,LowBackContinuum/,LowBackContinuum/NewWord_fbackonset_sbackonset_23.wav,,,,,,,,,,2,3,31,9,,,,,,,,,s,1.488,,,,,12,male,21,59.967887907924364,American English,fricative_categorical_boundary,2019_Feb_27_1639,
21,NewWord_fbackonset_sbackonset_,LowBackContinuum/,LowBackContinuum/NewWord_fbackonset_sbackonset_21.wav,,,,,,,,,,2,4,32,8,,,,,,,,,s,5.358,,,,,12,male,21,59.967887907924364,American English,fricative_categorical_boundary,2019_Feb_27_1639,
1,NewWord_fbackonset_sbackonset_,LowBackContinuum/,LowBackContinuum/NewWord_fbackonset_sbackonset_1.wav,,,,,,,,,,2,5,33,0,,,,,,,,,f,0.403,,,,,12,male,21,59.967887907924364,American English,fricative_categorical_boundary,2019_Feb_27_1639,
41,NewWord_fbackonset_sbackonset_,LowBackContinuum/,LowBackContinuum/NewWord_fbackonset_sbackonset_41.wav,,,,,,,,,,2,6,34,13,,,,,,,,,s,0.419,,,,,12,male,21,59.967887907924364,American English,fricative_categorical_boundary,2019_Feb_27_1639,
7,NewWord_fbackonset_sbackonset_,LowBackContinuum/,LowBackContinuum/NewWord_fbackonset_sbackonset_7.wav,,,,,,,,,,2,7,35,1,,,,,,,,,f,0.403,,,,,12,male,21,59.967887907924364,American English,fricative_categorical_boundary,2019_Feb_27_1639,
29,NewWord_fbackonset_sbackonset_,LowBackContinuum/,LowBackContinuum/NewWord_fbackonset_sbackonset_29.wav,,,,,,,,,,2,8,36,12,,,,,,,,,s,0.403,,,,,12,male,21,59.967887907924364,American English,fricative_categorical_boundary,2019_Feb_27_1639,
25,NewWord_fbackonset_sbackonset_,LowBackContinuum/,LowBackContinuum/NewWord_fbackonset_sbackonset_25.wav,,,,,,,,,,2,9,37,10,,,,,,,,,s,0.403,,,,,12,male,21,59.967887907924364,American English,fricative_categorical_boundary,2019_Feb_27_1639,
15,NewWord_fbackonset_sbackonset_,LowBackContinuum/,LowBackContinuum/NewWord_fbackonset_sbackonset_15.wav,,,,,,,,,,2,10,38,5,,,,,,,,,f,0.954,,,,,12,male,21,59.967887907924364,American English,fricative_categorical_boundary,2019_Feb_27_1639,
27,NewWord_fbackonset_sbackonset_,LowBackContinuum/,LowBackContinuum/NewWord_fbackonset_sbackonset_27.wav,,,,,,,,,,2,11,39,11,,,,,,,,,s,0.435,,,,,12,male,21,59.967887907924364,American English,fricative_categorical_boundary,2019_Feb_27_1639,
17,NewWord_fbackonset_sbackonset_,LowBackContinuum/,LowBackContinuum/NewWord_fbackonset_sbackonset_17.wav,,,,,,,,,,2,12,40,6,,,,,,,,,f,0.405,,,,,12,male,21,59.967887907924364,American English,fricative_categorical_boundary,2019_Feb_27_1639,
19,NewWord_fbackonset_sbackonset_,LowBackContinuum/,LowBackContinuum/NewWord_fbackonset_sbackonset_19.wav,,,,,,,,,,2,13,41,7,,,,,,,,,s,0.587,,,,,12,male,21,59.967887907924364,American English,fricative_categorical_boundary,2019_Feb_27_1639,
29,NewWord_fbackonset_sbackonset_,LowBackContinuum/,LowBackContinuum/NewWord_fbackonset_sbackonset_29.wav,,,,,,,,,,3,0,42,12,,,,,,,,,s,1.571,,,,,12,male,21,59.967887907924364,American English,fricative_categorical_boundary,2019_Feb_27_1639,
13,NewWord_fbackonset_sbackonset_,LowBackContinuum/,LowBackContinuum/NewWord_fbackonset_sbackonset_13.wav,,,,,,,,,,3,1,43,4,,,,,,,,,f,0.405,,,,,12,male,21,59.967887907924364,American English,fricative_categorical_boundary,2019_Feb_27_1639,
17,NewWord_fbackonset_sbackonset_,LowBackContinuum/,LowBackContinuum/NewWord_fbackonset_sbackonset_17.wav,,,,,,,,,,3,2,44,6,,,,,,,,,f,0.753,,,,,12,male,21,59.967887907924364,American English,fricative_categorical_boundary,2019_Feb_27_1639,
19,NewWord_fbackonset_sbackonset_,LowBackContinuum/,LowBackContinuum/NewWord_fbackonset_sbackonset_19.wav,,,,,,,,,,3,3,45,7,,,,,,,,,s,0.703,,,,,12,male,21,59.967887907924364,American English,fricative_categorical_boundary,2019_Feb_27_1639,
23,NewWord_fbackonset_sbackonset_,LowBackContinuum/,LowBackContinuum/NewWord_fbackonset_sbackonset_23.wav,,,,,,,,,,3,4,46,9,,,,,,,,,s,0.403,,,,,12,male,21,59.967887907924364,American English,fricative_categorical_boundary,2019_Feb_27_1639,
41,NewWord_fbackonset_sbackonset_,LowBackContinuum/,LowBackContinuum/NewWord_fbackonset_sbackonset_41.wav,,,,,,,,,,3,5,47,13,,,,,,,,,s,0.402,,,,,12,male,21,59.967887907924364,American English,fricative_categorical_boundary,2019_Feb_27_1639,
15,NewWord_fbackonset_sbackonset_,LowBackContinuum/,LowBackContinuum/NewWord_fbackonset_sbackonset_15.wav,,,,,,,,,,3,6,48,5,,,,,,,,,s,3.389,,,,,12,male,21,59.967887907924364,American English,fricative_categorical_boundary,2019_Feb_27_1639,
25,NewWord_fbackonset_sbackonset_,LowBackContinuum/,LowBackContinuum/NewWord_fbackonset_sbackonset_25.wav,,,,,,,,,,3,7,49,10,,,,,,,,,s,0.419,,,,,12,male,21,59.967887907924364,American English,fricative_categorical_boundary,2019_Feb_27_1639,
11,NewWord_fbackonset_sbackonset_,LowBackContinuum/,LowBackContinuum/NewWord_fbackonset_sbackonset_11.wav,,,,,,,,,,3,8,50,3,,,,,,,,,f,0.469,,,,,12,male,21,59.967887907924364,American English,fricative_categorical_boundary,2019_Feb_27_1639,
1,NewWord_fbackonset_sbackonset_,LowBackContinuum/,LowBackContinuum/NewWord_fbackonset_sbackonset_1.wav,,,,,,,,,,3,9,51,0,,,,,,,,,f,0.552,,,,,12,male,21,59.967887907924364,American English,fricative_categorical_boundary,2019_Feb_27_1639,
27,NewWord_fbackonset_sbackonset_,LowBackContinuum/,LowBackContinuum/NewWord_fbackonset_sbackonset_27.wav,,,,,,,,,,3,10,52,11,,,,,,,,,s,0.402,,,,,12,male,21,59.967887907924364,American English,fricative_categorical_boundary,2019_Feb_27_1639,
9,NewWord_fbackonset_sbackonset_,LowBackContinuum/,LowBackContinuum/NewWord_fbackonset_sbackonset_9.wav,,,,,,,,,,3,11,53,2,,,,,,,,,f,0.586,,,,,12,male,21,59.967887907924364,American English,fricative_categorical_boundary,2019_Feb_27_1639,
7,NewWord_fbackonset_sbackonset_,LowBackContinuum/,LowBackContinuum/NewWord_fbackonset_sbackonset_7.wav,,,,,,,,,,3,12,54,1,,,,,,,,,f,0.769,,,,,12,male,21,59.967887907924364,American English,fricative_categorical_boundary,2019_Feb_27_1639,
21,NewWord_fbackonset_sbackonset_,LowBackContinuum/,LowBackContinuum/NewWord_fbackonset_sbackonset_21.wav,,,,,,,,,,3,13,55,8,,,,,,,,,s,10.364,,,,,12,male,21,59.967887907924364,American English,fricative_categorical_boundary,2019_Feb_27_1639,
,,,,,,,,,,,,,,,,,,,,,,,,,,,space,4.10838103294,,,12,male,21,59.967887907924364,American English,fricative_categorical_boundary,2019_Feb_27_1639,
,,,,lake,filler,None,None,None,real,None,LDTSounds/,LDTSounds/lake.wav,,,,,0,0,0,45,,,,,,,,,l,1.52023696899,12,male,21,59.967887907924364,American English,fricative_categorical_boundary,2019_Feb_27_1639,
,,,,hoong,filler,None,None,None,nonce,None,LDTSounds/,LDTSounds/hoong.wav,,,,,0,1,1,81,,,,,,,,,l,1.1370010376,12,male,21,59.967887907924364,American English,fricative_categorical_boundary,2019_Feb_27_1639,
,,,,plagtorin,filler,None,None,None,nonce,None,LDTSounds/,LDTSounds/plagtorin.wav,,,,,0,2,2,134,,,,,,,,,a,3.72326993942,12,male,21,59.967887907924364,American English,fricative_categorical_boundary,2019_Feb_27_1639,
,,,,FISH,test,f,onset,1.0,None,None,LDTSounds/,LDTSounds/FISH.wav,,,,,0,3,3,13,,,,,,,,,l,0.817710161209,12,male,21,59.967887907924364,American English,fricative_categorical_boundary,2019_Feb_27_1639,
,,,,weg,filler,None,None,None,nonce,None,LDTSounds/,LDTSounds/weg.wav,,,,,0,4,4,78,,,,,,,,,l,4.12320280075,12,male,21,59.967887907924364,American English,fricative_categorical_boundary,2019_Feb_27_1639,
,,,,FIB,test,f,onset,1.0,None,None,LDTSounds/,LDTSounds/FIB.wav,,,,,0,5,5,6,,,,,,,,,l,1.06791210175,12,male,21,59.967887907924364,American English,fricative_categorical_boundary,2019_Feb_27_1639,
,,,,tridalondit,filler,None,None,None,nonce,None,LDTSounds/,LDTSounds/tridalondit.wav,,,,,0,6,6,146,,,,,,,,,a,3.37214612961,12,male,21,59.967887907924364,American English,fricative_categorical_boundary,2019_Feb_27_1639,
,,,,lemur,filler,None,None,None,real,None,LDTSounds/,LDTSounds/lemur.wav,,,,,0,7,7,68,,,,,,,,,l,0.818101882935,12,male,21,59.967887907924364,American English,fricative_categorical_boundary,2019_Feb_27_1639,
,,,,wegtamlip,filler,None,None,None,nonce,None,LDTSounds/,LDTSounds/wegtamlip.wav,,,,,0,8,8,120,,,,,,,,,a,1.2868540287,12,male,21,59.967887907924364,American English,fricative_categorical_boundary,2019_Feb_27_1639,
,,,,gelp,filler,None,None,None,nonce,None,LDTSounds/,LDTSounds/gelp.wav,,,,,0,9,9,85,,,,,,,,,l,5.1080391407,12,male,21,59.967887907924364,American English,fricative_categorical_boundary,2019_Feb_27_1639,
,,,,hapooli,filler,None,None,None,nonce,None,LDTSounds/,LDTSounds/hapooli.wav,,,,,0,10,10,126,,,,,,,,,a,3.23952698708,12,male,21,59.967887907924364,American English,fricative_categorical_boundary,2019_Feb_27_1639,
,,,,tomb,filler,None,None,None,real,None,LDTSounds/,LDTSounds/tomb.wav,,,,,0,11,11,35,,,,,,,,,l,1.23681902885,12,male,21,59.967887907924364,American English,fricative_categorical_boundary,2019_Feb_27_1639,
,,,,FETAL,test,f,onset,2.0,None,None,LDTSounds/,LDTSounds/FETAL.wav,,,,,0,12,12,4,,,,,,,,,l,1.03618383408,12,male,21,59.967887907924364,American English,fricative_categorical_boundary,2019_Feb_27_1639,
,,,,waip,filler,None,None,None,nonce,None,LDTSounds/,LDTSounds/waip.wav,,,,,0,13,13,91,,,,,,,,,l,1.41963505745,12,male,21,59.967887907924364,American English,fricative_categorical_boundary,2019_Feb_27_1639,
,,,,boondatribnok,filler,None,None,None,nonce,None,LDTSounds/,LDTSounds/boondatribnok.wav,,,,,0,14,14,137,,,,,,,,,a,2.23829102516,12,male,21,59.967887907924364,American English,fricative_categorical_boundary,2019_Feb_27_1639,
,,,,REEF,test,f,coda,1.0,None,None,LDTSounds/,LDTSounds/REEF.wav,,,,,0,15,15,14,,,,,,,,,l,1.03606104851,12,male,21,59.967887907924364,American English,fricative_categorical_boundary,2019_Feb_27_1639,
,,,,SICK,test,s,onset,1.0,None,None,LDTSounds/,LDTSounds/SICK.wav,,,,,0,16,16,29,,,,,,,,,l,0.817753076553,12,male,21,59.967887907924364,American English,fricative_categorical_boundary,2019_Feb_27_1639,
,,,,relnt,filler,None,None,None,nonce,None,LDTSounds/,LDTSounds/relnt.wav,,,,,0,17,17,83,,,,,,,,,a,2.67243599892,12,male,21,59.967887907924364,American English,fricative_categorical_boundary,2019_Feb_27_1639,
,,,,dewagelin,filler,None,None,None,nonce,None,LDTSounds/,LDTSounds/dewagelin.wav,,,,,0,18,18,143,,,,,,,,,a,1.15364313126,12,male,21,59.967887907924364,American English,fricative_categorical_boundary,2019_Feb_27_1639,
,,,,himp,filler,None,None,None,nonce,None,LDTSounds/,LDTSounds/himp.wav,,,,,0,19,19,75,,,,,,,,,a,1.55403494835,12,male,21,59.967887907924364,American English,fricative_categorical_boundary,2019_Feb_27_1639,
,,,,SEATED,test,s,onset,2.0,None,None,LDTSounds/,LDTSounds/SEATED.wav,,,,,0,20,20,22,,,,,,,,,l,1.23685789108,12,male,21,59.967887907924364,American English,fricative_categorical_boundary,2019_Feb_27_1639,
,,,,treaty,filler,None,None,None,real,None,LDTSounds/,LDTSounds/treaty.wav,,,,,0,21,21,65,,,,,,,,,l,2.20450687408,12,male,21,59.967887907924364,American English,fricative_categorical_boundary,2019_Feb_27_1639,
,,,,queng,filler,None,None,None,nonce,None,LDTSounds/,LDTSounds/queng.wav,,,,,0,22,22,86,,,,,,,,,a,2.23824214935,12,male,21,59.967887907924364,American English,fricative_categorical_boundary,2019_Feb_27_1639,
,,,,wegring,filler,None,None,None,nonce,None,LDTSounds/,LDTSounds/wegring.wav,,,,,0,23,23,97,,,,,,,,,a,1.28736805916,12,male,21,59.967887907924364,American English,fricative_categorical_boundary,2019_Feb_27_1639,
,,,,yoog,filler,None,None,None,nonce,None,LDTSounds/,LDTSounds/yoog.wav,,,,,0,24,24,90,,,,,,,,,a,2.75565195084,12,male,21,59.967887907924364,American English,fricative_categorical_boundary,2019_Feb_27_1639,
,,,,lopenad,filler,None,None,None,nonce,None,LDTSounds/,LDTSounds/lopenad.wav,,,,,0,25,25,123,,,,,,,,,a,2.80570793152,12,male,21,59.967887907924364,American English,fricative_categorical_boundary,2019_Feb_27_1639,
,,,,building,filler,None,None,None,real,None,LDTSounds/,LDTSounds/building.wav,,,,,0,26,26,55,,,,,,,,,l,0.919533967972,12,male,21,59.967887907924364,American English,fricative_categorical_boundary,2019_Feb_27_1639,
,,,,drip,filler,None,None,None,real,None,LDTSounds/,LDTSounds/drip.wav,,,,,0,27,27,51,,,,,,,,,l,0.854065895081,12,male,21,59.967887907924364,American English,fricative_categorical_boundary,2019_Feb_27_1639,
,,,,pen,filler,None,None,None,real,None,LDTSounds/,LDTSounds/pen.wav,,,,,0,28,28,40,,,,,,,,,l,1.00351595879,12,male,21,59.967887907924364,American English,fricative_categorical_boundary,2019_Feb_27_1639,
,,,,THIEF,test,f,coda,1.0,None,None,LDTSounds/,LDTSounds/THIEF.wav,,,,,0,29,29,15,,,,,,,,,l,0.703149080276,12,male,21,59.967887907924364,American English,fricative_categorical_boundary,2019_Feb_27_1639,
,,,,maker,filler,None,None,None,real,None,LDTSounds/,LDTSounds/maker.wav,,,,,0,30,30,64,,,,,,,,,l,0.953608036041,12,male,21,59.967887907924364,American English,fricative_categorical_boundary,2019_Feb_27_1639,
,,,,line,filler,None,None,None,real,None,LDTSounds/,LDTSounds/line.wav,,,,,0,31,31,46,,,,,,,,,l,1.05123186111,12,male,21,59.967887907924364,American English,fricative_categorical_boundary,2019_Feb_27_1639,
,,,,SEEING,test,s,onset,2.0,None,None,LDTSounds/,LDTSounds/SEEING.wav,,,,,0,32,32,23,,,,,,,,,l,1.25397992134,12,male,21,59.967887907924364,American English,fricative_categorical_boundary,2019_Feb_27_1639,
,,,,radoobling,filler,None,None,None,nonce,None,LDTSounds/,LDTSounds/radoobling.wav,,,,,0,33,33,142,,,,,,,,,a,1.2699201107,12,male,21,59.967887907924364,American English,fricative_categorical_boundary,2019_Feb_27_1639,
,,,,wet,filler,None,None,None,real,None,LDTSounds/,LDTSounds/wet.wav,,,,,0,34,34,38,,,,,,,,,l,1.37042689323,12,male,21,59.967887907924364,American English,fricative_categorical_boundary,2019_Feb_27_1639,
,,,,toin,filler,None,None,None,nonce,None,LDTSounds/,LDTSounds/toin.wav,,,,,0,35,35,88,,,,,,,,,l,3.53974699974,12,male,21,59.967887907924364,American English,fricative_categorical_boundary,2019_Feb_27_1639,
,,,,twek,filler,None,None,None,nonce,None,LDTSounds/,LDTSounds/twek.wav,,,,,0,36,36,80,,,,,,,,,a,1.15375208855,12,male,21,59.967887907924364,American English,fricative_categorical_boundary,2019_Feb_27_1639,
,,,,FELINE,test,f,onset,2.0,None,None,LDTSounds/,LDTSounds/FELINE.wav,,,,,0,37,37,2,,,,,,,,,l,1.18700098991,12,male,21,59.967887907924364,American English,fricative_categorical_boundary,2019_Feb_27_1639,
,,,,drataloob,filler,None,None,None,nonce,None,LDTSounds/,LDTSounds/drataloob.wav,,,,,0,38,38,129,,,,,,,,,a,0.970225095749,12,male,21,59.967887907924364,American English,fricative_categorical_boundary,2019_Feb_27_1639,
,,,,podaling,filler,None,None,None,nonce,None,LDTSounds/,LDTSounds/podaling.wav,,,,,0,39,39,132,,,,,,,,,a,0.936438798904,12,male,21,59.967887907924364,American English,fricative_categorical_boundary,2019_Feb_27_1639,
,,,,lempok,filler,None,None,None,nonce,None,LDTSounds/,LDTSounds/lempok.wav,,,,,0,40,40,113,,,,,,,,,a,2.45441913605,12,male,21,59.967887907924364,American English,fricative_categorical_boundary,2019_Feb_27_1639,
,,,,CLIFF,test,f,coda,1.0,None,None,LDTSounds/,LDTSounds/CLIFF.wav,,,,,0,41,41,0,,,,,,,,,l,0.769969940186,12,male,21,59.967887907924364,American English,fricative_categorical_boundary,2019_Feb_27_1639,
,,,,trad,filler,None,None,None,nonce,None,LDTSounds/,LDTSounds/trad.wav,,,,,0,42,42,87,,,,,,,,,a,1.98826503754,12,male,21,59.967887907924364,American English,fricative_categorical_boundary,2019_Feb_27_1639,
,,,,habapithloo,filler,None,None,None,nonce,None,LDTSounds/,LDTSounds/habapithloo.wav,,,,,0,43,43,136,,,,,,,,,a,1.37098097801,12,male,21,59.967887907924364,American English,fricative_categorical_boundary,2019_Feb_27_1639,
,,,,retlid,filler,None,None,None,nonce,None,LDTSounds/,LDTSounds/retlid.wav,,,,,0,44,44,105,,,,,,,,,a,2.22105288506,12,male,21,59.967887907924364,American English,fricative_categorical_boundary,2019_Feb_27_1639,
,,,,little,filler,None,None,None,real,None,LDTSounds/,LDTSounds/little.wav,,,,,0,45,45,61,,,,,,,,,l,0.886690855026,12,male,21,59.967887907924364,American English,fricative_categorical_boundary,2019_Feb_27_1639,
,,,,heen,filler,None,None,None,nonce,None,LDTSounds/,LDTSounds/heen.wav,,,,,0,46,46,77,,,,,,,,,a,1.68778991699,12,male,21,59.967887907924364,American English,fricative_categorical_boundary,2019_Feb_27_1639,
,,,,rone,filler,None,None,None,nonce,None,LDTSounds/,LDTSounds/rone.wav,,,,,0,47,47,79,,,,,,,,,l,1.03654408455,12,male,21,59.967887907924364,American English,fricative_categorical_boundary,2019_Feb_27_1639,
,,,,baking,filler,None,None,None,real,None,LDTSounds/,LDTSounds/baking.wav,,,,,0,48,48,69,,,,,,,,,l,1.68765497208,12,male,21,59.967887907924364,American English,fricative_categorical_boundary,2019_Feb_27_1639,
,,,,FEVER,test,f,onset,2.0,None,None,LDTSounds/,LDTSounds/FEVER.wav,,,,,0,49,49,5,,,,,,,,,l,0.920099973679,12,male,21,59.967887907924364,American English,fricative_categorical_boundary,2019_Feb_27_1639,
,,,,lump,filler,None,None,None,real,None,LDTSounds/,LDTSounds/lump.wav,,,,,0,50,50,54,,,,,,,,,l,0.936445951462,12,male,21,59.967887907924364,American English,fricative_categorical_boundary,2019_Feb_27_1639,
,,,,yilk,filler,None,None,None,nonce,None,LDTSounds/,LDTSounds/yilk.wav,,,,,0,51,51,82,,,,,,,,,l,0.8527739048,12,male,21,59.967887907924364,American English,fricative_categorical_boundary,2019_Feb_27_1639,
,,,,trim,filler,None,None,None,real,None,LDTSounds/,LDTSounds/trim.wav,,,,,0,52,52,39,,,,,,,,,l,0.920042037964,12,male,21,59.967887907924364,American English,fricative_categorical_boundary,2019_Feb_27_1639,
,,,,toy,filler,None,None,None,real,None,LDTSounds/,LDTSounds/toy.wav,,,,,0,53,53,53,,,,,,,,,l,0.870012044907,12,male,21,59.967887907924364,American English,fricative_categorical_boundary,2019_Feb_27_1639,
,,,,will,filler,None,None,None,real,None,LDTSounds/,LDTSounds/will.wav,,,,,0,54,54,49,,,,,,,,,l,0.703356981277,12,male,21,59.967887907924364,American English,fricative_categorical_boundary,2019_Feb_27_1639,
,,,,FILL,test,f,onset,1.0,None,None,LDTSounds/,LDTSounds/FILL.wav,,,,,0,55,55,10,,,,,,,,,l,0.785924911499,12,male,21,59.967887907924364,American English,fricative_categorical_boundary,2019_Feb_27_1639,
,,,,SEEM,test,s,onset,1.0,None,None,LDTSounds/,LDTSounds/SEEM.wav,,,,,0,56,56,26,,,,,,,,,l,1.00308012962,12,male,21,59.967887907924364,American English,fricative_categorical_boundary,2019_Feb_27_1639,
,,,,bindilamok,filler,None,None,None,nonce,None,LDTSounds/,LDTSounds/bindilamok.wav,,,,,0,57,57,148,,,,,,,,,a,0.953020095825,12,male,21,59.967887907924364,American English,fricative_categorical_boundary,2019_Feb_27_1639,
,,,,cratbool,filler,None,None,None,nonce,None,LDTSounds/,LDTSounds/cratbool.wav,,,,,0,58,58,106,,,,,,,,,a,2.03866505623,12,male,21,59.967887907924364,American English,fricative_categorical_boundary,2019_Feb_27_1639,
,,,,while,filler,None,None,None,real,None,LDTSounds/,LDTSounds/while.wav,,,,,0,59,59,48,,,,,,,,,l,1.63755488396,12,male,21,59.967887907924364,American English,fricative_categorical_boundary,2019_Feb_27_1639,
,,,,jupiter,filler,None,None,None,real,None,LDTSounds/,LDTSounds/jupiter.wav,,,,,0,60,60,74,,,,,,,,,l,1.27044510841,12,male,21,59.967887907924364,American English,fricative_categorical_boundary,2019_Feb_27_1639,
,,,,kililitbi,filler,None,None,None,nonce,None,LDTSounds/,LDTSounds/kililitbi.wav,,,,,0,61,61,145,,,,,,,,,a,1.33736109734,12,male,21,59.967887907924364,American English,fricative_categorical_boundary,2019_Feb_27_1639,
,,,,yellow,filler,None,None,None,real,None,LDTSounds/,LDTSounds/yellow.wav,,,,,0,62,62,73,,,,,,,,,l,0.836321115494,12,male,21,59.967887907924364,American English,fricative_categorical_boundary,2019_Feb_27_1639,
,,,,rone,filler,None,None,None,nonce,None,LDTSounds/,LDTSounds/rone.wav,,,,,0,63,63,92,,,,,,,,,l,0.91916012764,12,male,21,59.967887907924364,American English,fricative_categorical_boundary,2019_Feb_27_1639,
,,,,krebdingolee,filler,None,None,None,nonce,None,LDTSounds/,LDTSounds/krebdingolee.wav,,,,,0,64,64,147,,,,,,,,,a,1.23668599129,12,male,21,59.967887907924364,American English,fricative_categorical_boundary,2019_Feb_27_1639,
,,,,giblo,filler,None,None,None,nonce,None,LDTSounds/,LDTSounds/giblo.wav,,,,,0,65,65,93,,,,,,,,,a,1.3200340271,12,male,21,59.967887907924364,American English,fricative_categorical_boundary,2019_Feb_27_1639,
,,,,SIP,test,s,onset,1.0,None,None,LDTSounds/,LDTSounds/SIP.wav,,,,,0,66,66,33,,,,,,,,,l,0.953123092651,12,male,21,59.967887907924364,American English,fricative_categorical_boundary,2019_Feb_27_1639,
,,,,kotlim,filler,None,None,None,nonce,None,LDTSounds/,LDTSounds/kotlim.wav,,,,,0,67,67,114,,,,,,,,,a,1.27050495148,12,male,21,59.967887907924364,American English,fricative_categorical_boundary,2019_Feb_27_1639,
,,,,himnapile,filler,None,None,None,nonce,None,LDTSounds/,LDTSounds/himnapile.wav,,,,,0,68,68,128,,,,,,,,,a,1.31995105743,12,male,21,59.967887907924364,American English,fricative_categorical_boundary,2019_Feb_27_1639,
,,,,BLISS,test,s,coda,1.0,None,None,LDTSounds/,LDTSounds/BLISS.wav,,,,,0,69,69,17,,,,,,,,,l,1.62068891525,12,male,21,59.967887907924364,American English,fricative_categorical_boundary,2019_Feb_27_1639,
,,,,cridamlo,filler,None,None,None,nonce,None,LDTSounds/,LDTSounds/cridamlo.wav,,,,,0,70,70,122,,,,,,,,,a,2.05258607864,12,male,21,59.967887907924364,American English,fricative_categorical_boundary,2019_Feb_27_1639,
,,,,FILTH,test,f,onset,1.0,None,None,LDTSounds/,LDTSounds/FILTH.wav,,,,,0,71,71,12,,,,,,,,,l,0.836936950684,12,male,21,59.967887907924364,American English,fricative_categorical_boundary,2019_Feb_27_1639,
,,,,SING,test,s,onset,1.0,None,None,LDTSounds/,LDTSounds/SING.wav,,,,,0,72,72,32,,,,,,,,,l,1.05353999138,12,male,21,59.967887907924364,American English,fricative_categorical_boundary,2019_Feb_27_1639,
,,,,kabalingno,filler,None,None,None,nonce,None,LDTSounds/,LDTSounds/kabalingno.wav,,,,,0,73,73,138,,,,,,,,,a,3.02274703979,12,male,21,59.967887907924364,American English,fricative_categorical_boundary,2019_Feb_27_1639,
,,,,SEEPING,test,s,onset,2.0,None,None,LDTSounds/,LDTSounds/SEEPING.wav,,,,,0,74,74,27,,,,,,,,,l,1.15363502502,12,male,21,59.967887907924364,American English,fricative_categorical_boundary,2019_Feb_27_1639,
,,,,blegondanit,filler,None,None,None,nonce,None,LDTSounds/,LDTSounds/blegondanit.wav,,,,,0,75,75,144,,,,,,,,,a,3.1720969677,12,male,21,59.967887907924364,American English,fricative_categorical_boundary,2019_Feb_27_1639,
,,,,tuba,filler,None,None,None,real,None,LDTSounds/,LDTSounds/tuba.wav,,,,,0,76,76,57,,,,,,,,,l,1.33722686768,12,male,21,59.967887907924364,American English,fricative_categorical_boundary,2019_Feb_27_1639,
,,,,rekmate,filler,None,None,None,nonce,None,LDTSounds/,LDTSounds/rekmate.wav,,,,,0,77,77,103,,,,,,,,,a,1.23598694801,12,male,21,59.967887907924364,American English,fricative_categorical_boundary,2019_Feb_27_1639,
,,,,deemlond,filler,None,None,None,nonce,None,LDTSounds/,LDTSounds/deemlond.wav,,,,,0,78,78,104,,,,,,,,,a,1.80425596237,12,male,21,59.967887907924364,American English,fricative_categorical_boundary,2019_Feb_27_1639,
,,,,datoonmeg,filler,None,None,None,nonce,None,LDTSounds/,LDTSounds/datoonmeg.wav,,,,,0,79,79,133,,,,,,,,,a,2.28776097298,12,male,21,59.967887907924364,American English,fricative_categorical_boundary,2019_Feb_27_1639,
,,,,toilet,filler,None,None,None,real,None,LDTSounds/,LDTSounds/toilet.wav,,,,,0,80,80,67,,,,,,,,,l,1.70362210274,12,male,21,59.967887907924364,American English,fricative_categorical_boundary,2019_Feb_27_1639,
,,,,yoogul,filler,None,None,None,nonce,None,LDTSounds/,LDTSounds/yoogul.wav,,,,,0,81,81,102,,,,,,,,,a,1.31997609138,12,male,21,59.967887907924364,American English,fricative_categorical_boundary,2019_Feb_27_1639,
,,,,FEEBLE,test,f,onset,2.0,None,None,LDTSounds/,LDTSounds/FEEBLE.wav,,,,,0,82,82,1,,,,,,,,,l,2.00487303734,12,male,21,59.967887907924364,American English,fricative_categorical_boundary,2019_Feb_27_1639,
,,,,rivathrog,filler,None,None,None,nonce,None,LDTSounds/,LDTSounds/rivathrog.wav,,,,,0,83,83,131,,,,,,,,,a,1.03602695465,12,male,21,59.967887907924364,American English,fricative_categorical_boundary,2019_Feb_27_1639,
,,,,kebnoti,filler,None,None,None,nonce,None,LDTSounds/,LDTSounds/kebnoti.wav,,,,,0,84,84,121,,,,,,,,,a,4.82439923286,12,male,21,59.967887907924364,American English,fricative_categorical_boundary,2019_Feb_27_1639,
,,,,loot,filler,None,None,None,real,None,LDTSounds/,LDTSounds/loot.wav,,,,,0,85,85,37,,,,,,,,,a,1.21955490112,12,male,21,59.967887907924364,American English,fricative_categorical_boundary,2019_Feb_27_1639,
,,,,FIJI,test,f,onset,2.0,None,None,LDTSounds/,LDTSounds/FIJI.wav,,,,,0,86,86,9,,,,,,,,,l,2.50536203384,12,male,21,59.967887907924364,American English,fricative_categorical_boundary,2019_Feb_27_1639,
,,,,roip,filler,None,None,None,nonce,None,LDTSounds/,LDTSounds/roip.wav,,,,,0,87,87,89,,,,,,,,,a,1.27062892914,12,male,21,59.967887907924364,American English,fricative_categorical_boundary,2019_Feb_27_1639,
,,,,pingloon,filler,None,None,None,nonce,None,LDTSounds/,LDTSounds/pingloon.wav,,,,,0,88,88,110,,,,,,,,,a,1.82100009918,12,male,21,59.967887907924364,American English,fricative_categorical_boundary,2019_Feb_27_1639,
,,,,globe,filler,None,None,None,real,None,LDTSounds/,LDTSounds/globe.wav,,,,,0,89,89,52,,,,,,,,,l,1.40369009972,12,male,21,59.967887907924364,American English,fricative_categorical_boundary,2019_Feb_27_1639,
,,,,libmadoop,filler,None,None,None,nonce,None,LDTSounds/,LDTSounds/libmadoop.wav,,,,,0,90,90,117,,,,,,,,,a,1.33746194839,12,male,21,59.967887907924364,American English,fricative_categorical_boundary,2019_Feb_27_1639,
,,,,twin,filler,None,None,None,real,None,LDTSounds/,LDTSounds/twin.wav,,,,,0,91,91,44,,,,,,,,,l,1.47040200233,12,male,21,59.967887907924364,American English,fricative_categorical_boundary,2019_Feb_27_1639,
,,,,magmilnt,filler,None,None,None,nonce,None,LDTSounds/,LDTSounds/magmilnt.wav,,,,,0,92,92,107,,,,,,,,,a,4.22391009331,12,male,21,59.967887907924364,American English,fricative_categorical_boundary,2019_Feb_27_1639,
,,,,taklibd,filler,None,None,None,nonce,None,LDTSounds/,LDTSounds/taklibd.wav,,,,,0,93,93,101,,,,,,,,,a,1.37059593201,12,male,21,59.967887907924364,American English,fricative_categorical_boundary,2019_Feb_27_1639,
,,,,mole,filler,None,None,None,real,None,LDTSounds/,LDTSounds/mole.wav,,,,,0,94,94,42,,,,,,,,,l,0.969621181488,12,male,21,59.967887907924364,American English,fricative_categorical_boundary,2019_Feb_27_1639,
,,,,laker,filler,None,None,None,real,None,LDTSounds/,LDTSounds/laker.wav,,,,,0,95,95,58,,,,,,,,,l,1.11978793144,12,male,21,59.967887907924364,American English,fricative_categorical_boundary,2019_Feb_27_1639,
,,,,trongolemp,filler,None,None,None,nonce,None,LDTSounds/,LDTSounds/trongolemp.wav,,,,,0,96,96,130,,,,,,,,,a,1.07013297081,12,male,21,59.967887907924364,American English,fricative_categorical_boundary,2019_Feb_27_1639,
,,,,SEEKER,test,s,onset,2.0,None,None,LDTSounds/,LDTSounds/SEEKER.wav,,,,,0,97,97,25,,,,,,,,,l,1.13713812828,12,male,21,59.967887907924364,American English,fricative_categorical_boundary,2019_Feb_27_1639,
,,,,SIM,test,s,onset,1.0,None,None,LDTSounds/,LDTSounds/SIM.wav,,,,,0,98,98,31,,,,,,,,,a,5.57547402382,12,male,21,59.967887907924364,American English,fricative_categorical_boundary,2019_Feb_27_1639,
,,,,troplund,filler,None,None,None,nonce,None,LDTSounds/,LDTSounds/troplund.wav,,,,,0,99,99,98,,,,,,,,,a,1.21982002258,12,male,21,59.967887907924364,American English,fricative_categorical_boundary,2019_Feb_27_1639,
,,,,SEETHING,test,s,onset,2.0,None,None,LDTSounds/,LDTSounds/SEETHING.wav,,,,,0,100,100,28,,,,,,,,,l,1.20388102531,12,male,21,59.967887907924364,American English,fricative_categorical_boundary,2019_Feb_27_1639,
,,,,pendalimt,filler,None,None,None,nonce,None,LDTSounds/,LDTSounds/pendalimt.wav,,,,,0,101,101,118,,,,,,,,,a,2.30501317978,12,male,21,59.967887907924364,American English,fricative_categorical_boundary,2019_Feb_27_1639,
,,,,SEAGULL,test,s,onset,2.0,None,None,LDTSounds/,LDTSounds/SEAGULL.wav,,,,,0,102,102,21,,,,,,,,,l,0.986410140991,12,male,21,59.967887907924364,American English,fricative_categorical_boundary,2019_Feb_27_1639,
,,,,FILM,test,f,onset,1.0,None,None,LDTSounds/,LDTSounds/FILM.wav,,,,,0,103,103,11,,,,,,,,,l,0.719466924667,12,male,21,59.967887907924364,American English,fricative_categorical_boundary,2019_Feb_27_1639,
,,,,mitger,filler,None,None,None,nonce,None,LDTSounds/,LDTSounds/mitger.wav,,,,,0,104,104,111,,,,,,,,,l,1.55411481857,12,male,21,59.967887907924364,American English,fricative_categorical_boundary,2019_Feb_27_1639,
,,,,daydream,filler,None,None,None,real,None,LDTSounds/,LDTSounds/daydream.wav,,,,,0,105,105,59,,,,,,,,,l,0.953382015228,12,male,21,59.967887907924364,American English,fricative_categorical_boundary,2019_Feb_27_1639,
,,,,PIECE,test,s,coda,1.0,None,None,LDTSounds/,LDTSounds/PIECE.wav,,,,,0,106,106,20,,,,,,,,,l,0.769712209702,12,male,21,59.967887907924364,American English,fricative_categorical_boundary,2019_Feb_27_1639,
,,,,mall,filler,None,None,None,real,None,LDTSounds/,LDTSounds/mall.wav,,,,,0,107,107,43,,,,,,,,,l,0.969758987427,12,male,21,59.967887907924364,American English,fricative_categorical_boundary,2019_Feb_27_1639,
,,,,trooper,filler,None,None,None,real,None,LDTSounds/,LDTSounds/trooper.wav,,,,,0,108,108,66,,,,,,,,,l,2.82243299484,12,male,21,59.967887907924364,American English,fricative_categorical_boundary,2019_Feb_27_1639,
,,,,poginito,filler,None,None,None,nonce,None,LDTSounds/,LDTSounds/poginito.wav,,,,,0,109,109,139,,,,,,,,,a,1.45334100723,12,male,21,59.967887907924364,American English,fricative_categorical_boundary,2019_Feb_27_1639,
,,,,kinudiplo,filler,None,None,None,nonce,None,LDTSounds/,LDTSounds/kinudiplo.wav,,,,,0,110,110,149,,,,,,,,,a,3.13905286789,12,male,21,59.967887907924364,American English,fricative_categorical_boundary,2019_Feb_27_1639,
,,,,poindool,filler,None,None,None,nonce,None,LDTSounds/,LDTSounds/poindool.wav,,,,,0,111,111,96,,,,,,,,,a,1.4541220665,12,male,21,59.967887907924364,American English,fricative_categorical_boundary,2019_Feb_27_1639,
,,,,ligbee,filler,None,None,None,nonce,None,LDTSounds/,LDTSounds/ligbee.wav,,,,,0,112,112,95,,,,,,,,,a,1.63747787476,12,male,21,59.967887907924364,American English,fricative_categorical_boundary,2019_Feb_27_1639,
,,,,yoomake,filler,None,None,None,nonce,None,LDTSounds/,LDTSounds/yoomake.wav,,,,,0,113,113,99,,,,,,,,,a,2.35494208336,12,male,21,59.967887907924364,American English,fricative_categorical_boundary,2019_Feb_27_1639,
,,,,typing,filler,None,None,None,real,None,LDTSounds/,LDTSounds/typing.wav,,,,,0,114,114,70,,,,,,,,,l,1.00333213806,12,male,21,59.967887907924364,American English,fricative_categorical_boundary,2019_Feb_27_1639,
,,,,ledmon,filler,None,None,None,nonce,None,LDTSounds/,LDTSounds/ledmon.wav,,,,,0,115,115,94,,,,,,,,,a,1.05378293991,12,male,21,59.967887907924364,American English,fricative_categorical_boundary,2019_Feb_27_1639,
,,,,liquor,filler,None,None,None,real,None,LDTSounds/,LDTSounds/liquor.wav,,,,,0,116,116,63,,,,,,,,,l,2.85308885574,12,male,21,59.967887907924364,American English,fricative_categorical_boundary,2019_Feb_27_1639,
,,,,midaran,filler,None,None,None,nonce,None,LDTSounds/,LDTSounds/midaran.wav,,,,,0,117,117,119,,,,,,,,,a,1.13637685776,12,male,21,59.967887907924364,American English,fricative_categorical_boundary,2019_Feb_27_1639,
,,,,right,filler,None,None,None,real,None,LDTSounds/,LDTSounds/right.wav,,,,,0,118,118,36,,,,,,,,,a,1.2534968853,12,male,21,59.967887907924364,American English,fricative_categorical_boundary,2019_Feb_27_1639,
,,,,yoodalin,filler,None,None,None,nonce,None,LDTSounds/,LDTSounds/yoodalin.wav,,,,,0,119,119,125,,,,,,,,,a,1.12023997307,12,male,21,59.967887907924364,American English,fricative_categorical_boundary,2019_Feb_27_1639,
,,,,noopalingdo,filler,None,None,None,nonce,None,LDTSounds/,LDTSounds/noopalingdo.wav,,,,,0,120,120,135,,,,,,,,,a,1.17027497292,12,male,21,59.967887907924364,American English,fricative_categorical_boundary,2019_Feb_27_1639,
,,,,rowboat,filler,None,None,None,real,None,LDTSounds/,LDTSounds/rowboat.wav,,,,,0,121,121,56,,,,,,,,,a,1.81858801842,12,male,21,59.967887907924364,American English,fricative_categorical_boundary,2019_Feb_27_1639,
,,,,SILK,test,s,onset,1.0,None,None,LDTSounds/,LDTSounds/SILK.wav,,,,,0,122,122,30,,,,,,,,,l,0.903336048126,12,male,21,59.967887907924364,American English,fricative_categorical_boundary,2019_Feb_27_1639,
,,,,day,filler,None,None,None,real,None,LDTSounds/,LDTSounds/day.wav,,,,,0,123,123,50,,,,,,,,,l,0.73606300354,12,male,21,59.967887907924364,American English,fricative_categorical_boundary,2019_Feb_27_1639,
,,,,doonagort,filler,None,None,None,nonce,None,LDTSounds/,LDTSounds/doonagort.wav,,,,,0,124,124,127,,,,,,,,,a,0.903266191483,12,male,21,59.967887907924364,American English,fricative_categorical_boundary,2019_Feb_27_1639,
,,,,hundapegnort,filler,None,None,None,nonce,None,LDTSounds/,LDTSounds/hundapegnort.wav,,,,,0,125,125,141,,,,,,,,,a,0.986294031143,12,male,21,59.967887907924364,American English,fricative_categorical_boundary,2019_Feb_27_1639,
,,,,FIFTH,test,f,onset,1.0,None,None,LDTSounds/,LDTSounds/FIFTH.wav,,,,,0,126,126,8,,,,,,,,,l,1.07032704353,12,male,21,59.967887907924364,American English,fricative_categorical_boundary,2019_Feb_27_1639,
,,,,rat,filler,None,None,None,real,None,LDTSounds/,LDTSounds/rat.wav,,,,,0,127,127,47,,,,,,,,,l,2.2377140522,12,male,21,59.967887907924364,American English,fricative_categorical_boundary,2019_Feb_27_1639,
,,,,truck,filler,None,None,None,real,None,LDTSounds/,LDTSounds/truck.wav,,,,,0,128,128,34,,,,,,,,,l,1.6541800499,12,male,21,59.967887907924364,American English,fricative_categorical_boundary,2019_Feb_27_1639,
,,,,trag,filler,None,None,None,nonce,None,LDTSounds/,LDTSounds/trag.wav,,,,,0,129,129,84,,,,,,,,,l,1.23656320572,12,male,21,59.967887907924364,American English,fricative_categorical_boundary,2019_Feb_27_1639,
,,,,FIEND,test,f,onset,1.0,None,None,LDTSounds/,LDTSounds/FIEND.wav,,,,,0,130,130,7,,,,,,,,,l,1.00257492065,12,male,21,59.967887907924364,American English,fricative_categorical_boundary,2019_Feb_27_1639,
,,,,FEMALE,test,f,onset,2.0,None,None,LDTSounds/,LDTSounds/FEMALE.wav,,,,,0,131,131,3,,,,,,,,,l,0.93638586998,12,male,21,59.967887907924364,American English,fricative_categorical_boundary,2019_Feb_27_1639,
,,,,WHIFF,test,f,coda,1.0,None,None,LDTSounds/,LDTSounds/WHIFF.wav,,,,,0,132,132,16,,,,,,,,,l,0.986299991608,12,male,21,59.967887907924364,American English,fricative_categorical_boundary,2019_Feb_27_1639,
,,,,dripnalong,filler,None,None,None,nonce,None,LDTSounds/,LDTSounds/dripnalong.wav,,,,,0,133,133,124,,,,,,,,,a,0.920141935349,12,male,21,59.967887907924364,American English,fricative_categorical_boundary,2019_Feb_27_1639,
,,,,data,filler,None,None,None,real,None,LDTSounds/,LDTSounds/data.wav,,,,,0,134,134,62,,,,,,,,,l,0.803226947784,12,male,21,59.967887907924364,American English,fricative_categorical_boundary,2019_Feb_27_1639,
,,,,petnole,filler,None,None,None,nonce,None,LDTSounds/,LDTSounds/petnole.wav,,,,,0,135,135,112,,,,,,,,,a,0.969987869263,12,male,21,59.967887907924364,American English,fricative_categorical_boundary,2019_Feb_27_1639,
,,,,KISS,test,s,coda,1.0,None,None,LDTSounds/,LDTSounds/KISS.wav,,,,,0,136,136,19,,,,,,,,,l,0.653453826904,12,male,21,59.967887907924364,American English,fricative_categorical_boundary,2019_Feb_27_1639,
,,,,metroy,filler,None,None,None,nonce,None,LDTSounds/,LDTSounds/metroy.wav,,,,,0,137,137,100,,,,,,,,,l,4.55735898018,12,male,21,59.967887907924364,American English,fricative_categorical_boundary,2019_Feb_27_1639,
,,,,pillow,filler,None,None,None,real,None,LDTSounds/,LDTSounds/pillow.wav,,,,,0,138,138,72,,,,,,,,,l,1.03667092323,12,male,21,59.967887907924364,American English,fricative_categorical_boundary,2019_Feb_27_1639,
,,,,butter,filler,None,None,None,real,None,LDTSounds/,LDTSounds/butter.wav,,,,,0,139,139,60,,,,,,,,,l,0.853179931641,12,male,21,59.967887907924364,American English,fricative_categorical_boundary,2019_Feb_27_1639,
,,,,plone,filler,None,None,None,nonce,None,LDTSounds/,LDTSounds/plone.wav,,,,,0,140,140,76,,,,,,,,,a,2.53864884377,12,male,21,59.967887907924364,American English,fricative_categorical_boundary,2019_Feb_27_1639,
,,,,lick,filler,None,None,None,real,None,LDTSounds/,LDTSounds/lick.wav,,,,,0,141,141,41,,,,,,,,,l,0.83678483963,12,male,21,59.967887907924364,American English,fricative_categorical_boundary,2019_Feb_27_1639,
,,,,ratwell,filler,None,None,None,nonce,None,LDTSounds/,LDTSounds/ratwell.wav,,,,,0,142,142,108,,,,,,,,,a,1.15306282043,12,male,21,59.967887907924364,American English,fricative_categorical_boundary,2019_Feb_27_1639,
,,,,wiblee,filler,None,None,None,nonce,None,LDTSounds/,LDTSounds/wiblee.wav,,,,,0,143,143,115,,,,,,,,,a,1.03701090813,12,male,21,59.967887907924364,American English,fricative_categorical_boundary,2019_Feb_27_1639,
,,,,GEESE,test,s,coda,1.0,None,None,LDTSounds/,LDTSounds/GEESE.wav,,,,,0,144,144,18,,,,,,,,,l,0.886255025864,12,male,21,59.967887907924364,American English,fricative_categorical_boundary,2019_Feb_27_1639,
,,,,habalipdee,filler,None,None,None,nonce,None,LDTSounds/,LDTSounds/habalipdee.wav,,,,,0,145,145,140,,,,,,,,,a,1.58490800858,12,male,21,59.967887907924364,American English,fricative_categorical_boundary,2019_Feb_27_1639,
,,,,bidbowk,filler,None,None,None,nonce,None,LDTSounds/,LDTSounds/bidbowk.wav,,,,,0,146,146,109,,,,,,,,,a,1.00352597237,12,male,21,59.967887907924364,American English,fricative_categorical_boundary,2019_Feb_27_1639,
,,,,hapekt,filler,None,None,None,nonce,None,LDTSounds/,LDTSounds/hapekt.wav,,,,,0,147,147,116,,,,,,,,,a,1.10314702988,12,male,21,59.967887907924364,American English,fricative_categorical_boundary,2019_Feb_27_1639,
,,,,boycott,filler,None,None,None,real,None,LDTSounds/,LDTSounds/boycott.wav,,,,,0,148,148,71,,,,,,,,,l,0.95352602005,12,male,21,59.967887907924364,American English,fricative_categorical_boundary,2019_Feb_27_1639,
,,,,SEEK,test,s,onset,1.0,None,None,LDTSounds/,LDTSounds/SEEK.wav,,,,,0,149,149,24,,,,,,,,,l,0.970049142838,12,male,21,59.967887907924364,American English,fricative_categorical_boundary,2019_Feb_27_1639,
,,,,,,,,,,,,,,,,,,,,,,,,,,,,,,,12,male,21,59.967887907924364,American English,fricative_categorical_boundary,2019_Feb_27_1639,
19,NewWord_fbackonset_sbackonset_,LowBackContinuum/,LowBackContinuum/NewWord_fbackonset_sbackonset_19.wav,,,,,,,,,,,,,,,,,,0,0,0,7,f,1.42,,,,,12,male,21,59.967887907924364,American English,fricative_categorical_boundary,2019_Feb_27_1639,
13,NewWord_fbackonset_sbackonset_,LowBackContinuum/,LowBackContinuum/NewWord_fbackonset_sbackonset_13.wav,,,,,,,,,,,,,,,,,,0,1,1,4,f,1.037,,,,,12,male,21,59.967887907924364,American English,fricative_categorical_boundary,2019_Feb_27_1639,
17,NewWord_fbackonset_sbackonset_,LowBackContinuum/,LowBackContinuum/NewWord_fbackonset_sbackonset_17.wav,,,,,,,,,,,,,,,,,,0,2,2,6,s,0.82,,,,,12,male,21,59.967887907924364,American English,fricative_categorical_boundary,2019_Feb_27_1639,
27,NewWord_fbackonset_sbackonset_,LowBackContinuum/,LowBackContinuum/NewWord_fbackonset_sbackonset_27.wav,,,,,,,,,,,,,,,,,,0,3,3,11,s,0.436,,,,,12,male,21,59.967887907924364,American English,fricative_categorical_boundary,2019_Feb_27_1639,
15,NewWord_fbackonset_sbackonset_,LowBackContinuum/,LowBackContinuum/NewWord_fbackonset_sbackonset_15.wav,,,,,,,,,,,,,,,,,,0,4,4,5,f,1.269,,,,,12,male,21,59.967887907924364,American English,fricative_categorical_boundary,2019_Feb_27_1639,
25,NewWord_fbackonset_sbackonset_,LowBackContinuum/,LowBackContinuum/NewWord_fbackonset_sbackonset_25.wav,,,,,,,,,,,,,,,,,,0,5,5,10,s,0.436,,,,,12,male,21,59.967887907924364,American English,fricative_categorical_boundary,2019_Feb_27_1639,
9,NewWord_fbackonset_sbackonset_,LowBackContinuum/,LowBackContinuum/NewWord_fbackonset_sbackonset_9.wav,,,,,,,,,,,,,,,,,,0,6,6,2,f,0.821,,,,,12,male,21,59.967887907924364,American English,fricative_categorical_boundary,2019_Feb_27_1639,
7,NewWord_fbackonset_sbackonset_,LowBackContinuum/,LowBackContinuum/NewWord_fbackonset_sbackonset_7.wav,,,,,,,,,,,,,,,,,,0,7,7,1,f,0.403,,,,,12,male,21,59.967887907924364,American English,fricative_categorical_boundary,2019_Feb_27_1639,
1,NewWord_fbackonset_sbackonset_,LowBackContinuum/,LowBackContinuum/NewWord_fbackonset_sbackonset_1.wav,,,,,,,,,,,,,,,,,,0,8,8,0,f,0.403,,,,,12,male,21,59.967887907924364,American English,fricative_categorical_boundary,2019_Feb_27_1639,
21,NewWord_fbackonset_sbackonset_,LowBackContinuum/,LowBackContinuum/NewWord_fbackonset_sbackonset_21.wav,,,,,,,,,,,,,,,,,,0,9,9,8,s,0.436,,,,,12,male,21,59.967887907924364,American English,fricative_categorical_boundary,2019_Feb_27_1639,
41,NewWord_fbackonset_sbackonset_,LowBackContinuum/,LowBackContinuum/NewWord_fbackonset_sbackonset_41.wav,,,,,,,,,,,,,,,,,,0,10,10,13,s,0.72,,,,,12,male,21,59.967887907924364,American English,fricative_categorical_boundary,2019_Feb_27_1639,
29,NewWord_fbackonset_sbackonset_,LowBackContinuum/,LowBackContinuum/NewWord_fbackonset_sbackonset_29.wav,,,,,,,,,,,,,,,,,,0,11,11,12,s,0.704,,,,,12,male,21,59.967887907924364,American English,fricative_categorical_boundary,2019_Feb_27_1639,
11,NewWord_fbackonset_sbackonset_,LowBackContinuum/,LowBackContinuum/NewWord_fbackonset_sbackonset_11.wav,,,,,,,,,,,,,,,,,,0,12,12,3,f,0.403,,,,,12,male,21,59.967887907924364,American English,fricative_categorical_boundary,2019_Feb_27_1639,
23,NewWord_fbackonset_sbackonset_,LowBackContinuum/,LowBackContinuum/NewWord_fbackonset_sbackonset_23.wav,,,,,,,,,,,,,,,,,,0,13,13,9,s,0.62,,,,,12,male,21,59.967887907924364,American English,fricative_categorical_boundary,2019_Feb_27_1639,
15,NewWord_fbackonset_sbackonset_,LowBackContinuum/,LowBackContinuum/NewWord_fbackonset_sbackonset_15.wav,,,,,,,,,,,,,,,,,,1,0,14,5,f,2.055,,,,,12,male,21,59.967887907924364,American English,fricative_categorical_boundary,2019_Feb_27_1639,
11,NewWord_fbackonset_sbackonset_,LowBackContinuum/,LowBackContinuum/NewWord_fbackonset_sbackonset_11.wav,,,,,,,,,,,,,,,,,,1,1,15,3,f,0.669,,,,,12,male,21,59.967887907924364,American English,fricative_categorical_boundary,2019_Feb_27_1639,
7,NewWord_fbackonset_sbackonset_,LowBackContinuum/,LowBackContinuum/NewWord_fbackonset_sbackonset_7.wav,,,,,,,,,,,,,,,,,,1,2,16,1,f,0.403,,,,,12,male,21,59.967887907924364,American English,fricative_categorical_boundary,2019_Feb_27_1639,
21,NewWord_fbackonset_sbackonset_,LowBackContinuum/,LowBackContinuum/NewWord_fbackonset_sbackonset_21.wav,,,,,,,,,,,,,,,,,,1,3,17,8,s,0.637,,,,,12,male,21,59.967887907924364,American English,fricative_categorical_boundary,2019_Feb_27_1639,
25,NewWord_fbackonset_sbackonset_,LowBackContinuum/,LowBackContinuum/NewWord_fbackonset_sbackonset_25.wav,,,,,,,,,,,,,,,,,,1,4,18,10,s,1.988,,,,,12,male,21,59.967887907924364,American English,fricative_categorical_boundary,2019_Feb_27_1639,
29,NewWord_fbackonset_sbackonset_,LowBackContinuum/,LowBackContinuum/NewWord_fbackonset_sbackonset_29.wav,,,,,,,,,,,,,,,,,,1,5,19,12,s,0.403,,,,,12,male,21,59.967887907924364,American English,fricative_categorical_boundary,2019_Feb_27_1639,
13,NewWord_fbackonset_sbackonset_,LowBackContinuum/,LowBackContinuum/NewWord_fbackonset_sbackonset_13.wav,,,,,,,,,,,,,,,,,,1,6,20,4,f,0.703,,,,,12,male,21,59.967887907924364,American English,fricative_categorical_boundary,2019_Feb_27_1639,
41,NewWord_fbackonset_sbackonset_,LowBackContinuum/,LowBackContinuum/NewWord_fbackonset_sbackonset_41.wav,,,,,,,,,,,,,,,,,,1,7,21,13,s,0.537,,,,,12,male,21,59.967887907924364,American English,fricative_categorical_boundary,2019_Feb_27_1639,
27,NewWord_fbackonset_sbackonset_,LowBackContinuum/,LowBackContinuum/NewWord_fbackonset_sbackonset_27.wav,,,,,,,,,,,,,,,,,,1,8,22,11,s,0.403,,,,,12,male,21,59.967887907924364,American English,fricative_categorical_boundary,2019_Feb_27_1639,
23,NewWord_fbackonset_sbackonset_,LowBackContinuum/,LowBackContinuum/NewWord_fbackonset_sbackonset_23.wav,,,,,,,,,,,,,,,,,,1,9,23,9,s,0.422,,,,,12,male,21,59.967887907924364,American English,fricative_categorical_boundary,2019_Feb_27_1639,
9,NewWord_fbackonset_sbackonset_,LowBackContinuum/,LowBackContinuum/NewWord_fbackonset_sbackonset_9.wav,,,,,,,,,,,,,,,,,,1,10,24,2,f,0.402,,,,,12,male,21,59.967887907924364,American English,fricative_categorical_boundary,2019_Feb_27_1639,
1,NewWord_fbackonset_sbackonset_,LowBackContinuum/,LowBackContinuum/NewWord_fbackonset_sbackonset_1.wav,,,,,,,,,,,,,,,,,,1,11,25,0,f,1.004,,,,,12,male,21,59.967887907924364,American English,fricative_categorical_boundary,2019_Feb_27_1639,
17,NewWord_fbackonset_sbackonset_,LowBackContinuum/,LowBackContinuum/NewWord_fbackonset_sbackonset_17.wav,,,,,,,,,,,,,,,,,,1,12,26,6,s,0.452,,,,,12,male,21,59.967887907924364,American English,fricative_categorical_boundary,2019_Feb_27_1639,
19,NewWord_fbackonset_sbackonset_,LowBackContinuum/,LowBackContinuum/NewWord_fbackonset_sbackonset_19.wav,,,,,,,,,,,,,,,,,,1,13,27,7,s,0.421,,,,,12,male,21,59.967887907924364,American English,fricative_categorical_boundary,2019_Feb_27_1639,
19,NewWord_fbackonset_sbackonset_,LowBackContinuum/,LowBackContinuum/NewWord_fbackonset_sbackonset_19.wav,,,,,,,,,,,,,,,,,,2,0,28,7,f,0.437,,,,,12,male,21,59.967887907924364,American English,fricative_categorical_boundary,2019_Feb_27_1639,
17,NewWord_fbackonset_sbackonset_,LowBackContinuum/,LowBackContinuum/NewWord_fbackonset_sbackonset_17.wav,,,,,,,,,,,,,,,,,,2,1,29,6,s,0.586,,,,,12,male,21,59.967887907924364,American English,fricative_categorical_boundary,2019_Feb_27_1639,
13,NewWord_fbackonset_sbackonset_,LowBackContinuum/,LowBackContinuum/NewWord_fbackonset_sbackonset_13.wav,,,,,,,,,,,,,,,,,,2,2,30,4,f,0.453,,,,,12,male,21,59.967887907924364,American English,fricative_categorical_boundary,2019_Feb_27_1639,
29,NewWord_fbackonset_sbackonset_,LowBackContinuum/,LowBackContinuum/NewWord_fbackonset_sbackonset_29.wav,,,,,,,,,,,,,,,,,,2,3,31,12,s,1.104,,,,,12,male,21,59.967887907924364,American English,fricative_categorical_boundary,2019_Feb_27_1639,
9,NewWord_fbackonset_sbackonset_,LowBackContinuum/,LowBackContinuum/NewWord_fbackonset_sbackonset_9.wav,,,,,,,,,,,,,,,,,,2,4,32,2,f,0.803,,,,,12,male,21,59.967887907924364,American English,fricative_categorical_boundary,2019_Feb_27_1639,
41,NewWord_fbackonset_sbackonset_,LowBackContinuum/,LowBackContinuum/NewWord_fbackonset_sbackonset_41.wav,,,,,,,,,,,,,,,,,,2,5,33,13,s,0.402,,,,,12,male,21,59.967887907924364,American English,fricative_categorical_boundary,2019_Feb_27_1639,
25,NewWord_fbackonset_sbackonset_,LowBackContinuum/,LowBackContinuum/NewWord_fbackonset_sbackonset_25.wav,,,,,,,,,,,,,,,,,,2,6,34,10,s,0.97,,,,,12,male,21,59.967887907924364,American English,fricative_categorical_boundary,2019_Feb_27_1639,
21,NewWord_fbackonset_sbackonset_,LowBackContinuum/,LowBackContinuum/NewWord_fbackonset_sbackonset_21.wav,,,,,,,,,,,,,,,,,,2,7,35,8,s,0.603,,,,,12,male,21,59.967887907924364,American English,fricative_categorical_boundary,2019_Feb_27_1639,
27,NewWord_fbackonset_sbackonset_,LowBackContinuum/,LowBackContinuum/NewWord_fbackonset_sbackonset_27.wav,,,,,,,,,,,,,,,,,,2,8,36,11,s,4.24,,,,,12,male,21,59.967887907924364,American English,fricative_categorical_boundary,2019_Feb_27_1639,
11,NewWord_fbackonset_sbackonset_,LowBackContinuum/,LowBackContinuum/NewWord_fbackonset_sbackonset_11.wav,,,,,,,,,,,,,,,,,,2,9,37,3,f,0.419,,,,,12,male,21,59.967887907924364,American English,fricative_categorical_boundary,2019_Feb_27_1639,
15,NewWord_fbackonset_sbackonset_,LowBackContinuum/,LowBackContinuum/NewWord_fbackonset_sbackonset_15.wav,,,,,,,,,,,,,,,,,,2,10,38,5,s,0.42,,,,,12,male,21,59.967887907924364,American English,fricative_categorical_boundary,2019_Feb_27_1639,
1,NewWord_fbackonset_sbackonset_,LowBackContinuum/,LowBackContinuum/NewWord_fbackonset_sbackonset_1.wav,,,,,,,,,,,,,,,,,,2,11,39,0,f,0.486,,,,,12,male,21,59.967887907924364,American English,fricative_categorical_boundary,2019_Feb_27_1639,
7,NewWord_fbackonset_sbackonset_,LowBackContinuum/,LowBackContinuum/NewWord_fbackonset_sbackonset_7.wav,,,,,,,,,,,,,,,,,,2,12,40,1,f,0.42,,,,,12,male,21,59.967887907924364,American English,fricative_categorical_boundary,2019_Feb_27_1639,
23,NewWord_fbackonset_sbackonset_,LowBackContinuum/,LowBackContinuum/NewWord_fbackonset_sbackonset_23.wav,,,,,,,,,,,,,,,,,,2,13,41,9,s,0.436,,,,,12,male,21,59.967887907924364,American English,fricative_categorical_boundary,2019_Feb_27_1639,
9,NewWord_fbackonset_sbackonset_,LowBackContinuum/,LowBackContinuum/NewWord_fbackonset_sbackonset_9.wav,,,,,,,,,,,,,,,,,,3,0,42,2,f,0.403,,,,,12,male,21,59.967887907924364,American English,fricative_categorical_boundary,2019_Feb_27_1639,
29,NewWord_fbackonset_sbackonset_,LowBackContinuum/,LowBackContinuum/NewWord_fbackonset_sbackonset_29.wav,,,,,,,,,,,,,,,,,,3,1,43,12,s,0.419,,,,,12,male,21,59.967887907924364,American English,fricative_categorical_boundary,2019_Feb_27_1639,
41,NewWord_fbackonset_sbackonset_,LowBackContinuum/,LowBackContinuum/NewWord_fbackonset_sbackonset_41.wav,,,,,,,,,,,,,,,,,,3,2,44,13,s,0.403,,,,,12,male,21,59.967887907924364,American English,fricative_categorical_boundary,2019_Feb_27_1639,
19,NewWord_fbackonset_sbackonset_,LowBackContinuum/,LowBackContinuum/NewWord_fbackonset_sbackonset_19.wav,,,,,,,,,,,,,,,,,,3,3,45,7,s,0.402,,,,,12,male,21,59.967887907924364,American English,fricative_categorical_boundary,2019_Feb_27_1639,
23,NewWord_fbackonset_sbackonset_,LowBackContinuum/,LowBackContinuum/NewWord_fbackonset_sbackonset_23.wav,,,,,,,,,,,,,,,,,,3,4,46,9,s,0.853,,,,,12,male,21,59.967887907924364,American English,fricative_categorical_boundary,2019_Feb_27_1639,
27,NewWord_fbackonset_sbackonset_,LowBackContinuum/,LowBackContinuum/NewWord_fbackonset_sbackonset_27.wav,,,,,,,,,,,,,,,,,,3,5,47,11,s,0.47,,,,,12,male,21,59.967887907924364,American English,fricative_categorical_boundary,2019_Feb_27_1639,
25,NewWord_fbackonset_sbackonset_,LowBackContinuum/,LowBackContinuum/NewWord_fbackonset_sbackonset_25.wav,,,,,,,,,,,,,,,,,,3,6,48,10,s,0.453,,,,,12,male,21,59.967887907924364,American English,fricative_categorical_boundary,2019_Feb_27_1639,
13,NewWord_fbackonset_sbackonset_,LowBackContinuum/,LowBackContinuum/NewWord_fbackonset_sbackonset_13.wav,,,,,,,,,,,,,,,,,,3,7,49,4,f,0.435,,,,,12,male,21,59.967887907924364,American English,fricative_categorical_boundary,2019_Feb_27_1639,
1,NewWord_fbackonset_sbackonset_,LowBackContinuum/,LowBackContinuum/NewWord_fbackonset_sbackonset_1.wav,,,,,,,,,,,,,,,,,,3,8,50,0,f,0.403,,,,,12,male,21,59.967887907924364,American English,fricative_categorical_boundary,2019_Feb_27_1639,
21,NewWord_fbackonset_sbackonset_,LowBackContinuum/,LowBackContinuum/NewWord_fbackonset_sbackonset_21.wav,,,,,,,,,,,,,,,,,,3,9,51,8,s,0.519,,,,,12,male,21,59.967887907924364,American English,fricative_categorical_boundary,2019_Feb_27_1639,
11,NewWord_fbackonset_sbackonset_,LowBackContinuum/,LowBackContinuum/NewWord_fbackonset_sbackonset_11.wav,,,,,,,,,,,,,,,,,,3,10,52,3,f,0.403,,,,,12,male,21,59.967887907924364,American English,fricative_categorical_boundary,2019_Feb_27_1639,
15,NewWord_fbackonset_sbackonset_,LowBackContinuum/,LowBackContinuum/NewWord_fbackonset_sbackonset_15.wav,,,,,,,,,,,,,,,,,,3,11,53,5,f,1.304,,,,,12,male,21,59.967887907924364,American English,fricative_categorical_boundary,2019_Feb_27_1639,
7,NewWord_fbackonset_sbackonset_,LowBackContinuum/,LowBackContinuum/NewWord_fbackonset_sbackonset_7.wav,,,,,,,,,,,,,,,,,,3,12,54,1,f,1.037,,,,,12,male,21,59.967887907924364,American English,fricative_categorical_boundary,2019_Feb_27_1639,
17,NewWord_fbackonset_sbackonset_,LowBackContinuum/,LowBackContinuum/NewWord_fbackonset_sbackonset_17.wav,,,,,,,,,,,,,,,,,,3,13,55,6,s,0.403,,,,,12,male,21,59.967887907924364,American English,fricative_categorical_boundary,2019_Feb_27_1639,

