﻿ChosenStep,Prefix,source,Stimuli,token,type,segment,position,syllablecount,realvsnonce,prefix,address,soundfile,trials.thisRepN,trials.thisTrialN,trials.thisN,trials.thisIndex,trials_2.thisRepN,trials_2.thisTrialN,trials_2.thisN,trials_2.thisIndex,trials_3.thisRepN,trials_3.thisTrialN,trials_3.thisN,trials_3.thisIndex,mouse_5.x,mouse_5.y,mouse_5.leftButton,mouse_5.midButton,mouse_5.rightButton,mouse.x,mouse.y,mouse.leftButton,mouse.midButton,mouse.rightButton,rating.response,rating.rt,key_resp_2.keys,key_resp_2.rt,key_resp_3.keys,key_resp_3.rt,Gender,Age,participant,Native Language,date,expName,psychopyVersion,frameRate,
,,,,,,,,,,,,,,,,,,,,,,,,,-0.2677083333333333,0.12037037037037036,1,0,0,,,,,,,,,,,,female,18,014,American English,2019_Mar_29_1134,fricative_categorical_boundary,3.0.4,59.921795106109315,
,,,,,,,,,,,,,,,,,,,,,,,,,,,,,,-0.2677083333333333,0.12037037037037036,1,0,0,,,,,,,female,18,014,American English,2019_Mar_29_1134,fricative_categorical_boundary,3.0.4,59.921795106109315,
7,NewWord_fbackonset_sbackonset_,LowBackContinuum/,LowBackContinuum/NewWord_fbackonset_sbackonset_7.wav,,,,,,,,,,0,0,0,1,,,,,,,,,,,,,,,,,,,s,7.861,,,,,female,18,014,American English,2019_Mar_29_1134,fricative_categorical_boundary,3.0.4,59.921795106109315,
9,NewWord_fbackonset_sbackonset_,LowBackContinuum/,LowBackContinuum/NewWord_fbackonset_sbackonset_9.wav,,,,,,,,,,0,1,1,2,,,,,,,,,,,,,,,,,,,f,2.555,,,,,female,18,014,American English,2019_Mar_29_1134,fricative_categorical_boundary,3.0.4,59.921795106109315,
1,NewWord_fbackonset_sbackonset_,LowBackContinuum/,LowBackContinuum/NewWord_fbackonset_sbackonset_1.wav,,,,,,,,,,0,2,2,0,,,,,,,,,,,,,,,,,,,f,3.606,,,,,female,18,014,American English,2019_Mar_29_1134,fricative_categorical_boundary,3.0.4,59.921795106109315,
27,NewWord_fbackonset_sbackonset_,LowBackContinuum/,LowBackContinuum/NewWord_fbackonset_sbackonset_27.wav,,,,,,,,,,0,3,3,11,,,,,,,,,,,,,,,,,,,s,2.038,,,,,female,18,014,American English,2019_Mar_29_1134,fricative_categorical_boundary,3.0.4,59.921795106109315,
17,NewWord_fbackonset_sbackonset_,LowBackContinuum/,LowBackContinuum/NewWord_fbackonset_sbackonset_17.wav,,,,,,,,,,0,4,4,6,,,,,,,,,,,,,,,,,,,s,5.558,,,,,female,18,014,American English,2019_Mar_29_1134,fricative_categorical_boundary,3.0.4,59.921795106109315,
19,NewWord_fbackonset_sbackonset_,LowBackContinuum/,LowBackContinuum/NewWord_fbackonset_sbackonset_19.wav,,,,,,,,,,0,5,5,7,,,,,,,,,,,,,,,,,,,s,3.69,,,,,female,18,014,American English,2019_Mar_29_1134,fricative_categorical_boundary,3.0.4,59.921795106109315,
21,NewWord_fbackonset_sbackonset_,LowBackContinuum/,LowBackContinuum/NewWord_fbackonset_sbackonset_21.wav,,,,,,,,,,0,6,6,8,,,,,,,,,,,,,,,,,,,s,0.504,,,,,female,18,014,American English,2019_Mar_29_1134,fricative_categorical_boundary,3.0.4,59.921795106109315,
15,NewWord_fbackonset_sbackonset_,LowBackContinuum/,LowBackContinuum/NewWord_fbackonset_sbackonset_15.wav,,,,,,,,,,0,7,7,5,,,,,,,,,,,,,,,,,,,s,0.771,,,,,female,18,014,American English,2019_Mar_29_1134,fricative_categorical_boundary,3.0.4,59.921795106109315,
11,NewWord_fbackonset_sbackonset_,LowBackContinuum/,LowBackContinuum/NewWord_fbackonset_sbackonset_11.wav,,,,,,,,,,0,8,8,3,,,,,,,,,,,,,,,,,,,s,1.12,,,,,female,18,014,American English,2019_Mar_29_1134,fricative_categorical_boundary,3.0.4,59.921795106109315,
25,NewWord_fbackonset_sbackonset_,LowBackContinuum/,LowBackContinuum/NewWord_fbackonset_sbackonset_25.wav,,,,,,,,,,0,9,9,10,,,,,,,,,,,,,,,,,,,s,6.778,,,,,female,18,014,American English,2019_Mar_29_1134,fricative_categorical_boundary,3.0.4,59.921795106109315,
13,NewWord_fbackonset_sbackonset_,LowBackContinuum/,LowBackContinuum/NewWord_fbackonset_sbackonset_13.wav,,,,,,,,,,0,10,10,4,,,,,,,,,,,,,,,,,,,f,1.054,,,,,female,18,014,American English,2019_Mar_29_1134,fricative_categorical_boundary,3.0.4,59.921795106109315,
23,NewWord_fbackonset_sbackonset_,LowBackContinuum/,LowBackContinuum/NewWord_fbackonset_sbackonset_23.wav,,,,,,,,,,0,11,11,9,,,,,,,,,,,,,,,,,,,f,0.887,,,,,female,18,014,American English,2019_Mar_29_1134,fricative_categorical_boundary,3.0.4,59.921795106109315,
29,NewWord_fbackonset_sbackonset_,LowBackContinuum/,LowBackContinuum/NewWord_fbackonset_sbackonset_29.wav,,,,,,,,,,0,12,12,12,,,,,,,,,,,,,,,,,,,s,1.571,,,,,female,18,014,American English,2019_Mar_29_1134,fricative_categorical_boundary,3.0.4,59.921795106109315,
41,NewWord_fbackonset_sbackonset_,LowBackContinuum/,LowBackContinuum/NewWord_fbackonset_sbackonset_41.wav,,,,,,,,,,0,13,13,13,,,,,,,,,,,,,,,,,,,s,0.404,,,,,female,18,014,American English,2019_Mar_29_1134,fricative_categorical_boundary,3.0.4,59.921795106109315,
25,NewWord_fbackonset_sbackonset_,LowBackContinuum/,LowBackContinuum/NewWord_fbackonset_sbackonset_25.wav,,,,,,,,,,1,0,14,10,,,,,,,,,,,,,,,,,,,s,0.587,,,,,female,18,014,American English,2019_Mar_29_1134,fricative_categorical_boundary,3.0.4,59.921795106109315,
29,NewWord_fbackonset_sbackonset_,LowBackContinuum/,LowBackContinuum/NewWord_fbackonset_sbackonset_29.wav,,,,,,,,,,1,1,15,12,,,,,,,,,,,,,,,,,,,s,0.586,,,,,female,18,014,American English,2019_Mar_29_1134,fricative_categorical_boundary,3.0.4,59.921795106109315,
27,NewWord_fbackonset_sbackonset_,LowBackContinuum/,LowBackContinuum/NewWord_fbackonset_sbackonset_27.wav,,,,,,,,,,1,2,16,11,,,,,,,,,,,,,,,,,,,f,1.354,,,,,female,18,014,American English,2019_Mar_29_1134,fricative_categorical_boundary,3.0.4,59.921795106109315,
9,NewWord_fbackonset_sbackonset_,LowBackContinuum/,LowBackContinuum/NewWord_fbackonset_sbackonset_9.wav,,,,,,,,,,1,3,17,2,,,,,,,,,,,,,,,,,,,f,0.519,,,,,female,18,014,American English,2019_Mar_29_1134,fricative_categorical_boundary,3.0.4,59.921795106109315,
23,NewWord_fbackonset_sbackonset_,LowBackContinuum/,LowBackContinuum/NewWord_fbackonset_sbackonset_23.wav,,,,,,,,,,1,4,18,9,,,,,,,,,,,,,,,,,,,f,0.403,,,,,female,18,014,American English,2019_Mar_29_1134,fricative_categorical_boundary,3.0.4,59.921795106109315,
17,NewWord_fbackonset_sbackonset_,LowBackContinuum/,LowBackContinuum/NewWord_fbackonset_sbackonset_17.wav,,,,,,,,,,1,5,19,6,,,,,,,,,,,,,,,,,,,f,1.671,,,,,female,18,014,American English,2019_Mar_29_1134,fricative_categorical_boundary,3.0.4,59.921795106109315,
1,NewWord_fbackonset_sbackonset_,LowBackContinuum/,LowBackContinuum/NewWord_fbackonset_sbackonset_1.wav,,,,,,,,,,1,6,20,0,,,,,,,,,,,,,,,,,,,f,0.537,,,,,female,18,014,American English,2019_Mar_29_1134,fricative_categorical_boundary,3.0.4,59.921795106109315,
13,NewWord_fbackonset_sbackonset_,LowBackContinuum/,LowBackContinuum/NewWord_fbackonset_sbackonset_13.wav,,,,,,,,,,1,7,21,4,,,,,,,,,,,,,,,,,,,f,0.637,,,,,female,18,014,American English,2019_Mar_29_1134,fricative_categorical_boundary,3.0.4,59.921795106109315,
11,NewWord_fbackonset_sbackonset_,LowBackContinuum/,LowBackContinuum/NewWord_fbackonset_sbackonset_11.wav,,,,,,,,,,1,8,22,3,,,,,,,,,,,,,,,,,,,f,0.537,,,,,female,18,014,American English,2019_Mar_29_1134,fricative_categorical_boundary,3.0.4,59.921795106109315,
19,NewWord_fbackonset_sbackonset_,LowBackContinuum/,LowBackContinuum/NewWord_fbackonset_sbackonset_19.wav,,,,,,,,,,1,9,23,7,,,,,,,,,,,,,,,,,,,f,3.005,,,,,female,18,014,American English,2019_Mar_29_1134,fricative_categorical_boundary,3.0.4,59.921795106109315,
41,NewWord_fbackonset_sbackonset_,LowBackContinuum/,LowBackContinuum/NewWord_fbackonset_sbackonset_41.wav,,,,,,,,,,1,10,24,13,,,,,,,,,,,,,,,,,,,s,2.789,,,,,female,18,014,American English,2019_Mar_29_1134,fricative_categorical_boundary,3.0.4,59.921795106109315,
15,NewWord_fbackonset_sbackonset_,LowBackContinuum/,LowBackContinuum/NewWord_fbackonset_sbackonset_15.wav,,,,,,,,,,1,11,25,5,,,,,,,,,,,,,,,,,,,s,0.423,,,,,female,18,014,American English,2019_Mar_29_1134,fricative_categorical_boundary,3.0.4,59.921795106109315,
21,NewWord_fbackonset_sbackonset_,LowBackContinuum/,LowBackContinuum/NewWord_fbackonset_sbackonset_21.wav,,,,,,,,,,1,12,26,8,,,,,,,,,,,,,,,,,,,s,0.654,,,,,female,18,014,American English,2019_Mar_29_1134,fricative_categorical_boundary,3.0.4,59.921795106109315,
7,NewWord_fbackonset_sbackonset_,LowBackContinuum/,LowBackContinuum/NewWord_fbackonset_sbackonset_7.wav,,,,,,,,,,1,13,27,1,,,,,,,,,,,,,,,,,,,s,0.487,,,,,female,18,014,American English,2019_Mar_29_1134,fricative_categorical_boundary,3.0.4,59.921795106109315,
7,NewWord_fbackonset_sbackonset_,LowBackContinuum/,LowBackContinuum/NewWord_fbackonset_sbackonset_7.wav,,,,,,,,,,2,0,28,1,,,,,,,,,,,,,,,,,,,s,1.387,,,,,female,18,014,American English,2019_Mar_29_1134,fricative_categorical_boundary,3.0.4,59.921795106109315,
9,NewWord_fbackonset_sbackonset_,LowBackContinuum/,LowBackContinuum/NewWord_fbackonset_sbackonset_9.wav,,,,,,,,,,2,1,29,2,,,,,,,,,,,,,,,,,,,s,1.822,,,,,female,18,014,American English,2019_Mar_29_1134,fricative_categorical_boundary,3.0.4,59.921795106109315,
11,NewWord_fbackonset_sbackonset_,LowBackContinuum/,LowBackContinuum/NewWord_fbackonset_sbackonset_11.wav,,,,,,,,,,2,2,30,3,,,,,,,,,,,,,,,,,,,f,1.17,,,,,female,18,014,American English,2019_Mar_29_1134,fricative_categorical_boundary,3.0.4,59.921795106109315,
23,NewWord_fbackonset_sbackonset_,LowBackContinuum/,LowBackContinuum/NewWord_fbackonset_sbackonset_23.wav,,,,,,,,,,2,3,31,9,,,,,,,,,,,,,,,,,,,s,1.22,,,,,female,18,014,American English,2019_Mar_29_1134,fricative_categorical_boundary,3.0.4,59.921795106109315,
29,NewWord_fbackonset_sbackonset_,LowBackContinuum/,LowBackContinuum/NewWord_fbackonset_sbackonset_29.wav,,,,,,,,,,2,4,32,12,,,,,,,,,,,,,,,,,,,s,0.872,,,,,female,18,014,American English,2019_Mar_29_1134,fricative_categorical_boundary,3.0.4,59.921795106109315,
1,NewWord_fbackonset_sbackonset_,LowBackContinuum/,LowBackContinuum/NewWord_fbackonset_sbackonset_1.wav,,,,,,,,,,2,5,33,0,,,,,,,,,,,,,,,,,,,f,0.703,,,,,female,18,014,American English,2019_Mar_29_1134,fricative_categorical_boundary,3.0.4,59.921795106109315,
21,NewWord_fbackonset_sbackonset_,LowBackContinuum/,LowBackContinuum/NewWord_fbackonset_sbackonset_21.wav,,,,,,,,,,2,6,34,8,,,,,,,,,,,,,,,,,,,s,0.854,,,,,female,18,014,American English,2019_Mar_29_1134,fricative_categorical_boundary,3.0.4,59.921795106109315,
17,NewWord_fbackonset_sbackonset_,LowBackContinuum/,LowBackContinuum/NewWord_fbackonset_sbackonset_17.wav,,,,,,,,,,2,7,35,6,,,,,,,,,,,,,,,,,,,s,0.42,,,,,female,18,014,American English,2019_Mar_29_1134,fricative_categorical_boundary,3.0.4,59.921795106109315,
15,NewWord_fbackonset_sbackonset_,LowBackContinuum/,LowBackContinuum/NewWord_fbackonset_sbackonset_15.wav,,,,,,,,,,2,8,36,5,,,,,,,,,,,,,,,,,,,s,0.403,,,,,female,18,014,American English,2019_Mar_29_1134,fricative_categorical_boundary,3.0.4,59.921795106109315,
25,NewWord_fbackonset_sbackonset_,LowBackContinuum/,LowBackContinuum/NewWord_fbackonset_sbackonset_25.wav,,,,,,,,,,2,9,37,10,,,,,,,,,,,,,,,,,,,s,2.189,,,,,female,18,014,American English,2019_Mar_29_1134,fricative_categorical_boundary,3.0.4,59.921795106109315,
41,NewWord_fbackonset_sbackonset_,LowBackContinuum/,LowBackContinuum/NewWord_fbackonset_sbackonset_41.wav,,,,,,,,,,2,10,38,13,,,,,,,,,,,,,,,,,,,s,1.471,,,,,female,18,014,American English,2019_Mar_29_1134,fricative_categorical_boundary,3.0.4,59.921795106109315,
27,NewWord_fbackonset_sbackonset_,LowBackContinuum/,LowBackContinuum/NewWord_fbackonset_sbackonset_27.wav,,,,,,,,,,2,11,39,11,,,,,,,,,,,,,,,,,,,s,0.47,,,,,female,18,014,American English,2019_Mar_29_1134,fricative_categorical_boundary,3.0.4,59.921795106109315,
19,NewWord_fbackonset_sbackonset_,LowBackContinuum/,LowBackContinuum/NewWord_fbackonset_sbackonset_19.wav,,,,,,,,,,2,12,40,7,,,,,,,,,,,,,,,,,,,s,0.403,,,,,female,18,014,American English,2019_Mar_29_1134,fricative_categorical_boundary,3.0.4,59.921795106109315,
13,NewWord_fbackonset_sbackonset_,LowBackContinuum/,LowBackContinuum/NewWord_fbackonset_sbackonset_13.wav,,,,,,,,,,2,13,41,4,,,,,,,,,,,,,,,,,,,s,0.403,,,,,female,18,014,American English,2019_Mar_29_1134,fricative_categorical_boundary,3.0.4,59.921795106109315,
9,NewWord_fbackonset_sbackonset_,LowBackContinuum/,LowBackContinuum/NewWord_fbackonset_sbackonset_9.wav,,,,,,,,,,3,0,42,2,,,,,,,,,,,,,,,,,,,s,0.403,,,,,female,18,014,American English,2019_Mar_29_1134,fricative_categorical_boundary,3.0.4,59.921795106109315,
29,NewWord_fbackonset_sbackonset_,LowBackContinuum/,LowBackContinuum/NewWord_fbackonset_sbackonset_29.wav,,,,,,,,,,3,1,43,12,,,,,,,,,,,,,,,,,,,s,0.403,,,,,female,18,014,American English,2019_Mar_29_1134,fricative_categorical_boundary,3.0.4,59.921795106109315,
15,NewWord_fbackonset_sbackonset_,LowBackContinuum/,LowBackContinuum/NewWord_fbackonset_sbackonset_15.wav,,,,,,,,,,3,2,44,5,,,,,,,,,,,,,,,,,,,s,0.403,,,,,female,18,014,American English,2019_Mar_29_1134,fricative_categorical_boundary,3.0.4,59.921795106109315,
1,NewWord_fbackonset_sbackonset_,LowBackContinuum/,LowBackContinuum/NewWord_fbackonset_sbackonset_1.wav,,,,,,,,,,3,3,45,0,,,,,,,,,,,,,,,,,,,s,0.403,,,,,female,18,014,American English,2019_Mar_29_1134,fricative_categorical_boundary,3.0.4,59.921795106109315,
25,NewWord_fbackonset_sbackonset_,LowBackContinuum/,LowBackContinuum/NewWord_fbackonset_sbackonset_25.wav,,,,,,,,,,3,4,46,10,,,,,,,,,,,,,,,,,,,s,0.404,,,,,female,18,014,American English,2019_Mar_29_1134,fricative_categorical_boundary,3.0.4,59.921795106109315,
11,NewWord_fbackonset_sbackonset_,LowBackContinuum/,LowBackContinuum/NewWord_fbackonset_sbackonset_11.wav,,,,,,,,,,3,5,47,3,,,,,,,,,,,,,,,,,,,s,0.538,,,,,female,18,014,American English,2019_Mar_29_1134,fricative_categorical_boundary,3.0.4,59.921795106109315,
21,NewWord_fbackonset_sbackonset_,LowBackContinuum/,LowBackContinuum/NewWord_fbackonset_sbackonset_21.wav,,,,,,,,,,3,6,48,8,,,,,,,,,,,,,,,,,,,s,0.403,,,,,female,18,014,American English,2019_Mar_29_1134,fricative_categorical_boundary,3.0.4,59.921795106109315,
17,NewWord_fbackonset_sbackonset_,LowBackContinuum/,LowBackContinuum/NewWord_fbackonset_sbackonset_17.wav,,,,,,,,,,3,7,49,6,,,,,,,,,,,,,,,,,,,s,0.42,,,,,female,18,014,American English,2019_Mar_29_1134,fricative_categorical_boundary,3.0.4,59.921795106109315,
19,NewWord_fbackonset_sbackonset_,LowBackContinuum/,LowBackContinuum/NewWord_fbackonset_sbackonset_19.wav,,,,,,,,,,3,8,50,7,,,,,,,,,,,,,,,,,,,s,1.071,,,,,female,18,014,American English,2019_Mar_29_1134,fricative_categorical_boundary,3.0.4,59.921795106109315,
27,NewWord_fbackonset_sbackonset_,LowBackContinuum/,LowBackContinuum/NewWord_fbackonset_sbackonset_27.wav,,,,,,,,,,3,9,51,11,,,,,,,,,,,,,,,,,,,s,2.255,,,,,female,18,014,American English,2019_Mar_29_1134,fricative_categorical_boundary,3.0.4,59.921795106109315,
13,NewWord_fbackonset_sbackonset_,LowBackContinuum/,LowBackContinuum/NewWord_fbackonset_sbackonset_13.wav,,,,,,,,,,3,10,52,4,,,,,,,,,,,,,,,,,,,s,0.669,,,,,female,18,014,American English,2019_Mar_29_1134,fricative_categorical_boundary,3.0.4,59.921795106109315,
23,NewWord_fbackonset_sbackonset_,LowBackContinuum/,LowBackContinuum/NewWord_fbackonset_sbackonset_23.wav,,,,,,,,,,3,11,53,9,,,,,,,,,,,,,,,,,,,s,0.62,,,,,female,18,014,American English,2019_Mar_29_1134,fricative_categorical_boundary,3.0.4,59.921795106109315,
7,NewWord_fbackonset_sbackonset_,LowBackContinuum/,LowBackContinuum/NewWord_fbackonset_sbackonset_7.wav,,,,,,,,,,3,12,54,1,,,,,,,,,,,,,,,,,,,s,0.887,,,,,female,18,014,American English,2019_Mar_29_1134,fricative_categorical_boundary,3.0.4,59.921795106109315,
41,NewWord_fbackonset_sbackonset_,LowBackContinuum/,LowBackContinuum/NewWord_fbackonset_sbackonset_41.wav,,,,,,,,,,3,13,55,13,,,,,,,,,,,,,,,,,,,s,1.154,,,,,female,18,014,American English,2019_Mar_29_1134,fricative_categorical_boundary,3.0.4,59.921795106109315,
,,,,,,,,,,,,,,,,,,,,,,,,,,,,,,,,,,,,,space,10.8317182589999,,,female,18,014,American English,2019_Mar_29_1134,fricative_categorical_boundary,3.0.4,59.921795106109315,
,,,,yoogul,filler,None,None,None,nonce,None,LDTSounds/,LDTSounds/yoogul.wav,,,,,0,0,0,102,,,,,,,,,,,,,,,,,,,a,8.392446742000175,female,18,014,American English,2019_Mar_29_1134,fricative_categorical_boundary,3.0.4,59.921795106109315,
,,,,SICK,test,s,onset,1.0,None,None,LDTSounds/,LDTSounds/SICK.wav,,,,,0,1,1,29,,,,,,,,,,,,,,,,,,,l,5.023552383001515,female,18,014,American English,2019_Mar_29_1134,fricative_categorical_boundary,3.0.4,59.921795106109315,
,,,,FILL,test,f,onset,1.0,None,None,LDTSounds/,LDTSounds/FILL.wav,,,,,0,2,2,10,,,,,,,,,,,,,,,,,,,l,1.6544158500000776,female,18,014,American English,2019_Mar_29_1134,fricative_categorical_boundary,3.0.4,59.921795106109315,
,,,,midaran,filler,None,None,None,nonce,None,LDTSounds/,LDTSounds/midaran.wav,,,,,0,3,3,119,,,,,,,,,,,,,,,,,,,l,1.5718078350000724,female,18,014,American English,2019_Mar_29_1134,fricative_categorical_boundary,3.0.4,59.921795106109315,
,,,,heen,filler,None,None,None,nonce,None,LDTSounds/,LDTSounds/heen.wav,,,,,0,4,4,77,,,,,,,,,,,,,,,,,,,l,1.8546464310020383,female,18,014,American English,2019_Mar_29_1134,fricative_categorical_boundary,3.0.4,59.921795106109315,
,,,,lempok,filler,None,None,None,nonce,None,LDTSounds/,LDTSounds/lempok.wav,,,,,0,5,5,113,,,,,,,,,,,,,,,,,,,l,1.4706429360012407,female,18,014,American English,2019_Mar_29_1134,fricative_categorical_boundary,3.0.4,59.921795106109315,
,,,,kebnoti,filler,None,None,None,nonce,None,LDTSounds/,LDTSounds/kebnoti.wav,,,,,0,6,6,121,,,,,,,,,,,,,,,,,,,a,1.3844649100028619,female,18,014,American English,2019_Mar_29_1134,fricative_categorical_boundary,3.0.4,59.921795106109315,
,,,,lopenad,filler,None,None,None,nonce,None,LDTSounds/,LDTSounds/lopenad.wav,,,,,0,7,7,123,,,,,,,,,,,,,,,,,,,l,1.6375060339996708,female,18,014,American English,2019_Mar_29_1134,fricative_categorical_boundary,3.0.4,59.921795106109315,
,,,,blegondanit,filler,None,None,None,nonce,None,LDTSounds/,LDTSounds/blegondanit.wav,,,,,0,8,8,144,,,,,,,,,,,,,,,,,,,l,1.6872374649974518,female,18,014,American English,2019_Mar_29_1134,fricative_categorical_boundary,3.0.4,59.921795106109315,
,,,,mole,filler,None,None,None,real,None,LDTSounds/,LDTSounds/mole.wav,,,,,0,9,9,42,,,,,,,,,,,,,,,,,,,l,1.0703485879967047,female,18,014,American English,2019_Mar_29_1134,fricative_categorical_boundary,3.0.4,59.921795106109315,
,,,,noopalingdo,filler,None,None,None,nonce,None,LDTSounds/,LDTSounds/noopalingdo.wav,,,,,0,10,10,135,,,,,,,,,,,,,,,,,,,a,1.170776091999869,female,18,014,American English,2019_Mar_29_1134,fricative_categorical_boundary,3.0.4,59.921795106109315,
,,,,hoong,filler,None,None,None,nonce,None,LDTSounds/,LDTSounds/hoong.wav,,,,,0,11,11,81,,,,,,,,,,,,,,,,,,,a,1.904131633000361,female,18,014,American English,2019_Mar_29_1134,fricative_categorical_boundary,3.0.4,59.921795106109315,
,,,,plagtorin,filler,None,None,None,nonce,None,LDTSounds/,LDTSounds/plagtorin.wav,,,,,0,12,12,134,,,,,,,,,,,,,,,,,,,l,1.7871728419995634,female,18,014,American English,2019_Mar_29_1134,fricative_categorical_boundary,3.0.4,59.921795106109315,
,,,,doonagort,filler,None,None,None,nonce,None,LDTSounds/,LDTSounds/doonagort.wav,,,,,0,13,13,127,,,,,,,,,,,,,,,,,,,a,1.3867254329998104,female,18,014,American English,2019_Mar_29_1134,fricative_categorical_boundary,3.0.4,59.921795106109315,
,,,,SEEING,test,s,onset,2.0,None,None,LDTSounds/,LDTSounds/SEEING.wav,,,,,0,14,14,23,,,,,,,,,,,,,,,,,,,l,1.6212485139985802,female,18,014,American English,2019_Mar_29_1134,fricative_categorical_boundary,3.0.4,59.921795106109315,
,,,,yilk,filler,None,None,None,nonce,None,LDTSounds/,LDTSounds/yilk.wav,,,,,0,15,15,82,,,,,,,,,,,,,,,,,,,l,1.652082655000413,female,18,014,American English,2019_Mar_29_1134,fricative_categorical_boundary,3.0.4,59.921795106109315,
,,,,gelp,filler,None,None,None,nonce,None,LDTSounds/,LDTSounds/gelp.wav,,,,,0,16,16,85,,,,,,,,,,,,,,,,,,,l,1.4538041130035708,female,18,014,American English,2019_Mar_29_1134,fricative_categorical_boundary,3.0.4,59.921795106109315,
,,,,roip,filler,None,None,None,nonce,None,LDTSounds/,LDTSounds/roip.wav,,,,,0,17,17,89,,,,,,,,,,,,,,,,,,,a,4.657366199000535,female,18,014,American English,2019_Mar_29_1134,fricative_categorical_boundary,3.0.4,59.921795106109315,
,,,,kabalingno,filler,None,None,None,nonce,None,LDTSounds/,LDTSounds/kabalingno.wav,,,,,0,18,18,138,,,,,,,,,,,,,,,,,,,a,1.8548282029987604,female,18,014,American English,2019_Mar_29_1134,fricative_categorical_boundary,3.0.4,59.921795106109315,
,,,,right,filler,None,None,None,real,None,LDTSounds/,LDTSounds/right.wav,,,,,0,19,19,36,,,,,,,,,,,,,,,,,,,l,1.5374425939990033,female,18,014,American English,2019_Mar_29_1134,fricative_categorical_boundary,3.0.4,59.921795106109315,
,,,,petnole,filler,None,None,None,nonce,None,LDTSounds/,LDTSounds/petnole.wav,,,,,0,20,20,112,,,,,,,,,,,,,,,,,,,l,2.9387693220014626,female,18,014,American English,2019_Mar_29_1134,fricative_categorical_boundary,3.0.4,59.921795106109315,
,,,,twek,filler,None,None,None,nonce,None,LDTSounds/,LDTSounds/twek.wav,,,,,0,21,21,80,,,,,,,,,,,,,,,,,,,a,1.7709882449998986,female,18,014,American English,2019_Mar_29_1134,fricative_categorical_boundary,3.0.4,59.921795106109315,
,,,,himnapile,filler,None,None,None,nonce,None,LDTSounds/,LDTSounds/himnapile.wav,,,,,0,22,22,128,,,,,,,,,,,,,,,,,,,a,1.9704716470005224,female,18,014,American English,2019_Mar_29_1134,fricative_categorical_boundary,3.0.4,59.921795106109315,
,,,,wegring,filler,None,None,None,nonce,None,LDTSounds/,LDTSounds/wegring.wav,,,,,0,23,23,97,,,,,,,,,,,,,,,,,,,a,3.389382363002369,female,18,014,American English,2019_Mar_29_1134,fricative_categorical_boundary,3.0.4,59.921795106109315,
,,,,kotlim,filler,None,None,None,nonce,None,LDTSounds/,LDTSounds/kotlim.wav,,,,,0,24,24,114,,,,,,,,,,,,,,,,,,,a,3.4396362529987528,female,18,014,American English,2019_Mar_29_1134,fricative_categorical_boundary,3.0.4,59.921795106109315,
,,,,WHIFF,test,f,coda,1.0,None,None,LDTSounds/,LDTSounds/WHIFF.wav,,,,,0,25,25,16,,,,,,,,,,,,,,,,,,,a,3.757084199001838,female,18,014,American English,2019_Mar_29_1134,fricative_categorical_boundary,3.0.4,59.921795106109315,
,,,,lemur,filler,None,None,None,real,None,LDTSounds/,LDTSounds/lemur.wav,,,,,0,26,26,68,,,,,,,,,,,,,,,,,,,l,1.4671932670025853,female,18,014,American English,2019_Mar_29_1134,fricative_categorical_boundary,3.0.4,59.921795106109315,
,,,,radoobling,filler,None,None,None,nonce,None,LDTSounds/,LDTSounds/radoobling.wav,,,,,0,27,27,142,,,,,,,,,,,,,,,,,,,a,1.8371368960033578,female,18,014,American English,2019_Mar_29_1134,fricative_categorical_boundary,3.0.4,59.921795106109315,
,,,,kinudiplo,filler,None,None,None,nonce,None,LDTSounds/,LDTSounds/kinudiplo.wav,,,,,0,28,28,149,,,,,,,,,,,,,,,,,,,a,1.353298996000376,female,18,014,American English,2019_Mar_29_1134,fricative_categorical_boundary,3.0.4,59.921795106109315,
,,,,poindool,filler,None,None,None,nonce,None,LDTSounds/,LDTSounds/poindool.wav,,,,,0,29,29,96,,,,,,,,,,,,,,,,,,,a,1.203915093003161,female,18,014,American English,2019_Mar_29_1134,fricative_categorical_boundary,3.0.4,59.921795106109315,
,,,,twin,filler,None,None,None,real,None,LDTSounds/,LDTSounds/twin.wav,,,,,0,30,30,44,,,,,,,,,,,,,,,,,,,l,1.268085367999447,female,18,014,American English,2019_Mar_29_1134,fricative_categorical_boundary,3.0.4,59.921795106109315,
,,,,SIM,test,s,onset,1.0,None,None,LDTSounds/,LDTSounds/SIM.wav,,,,,0,31,31,31,,,,,,,,,,,,,,,,,,,l,0.9859560129989404,female,18,014,American English,2019_Mar_29_1134,fricative_categorical_boundary,3.0.4,59.921795106109315,
,,,,tridalondit,filler,None,None,None,nonce,None,LDTSounds/,LDTSounds/tridalondit.wav,,,,,0,32,32,146,,,,,,,,,,,,,,,,,,,a,1.2704103479991318,female,18,014,American English,2019_Mar_29_1134,fricative_categorical_boundary,3.0.4,59.921795106109315,
,,,,tomb,filler,None,None,None,real,None,LDTSounds/,LDTSounds/tomb.wav,,,,,0,33,33,35,,,,,,,,,,,,,,,,,,,l,0.9367151559999911,female,18,014,American English,2019_Mar_29_1134,fricative_categorical_boundary,3.0.4,59.921795106109315,
,,,,will,filler,None,None,None,real,None,LDTSounds/,LDTSounds/will.wav,,,,,0,34,34,49,,,,,,,,,,,,,,,,,,,l,0.7034007750007731,female,18,014,American English,2019_Mar_29_1134,fricative_categorical_boundary,3.0.4,59.921795106109315,
,,,,podaling,filler,None,None,None,nonce,None,LDTSounds/,LDTSounds/podaling.wav,,,,,0,35,35,132,,,,,,,,,,,,,,,,,,,l,0.9030117139991489,female,18,014,American English,2019_Mar_29_1134,fricative_categorical_boundary,3.0.4,59.921795106109315,
,,,,tuba,filler,None,None,None,real,None,LDTSounds/,LDTSounds/tuba.wav,,,,,0,36,36,57,,,,,,,,,,,,,,,,,,,l,1.1362326470007247,female,18,014,American English,2019_Mar_29_1134,fricative_categorical_boundary,3.0.4,59.921795106109315,
,,,,typing,filler,None,None,None,real,None,LDTSounds/,LDTSounds/typing.wav,,,,,0,37,37,70,,,,,,,,,,,,,,,,,,,l,0.8041772079996008,female,18,014,American English,2019_Mar_29_1134,fricative_categorical_boundary,3.0.4,59.921795106109315,
,,,,PIECE,test,s,coda,1.0,None,None,LDTSounds/,LDTSounds/PIECE.wav,,,,,0,38,38,20,,,,,,,,,,,,,,,,,,,l,0.8027006789998268,female,18,014,American English,2019_Mar_29_1134,fricative_categorical_boundary,3.0.4,59.921795106109315,
,,,,yoomake,filler,None,None,None,nonce,None,LDTSounds/,LDTSounds/yoomake.wav,,,,,0,39,39,99,,,,,,,,,,,,,,,,,,,l,1.7047869320012978,female,18,014,American English,2019_Mar_29_1134,fricative_categorical_boundary,3.0.4,59.921795106109315,
,,,,drataloob,filler,None,None,None,nonce,None,LDTSounds/,LDTSounds/drataloob.wav,,,,,0,40,40,129,,,,,,,,,,,,,,,,,,,l,1.1034197980006866,female,18,014,American English,2019_Mar_29_1134,fricative_categorical_boundary,3.0.4,59.921795106109315,
,,,,hundapegnort,filler,None,None,None,nonce,None,LDTSounds/,LDTSounds/hundapegnort.wav,,,,,0,41,41,141,,,,,,,,,,,,,,,,,,,a,1.136622202997387,female,18,014,American English,2019_Mar_29_1134,fricative_categorical_boundary,3.0.4,59.921795106109315,
,,,,yoog,filler,None,None,None,nonce,None,LDTSounds/,LDTSounds/yoog.wav,,,,,0,42,42,90,,,,,,,,,,,,,,,,,,,a,2.0549670709988277,female,18,014,American English,2019_Mar_29_1134,fricative_categorical_boundary,3.0.4,59.921795106109315,
,,,,SEATED,test,s,onset,2.0,None,None,LDTSounds/,LDTSounds/SEATED.wav,,,,,0,43,43,22,,,,,,,,,,,,,,,,,,,a,2.137590580001415,female,18,014,American English,2019_Mar_29_1134,fricative_categorical_boundary,3.0.4,59.921795106109315,
,,,,SILK,test,s,onset,1.0,None,None,LDTSounds/,LDTSounds/SILK.wav,,,,,0,44,44,30,,,,,,,,,,,,,,,,,,,l,1.2205021570007375,female,18,014,American English,2019_Mar_29_1134,fricative_categorical_boundary,3.0.4,59.921795106109315,
,,,,rivathrog,filler,None,None,None,nonce,None,LDTSounds/,LDTSounds/rivathrog.wav,,,,,0,45,45,131,,,,,,,,,,,,,,,,,,,l,1.8543646639991493,female,18,014,American English,2019_Mar_29_1134,fricative_categorical_boundary,3.0.4,59.921795106109315,
,,,,dripnalong,filler,None,None,None,nonce,None,LDTSounds/,LDTSounds/dripnalong.wav,,,,,0,46,46,124,,,,,,,,,,,,,,,,,,,a,1.0028706880002574,female,18,014,American English,2019_Mar_29_1134,fricative_categorical_boundary,3.0.4,59.921795106109315,
,,,,libmadoop,filler,None,None,None,nonce,None,LDTSounds/,LDTSounds/libmadoop.wav,,,,,0,47,47,117,,,,,,,,,,,,,,,,,,,a,1.2210467879995122,female,18,014,American English,2019_Mar_29_1134,fricative_categorical_boundary,3.0.4,59.921795106109315,
,,,,metroy,filler,None,None,None,nonce,None,LDTSounds/,LDTSounds/metroy.wav,,,,,0,48,48,100,,,,,,,,,,,,,,,,,,,l,1.2362717430005432,female,18,014,American English,2019_Mar_29_1134,fricative_categorical_boundary,3.0.4,59.921795106109315,
,,,,SEEPING,test,s,onset,2.0,None,None,LDTSounds/,LDTSounds/SEEPING.wav,,,,,0,49,49,27,,,,,,,,,,,,,,,,,,,a,2.606205564999982,female,18,014,American English,2019_Mar_29_1134,fricative_categorical_boundary,3.0.4,59.921795106109315,
,,,,loot,filler,None,None,None,real,None,LDTSounds/,LDTSounds/loot.wav,,,,,0,50,50,37,,,,,,,,,,,,,,,,,,,l,1.6871387639985187,female,18,014,American English,2019_Mar_29_1134,fricative_categorical_boundary,3.0.4,59.921795106109315,
,,,,FISH,test,f,onset,1.0,None,None,LDTSounds/,LDTSounds/FISH.wav,,,,,0,51,51,13,,,,,,,,,,,,,,,,,,,l,1.1010452510017785,female,18,014,American English,2019_Mar_29_1134,fricative_categorical_boundary,3.0.4,59.921795106109315,
,,,,yellow,filler,None,None,None,real,None,LDTSounds/,LDTSounds/yellow.wav,,,,,0,52,52,73,,,,,,,,,,,,,,,,,,,l,0.9862001370020153,female,18,014,American English,2019_Mar_29_1134,fricative_categorical_boundary,3.0.4,59.921795106109315,
,,,,REEF,test,f,coda,1.0,None,None,LDTSounds/,LDTSounds/REEF.wav,,,,,0,53,53,14,,,,,,,,,,,,,,,,,,,l,0.9031226750012138,female,18,014,American English,2019_Mar_29_1134,fricative_categorical_boundary,3.0.4,59.921795106109315,
,,,,FIEND,test,f,onset,1.0,None,None,LDTSounds/,LDTSounds/FIEND.wav,,,,,0,54,54,7,,,,,,,,,,,,,,,,,,,l,1.2529610179990414,female,18,014,American English,2019_Mar_29_1134,fricative_categorical_boundary,3.0.4,59.921795106109315,
,,,,maker,filler,None,None,None,real,None,LDTSounds/,LDTSounds/maker.wav,,,,,0,55,55,64,,,,,,,,,,,,,,,,,,,l,1.236842753001838,female,18,014,American English,2019_Mar_29_1134,fricative_categorical_boundary,3.0.4,59.921795106109315,
,,,,mall,filler,None,None,None,real,None,LDTSounds/,LDTSounds/mall.wav,,,,,0,56,56,43,,,,,,,,,,,,,,,,,,,l,1.120021849998011,female,18,014,American English,2019_Mar_29_1134,fricative_categorical_boundary,3.0.4,59.921795106109315,
,,,,kililitbi,filler,None,None,None,nonce,None,LDTSounds/,LDTSounds/kililitbi.wav,,,,,0,57,57,145,,,,,,,,,,,,,,,,,,,l,1.1366402759995253,female,18,014,American English,2019_Mar_29_1134,fricative_categorical_boundary,3.0.4,59.921795106109315,
,,,,retlid,filler,None,None,None,nonce,None,LDTSounds/,LDTSounds/retlid.wav,,,,,0,58,58,105,,,,,,,,,,,,,,,,,,,a,1.5370804839985794,female,18,014,American English,2019_Mar_29_1134,fricative_categorical_boundary,3.0.4,59.921795106109315,
,,,,himp,filler,None,None,None,nonce,None,LDTSounds/,LDTSounds/himp.wav,,,,,0,59,59,75,,,,,,,,,,,,,,,,,,,l,1.5376852030021837,female,18,014,American English,2019_Mar_29_1134,fricative_categorical_boundary,3.0.4,59.921795106109315,
,,,,liquor,filler,None,None,None,real,None,LDTSounds/,LDTSounds/liquor.wav,,,,,0,60,60,63,,,,,,,,,,,,,,,,,,,l,1.0032659979988239,female,18,014,American English,2019_Mar_29_1134,fricative_categorical_boundary,3.0.4,59.921795106109315,
,,,,weg,filler,None,None,None,nonce,None,LDTSounds/,LDTSounds/weg.wav,,,,,0,61,61,78,,,,,,,,,,,,,,,,,,,l,1.8878385839998373,female,18,014,American English,2019_Mar_29_1134,fricative_categorical_boundary,3.0.4,59.921795106109315,
,,,,trooper,filler,None,None,None,real,None,LDTSounds/,LDTSounds/trooper.wav,,,,,0,62,62,66,,,,,,,,,,,,,,,,,,,l,1.019382954997127,female,18,014,American English,2019_Mar_29_1134,fricative_categorical_boundary,3.0.4,59.921795106109315,
,,,,queng,filler,None,None,None,nonce,None,LDTSounds/,LDTSounds/queng.wav,,,,,0,63,63,86,,,,,,,,,,,,,,,,,,,a,1.1865373209984682,female,18,014,American English,2019_Mar_29_1134,fricative_categorical_boundary,3.0.4,59.921795106109315,
,,,,wiblee,filler,None,None,None,nonce,None,LDTSounds/,LDTSounds/wiblee.wav,,,,,0,64,64,115,,,,,,,,,,,,,,,,,,,a,1.1862467610008025,female,18,014,American English,2019_Mar_29_1134,fricative_categorical_boundary,3.0.4,59.921795106109315,
,,,,trad,filler,None,None,None,nonce,None,LDTSounds/,LDTSounds/trad.wav,,,,,0,65,65,87,,,,,,,,,,,,,,,,,,,a,1.9043153599996003,female,18,014,American English,2019_Mar_29_1134,fricative_categorical_boundary,3.0.4,59.921795106109315,
,,,,giblo,filler,None,None,None,nonce,None,LDTSounds/,LDTSounds/giblo.wav,,,,,0,66,66,93,,,,,,,,,,,,,,,,,,,a,1.637170022000646,female,18,014,American English,2019_Mar_29_1134,fricative_categorical_boundary,3.0.4,59.921795106109315,
,,,,FEMALE,test,f,onset,2.0,None,None,LDTSounds/,LDTSounds/FEMALE.wav,,,,,0,67,67,3,,,,,,,,,,,,,,,,,,,l,1.086311179002223,female,18,014,American English,2019_Mar_29_1134,fricative_categorical_boundary,3.0.4,59.921795106109315,
,,,,rowboat,filler,None,None,None,real,None,LDTSounds/,LDTSounds/rowboat.wav,,,,,0,68,68,56,,,,,,,,,,,,,,,,,,,l,1.3024568959990575,female,18,014,American English,2019_Mar_29_1134,fricative_categorical_boundary,3.0.4,59.921795106109315,
,,,,rone,filler,None,None,None,nonce,None,LDTSounds/,LDTSounds/rone.wav,,,,,0,69,69,79,,,,,,,,,,,,,,,,,,,l,0.7877206689990999,female,18,014,American English,2019_Mar_29_1134,fricative_categorical_boundary,3.0.4,59.921795106109315,
,,,,waip,filler,None,None,None,nonce,None,LDTSounds/,LDTSounds/waip.wav,,,,,0,70,70,91,,,,,,,,,,,,,,,,,,,l,1.053320609000366,female,18,014,American English,2019_Mar_29_1134,fricative_categorical_boundary,3.0.4,59.921795106109315,
,,,,hapekt,filler,None,None,None,nonce,None,LDTSounds/,LDTSounds/hapekt.wav,,,,,0,71,71,116,,,,,,,,,,,,,,,,,,,a,1.4036799919995246,female,18,014,American English,2019_Mar_29_1134,fricative_categorical_boundary,3.0.4,59.921795106109315,
,,,,pendalimt,filler,None,None,None,nonce,None,LDTSounds/,LDTSounds/pendalimt.wav,,,,,0,72,72,118,,,,,,,,,,,,,,,,,,,a,1.6690700409999408,female,18,014,American English,2019_Mar_29_1134,fricative_categorical_boundary,3.0.4,59.921795106109315,
,,,,treaty,filler,None,None,None,real,None,LDTSounds/,LDTSounds/treaty.wav,,,,,0,73,73,65,,,,,,,,,,,,,,,,,,,l,1.2370019269983459,female,18,014,American English,2019_Mar_29_1134,fricative_categorical_boundary,3.0.4,59.921795106109315,
,,,,CLIFF,test,f,coda,1.0,None,None,LDTSounds/,LDTSounds/CLIFF.wav,,,,,0,74,74,0,,,,,,,,,,,,,,,,,,,l,0.8533766030013794,female,18,014,American English,2019_Mar_29_1134,fricative_categorical_boundary,3.0.4,59.921795106109315,
,,,,daydream,filler,None,None,None,real,None,LDTSounds/,LDTSounds/daydream.wav,,,,,0,75,75,59,,,,,,,,,,,,,,,,,,,l,0.7863027380008134,female,18,014,American English,2019_Mar_29_1134,fricative_categorical_boundary,3.0.4,59.921795106109315,
,,,,FIJI,test,f,onset,2.0,None,None,LDTSounds/,LDTSounds/FIJI.wav,,,,,0,76,76,9,,,,,,,,,,,,,,,,,,,l,0.8504250629994203,female,18,014,American English,2019_Mar_29_1134,fricative_categorical_boundary,3.0.4,59.921795106109315,
,,,,relnt,filler,None,None,None,nonce,None,LDTSounds/,LDTSounds/relnt.wav,,,,,0,77,77,83,,,,,,,,,,,,,,,,,,,l,0.7191432680010621,female,18,014,American English,2019_Mar_29_1134,fricative_categorical_boundary,3.0.4,59.921795106109315,
,,,,deemlond,filler,None,None,None,nonce,None,LDTSounds/,LDTSounds/deemlond.wav,,,,,0,78,78,104,,,,,,,,,,,,,,,,,,,a,1.7878236919968913,female,18,014,American English,2019_Mar_29_1134,fricative_categorical_boundary,3.0.4,59.921795106109315,
,,,,KISS,test,s,coda,1.0,None,None,LDTSounds/,LDTSounds/KISS.wav,,,,,0,79,79,19,,,,,,,,,,,,,,,,,,,l,0.7364748330001021,female,18,014,American English,2019_Mar_29_1134,fricative_categorical_boundary,3.0.4,59.921795106109315,
,,,,SING,test,s,onset,1.0,None,None,LDTSounds/,LDTSounds/SING.wav,,,,,0,80,80,32,,,,,,,,,,,,,,,,,,,l,0.753048103000765,female,18,014,American English,2019_Mar_29_1134,fricative_categorical_boundary,3.0.4,59.921795106109315,
,,,,trim,filler,None,None,None,real,None,LDTSounds/,LDTSounds/trim.wav,,,,,0,81,81,39,,,,,,,,,,,,,,,,,,,l,0.7515504660004808,female,18,014,American English,2019_Mar_29_1134,fricative_categorical_boundary,3.0.4,59.921795106109315,
,,,,habapithloo,filler,None,None,None,nonce,None,LDTSounds/,LDTSounds/habapithloo.wav,,,,,0,82,82,136,,,,,,,,,,,,,,,,,,,a,1.2707591549988138,female,18,014,American English,2019_Mar_29_1134,fricative_categorical_boundary,3.0.4,59.921795106109315,
,,,,jupiter,filler,None,None,None,real,None,LDTSounds/,LDTSounds/jupiter.wav,,,,,0,83,83,74,,,,,,,,,,,,,,,,,,,l,0.8370591530001548,female,18,014,American English,2019_Mar_29_1134,fricative_categorical_boundary,3.0.4,59.921795106109315,
,,,,rone,filler,None,None,None,nonce,None,LDTSounds/,LDTSounds/rone.wav,,,,,0,84,84,92,,,,,,,,,,,,,,,,,,,l,0.8195099519980431,female,18,014,American English,2019_Mar_29_1134,fricative_categorical_boundary,3.0.4,59.921795106109315,
,,,,little,filler,None,None,None,real,None,LDTSounds/,LDTSounds/little.wav,,,,,0,85,85,61,,,,,,,,,,,,,,,,,,,l,0.7029069910022372,female,18,014,American English,2019_Mar_29_1134,fricative_categorical_boundary,3.0.4,59.921795106109315,
,,,,mitger,filler,None,None,None,nonce,None,LDTSounds/,LDTSounds/mitger.wav,,,,,0,86,86,111,,,,,,,,,,,,,,,,,,,l,0.7528628190011659,female,18,014,American English,2019_Mar_29_1134,fricative_categorical_boundary,3.0.4,59.921795106109315,
,,,,ligbee,filler,None,None,None,nonce,None,LDTSounds/,LDTSounds/ligbee.wav,,,,,0,87,87,95,,,,,,,,,,,,,,,,,,,l,1.086774878000142,female,18,014,American English,2019_Mar_29_1134,fricative_categorical_boundary,3.0.4,59.921795106109315,
,,,,lump,filler,None,None,None,real,None,LDTSounds/,LDTSounds/lump.wav,,,,,0,88,88,54,,,,,,,,,,,,,,,,,,,l,0.7360199169997941,female,18,014,American English,2019_Mar_29_1134,fricative_categorical_boundary,3.0.4,59.921795106109315,
,,,,bindilamok,filler,None,None,None,nonce,None,LDTSounds/,LDTSounds/bindilamok.wav,,,,,0,89,89,148,,,,,,,,,,,,,,,,,,,a,1.38551322299827,female,18,014,American English,2019_Mar_29_1134,fricative_categorical_boundary,3.0.4,59.921795106109315,
,,,,pen,filler,None,None,None,real,None,LDTSounds/,LDTSounds/pen.wav,,,,,0,90,90,40,,,,,,,,,,,,,,,,,,,l,0.9028367020000587,female,18,014,American English,2019_Mar_29_1134,fricative_categorical_boundary,3.0.4,59.921795106109315,
,,,,FEEBLE,test,f,onset,2.0,None,None,LDTSounds/,LDTSounds/FEEBLE.wav,,,,,0,91,91,1,,,,,,,,,,,,,,,,,,,l,0.9531528820007225,female,18,014,American English,2019_Mar_29_1134,fricative_categorical_boundary,3.0.4,59.921795106109315,
,,,,trongolemp,filler,None,None,None,nonce,None,LDTSounds/,LDTSounds/trongolemp.wav,,,,,0,92,92,130,,,,,,,,,,,,,,,,,,,a,1.4344500160004827,female,18,014,American English,2019_Mar_29_1134,fricative_categorical_boundary,3.0.4,59.921795106109315,
,,,,FETAL,test,f,onset,2.0,None,None,LDTSounds/,LDTSounds/FETAL.wav,,,,,0,93,93,4,,,,,,,,,,,,,,,,,,,l,0.7858411060005892,female,18,014,American English,2019_Mar_29_1134,fricative_categorical_boundary,3.0.4,59.921795106109315,
,,,,lake,filler,None,None,None,real,None,LDTSounds/,LDTSounds/lake.wav,,,,,0,94,94,45,,,,,,,,,,,,,,,,,,,l,0.8359313600012683,female,18,014,American English,2019_Mar_29_1134,fricative_categorical_boundary,3.0.4,59.921795106109315,
,,,,boondatribnok,filler,None,None,None,nonce,None,LDTSounds/,LDTSounds/boondatribnok.wav,,,,,0,95,95,137,,,,,,,,,,,,,,,,,,,a,1.6039590389991645,female,18,014,American English,2019_Mar_29_1134,fricative_categorical_boundary,3.0.4,59.921795106109315,
,,,,FIFTH,test,f,onset,1.0,None,None,LDTSounds/,LDTSounds/FIFTH.wav,,,,,0,96,96,8,,,,,,,,,,,,,,,,,,,l,0.9857458890000999,female,18,014,American English,2019_Mar_29_1134,fricative_categorical_boundary,3.0.4,59.921795106109315,
,,,,SEETHING,test,s,onset,2.0,None,None,LDTSounds/,LDTSounds/SEETHING.wav,,,,,0,97,97,28,,,,,,,,,,,,,,,,,,,l,1.1708731830003671,female,18,014,American English,2019_Mar_29_1134,fricative_categorical_boundary,3.0.4,59.921795106109315,
,,,,pillow,filler,None,None,None,real,None,LDTSounds/,LDTSounds/pillow.wav,,,,,0,98,98,72,,,,,,,,,,,,,,,,,,,l,0.7522850509994896,female,18,014,American English,2019_Mar_29_1134,fricative_categorical_boundary,3.0.4,59.921795106109315,
,,,,GEESE,test,s,coda,1.0,None,None,LDTSounds/,LDTSounds/GEESE.wav,,,,,0,99,99,18,,,,,,,,,,,,,,,,,,,l,0.853363721002097,female,18,014,American English,2019_Mar_29_1134,fricative_categorical_boundary,3.0.4,59.921795106109315,
,,,,laker,filler,None,None,None,real,None,LDTSounds/,LDTSounds/laker.wav,,,,,0,100,100,58,,,,,,,,,,,,,,,,,,,l,0.885970923001878,female,18,014,American English,2019_Mar_29_1134,fricative_categorical_boundary,3.0.4,59.921795106109315,
,,,,FILM,test,f,onset,1.0,None,None,LDTSounds/,LDTSounds/FILM.wav,,,,,0,101,101,11,,,,,,,,,,,,,,,,,,,l,0.7676019560021814,female,18,014,American English,2019_Mar_29_1134,fricative_categorical_boundary,3.0.4,59.921795106109315,
,,,,datoonmeg,filler,None,None,None,nonce,None,LDTSounds/,LDTSounds/datoonmeg.wav,,,,,0,102,102,133,,,,,,,,,,,,,,,,,,,a,1.237042750002729,female,18,014,American English,2019_Mar_29_1134,fricative_categorical_boundary,3.0.4,59.921795106109315,
,,,,magmilnt,filler,None,None,None,nonce,None,LDTSounds/,LDTSounds/magmilnt.wav,,,,,0,103,103,107,,,,,,,,,,,,,,,,,,,a,1.5042011050027213,female,18,014,American English,2019_Mar_29_1134,fricative_categorical_boundary,3.0.4,59.921795106109315,
,,,,krebdingolee,filler,None,None,None,nonce,None,LDTSounds/,LDTSounds/krebdingolee.wav,,,,,0,104,104,147,,,,,,,,,,,,,,,,,,,a,1.2535100959976262,female,18,014,American English,2019_Mar_29_1134,fricative_categorical_boundary,3.0.4,59.921795106109315,
,,,,THIEF,test,f,coda,1.0,None,None,LDTSounds/,LDTSounds/THIEF.wav,,,,,0,105,105,15,,,,,,,,,,,,,,,,,,,l,0.9364852130020154,female,18,014,American English,2019_Mar_29_1134,fricative_categorical_boundary,3.0.4,59.921795106109315,
,,,,lick,filler,None,None,None,real,None,LDTSounds/,LDTSounds/lick.wav,,,,,0,106,106,41,,,,,,,,,,,,,,,,,,,l,0.786943766001059,female,18,014,American English,2019_Mar_29_1134,fricative_categorical_boundary,3.0.4,59.921795106109315,
,,,,BLISS,test,s,coda,1.0,None,None,LDTSounds/,LDTSounds/BLISS.wav,,,,,0,107,107,17,,,,,,,,,,,,,,,,,,,l,0.8191236899983778,female,18,014,American English,2019_Mar_29_1134,fricative_categorical_boundary,3.0.4,59.921795106109315,
,,,,plone,filler,None,None,None,nonce,None,LDTSounds/,LDTSounds/plone.wav,,,,,0,108,108,76,,,,,,,,,,,,,,,,,,,l,0.8699836150008196,female,18,014,American English,2019_Mar_29_1134,fricative_categorical_boundary,3.0.4,59.921795106109315,
,,,,cratbool,filler,None,None,None,nonce,None,LDTSounds/,LDTSounds/cratbool.wav,,,,,0,109,109,106,,,,,,,,,,,,,,,,,,,a,1.5375388139982533,female,18,014,American English,2019_Mar_29_1134,fricative_categorical_boundary,3.0.4,59.921795106109315,
,,,,ledmon,filler,None,None,None,nonce,None,LDTSounds/,LDTSounds/ledmon.wav,,,,,0,110,110,94,,,,,,,,,,,,,,,,,,,l,1.7707695859971864,female,18,014,American English,2019_Mar_29_1134,fricative_categorical_boundary,3.0.4,59.921795106109315,
,,,,SEEM,test,s,onset,1.0,None,None,LDTSounds/,LDTSounds/SEEM.wav,,,,,0,111,111,26,,,,,,,,,,,,,,,,,,,l,1.4364301300010993,female,18,014,American English,2019_Mar_29_1134,fricative_categorical_boundary,3.0.4,59.921795106109315,
,,,,taklibd,filler,None,None,None,nonce,None,LDTSounds/,LDTSounds/taklibd.wav,,,,,0,112,112,101,,,,,,,,,,,,,,,,,,,a,1.9706914800008235,female,18,014,American English,2019_Mar_29_1134,fricative_categorical_boundary,3.0.4,59.921795106109315,
,,,,rat,filler,None,None,None,real,None,LDTSounds/,LDTSounds/rat.wav,,,,,0,113,113,47,,,,,,,,,,,,,,,,,,,l,1.2038974089991825,female,18,014,American English,2019_Mar_29_1134,fricative_categorical_boundary,3.0.4,59.921795106109315,
,,,,SIP,test,s,onset,1.0,None,None,LDTSounds/,LDTSounds/SIP.wav,,,,,0,114,114,33,,,,,,,,,,,,,,,,,,,l,1.0031874440028332,female,18,014,American English,2019_Mar_29_1134,fricative_categorical_boundary,3.0.4,59.921795106109315,
,,,,pingloon,filler,None,None,None,nonce,None,LDTSounds/,LDTSounds/pingloon.wav,,,,,0,115,115,110,,,,,,,,,,,,,,,,,,,l,1.1372118190010951,female,18,014,American English,2019_Mar_29_1134,fricative_categorical_boundary,3.0.4,59.921795106109315,
,,,,rekmate,filler,None,None,None,nonce,None,LDTSounds/,LDTSounds/rekmate.wav,,,,,0,116,116,103,,,,,,,,,,,,,,,,,,,a,1.1030851429968607,female,18,014,American English,2019_Mar_29_1134,fricative_categorical_boundary,3.0.4,59.921795106109315,
,,,,globe,filler,None,None,None,real,None,LDTSounds/,LDTSounds/globe.wav,,,,,0,117,117,52,,,,,,,,,,,,,,,,,,,l,0.8867541460022039,female,18,014,American English,2019_Mar_29_1134,fricative_categorical_boundary,3.0.4,59.921795106109315,
,,,,hapooli,filler,None,None,None,nonce,None,LDTSounds/,LDTSounds/hapooli.wav,,,,,0,118,118,126,,,,,,,,,,,,,,,,,,,a,0.9364817150017188,female,18,014,American English,2019_Mar_29_1134,fricative_categorical_boundary,3.0.4,59.921795106109315,
,,,,dewagelin,filler,None,None,None,nonce,None,LDTSounds/,LDTSounds/dewagelin.wav,,,,,0,119,119,143,,,,,,,,,,,,,,,,,,,a,0.9034639849996893,female,18,014,American English,2019_Mar_29_1134,fricative_categorical_boundary,3.0.4,59.921795106109315,
,,,,SEEK,test,s,onset,1.0,None,None,LDTSounds/,LDTSounds/SEEK.wav,,,,,0,120,120,24,,,,,,,,,,,,,,,,,,,l,1.0691752120001183,female,18,014,American English,2019_Mar_29_1134,fricative_categorical_boundary,3.0.4,59.921795106109315,
,,,,drip,filler,None,None,None,real,None,LDTSounds/,LDTSounds/drip.wav,,,,,0,121,121,51,,,,,,,,,,,,,,,,,,,l,0.7865685510005278,female,18,014,American English,2019_Mar_29_1134,fricative_categorical_boundary,3.0.4,59.921795106109315,
,,,,baking,filler,None,None,None,real,None,LDTSounds/,LDTSounds/baking.wav,,,,,0,122,122,69,,,,,,,,,,,,,,,,,,,l,0.9356270839998615,female,18,014,American English,2019_Mar_29_1134,fricative_categorical_boundary,3.0.4,59.921795106109315,
,,,,toilet,filler,None,None,None,real,None,LDTSounds/,LDTSounds/toilet.wav,,,,,0,123,123,67,,,,,,,,,,,,,,,,,,,l,0.8871376499992039,female,18,014,American English,2019_Mar_29_1134,fricative_categorical_boundary,3.0.4,59.921795106109315,
,,,,ratwell,filler,None,None,None,nonce,None,LDTSounds/,LDTSounds/ratwell.wav,,,,,0,124,124,108,,,,,,,,,,,,,,,,,,,l,1.120639114997175,female,18,014,American English,2019_Mar_29_1134,fricative_categorical_boundary,3.0.4,59.921795106109315,
,,,,butter,filler,None,None,None,real,None,LDTSounds/,LDTSounds/butter.wav,,,,,0,125,125,60,,,,,,,,,,,,,,,,,,,l,0.7190676080026606,female,18,014,American English,2019_Mar_29_1134,fricative_categorical_boundary,3.0.4,59.921795106109315,
,,,,bidbowk,filler,None,None,None,nonce,None,LDTSounds/,LDTSounds/bidbowk.wav,,,,,0,126,126,109,,,,,,,,,,,,,,,,,,,a,0.9198006769984204,female,18,014,American English,2019_Mar_29_1134,fricative_categorical_boundary,3.0.4,59.921795106109315,
,,,,while,filler,None,None,None,real,None,LDTSounds/,LDTSounds/while.wav,,,,,0,127,127,48,,,,,,,,,,,,,,,,,,,l,1.0704758699976082,female,18,014,American English,2019_Mar_29_1134,fricative_categorical_boundary,3.0.4,59.921795106109315,
,,,,SEAGULL,test,s,onset,2.0,None,None,LDTSounds/,LDTSounds/SEAGULL.wav,,,,,0,128,128,21,,,,,,,,,,,,,,,,,,,l,1.1195781159985927,female,18,014,American English,2019_Mar_29_1134,fricative_categorical_boundary,3.0.4,59.921795106109315,
,,,,trag,filler,None,None,None,nonce,None,LDTSounds/,LDTSounds/trag.wav,,,,,0,129,129,84,,,,,,,,,,,,,,,,,,,a,1.7375253979989793,female,18,014,American English,2019_Mar_29_1134,fricative_categorical_boundary,3.0.4,59.921795106109315,
,,,,line,filler,None,None,None,real,None,LDTSounds/,LDTSounds/line.wav,,,,,0,130,130,46,,,,,,,,,,,,,,,,,,,l,1.0866929570001957,female,18,014,American English,2019_Mar_29_1134,fricative_categorical_boundary,3.0.4,59.921795106109315,
,,,,data,filler,None,None,None,real,None,LDTSounds/,LDTSounds/data.wav,,,,,0,131,131,62,,,,,,,,,,,,,,,,,,,l,0.853327918001014,female,18,014,American English,2019_Mar_29_1134,fricative_categorical_boundary,3.0.4,59.921795106109315,
,,,,truck,filler,None,None,None,real,None,LDTSounds/,LDTSounds/truck.wav,,,,,0,132,132,34,,,,,,,,,,,,,,,,,,,l,1.3208962459975737,female,18,014,American English,2019_Mar_29_1134,fricative_categorical_boundary,3.0.4,59.921795106109315,
,,,,poginito,filler,None,None,None,nonce,None,LDTSounds/,LDTSounds/poginito.wav,,,,,0,133,133,139,,,,,,,,,,,,,,,,,,,a,1.1871996729969396,female,18,014,American English,2019_Mar_29_1134,fricative_categorical_boundary,3.0.4,59.921795106109315,
,,,,SEEKER,test,s,onset,2.0,None,None,LDTSounds/,LDTSounds/SEEKER.wav,,,,,0,134,134,25,,,,,,,,,,,,,,,,,,,l,1.0190921280009206,female,18,014,American English,2019_Mar_29_1134,fricative_categorical_boundary,3.0.4,59.921795106109315,
,,,,wegtamlip,filler,None,None,None,nonce,None,LDTSounds/,LDTSounds/wegtamlip.wav,,,,,0,135,135,120,,,,,,,,,,,,,,,,,,,a,1.2208374490001006,female,18,014,American English,2019_Mar_29_1134,fricative_categorical_boundary,3.0.4,59.921795106109315,
,,,,day,filler,None,None,None,real,None,LDTSounds/,LDTSounds/day.wav,,,,,0,136,136,50,,,,,,,,,,,,,,,,,,,l,0.9860076740005752,female,18,014,American English,2019_Mar_29_1134,fricative_categorical_boundary,3.0.4,59.921795106109315,
,,,,boycott,filler,None,None,None,real,None,LDTSounds/,LDTSounds/boycott.wav,,,,,0,137,137,71,,,,,,,,,,,,,,,,,,,l,0.9201070800008893,female,18,014,American English,2019_Mar_29_1134,fricative_categorical_boundary,3.0.4,59.921795106109315,
,,,,toy,filler,None,None,None,real,None,LDTSounds/,LDTSounds/toy.wav,,,,,0,138,138,53,,,,,,,,,,,,,,,,,,,l,0.8022185260015249,female,18,014,American English,2019_Mar_29_1134,fricative_categorical_boundary,3.0.4,59.921795106109315,
,,,,wet,filler,None,None,None,real,None,LDTSounds/,LDTSounds/wet.wav,,,,,0,139,139,38,,,,,,,,,,,,,,,,,,,l,0.9203646460009622,female,18,014,American English,2019_Mar_29_1134,fricative_categorical_boundary,3.0.4,59.921795106109315,
,,,,troplund,filler,None,None,None,nonce,None,LDTSounds/,LDTSounds/troplund.wav,,,,,0,140,140,98,,,,,,,,,,,,,,,,,,,a,1.2369549989998632,female,18,014,American English,2019_Mar_29_1134,fricative_categorical_boundary,3.0.4,59.921795106109315,
,,,,FEVER,test,f,onset,2.0,None,None,LDTSounds/,LDTSounds/FEVER.wav,,,,,0,141,141,5,,,,,,,,,,,,,,,,,,,l,0.819490688998485,female,18,014,American English,2019_Mar_29_1134,fricative_categorical_boundary,3.0.4,59.921795106109315,
,,,,FIB,test,f,onset,1.0,None,None,LDTSounds/,LDTSounds/FIB.wav,,,,,0,142,142,6,,,,,,,,,,,,,,,,,,,l,0.8008469369997329,female,18,014,American English,2019_Mar_29_1134,fricative_categorical_boundary,3.0.4,59.921795106109315,
,,,,cridamlo,filler,None,None,None,nonce,None,LDTSounds/,LDTSounds/cridamlo.wav,,,,,0,143,143,122,,,,,,,,,,,,,,,,,,,a,0.9706934169989836,female,18,014,American English,2019_Mar_29_1134,fricative_categorical_boundary,3.0.4,59.921795106109315,
,,,,FELINE,test,f,onset,2.0,None,None,LDTSounds/,LDTSounds/FELINE.wav,,,,,0,144,144,2,,,,,,,,,,,,,,,,,,,l,0.8369616210002278,female,18,014,American English,2019_Mar_29_1134,fricative_categorical_boundary,3.0.4,59.921795106109315,
,,,,yoodalin,filler,None,None,None,nonce,None,LDTSounds/,LDTSounds/yoodalin.wav,,,,,0,145,145,125,,,,,,,,,,,,,,,,,,,l,0.6864782960001321,female,18,014,American English,2019_Mar_29_1134,fricative_categorical_boundary,3.0.4,59.921795106109315,
,,,,FILTH,test,f,onset,1.0,None,None,LDTSounds/,LDTSounds/FILTH.wav,,,,,0,146,146,12,,,,,,,,,,,,,,,,,,,l,0.8034444309996616,female,18,014,American English,2019_Mar_29_1134,fricative_categorical_boundary,3.0.4,59.921795106109315,
,,,,building,filler,None,None,None,real,None,LDTSounds/,LDTSounds/building.wav,,,,,0,147,147,55,,,,,,,,,,,,,,,,,,,l,0.6528212299999723,female,18,014,American English,2019_Mar_29_1134,fricative_categorical_boundary,3.0.4,59.921795106109315,
,,,,habalipdee,filler,None,None,None,nonce,None,LDTSounds/,LDTSounds/habalipdee.wav,,,,,0,148,148,140,,,,,,,,,,,,,,,,,,,a,1.020017579998239,female,18,014,American English,2019_Mar_29_1134,fricative_categorical_boundary,3.0.4,59.921795106109315,
,,,,toin,filler,None,None,None,nonce,None,LDTSounds/,LDTSounds/toin.wav,,,,,0,149,149,88,,,,,,,,,,,,,,,,,,,l,0.9700452249999216,female,18,014,American English,2019_Mar_29_1134,fricative_categorical_boundary,3.0.4,59.921795106109315,
,,,,,,,,,,,,,,,,,,,,,,,,,,,,,,0.03854166666666667,-0.2574074074074074,1,0,0,,,,,,,female,18,014,American English,2019_Mar_29_1134,fricative_categorical_boundary,3.0.4,59.921795106109315,
23,NewWord_fbackonset_sbackonset_,LowBackContinuum/,LowBackContinuum/NewWord_fbackonset_sbackonset_23.wav,,,,,,,,,,,,,,,,,,0,0,0,9,,,,,,,,,,,s,1.071,,,,,female,18,014,American English,2019_Mar_29_1134,fricative_categorical_boundary,3.0.4,59.921795106109315,
9,NewWord_fbackonset_sbackonset_,LowBackContinuum/,LowBackContinuum/NewWord_fbackonset_sbackonset_9.wav,,,,,,,,,,,,,,,,,,0,1,1,2,,,,,,,,,,,f,1.372,,,,,female,18,014,American English,2019_Mar_29_1134,fricative_categorical_boundary,3.0.4,59.921795106109315,
11,NewWord_fbackonset_sbackonset_,LowBackContinuum/,LowBackContinuum/NewWord_fbackonset_sbackonset_11.wav,,,,,,,,,,,,,,,,,,0,2,2,3,,,,,,,,,,,f,0.42,,,,,female,18,014,American English,2019_Mar_29_1134,fricative_categorical_boundary,3.0.4,59.921795106109315,
1,NewWord_fbackonset_sbackonset_,LowBackContinuum/,LowBackContinuum/NewWord_fbackonset_sbackonset_1.wav,,,,,,,,,,,,,,,,,,0,3,3,0,,,,,,,,,,,f,0.471,,,,,female,18,014,American English,2019_Mar_29_1134,fricative_categorical_boundary,3.0.4,59.921795106109315,
29,NewWord_fbackonset_sbackonset_,LowBackContinuum/,LowBackContinuum/NewWord_fbackonset_sbackonset_29.wav,,,,,,,,,,,,,,,,,,0,4,4,12,,,,,,,,,,,s,0.52,,,,,female,18,014,American English,2019_Mar_29_1134,fricative_categorical_boundary,3.0.4,59.921795106109315,
41,NewWord_fbackonset_sbackonset_,LowBackContinuum/,LowBackContinuum/NewWord_fbackonset_sbackonset_41.wav,,,,,,,,,,,,,,,,,,0,5,5,13,,,,,,,,,,,s,1.171,,,,,female,18,014,American English,2019_Mar_29_1134,fricative_categorical_boundary,3.0.4,59.921795106109315,
13,NewWord_fbackonset_sbackonset_,LowBackContinuum/,LowBackContinuum/NewWord_fbackonset_sbackonset_13.wav,,,,,,,,,,,,,,,,,,0,6,6,4,,,,,,,,,,,s,0.687,,,,,female,18,014,American English,2019_Mar_29_1134,fricative_categorical_boundary,3.0.4,59.921795106109315,
19,NewWord_fbackonset_sbackonset_,LowBackContinuum/,LowBackContinuum/NewWord_fbackonset_sbackonset_19.wav,,,,,,,,,,,,,,,,,,0,7,7,7,,,,,,,,,,,s,0.402,,,,,female,18,014,American English,2019_Mar_29_1134,fricative_categorical_boundary,3.0.4,59.921795106109315,
15,NewWord_fbackonset_sbackonset_,LowBackContinuum/,LowBackContinuum/NewWord_fbackonset_sbackonset_15.wav,,,,,,,,,,,,,,,,,,0,8,8,5,,,,,,,,,,,s,0.437,,,,,female,18,014,American English,2019_Mar_29_1134,fricative_categorical_boundary,3.0.4,59.921795106109315,
25,NewWord_fbackonset_sbackonset_,LowBackContinuum/,LowBackContinuum/NewWord_fbackonset_sbackonset_25.wav,,,,,,,,,,,,,,,,,,0,9,9,10,,,,,,,,,,,s,0.406,,,,,female,18,014,American English,2019_Mar_29_1134,fricative_categorical_boundary,3.0.4,59.921795106109315,
27,NewWord_fbackonset_sbackonset_,LowBackContinuum/,LowBackContinuum/NewWord_fbackonset_sbackonset_27.wav,,,,,,,,,,,,,,,,,,0,10,10,11,,,,,,,,,,,s,0.821,,,,,female,18,014,American English,2019_Mar_29_1134,fricative_categorical_boundary,3.0.4,59.921795106109315,
7,NewWord_fbackonset_sbackonset_,LowBackContinuum/,LowBackContinuum/NewWord_fbackonset_sbackonset_7.wav,,,,,,,,,,,,,,,,,,0,11,11,1,,,,,,,,,,,f,0.654,,,,,female,18,014,American English,2019_Mar_29_1134,fricative_categorical_boundary,3.0.4,59.921795106109315,
21,NewWord_fbackonset_sbackonset_,LowBackContinuum/,LowBackContinuum/NewWord_fbackonset_sbackonset_21.wav,,,,,,,,,,,,,,,,,,0,12,12,8,,,,,,,,,,,s,3.189,,,,,female,18,014,American English,2019_Mar_29_1134,fricative_categorical_boundary,3.0.4,59.921795106109315,
17,NewWord_fbackonset_sbackonset_,LowBackContinuum/,LowBackContinuum/NewWord_fbackonset_sbackonset_17.wav,,,,,,,,,,,,,,,,,,0,13,13,6,,,,,,,,,,,s,0.453,,,,,female,18,014,American English,2019_Mar_29_1134,fricative_categorical_boundary,3.0.4,59.921795106109315,
29,NewWord_fbackonset_sbackonset_,LowBackContinuum/,LowBackContinuum/NewWord_fbackonset_sbackonset_29.wav,,,,,,,,,,,,,,,,,,1,0,14,12,,,,,,,,,,,s,0.419,,,,,female,18,014,American English,2019_Mar_29_1134,fricative_categorical_boundary,3.0.4,59.921795106109315,
11,NewWord_fbackonset_sbackonset_,LowBackContinuum/,LowBackContinuum/NewWord_fbackonset_sbackonset_11.wav,,,,,,,,,,,,,,,,,,1,1,15,3,,,,,,,,,,,f,1.422,,,,,female,18,014,American English,2019_Mar_29_1134,fricative_categorical_boundary,3.0.4,59.921795106109315,
25,NewWord_fbackonset_sbackonset_,LowBackContinuum/,LowBackContinuum/NewWord_fbackonset_sbackonset_25.wav,,,,,,,,,,,,,,,,,,1,2,16,10,,,,,,,,,,,s,0.971,,,,,female,18,014,American English,2019_Mar_29_1134,fricative_categorical_boundary,3.0.4,59.921795106109315,
13,NewWord_fbackonset_sbackonset_,LowBackContinuum/,LowBackContinuum/NewWord_fbackonset_sbackonset_13.wav,,,,,,,,,,,,,,,,,,1,3,17,4,,,,,,,,,,,s,0.57,,,,,female,18,014,American English,2019_Mar_29_1134,fricative_categorical_boundary,3.0.4,59.921795106109315,
15,NewWord_fbackonset_sbackonset_,LowBackContinuum/,LowBackContinuum/NewWord_fbackonset_sbackonset_15.wav,,,,,,,,,,,,,,,,,,1,4,18,5,,,,,,,,,,,s,0.553,,,,,female,18,014,American English,2019_Mar_29_1134,fricative_categorical_boundary,3.0.4,59.921795106109315,
9,NewWord_fbackonset_sbackonset_,LowBackContinuum/,LowBackContinuum/NewWord_fbackonset_sbackonset_9.wav,,,,,,,,,,,,,,,,,,1,5,19,2,,,,,,,,,,,f,6.677,,,,,female,18,014,American English,2019_Mar_29_1134,fricative_categorical_boundary,3.0.4,59.921795106109315,
17,NewWord_fbackonset_sbackonset_,LowBackContinuum/,LowBackContinuum/NewWord_fbackonset_sbackonset_17.wav,,,,,,,,,,,,,,,,,,1,6,20,6,,,,,,,,,,,s,0.503,,,,,female,18,014,American English,2019_Mar_29_1134,fricative_categorical_boundary,3.0.4,59.921795106109315,
21,NewWord_fbackonset_sbackonset_,LowBackContinuum/,LowBackContinuum/NewWord_fbackonset_sbackonset_21.wav,,,,,,,,,,,,,,,,,,1,7,21,8,,,,,,,,,,,s,0.419,,,,,female,18,014,American English,2019_Mar_29_1134,fricative_categorical_boundary,3.0.4,59.921795106109315,
41,NewWord_fbackonset_sbackonset_,LowBackContinuum/,LowBackContinuum/NewWord_fbackonset_sbackonset_41.wav,,,,,,,,,,,,,,,,,,1,8,22,13,,,,,,,,,,,s,0.454,,,,,female,18,014,American English,2019_Mar_29_1134,fricative_categorical_boundary,3.0.4,59.921795106109315,
27,NewWord_fbackonset_sbackonset_,LowBackContinuum/,LowBackContinuum/NewWord_fbackonset_sbackonset_27.wav,,,,,,,,,,,,,,,,,,1,9,23,11,,,,,,,,,,,s,0.42,,,,,female,18,014,American English,2019_Mar_29_1134,fricative_categorical_boundary,3.0.4,59.921795106109315,
19,NewWord_fbackonset_sbackonset_,LowBackContinuum/,LowBackContinuum/NewWord_fbackonset_sbackonset_19.wav,,,,,,,,,,,,,,,,,,1,10,24,7,,,,,,,,,,,s,0.57,,,,,female,18,014,American English,2019_Mar_29_1134,fricative_categorical_boundary,3.0.4,59.921795106109315,
7,NewWord_fbackonset_sbackonset_,LowBackContinuum/,LowBackContinuum/NewWord_fbackonset_sbackonset_7.wav,,,,,,,,,,,,,,,,,,1,11,25,1,,,,,,,,,,,s,0.504,,,,,female,18,014,American English,2019_Mar_29_1134,fricative_categorical_boundary,3.0.4,59.921795106109315,
1,NewWord_fbackonset_sbackonset_,LowBackContinuum/,LowBackContinuum/NewWord_fbackonset_sbackonset_1.wav,,,,,,,,,,,,,,,,,,1,12,26,0,,,,,,,,,,,s,0.454,,,,,female,18,014,American English,2019_Mar_29_1134,fricative_categorical_boundary,3.0.4,59.921795106109315,
23,NewWord_fbackonset_sbackonset_,LowBackContinuum/,LowBackContinuum/NewWord_fbackonset_sbackonset_23.wav,,,,,,,,,,,,,,,,,,1,13,27,9,,,,,,,,,,,s,0.469,,,,,female,18,014,American English,2019_Mar_29_1134,fricative_categorical_boundary,3.0.4,59.921795106109315,
15,NewWord_fbackonset_sbackonset_,LowBackContinuum/,LowBackContinuum/NewWord_fbackonset_sbackonset_15.wav,,,,,,,,,,,,,,,,,,2,0,28,5,,,,,,,,,,,s,0.62,,,,,female,18,014,American English,2019_Mar_29_1134,fricative_categorical_boundary,3.0.4,59.921795106109315,
23,NewWord_fbackonset_sbackonset_,LowBackContinuum/,LowBackContinuum/NewWord_fbackonset_sbackonset_23.wav,,,,,,,,,,,,,,,,,,2,1,29,9,,,,,,,,,,,s,0.42,,,,,female,18,014,American English,2019_Mar_29_1134,fricative_categorical_boundary,3.0.4,59.921795106109315,
19,NewWord_fbackonset_sbackonset_,LowBackContinuum/,LowBackContinuum/NewWord_fbackonset_sbackonset_19.wav,,,,,,,,,,,,,,,,,,2,2,30,7,,,,,,,,,,,s,0.469,,,,,female,18,014,American English,2019_Mar_29_1134,fricative_categorical_boundary,3.0.4,59.921795106109315,
21,NewWord_fbackonset_sbackonset_,LowBackContinuum/,LowBackContinuum/NewWord_fbackonset_sbackonset_21.wav,,,,,,,,,,,,,,,,,,2,3,31,8,,,,,,,,,,,s,0.787,,,,,female,18,014,American English,2019_Mar_29_1134,fricative_categorical_boundary,3.0.4,59.921795106109315,
7,NewWord_fbackonset_sbackonset_,LowBackContinuum/,LowBackContinuum/NewWord_fbackonset_sbackonset_7.wav,,,,,,,,,,,,,,,,,,2,4,32,1,,,,,,,,,,,f,0.737,,,,,female,18,014,American English,2019_Mar_29_1134,fricative_categorical_boundary,3.0.4,59.921795106109315,
29,NewWord_fbackonset_sbackonset_,LowBackContinuum/,LowBackContinuum/NewWord_fbackonset_sbackonset_29.wav,,,,,,,,,,,,,,,,,,2,5,33,12,,,,,,,,,,,s,0.821,,,,,female,18,014,American English,2019_Mar_29_1134,fricative_categorical_boundary,3.0.4,59.921795106109315,
27,NewWord_fbackonset_sbackonset_,LowBackContinuum/,LowBackContinuum/NewWord_fbackonset_sbackonset_27.wav,,,,,,,,,,,,,,,,,,2,6,34,11,,,,,,,,,,,s,0.753,,,,,female,18,014,American English,2019_Mar_29_1134,fricative_categorical_boundary,3.0.4,59.921795106109315,
41,NewWord_fbackonset_sbackonset_,LowBackContinuum/,LowBackContinuum/NewWord_fbackonset_sbackonset_41.wav,,,,,,,,,,,,,,,,,,2,7,35,13,,,,,,,,,,,s,0.471,,,,,female,18,014,American English,2019_Mar_29_1134,fricative_categorical_boundary,3.0.4,59.921795106109315,
25,NewWord_fbackonset_sbackonset_,LowBackContinuum/,LowBackContinuum/NewWord_fbackonset_sbackonset_25.wav,,,,,,,,,,,,,,,,,,2,8,36,10,,,,,,,,,,,s,0.737,,,,,female,18,014,American English,2019_Mar_29_1134,fricative_categorical_boundary,3.0.4,59.921795106109315,
13,NewWord_fbackonset_sbackonset_,LowBackContinuum/,LowBackContinuum/NewWord_fbackonset_sbackonset_13.wav,,,,,,,,,,,,,,,,,,2,9,37,4,,,,,,,,,,,s,0.406,,,,,female,18,014,American English,2019_Mar_29_1134,fricative_categorical_boundary,3.0.4,59.921795106109315,
1,NewWord_fbackonset_sbackonset_,LowBackContinuum/,LowBackContinuum/NewWord_fbackonset_sbackonset_1.wav,,,,,,,,,,,,,,,,,,2,10,38,0,,,,,,,,,,,s,1.638,,,,,female,18,014,American English,2019_Mar_29_1134,fricative_categorical_boundary,3.0.4,59.921795106109315,
11,NewWord_fbackonset_sbackonset_,LowBackContinuum/,LowBackContinuum/NewWord_fbackonset_sbackonset_11.wav,,,,,,,,,,,,,,,,,,2,11,39,3,,,,,,,,,,,f,2.656,,,,,female,18,014,American English,2019_Mar_29_1134,fricative_categorical_boundary,3.0.4,59.921795106109315,
17,NewWord_fbackonset_sbackonset_,LowBackContinuum/,LowBackContinuum/NewWord_fbackonset_sbackonset_17.wav,,,,,,,,,,,,,,,,,,2,12,40,6,,,,,,,,,,,s,1.488,,,,,female,18,014,American English,2019_Mar_29_1134,fricative_categorical_boundary,3.0.4,59.921795106109315,
9,NewWord_fbackonset_sbackonset_,LowBackContinuum/,LowBackContinuum/NewWord_fbackonset_sbackonset_9.wav,,,,,,,,,,,,,,,,,,2,13,41,2,,,,,,,,,,,f,2.472,,,,,female,18,014,American English,2019_Mar_29_1134,fricative_categorical_boundary,3.0.4,59.921795106109315,
7,NewWord_fbackonset_sbackonset_,LowBackContinuum/,LowBackContinuum/NewWord_fbackonset_sbackonset_7.wav,,,,,,,,,,,,,,,,,,3,0,42,1,,,,,,,,,,,f,0.403,,,,,female,18,014,American English,2019_Mar_29_1134,fricative_categorical_boundary,3.0.4,59.921795106109315,
25,NewWord_fbackonset_sbackonset_,LowBackContinuum/,LowBackContinuum/NewWord_fbackonset_sbackonset_25.wav,,,,,,,,,,,,,,,,,,3,1,43,10,,,,,,,,,,,s,1.321,,,,,female,18,014,American English,2019_Mar_29_1134,fricative_categorical_boundary,3.0.4,59.921795106109315,
15,NewWord_fbackonset_sbackonset_,LowBackContinuum/,LowBackContinuum/NewWord_fbackonset_sbackonset_15.wav,,,,,,,,,,,,,,,,,,3,2,44,5,,,,,,,,,,,s,0.403,,,,,female,18,014,American English,2019_Mar_29_1134,fricative_categorical_boundary,3.0.4,59.921795106109315,
9,NewWord_fbackonset_sbackonset_,LowBackContinuum/,LowBackContinuum/NewWord_fbackonset_sbackonset_9.wav,,,,,,,,,,,,,,,,,,3,3,45,2,,,,,,,,,,,f,1.571,,,,,female,18,014,American English,2019_Mar_29_1134,fricative_categorical_boundary,3.0.4,59.921795106109315,
11,NewWord_fbackonset_sbackonset_,LowBackContinuum/,LowBackContinuum/NewWord_fbackonset_sbackonset_11.wav,,,,,,,,,,,,,,,,,,3,4,46,3,,,,,,,,,,,f,1.004,,,,,female,18,014,American English,2019_Mar_29_1134,fricative_categorical_boundary,3.0.4,59.921795106109315,
19,NewWord_fbackonset_sbackonset_,LowBackContinuum/,LowBackContinuum/NewWord_fbackonset_sbackonset_19.wav,,,,,,,,,,,,,,,,,,3,5,47,7,,,,,,,,,,,f,1.956,,,,,female,18,014,American English,2019_Mar_29_1134,fricative_categorical_boundary,3.0.4,59.921795106109315,
41,NewWord_fbackonset_sbackonset_,LowBackContinuum/,LowBackContinuum/NewWord_fbackonset_sbackonset_41.wav,,,,,,,,,,,,,,,,,,3,6,48,13,,,,,,,,,,,s,0.82,,,,,female,18,014,American English,2019_Mar_29_1134,fricative_categorical_boundary,3.0.4,59.921795106109315,
27,NewWord_fbackonset_sbackonset_,LowBackContinuum/,LowBackContinuum/NewWord_fbackonset_sbackonset_27.wav,,,,,,,,,,,,,,,,,,3,7,49,11,,,,,,,,,,,s,1.371,,,,,female,18,014,American English,2019_Mar_29_1134,fricative_categorical_boundary,3.0.4,59.921795106109315,
21,NewWord_fbackonset_sbackonset_,LowBackContinuum/,LowBackContinuum/NewWord_fbackonset_sbackonset_21.wav,,,,,,,,,,,,,,,,,,3,8,50,8,,,,,,,,,,,s,0.42,,,,,female,18,014,American English,2019_Mar_29_1134,fricative_categorical_boundary,3.0.4,59.921795106109315,
1,NewWord_fbackonset_sbackonset_,LowBackContinuum/,LowBackContinuum/NewWord_fbackonset_sbackonset_1.wav,,,,,,,,,,,,,,,,,,3,9,51,0,,,,,,,,,,,f,0.971,,,,,female,18,014,American English,2019_Mar_29_1134,fricative_categorical_boundary,3.0.4,59.921795106109315,
13,NewWord_fbackonset_sbackonset_,LowBackContinuum/,LowBackContinuum/NewWord_fbackonset_sbackonset_13.wav,,,,,,,,,,,,,,,,,,3,10,52,4,,,,,,,,,,,f,0.42,,,,,female,18,014,American English,2019_Mar_29_1134,fricative_categorical_boundary,3.0.4,59.921795106109315,
17,NewWord_fbackonset_sbackonset_,LowBackContinuum/,LowBackContinuum/NewWord_fbackonset_sbackonset_17.wav,,,,,,,,,,,,,,,,,,3,11,53,6,,,,,,,,,,,f,0.453,,,,,female,18,014,American English,2019_Mar_29_1134,fricative_categorical_boundary,3.0.4,59.921795106109315,
23,NewWord_fbackonset_sbackonset_,LowBackContinuum/,LowBackContinuum/NewWord_fbackonset_sbackonset_23.wav,,,,,,,,,,,,,,,,,,3,12,54,9,,,,,,,,,,,f,0.403,,,,,female,18,014,American English,2019_Mar_29_1134,fricative_categorical_boundary,3.0.4,59.921795106109315,
29,NewWord_fbackonset_sbackonset_,LowBackContinuum/,LowBackContinuum/NewWord_fbackonset_sbackonset_29.wav,,,,,,,,,,,,,,,,,,3,13,55,12,,,,,,,,,,,s,0.72,,,,,female,18,014,American English,2019_Mar_29_1134,fricative_categorical_boundary,3.0.4,59.921795106109315,
