﻿ChosenStep,Prefix,source,Stimuli,token,type,segment,position,syllablecount,realvsnonce,prefix,address,soundfile,trials.thisRepN,trials.thisTrialN,trials.thisN,trials.thisIndex,trials_2.thisRepN,trials_2.thisTrialN,trials_2.thisN,trials_2.thisIndex,trials_3.thisRepN,trials_3.thisTrialN,trials_3.thisN,trials_3.thisIndex,mouse_5.x,mouse_5.y,mouse_5.leftButton,mouse_5.midButton,mouse_5.rightButton,mouse.x,mouse.y,mouse.leftButton,mouse.midButton,mouse.rightButton,rating.response,rating.rt,key_resp_2.keys,key_resp_2.rt,key_resp_3.keys,key_resp_3.rt,Gender,Age,participant,Native Language,date,expName,psychopyVersion,frameRate,
,,,,,,,,,,,,,,,,,,,,,,,,,-0.11145833333333334,0.7611111111111111,1,0,0,,,,,,,,,,,,male,22,004,American English,2019_Mar_28_1259,fricative_categorical_boundary,3.0.4,59.926381040134565,
,,,,,,,,,,,,,,,,,,,,,,,,,,,,,,-0.103125,0.7314814814814815,1,0,0,,,,,,,male,22,004,American English,2019_Mar_28_1259,fricative_categorical_boundary,3.0.4,59.926381040134565,
19,NewWord_fbackonset_sbackonset_,LowBackContinuum/,LowBackContinuum/NewWord_fbackonset_sbackonset_19.wav,,,,,,,,,,0,0,0,7,,,,,,,,,,,,,,,,,,,s,1.906,,,,,male,22,004,American English,2019_Mar_28_1259,fricative_categorical_boundary,3.0.4,59.926381040134565,
29,NewWord_fbackonset_sbackonset_,LowBackContinuum/,LowBackContinuum/NewWord_fbackonset_sbackonset_29.wav,,,,,,,,,,0,1,1,12,,,,,,,,,,,,,,,,,,,s,0.519,,,,,male,22,004,American English,2019_Mar_28_1259,fricative_categorical_boundary,3.0.4,59.926381040134565,
21,NewWord_fbackonset_sbackonset_,LowBackContinuum/,LowBackContinuum/NewWord_fbackonset_sbackonset_21.wav,,,,,,,,,,0,2,2,8,,,,,,,,,,,,,,,,,,,s,6.327,,,,,male,22,004,American English,2019_Mar_28_1259,fricative_categorical_boundary,3.0.4,59.926381040134565,
7,NewWord_fbackonset_sbackonset_,LowBackContinuum/,LowBackContinuum/NewWord_fbackonset_sbackonset_7.wav,,,,,,,,,,0,3,3,1,,,,,,,,,,,,,,,,,,,s,1.154,,,,,male,22,004,American English,2019_Mar_28_1259,fricative_categorical_boundary,3.0.4,59.926381040134565,
9,NewWord_fbackonset_sbackonset_,LowBackContinuum/,LowBackContinuum/NewWord_fbackonset_sbackonset_9.wav,,,,,,,,,,0,4,4,2,,,,,,,,,,,,,,,,,,,s,1.254,,,,,male,22,004,American English,2019_Mar_28_1259,fricative_categorical_boundary,3.0.4,59.926381040134565,
11,NewWord_fbackonset_sbackonset_,LowBackContinuum/,LowBackContinuum/NewWord_fbackonset_sbackonset_11.wav,,,,,,,,,,0,5,5,3,,,,,,,,,,,,,,,,,,,s,0.536,,,,,male,22,004,American English,2019_Mar_28_1259,fricative_categorical_boundary,3.0.4,59.926381040134565,
17,NewWord_fbackonset_sbackonset_,LowBackContinuum/,LowBackContinuum/NewWord_fbackonset_sbackonset_17.wav,,,,,,,,,,0,6,6,6,,,,,,,,,,,,,,,,,,,s,1.372,,,,,male,22,004,American English,2019_Mar_28_1259,fricative_categorical_boundary,3.0.4,59.926381040134565,
15,NewWord_fbackonset_sbackonset_,LowBackContinuum/,LowBackContinuum/NewWord_fbackonset_sbackonset_15.wav,,,,,,,,,,0,7,7,5,,,,,,,,,,,,,,,,,,,s,3.991,,,,,male,22,004,American English,2019_Mar_28_1259,fricative_categorical_boundary,3.0.4,59.926381040134565,
1,NewWord_fbackonset_sbackonset_,LowBackContinuum/,LowBackContinuum/NewWord_fbackonset_sbackonset_1.wav,,,,,,,,,,0,8,8,0,,,,,,,,,,,,,,,,,,,s,1.504,,,,,male,22,004,American English,2019_Mar_28_1259,fricative_categorical_boundary,3.0.4,59.926381040134565,
41,NewWord_fbackonset_sbackonset_,LowBackContinuum/,LowBackContinuum/NewWord_fbackonset_sbackonset_41.wav,,,,,,,,,,0,9,9,13,,,,,,,,,,,,,,,,,,,s,0.72,,,,,male,22,004,American English,2019_Mar_28_1259,fricative_categorical_boundary,3.0.4,59.926381040134565,
27,NewWord_fbackonset_sbackonset_,LowBackContinuum/,LowBackContinuum/NewWord_fbackonset_sbackonset_27.wav,,,,,,,,,,0,10,10,11,,,,,,,,,,,,,,,,,,,s,0.52,,,,,male,22,004,American English,2019_Mar_28_1259,fricative_categorical_boundary,3.0.4,59.926381040134565,
25,NewWord_fbackonset_sbackonset_,LowBackContinuum/,LowBackContinuum/NewWord_fbackonset_sbackonset_25.wav,,,,,,,,,,0,11,11,10,,,,,,,,,,,,,,,,,,,s,0.737,,,,,male,22,004,American English,2019_Mar_28_1259,fricative_categorical_boundary,3.0.4,59.926381040134565,
13,NewWord_fbackonset_sbackonset_,LowBackContinuum/,LowBackContinuum/NewWord_fbackonset_sbackonset_13.wav,,,,,,,,,,0,12,12,4,,,,,,,,,,,,,,,,,,,s,2.189,,,,,male,22,004,American English,2019_Mar_28_1259,fricative_categorical_boundary,3.0.4,59.926381040134565,
23,NewWord_fbackonset_sbackonset_,LowBackContinuum/,LowBackContinuum/NewWord_fbackonset_sbackonset_23.wav,,,,,,,,,,0,13,13,9,,,,,,,,,,,,,,,,,,,s,1.088,,,,,male,22,004,American English,2019_Mar_28_1259,fricative_categorical_boundary,3.0.4,59.926381040134565,
25,NewWord_fbackonset_sbackonset_,LowBackContinuum/,LowBackContinuum/NewWord_fbackonset_sbackonset_25.wav,,,,,,,,,,1,0,14,10,,,,,,,,,,,,,,,,,,,s,1.537,,,,,male,22,004,American English,2019_Mar_28_1259,fricative_categorical_boundary,3.0.4,59.926381040134565,
19,NewWord_fbackonset_sbackonset_,LowBackContinuum/,LowBackContinuum/NewWord_fbackonset_sbackonset_19.wav,,,,,,,,,,1,1,15,7,,,,,,,,,,,,,,,,,,,s,42.666,,,,,male,22,004,American English,2019_Mar_28_1259,fricative_categorical_boundary,3.0.4,59.926381040134565,
9,NewWord_fbackonset_sbackonset_,LowBackContinuum/,LowBackContinuum/NewWord_fbackonset_sbackonset_9.wav,,,,,,,,,,1,2,16,2,,,,,,,,,,,,,,,,,,,s,14.002,,,,,male,22,004,American English,2019_Mar_28_1259,fricative_categorical_boundary,3.0.4,59.926381040134565,
29,NewWord_fbackonset_sbackonset_,LowBackContinuum/,LowBackContinuum/NewWord_fbackonset_sbackonset_29.wav,,,,,,,,,,1,3,17,12,,,,,,,,,,,,,,,,,,,s,0.486,,,,,male,22,004,American English,2019_Mar_28_1259,fricative_categorical_boundary,3.0.4,59.926381040134565,
15,NewWord_fbackonset_sbackonset_,LowBackContinuum/,LowBackContinuum/NewWord_fbackonset_sbackonset_15.wav,,,,,,,,,,1,4,18,5,,,,,,,,,,,,,,,,,,,s,0.403,,,,,male,22,004,American English,2019_Mar_28_1259,fricative_categorical_boundary,3.0.4,59.926381040134565,
27,NewWord_fbackonset_sbackonset_,LowBackContinuum/,LowBackContinuum/NewWord_fbackonset_sbackonset_27.wav,,,,,,,,,,1,5,19,11,,,,,,,,,,,,,,,,,,,s,2.405,,,,,male,22,004,American English,2019_Mar_28_1259,fricative_categorical_boundary,3.0.4,59.926381040134565,
1,NewWord_fbackonset_sbackonset_,LowBackContinuum/,LowBackContinuum/NewWord_fbackonset_sbackonset_1.wav,,,,,,,,,,1,6,20,0,,,,,,,,,,,,,,,,,,,s,1.288,,,,,male,22,004,American English,2019_Mar_28_1259,fricative_categorical_boundary,3.0.4,59.926381040134565,
41,NewWord_fbackonset_sbackonset_,LowBackContinuum/,LowBackContinuum/NewWord_fbackonset_sbackonset_41.wav,,,,,,,,,,1,7,21,13,,,,,,,,,,,,,,,,,,,s,1.171,,,,,male,22,004,American English,2019_Mar_28_1259,fricative_categorical_boundary,3.0.4,59.926381040134565,
11,NewWord_fbackonset_sbackonset_,LowBackContinuum/,LowBackContinuum/NewWord_fbackonset_sbackonset_11.wav,,,,,,,,,,1,8,22,3,,,,,,,,,,,,,,,,,,,s,0.403,,,,,male,22,004,American English,2019_Mar_28_1259,fricative_categorical_boundary,3.0.4,59.926381040134565,
21,NewWord_fbackonset_sbackonset_,LowBackContinuum/,LowBackContinuum/NewWord_fbackonset_sbackonset_21.wav,,,,,,,,,,1,9,23,8,,,,,,,,,,,,,,,,,,,s,0.971,,,,,male,22,004,American English,2019_Mar_28_1259,fricative_categorical_boundary,3.0.4,59.926381040134565,
7,NewWord_fbackonset_sbackonset_,LowBackContinuum/,LowBackContinuum/NewWord_fbackonset_sbackonset_7.wav,,,,,,,,,,1,10,24,1,,,,,,,,,,,,,,,,,,,s,2.439,,,,,male,22,004,American English,2019_Mar_28_1259,fricative_categorical_boundary,3.0.4,59.926381040134565,
17,NewWord_fbackonset_sbackonset_,LowBackContinuum/,LowBackContinuum/NewWord_fbackonset_sbackonset_17.wav,,,,,,,,,,1,11,25,6,,,,,,,,,,,,,,,,,,,s,0.419,,,,,male,22,004,American English,2019_Mar_28_1259,fricative_categorical_boundary,3.0.4,59.926381040134565,
13,NewWord_fbackonset_sbackonset_,LowBackContinuum/,LowBackContinuum/NewWord_fbackonset_sbackonset_13.wav,,,,,,,,,,1,12,26,4,,,,,,,,,,,,,,,,,,,s,0.469,,,,,male,22,004,American English,2019_Mar_28_1259,fricative_categorical_boundary,3.0.4,59.926381040134565,
23,NewWord_fbackonset_sbackonset_,LowBackContinuum/,LowBackContinuum/NewWord_fbackonset_sbackonset_23.wav,,,,,,,,,,1,13,27,9,,,,,,,,,,,,,,,,,,,s,0.672,,,,,male,22,004,American English,2019_Mar_28_1259,fricative_categorical_boundary,3.0.4,59.926381040134565,
9,NewWord_fbackonset_sbackonset_,LowBackContinuum/,LowBackContinuum/NewWord_fbackonset_sbackonset_9.wav,,,,,,,,,,2,0,28,2,,,,,,,,,,,,,,,,,,,s,0.487,,,,,male,22,004,American English,2019_Mar_28_1259,fricative_categorical_boundary,3.0.4,59.926381040134565,
23,NewWord_fbackonset_sbackonset_,LowBackContinuum/,LowBackContinuum/NewWord_fbackonset_sbackonset_23.wav,,,,,,,,,,2,1,29,9,,,,,,,,,,,,,,,,,,,s,3.69,,,,,male,22,004,American English,2019_Mar_28_1259,fricative_categorical_boundary,3.0.4,59.926381040134565,
15,NewWord_fbackonset_sbackonset_,LowBackContinuum/,LowBackContinuum/NewWord_fbackonset_sbackonset_15.wav,,,,,,,,,,2,2,30,5,,,,,,,,,,,,,,,,,,,s,0.419,,,,,male,22,004,American English,2019_Mar_28_1259,fricative_categorical_boundary,3.0.4,59.926381040134565,
25,NewWord_fbackonset_sbackonset_,LowBackContinuum/,LowBackContinuum/NewWord_fbackonset_sbackonset_25.wav,,,,,,,,,,2,3,31,10,,,,,,,,,,,,,,,,,,,s,0.403,,,,,male,22,004,American English,2019_Mar_28_1259,fricative_categorical_boundary,3.0.4,59.926381040134565,
11,NewWord_fbackonset_sbackonset_,LowBackContinuum/,LowBackContinuum/NewWord_fbackonset_sbackonset_11.wav,,,,,,,,,,2,4,32,3,,,,,,,,,,,,,,,,,,,s,0.903,,,,,male,22,004,American English,2019_Mar_28_1259,fricative_categorical_boundary,3.0.4,59.926381040134565,
29,NewWord_fbackonset_sbackonset_,LowBackContinuum/,LowBackContinuum/NewWord_fbackonset_sbackonset_29.wav,,,,,,,,,,2,5,33,12,,,,,,,,,,,,,,,,,,,s,0.92,,,,,male,22,004,American English,2019_Mar_28_1259,fricative_categorical_boundary,3.0.4,59.926381040134565,
1,NewWord_fbackonset_sbackonset_,LowBackContinuum/,LowBackContinuum/NewWord_fbackonset_sbackonset_1.wav,,,,,,,,,,2,6,34,0,,,,,,,,,,,,,,,,,,,s,0.403,,,,,male,22,004,American English,2019_Mar_28_1259,fricative_categorical_boundary,3.0.4,59.926381040134565,
17,NewWord_fbackonset_sbackonset_,LowBackContinuum/,LowBackContinuum/NewWord_fbackonset_sbackonset_17.wav,,,,,,,,,,2,7,35,6,,,,,,,,,,,,,,,,,,,f,1.589,,,,,male,22,004,American English,2019_Mar_28_1259,fricative_categorical_boundary,3.0.4,59.926381040134565,
7,NewWord_fbackonset_sbackonset_,LowBackContinuum/,LowBackContinuum/NewWord_fbackonset_sbackonset_7.wav,,,,,,,,,,2,8,36,1,,,,,,,,,,,,,,,,,,,s,1.671,,,,,male,22,004,American English,2019_Mar_28_1259,fricative_categorical_boundary,3.0.4,59.926381040134565,
41,NewWord_fbackonset_sbackonset_,LowBackContinuum/,LowBackContinuum/NewWord_fbackonset_sbackonset_41.wav,,,,,,,,,,2,9,37,13,,,,,,,,,,,,,,,,,,,s,0.403,,,,,male,22,004,American English,2019_Mar_28_1259,fricative_categorical_boundary,3.0.4,59.926381040134565,
27,NewWord_fbackonset_sbackonset_,LowBackContinuum/,LowBackContinuum/NewWord_fbackonset_sbackonset_27.wav,,,,,,,,,,2,10,38,11,,,,,,,,,,,,,,,,,,,s,0.403,,,,,male,22,004,American English,2019_Mar_28_1259,fricative_categorical_boundary,3.0.4,59.926381040134565,
21,NewWord_fbackonset_sbackonset_,LowBackContinuum/,LowBackContinuum/NewWord_fbackonset_sbackonset_21.wav,,,,,,,,,,2,11,39,8,,,,,,,,,,,,,,,,,,,s,0.854,,,,,male,22,004,American English,2019_Mar_28_1259,fricative_categorical_boundary,3.0.4,59.926381040134565,
19,NewWord_fbackonset_sbackonset_,LowBackContinuum/,LowBackContinuum/NewWord_fbackonset_sbackonset_19.wav,,,,,,,,,,2,12,40,7,,,,,,,,,,,,,,,,,,,s,4.958,,,,,male,22,004,American English,2019_Mar_28_1259,fricative_categorical_boundary,3.0.4,59.926381040134565,
13,NewWord_fbackonset_sbackonset_,LowBackContinuum/,LowBackContinuum/NewWord_fbackonset_sbackonset_13.wav,,,,,,,,,,2,13,41,4,,,,,,,,,,,,,,,,,,,s,1.454,,,,,male,22,004,American English,2019_Mar_28_1259,fricative_categorical_boundary,3.0.4,59.926381040134565,
41,NewWord_fbackonset_sbackonset_,LowBackContinuum/,LowBackContinuum/NewWord_fbackonset_sbackonset_41.wav,,,,,,,,,,3,0,42,13,,,,,,,,,,,,,,,,,,,s,1.204,,,,,male,22,004,American English,2019_Mar_28_1259,fricative_categorical_boundary,3.0.4,59.926381040134565,
29,NewWord_fbackonset_sbackonset_,LowBackContinuum/,LowBackContinuum/NewWord_fbackonset_sbackonset_29.wav,,,,,,,,,,3,1,43,12,,,,,,,,,,,,,,,,,,,s,0.569,,,,,male,22,004,American English,2019_Mar_28_1259,fricative_categorical_boundary,3.0.4,59.926381040134565,
21,NewWord_fbackonset_sbackonset_,LowBackContinuum/,LowBackContinuum/NewWord_fbackonset_sbackonset_21.wav,,,,,,,,,,3,2,44,8,,,,,,,,,,,,,,,,,,,s,0.419,,,,,male,22,004,American English,2019_Mar_28_1259,fricative_categorical_boundary,3.0.4,59.926381040134565,
17,NewWord_fbackonset_sbackonset_,LowBackContinuum/,LowBackContinuum/NewWord_fbackonset_sbackonset_17.wav,,,,,,,,,,3,3,45,6,,,,,,,,,,,,,,,,,,,s,2.105,,,,,male,22,004,American English,2019_Mar_28_1259,fricative_categorical_boundary,3.0.4,59.926381040134565,
27,NewWord_fbackonset_sbackonset_,LowBackContinuum/,LowBackContinuum/NewWord_fbackonset_sbackonset_27.wav,,,,,,,,,,3,4,46,11,,,,,,,,,,,,,,,,,,,s,0.403,,,,,male,22,004,American English,2019_Mar_28_1259,fricative_categorical_boundary,3.0.4,59.926381040134565,
11,NewWord_fbackonset_sbackonset_,LowBackContinuum/,LowBackContinuum/NewWord_fbackonset_sbackonset_11.wav,,,,,,,,,,3,5,47,3,,,,,,,,,,,,,,,,,,,s,3.023,,,,,male,22,004,American English,2019_Mar_28_1259,fricative_categorical_boundary,3.0.4,59.926381040134565,
19,NewWord_fbackonset_sbackonset_,LowBackContinuum/,LowBackContinuum/NewWord_fbackonset_sbackonset_19.wav,,,,,,,,,,3,6,48,7,,,,,,,,,,,,,,,,,,,s,0.403,,,,,male,22,004,American English,2019_Mar_28_1259,fricative_categorical_boundary,3.0.4,59.926381040134565,
23,NewWord_fbackonset_sbackonset_,LowBackContinuum/,LowBackContinuum/NewWord_fbackonset_sbackonset_23.wav,,,,,,,,,,3,7,49,9,,,,,,,,,,,,,,,,,,,s,0.587,,,,,male,22,004,American English,2019_Mar_28_1259,fricative_categorical_boundary,3.0.4,59.926381040134565,
7,NewWord_fbackonset_sbackonset_,LowBackContinuum/,LowBackContinuum/NewWord_fbackonset_sbackonset_7.wav,,,,,,,,,,3,8,50,1,,,,,,,,,,,,,,,,,,,s,0.805,,,,,male,22,004,American English,2019_Mar_28_1259,fricative_categorical_boundary,3.0.4,59.926381040134565,
9,NewWord_fbackonset_sbackonset_,LowBackContinuum/,LowBackContinuum/NewWord_fbackonset_sbackonset_9.wav,,,,,,,,,,3,9,51,2,,,,,,,,,,,,,,,,,,,s,0.403,,,,,male,22,004,American English,2019_Mar_28_1259,fricative_categorical_boundary,3.0.4,59.926381040134565,
13,NewWord_fbackonset_sbackonset_,LowBackContinuum/,LowBackContinuum/NewWord_fbackonset_sbackonset_13.wav,,,,,,,,,,3,10,52,4,,,,,,,,,,,,,,,,,,,s,0.57,,,,,male,22,004,American English,2019_Mar_28_1259,fricative_categorical_boundary,3.0.4,59.926381040134565,
25,NewWord_fbackonset_sbackonset_,LowBackContinuum/,LowBackContinuum/NewWord_fbackonset_sbackonset_25.wav,,,,,,,,,,3,11,53,10,,,,,,,,,,,,,,,,,,,s,1.237,,,,,male,22,004,American English,2019_Mar_28_1259,fricative_categorical_boundary,3.0.4,59.926381040134565,
15,NewWord_fbackonset_sbackonset_,LowBackContinuum/,LowBackContinuum/NewWord_fbackonset_sbackonset_15.wav,,,,,,,,,,3,12,54,5,,,,,,,,,,,,,,,,,,,s,0.403,,,,,male,22,004,American English,2019_Mar_28_1259,fricative_categorical_boundary,3.0.4,59.926381040134565,
1,NewWord_fbackonset_sbackonset_,LowBackContinuum/,LowBackContinuum/NewWord_fbackonset_sbackonset_1.wav,,,,,,,,,,3,13,55,0,,,,,,,,,,,,,,,,,,,s,0.403,,,,,male,22,004,American English,2019_Mar_28_1259,fricative_categorical_boundary,3.0.4,59.926381040134565,
,,,,,,,,,,,,,,,,,,,,,,,,,,,,,,,,,,,,,space,8.546884723000403,,,male,22,004,American English,2019_Mar_28_1259,fricative_categorical_boundary,3.0.4,59.926381040134565,
,,,,jupiter,filler,None,None,None,real,None,LDTSounds/,LDTSounds/jupiter.wav,,,,,0,0,0,74,,,,,,,,,,,,,,,,,,,l,2.2714760649996606,male,22,004,American English,2019_Mar_28_1259,fricative_categorical_boundary,3.0.4,59.926381040134565,
,,,,lempok,filler,None,None,None,nonce,None,LDTSounds/,LDTSounds/lempok.wav,,,,,0,1,1,113,,,,,,,,,,,,,,,,,,,a,2.4380167620001885,male,22,004,American English,2019_Mar_28_1259,fricative_categorical_boundary,3.0.4,59.926381040134565,
,,,,boycott,filler,None,None,None,real,None,LDTSounds/,LDTSounds/boycott.wav,,,,,0,2,2,71,,,,,,,,,,,,,,,,,,,l,0.8531116260000999,male,22,004,American English,2019_Mar_28_1259,fricative_categorical_boundary,3.0.4,59.926381040134565,
,,,,yilk,filler,None,None,None,nonce,None,LDTSounds/,LDTSounds/yilk.wav,,,,,0,3,3,82,,,,,,,,,,,,,,,,,,,a,1.386797400999967,male,22,004,American English,2019_Mar_28_1259,fricative_categorical_boundary,3.0.4,59.926381040134565,
,,,,FELINE,test,f,onset,2.0,None,None,LDTSounds/,LDTSounds/FELINE.wav,,,,,0,4,4,2,,,,,,,,,,,,,,,,,,,l,0.9861892410008295,male,22,004,American English,2019_Mar_28_1259,fricative_categorical_boundary,3.0.4,59.926381040134565,
,,,,trag,filler,None,None,None,nonce,None,LDTSounds/,LDTSounds/trag.wav,,,,,0,5,5,84,,,,,,,,,,,,,,,,,,,a,1.9543082219997814,male,22,004,American English,2019_Mar_28_1259,fricative_categorical_boundary,3.0.4,59.926381040134565,
,,,,REEF,test,f,coda,1.0,None,None,LDTSounds/,LDTSounds/REEF.wav,,,,,0,6,6,14,,,,,,,,,,,,,,,,,,,l,1.036463112999627,male,22,004,American English,2019_Mar_28_1259,fricative_categorical_boundary,3.0.4,59.926381040134565,
,,,,taklibd,filler,None,None,None,nonce,None,LDTSounds/,LDTSounds/taklibd.wav,,,,,0,7,7,101,,,,,,,,,,,,,,,,,,,a,1.6209494859995175,male,22,004,American English,2019_Mar_28_1259,fricative_categorical_boundary,3.0.4,59.926381040134565,
,,,,cratbool,filler,None,None,None,nonce,None,LDTSounds/,LDTSounds/cratbool.wav,,,,,0,8,8,106,,,,,,,,,,,,,,,,,,,a,1.8382722240003204,male,22,004,American English,2019_Mar_28_1259,fricative_categorical_boundary,3.0.4,59.926381040134565,
,,,,libmadoop,filler,None,None,None,nonce,None,LDTSounds/,LDTSounds/libmadoop.wav,,,,,0,9,9,117,,,,,,,,,,,,,,,,,,,a,1.420401839999613,male,22,004,American English,2019_Mar_28_1259,fricative_categorical_boundary,3.0.4,59.926381040134565,
,,,,lump,filler,None,None,None,real,None,LDTSounds/,LDTSounds/lump.wav,,,,,0,10,10,54,,,,,,,,,,,,,,,,,,,l,1.019504545000018,male,22,004,American English,2019_Mar_28_1259,fricative_categorical_boundary,3.0.4,59.926381040134565,
,,,,trongolemp,filler,None,None,None,nonce,None,LDTSounds/,LDTSounds/trongolemp.wav,,,,,0,11,11,130,,,,,,,,,,,,,,,,,,,a,1.2697306760001084,male,22,004,American English,2019_Mar_28_1259,fricative_categorical_boundary,3.0.4,59.926381040134565,
,,,,tomb,filler,None,None,None,real,None,LDTSounds/,LDTSounds/tomb.wav,,,,,0,12,12,35,,,,,,,,,,,,,,,,,,,l,1.50403908699991,male,22,004,American English,2019_Mar_28_1259,fricative_categorical_boundary,3.0.4,59.926381040134565,
,,,,FISH,test,f,onset,1.0,None,None,LDTSounds/,LDTSounds/FISH.wav,,,,,0,13,13,13,,,,,,,,,,,,,,,,,,,l,0.8196228630004043,male,22,004,American English,2019_Mar_28_1259,fricative_categorical_boundary,3.0.4,59.926381040134565,
,,,,liquor,filler,None,None,None,real,None,LDTSounds/,LDTSounds/liquor.wav,,,,,0,14,14,63,,,,,,,,,,,,,,,,,,,l,0.7526240280003549,male,22,004,American English,2019_Mar_28_1259,fricative_categorical_boundary,3.0.4,59.926381040134565,
,,,,tuba,filler,None,None,None,real,None,LDTSounds/,LDTSounds/tuba.wav,,,,,0,15,15,57,,,,,,,,,,,,,,,,,,,l,1.2533844239997052,male,22,004,American English,2019_Mar_28_1259,fricative_categorical_boundary,3.0.4,59.926381040134565,
,,,,wegtamlip,filler,None,None,None,nonce,None,LDTSounds/,LDTSounds/wegtamlip.wav,,,,,0,16,16,120,,,,,,,,,,,,,,,,,,,a,1.6683034690004206,male,22,004,American English,2019_Mar_28_1259,fricative_categorical_boundary,3.0.4,59.926381040134565,
,,,,day,filler,None,None,None,real,None,LDTSounds/,LDTSounds/day.wav,,,,,0,17,17,50,,,,,,,,,,,,,,,,,,,l,1.220547522999368,male,22,004,American English,2019_Mar_28_1259,fricative_categorical_boundary,3.0.4,59.926381040134565,
,,,,truck,filler,None,None,None,real,None,LDTSounds/,LDTSounds/truck.wav,,,,,0,18,18,34,,,,,,,,,,,,,,,,,,,l,0.9864339340001607,male,22,004,American English,2019_Mar_28_1259,fricative_categorical_boundary,3.0.4,59.926381040134565,
,,,,waip,filler,None,None,None,nonce,None,LDTSounds/,LDTSounds/waip.wav,,,,,0,19,19,91,,,,,,,,,,,,,,,,,,,l,1.2698572700001023,male,22,004,American English,2019_Mar_28_1259,fricative_categorical_boundary,3.0.4,59.926381040134565,
,,,,daydream,filler,None,None,None,real,None,LDTSounds/,LDTSounds/daydream.wav,,,,,0,20,20,59,,,,,,,,,,,,,,,,,,,l,0.835770536000382,male,22,004,American English,2019_Mar_28_1259,fricative_categorical_boundary,3.0.4,59.926381040134565,
,,,,baking,filler,None,None,None,real,None,LDTSounds/,LDTSounds/baking.wav,,,,,0,21,21,69,,,,,,,,,,,,,,,,,,,l,1.0862616949998483,male,22,004,American English,2019_Mar_28_1259,fricative_categorical_boundary,3.0.4,59.926381040134565,
,,,,radoobling,filler,None,None,None,nonce,None,LDTSounds/,LDTSounds/radoobling.wav,,,,,0,22,22,142,,,,,,,,,,,,,,,,,,,a,1.6542202130003716,male,22,004,American English,2019_Mar_28_1259,fricative_categorical_boundary,3.0.4,59.926381040134565,
,,,,SING,test,s,onset,1.0,None,None,LDTSounds/,LDTSounds/SING.wav,,,,,0,23,23,32,,,,,,,,,,,,,,,,,,,l,0.9688493379999272,male,22,004,American English,2019_Mar_28_1259,fricative_categorical_boundary,3.0.4,59.926381040134565,
,,,,toilet,filler,None,None,None,real,None,LDTSounds/,LDTSounds/toilet.wav,,,,,0,24,24,67,,,,,,,,,,,,,,,,,,,l,1.0863745039996502,male,22,004,American English,2019_Mar_28_1259,fricative_categorical_boundary,3.0.4,59.926381040134565,
,,,,yoomake,filler,None,None,None,nonce,None,LDTSounds/,LDTSounds/yoomake.wav,,,,,0,25,25,99,,,,,,,,,,,,,,,,,,,a,1.9718151500001113,male,22,004,American English,2019_Mar_28_1259,fricative_categorical_boundary,3.0.4,59.926381040134565,
,,,,typing,filler,None,None,None,real,None,LDTSounds/,LDTSounds/typing.wav,,,,,0,26,26,70,,,,,,,,,,,,,,,,,,,l,1.2200598299996273,male,22,004,American English,2019_Mar_28_1259,fricative_categorical_boundary,3.0.4,59.926381040134565,
,,,,treaty,filler,None,None,None,real,None,LDTSounds/,LDTSounds/treaty.wav,,,,,0,27,27,65,,,,,,,,,,,,,,,,,,,l,1.1364727219997803,male,22,004,American English,2019_Mar_28_1259,fricative_categorical_boundary,3.0.4,59.926381040134565,
,,,,lake,filler,None,None,None,real,None,LDTSounds/,LDTSounds/lake.wav,,,,,0,28,28,45,,,,,,,,,,,,,,,,,,,l,0.8190718220002964,male,22,004,American English,2019_Mar_28_1259,fricative_categorical_boundary,3.0.4,59.926381040134565,
,,,,right,filler,None,None,None,real,None,LDTSounds/,LDTSounds/right.wav,,,,,0,29,29,36,,,,,,,,,,,,,,,,,,,l,0.8531771150001077,male,22,004,American English,2019_Mar_28_1259,fricative_categorical_boundary,3.0.4,59.926381040134565,
,,,,SEEM,test,s,onset,1.0,None,None,LDTSounds/,LDTSounds/SEEM.wav,,,,,0,30,30,26,,,,,,,,,,,,,,,,,,,l,1.200500641999497,male,22,004,American English,2019_Mar_28_1259,fricative_categorical_boundary,3.0.4,59.926381040134565,
,,,,twin,filler,None,None,None,real,None,LDTSounds/,LDTSounds/twin.wav,,,,,0,31,31,44,,,,,,,,,,,,,,,,,,,l,0.8537608950000504,male,22,004,American English,2019_Mar_28_1259,fricative_categorical_boundary,3.0.4,59.926381040134565,
,,,,kabalingno,filler,None,None,None,nonce,None,LDTSounds/,LDTSounds/kabalingno.wav,,,,,0,32,32,138,,,,,,,,,,,,,,,,,,,a,1.6036074829999052,male,22,004,American English,2019_Mar_28_1259,fricative_categorical_boundary,3.0.4,59.926381040134565,
,,,,lopenad,filler,None,None,None,nonce,None,LDTSounds/,LDTSounds/lopenad.wav,,,,,0,33,33,123,,,,,,,,,,,,,,,,,,,a,1.3536520550005662,male,22,004,American English,2019_Mar_28_1259,fricative_categorical_boundary,3.0.4,59.926381040134565,
,,,,magmilnt,filler,None,None,None,nonce,None,LDTSounds/,LDTSounds/magmilnt.wav,,,,,0,34,34,107,,,,,,,,,,,,,,,,,,,a,1.3034075780005878,male,22,004,American English,2019_Mar_28_1259,fricative_categorical_boundary,3.0.4,59.926381040134565,
,,,,loot,filler,None,None,None,real,None,LDTSounds/,LDTSounds/loot.wav,,,,,0,35,35,37,,,,,,,,,,,,,,,,,,,l,0.9195015300001614,male,22,004,American English,2019_Mar_28_1259,fricative_categorical_boundary,3.0.4,59.926381040134565,
,,,,cridamlo,filler,None,None,None,nonce,None,LDTSounds/,LDTSounds/cridamlo.wav,,,,,0,36,36,122,,,,,,,,,,,,,,,,,,,a,1.0031024820000312,male,22,004,American English,2019_Mar_28_1259,fricative_categorical_boundary,3.0.4,59.926381040134565,
,,,,dripnalong,filler,None,None,None,nonce,None,LDTSounds/,LDTSounds/dripnalong.wav,,,,,0,37,37,124,,,,,,,,,,,,,,,,,,,a,2.9214126010001564,male,22,004,American English,2019_Mar_28_1259,fricative_categorical_boundary,3.0.4,59.926381040134565,
,,,,doonagort,filler,None,None,None,nonce,None,LDTSounds/,LDTSounds/doonagort.wav,,,,,0,38,38,127,,,,,,,,,,,,,,,,,,,a,1.2696126320006442,male,22,004,American English,2019_Mar_28_1259,fricative_categorical_boundary,3.0.4,59.926381040134565,
,,,,SIP,test,s,onset,1.0,None,None,LDTSounds/,LDTSounds/SIP.wav,,,,,0,39,39,33,,,,,,,,,,,,,,,,,,,l,0.9697676659998251,male,22,004,American English,2019_Mar_28_1259,fricative_categorical_boundary,3.0.4,59.926381040134565,
,,,,mitger,filler,None,None,None,nonce,None,LDTSounds/,LDTSounds/mitger.wav,,,,,0,40,40,111,,,,,,,,,,,,,,,,,,,a,1.8378556739999112,male,22,004,American English,2019_Mar_28_1259,fricative_categorical_boundary,3.0.4,59.926381040134565,
,,,,globe,filler,None,None,None,real,None,LDTSounds/,LDTSounds/globe.wav,,,,,0,41,41,52,,,,,,,,,,,,,,,,,,,l,0.9867523070006428,male,22,004,American English,2019_Mar_28_1259,fricative_categorical_boundary,3.0.4,59.926381040134565,
,,,,midaran,filler,None,None,None,nonce,None,LDTSounds/,LDTSounds/midaran.wav,,,,,0,42,42,119,,,,,,,,,,,,,,,,,,,a,1.0701437870002337,male,22,004,American English,2019_Mar_28_1259,fricative_categorical_boundary,3.0.4,59.926381040134565,
,,,,pendalimt,filler,None,None,None,nonce,None,LDTSounds/,LDTSounds/pendalimt.wav,,,,,0,43,43,118,,,,,,,,,,,,,,,,,,,a,2.518862201999582,male,22,004,American English,2019_Mar_28_1259,fricative_categorical_boundary,3.0.4,59.926381040134565,
,,,,trim,filler,None,None,None,real,None,LDTSounds/,LDTSounds/trim.wav,,,,,0,44,44,39,,,,,,,,,,,,,,,,,,,l,1.2702658799998972,male,22,004,American English,2019_Mar_28_1259,fricative_categorical_boundary,3.0.4,59.926381040134565,
,,,,wet,filler,None,None,None,real,None,LDTSounds/,LDTSounds/wet.wav,,,,,0,45,45,38,,,,,,,,,,,,,,,,,,,l,1.486419025000032,male,22,004,American English,2019_Mar_28_1259,fricative_categorical_boundary,3.0.4,59.926381040134565,
,,,,pen,filler,None,None,None,real,None,LDTSounds/,LDTSounds/pen.wav,,,,,0,46,46,40,,,,,,,,,,,,,,,,,,,l,0.8035319210002854,male,22,004,American English,2019_Mar_28_1259,fricative_categorical_boundary,3.0.4,59.926381040134565,
,,,,lick,filler,None,None,None,real,None,LDTSounds/,LDTSounds/lick.wav,,,,,0,47,47,41,,,,,,,,,,,,,,,,,,,l,0.819432506999874,male,22,004,American English,2019_Mar_28_1259,fricative_categorical_boundary,3.0.4,59.926381040134565,
,,,,petnole,filler,None,None,None,nonce,None,LDTSounds/,LDTSounds/petnole.wav,,,,,0,48,48,112,,,,,,,,,,,,,,,,,,,a,1.069369177000226,male,22,004,American English,2019_Mar_28_1259,fricative_categorical_boundary,3.0.4,59.926381040134565,
,,,,line,filler,None,None,None,real,None,LDTSounds/,LDTSounds/line.wav,,,,,0,49,49,46,,,,,,,,,,,,,,,,,,,l,1.2693875949998983,male,22,004,American English,2019_Mar_28_1259,fricative_categorical_boundary,3.0.4,59.926381040134565,
,,,,boondatribnok,filler,None,None,None,nonce,None,LDTSounds/,LDTSounds/boondatribnok.wav,,,,,0,50,50,137,,,,,,,,,,,,,,,,,,,a,1.903928375999385,male,22,004,American English,2019_Mar_28_1259,fricative_categorical_boundary,3.0.4,59.926381040134565,
,,,,himnapile,filler,None,None,None,nonce,None,LDTSounds/,LDTSounds/himnapile.wav,,,,,0,51,51,128,,,,,,,,,,,,,,,,,,,a,0.8700273510003171,male,22,004,American English,2019_Mar_28_1259,fricative_categorical_boundary,3.0.4,59.926381040134565,
,,,,himp,filler,None,None,None,nonce,None,LDTSounds/,LDTSounds/himp.wav,,,,,0,52,52,75,,,,,,,,,,,,,,,,,,,l,1.1530038849996345,male,22,004,American English,2019_Mar_28_1259,fricative_categorical_boundary,3.0.4,59.926381040134565,
,,,,kotlim,filler,None,None,None,nonce,None,LDTSounds/,LDTSounds/kotlim.wav,,,,,0,53,53,114,,,,,,,,,,,,,,,,,,,a,1.4533477269997093,male,22,004,American English,2019_Mar_28_1259,fricative_categorical_boundary,3.0.4,59.926381040134565,
,,,,bindilamok,filler,None,None,None,nonce,None,LDTSounds/,LDTSounds/bindilamok.wav,,,,,0,54,54,148,,,,,,,,,,,,,,,,,,,a,1.236679186999936,male,22,004,American English,2019_Mar_28_1259,fricative_categorical_boundary,3.0.4,59.926381040134565,
,,,,giblo,filler,None,None,None,nonce,None,LDTSounds/,LDTSounds/giblo.wav,,,,,0,55,55,93,,,,,,,,,,,,,,,,,,,a,0.7866034079997917,male,22,004,American English,2019_Mar_28_1259,fricative_categorical_boundary,3.0.4,59.926381040134565,
,,,,habapithloo,filler,None,None,None,nonce,None,LDTSounds/,LDTSounds/habapithloo.wav,,,,,0,56,56,136,,,,,,,,,,,,,,,,,,,a,1.8542950339997333,male,22,004,American English,2019_Mar_28_1259,fricative_categorical_boundary,3.0.4,59.926381040134565,
,,,,SILK,test,s,onset,1.0,None,None,LDTSounds/,LDTSounds/SILK.wav,,,,,0,57,57,30,,,,,,,,,,,,,,,,,,,l,1.054428967999229,male,22,004,American English,2019_Mar_28_1259,fricative_categorical_boundary,3.0.4,59.926381040134565,
,,,,data,filler,None,None,None,real,None,LDTSounds/,LDTSounds/data.wav,,,,,0,58,58,62,,,,,,,,,,,,,,,,,,,l,0.9206075000001874,male,22,004,American English,2019_Mar_28_1259,fricative_categorical_boundary,3.0.4,59.926381040134565,
,,,,trad,filler,None,None,None,nonce,None,LDTSounds/,LDTSounds/trad.wav,,,,,0,59,59,87,,,,,,,,,,,,,,,,,,,a,2.805194345000018,male,22,004,American English,2019_Mar_28_1259,fricative_categorical_boundary,3.0.4,59.926381040134565,
,,,,habalipdee,filler,None,None,None,nonce,None,LDTSounds/,LDTSounds/habalipdee.wav,,,,,0,60,60,140,,,,,,,,,,,,,,,,,,,a,0.9693967869998232,male,22,004,American English,2019_Mar_28_1259,fricative_categorical_boundary,3.0.4,59.926381040134565,
,,,,hapooli,filler,None,None,None,nonce,None,LDTSounds/,LDTSounds/hapooli.wav,,,,,0,61,61,126,,,,,,,,,,,,,,,,,,,a,1.0197206630000437,male,22,004,American English,2019_Mar_28_1259,fricative_categorical_boundary,3.0.4,59.926381040134565,
,,,,datoonmeg,filler,None,None,None,nonce,None,LDTSounds/,LDTSounds/datoonmeg.wav,,,,,0,62,62,133,,,,,,,,,,,,,,,,,,,a,1.369767043000138,male,22,004,American English,2019_Mar_28_1259,fricative_categorical_boundary,3.0.4,59.926381040134565,
,,,,WHIFF,test,f,coda,1.0,None,None,LDTSounds/,LDTSounds/WHIFF.wav,,,,,0,63,63,16,,,,,,,,,,,,,,,,,,,l,1.1373939900004189,male,22,004,American English,2019_Mar_28_1259,fricative_categorical_boundary,3.0.4,59.926381040134565,
,,,,rivathrog,filler,None,None,None,nonce,None,LDTSounds/,LDTSounds/rivathrog.wav,,,,,0,64,64,131,,,,,,,,,,,,,,,,,,,a,1.0199806810005612,male,22,004,American English,2019_Mar_28_1259,fricative_categorical_boundary,3.0.4,59.926381040134565,
,,,,hundapegnort,filler,None,None,None,nonce,None,LDTSounds/,LDTSounds/hundapegnort.wav,,,,,0,65,65,141,,,,,,,,,,,,,,,,,,,a,1.086669272999643,male,22,004,American English,2019_Mar_28_1259,fricative_categorical_boundary,3.0.4,59.926381040134565,
,,,,SEETHING,test,s,onset,2.0,None,None,LDTSounds/,LDTSounds/SEETHING.wav,,,,,0,66,66,28,,,,,,,,,,,,,,,,,,,l,2.254666260000704,male,22,004,American English,2019_Mar_28_1259,fricative_categorical_boundary,3.0.4,59.926381040134565,
,,,,rat,filler,None,None,None,real,None,LDTSounds/,LDTSounds/rat.wav,,,,,0,67,67,47,,,,,,,,,,,,,,,,,,,l,1.0365576789999977,male,22,004,American English,2019_Mar_28_1259,fricative_categorical_boundary,3.0.4,59.926381040134565,
,,,,poginito,filler,None,None,None,nonce,None,LDTSounds/,LDTSounds/poginito.wav,,,,,0,68,68,139,,,,,,,,,,,,,,,,,,,a,1.0701233160007178,male,22,004,American English,2019_Mar_28_1259,fricative_categorical_boundary,3.0.4,59.926381040134565,
,,,,plone,filler,None,None,None,nonce,None,LDTSounds/,LDTSounds/plone.wav,,,,,0,69,69,76,,,,,,,,,,,,,,,,,,,a,1.503888291000294,male,22,004,American English,2019_Mar_28_1259,fricative_categorical_boundary,3.0.4,59.926381040134565,
,,,,wegring,filler,None,None,None,nonce,None,LDTSounds/,LDTSounds/wegring.wav,,,,,0,70,70,97,,,,,,,,,,,,,,,,,,,a,2.502992718000314,male,22,004,American English,2019_Mar_28_1259,fricative_categorical_boundary,3.0.4,59.926381040134565,
,,,,laker,filler,None,None,None,real,None,LDTSounds/,LDTSounds/laker.wav,,,,,0,71,71,58,,,,,,,,,,,,,,,,,,,l,0.9197714789997917,male,22,004,American English,2019_Mar_28_1259,fricative_categorical_boundary,3.0.4,59.926381040134565,
,,,,wiblee,filler,None,None,None,nonce,None,LDTSounds/,LDTSounds/wiblee.wav,,,,,0,72,72,115,,,,,,,,,,,,,,,,,,,a,0.9345260279997092,male,22,004,American English,2019_Mar_28_1259,fricative_categorical_boundary,3.0.4,59.926381040134565,
,,,,rekmate,filler,None,None,None,nonce,None,LDTSounds/,LDTSounds/rekmate.wav,,,,,0,73,73,103,,,,,,,,,,,,,,,,,,,a,0.9525462210003752,male,22,004,American English,2019_Mar_28_1259,fricative_categorical_boundary,3.0.4,59.926381040134565,
,,,,maker,filler,None,None,None,real,None,LDTSounds/,LDTSounds/maker.wav,,,,,0,74,74,64,,,,,,,,,,,,,,,,,,,l,0.8028558469995914,male,22,004,American English,2019_Mar_28_1259,fricative_categorical_boundary,3.0.4,59.926381040134565,
,,,,FILL,test,f,onset,1.0,None,None,LDTSounds/,LDTSounds/FILL.wav,,,,,0,75,75,10,,,,,,,,,,,,,,,,,,,l,1.0865988799996558,male,22,004,American English,2019_Mar_28_1259,fricative_categorical_boundary,3.0.4,59.926381040134565,
,,,,heen,filler,None,None,None,nonce,None,LDTSounds/,LDTSounds/heen.wav,,,,,0,76,76,77,,,,,,,,,,,,,,,,,,,a,1.0362802879999435,male,22,004,American English,2019_Mar_28_1259,fricative_categorical_boundary,3.0.4,59.926381040134565,
,,,,FEVER,test,f,onset,2.0,None,None,LDTSounds/,LDTSounds/FEVER.wav,,,,,0,77,77,5,,,,,,,,,,,,,,,,,,,l,1.1533029520005584,male,22,004,American English,2019_Mar_28_1259,fricative_categorical_boundary,3.0.4,59.926381040134565,
,,,,FILM,test,f,onset,1.0,None,None,LDTSounds/,LDTSounds/FILM.wav,,,,,0,78,78,11,,,,,,,,,,,,,,,,,,,l,0.96889182599989,male,22,004,American English,2019_Mar_28_1259,fricative_categorical_boundary,3.0.4,59.926381040134565,
,,,,FEEBLE,test,f,onset,2.0,None,None,LDTSounds/,LDTSounds/FEEBLE.wav,,,,,0,79,79,1,,,,,,,,,,,,,,,,,,,l,1.3367084789997534,male,22,004,American English,2019_Mar_28_1259,fricative_categorical_boundary,3.0.4,59.926381040134565,
,,,,hapekt,filler,None,None,None,nonce,None,LDTSounds/,LDTSounds/hapekt.wav,,,,,0,80,80,116,,,,,,,,,,,,,,,,,,,a,1.6038418269999966,male,22,004,American English,2019_Mar_28_1259,fricative_categorical_boundary,3.0.4,59.926381040134565,
,,,,FIB,test,f,onset,1.0,None,None,LDTSounds/,LDTSounds/FIB.wav,,,,,0,81,81,6,,,,,,,,,,,,,,,,,,,l,1.053308071000174,male,22,004,American English,2019_Mar_28_1259,fricative_categorical_boundary,3.0.4,59.926381040134565,
,,,,trooper,filler,None,None,None,real,None,LDTSounds/,LDTSounds/trooper.wav,,,,,0,82,82,66,,,,,,,,,,,,,,,,,,,l,2.52109874100006,male,22,004,American English,2019_Mar_28_1259,fricative_categorical_boundary,3.0.4,59.926381040134565,
,,,,KISS,test,s,coda,1.0,None,None,LDTSounds/,LDTSounds/KISS.wav,,,,,0,83,83,19,,,,,,,,,,,,,,,,,,,l,0.8031659799999034,male,22,004,American English,2019_Mar_28_1259,fricative_categorical_boundary,3.0.4,59.926381040134565,
,,,,hoong,filler,None,None,None,nonce,None,LDTSounds/,LDTSounds/hoong.wav,,,,,0,84,84,81,,,,,,,,,,,,,,,,,,,l,0.8521203399996011,male,22,004,American English,2019_Mar_28_1259,fricative_categorical_boundary,3.0.4,59.926381040134565,
,,,,BLISS,test,s,coda,1.0,None,None,LDTSounds/,LDTSounds/BLISS.wav,,,,,0,85,85,17,,,,,,,,,,,,,,,,,,,l,0.7695053850002296,male,22,004,American English,2019_Mar_28_1259,fricative_categorical_boundary,3.0.4,59.926381040134565,
,,,,lemur,filler,None,None,None,real,None,LDTSounds/,LDTSounds/lemur.wav,,,,,0,86,86,68,,,,,,,,,,,,,,,,,,,l,0.7361446099994282,male,22,004,American English,2019_Mar_28_1259,fricative_categorical_boundary,3.0.4,59.926381040134565,
,,,,drip,filler,None,None,None,real,None,LDTSounds/,LDTSounds/drip.wav,,,,,0,87,87,51,,,,,,,,,,,,,,,,,,,l,1.1700860939999984,male,22,004,American English,2019_Mar_28_1259,fricative_categorical_boundary,3.0.4,59.926381040134565,
,,,,deemlond,filler,None,None,None,nonce,None,LDTSounds/,LDTSounds/deemlond.wav,,,,,0,88,88,104,,,,,,,,,,,,,,,,,,,a,1.0528244159995666,male,22,004,American English,2019_Mar_28_1259,fricative_categorical_boundary,3.0.4,59.926381040134565,
,,,,SEEING,test,s,onset,2.0,None,None,LDTSounds/,LDTSounds/SEEING.wav,,,,,0,89,89,23,,,,,,,,,,,,,,,,,,,l,1.254550267999548,male,22,004,American English,2019_Mar_28_1259,fricative_categorical_boundary,3.0.4,59.926381040134565,
,,,,CLIFF,test,f,coda,1.0,None,None,LDTSounds/,LDTSounds/CLIFF.wav,,,,,0,90,90,0,,,,,,,,,,,,,,,,,,,l,0.7521540579991779,male,22,004,American English,2019_Mar_28_1259,fricative_categorical_boundary,3.0.4,59.926381040134565,
,,,,mole,filler,None,None,None,real,None,LDTSounds/,LDTSounds/mole.wav,,,,,0,91,91,42,,,,,,,,,,,,,,,,,,,l,2.1183792560004804,male,22,004,American English,2019_Mar_28_1259,fricative_categorical_boundary,3.0.4,59.926381040134565,
,,,,queng,filler,None,None,None,nonce,None,LDTSounds/,LDTSounds/queng.wav,,,,,0,92,92,86,,,,,,,,,,,,,,,,,,,a,1.05459448900001,male,22,004,American English,2019_Mar_28_1259,fricative_categorical_boundary,3.0.4,59.926381040134565,
,,,,rone,filler,None,None,None,nonce,None,LDTSounds/,LDTSounds/rone.wav,,,,,0,93,93,92,,,,,,,,,,,,,,,,,,,a,1.337345070000083,male,22,004,American English,2019_Mar_28_1259,fricative_categorical_boundary,3.0.4,59.926381040134565,
,,,,kebnoti,filler,None,None,None,nonce,None,LDTSounds/,LDTSounds/kebnoti.wav,,,,,0,94,94,121,,,,,,,,,,,,,,,,,,,a,0.8198405429993727,male,22,004,American English,2019_Mar_28_1259,fricative_categorical_boundary,3.0.4,59.926381040134565,
,,,,yoodalin,filler,None,None,None,nonce,None,LDTSounds/,LDTSounds/yoodalin.wav,,,,,0,95,95,125,,,,,,,,,,,,,,,,,,,a,0.8689190830000371,male,22,004,American English,2019_Mar_28_1259,fricative_categorical_boundary,3.0.4,59.926381040134565,
,,,,pingloon,filler,None,None,None,nonce,None,LDTSounds/,LDTSounds/pingloon.wav,,,,,0,96,96,110,,,,,,,,,,,,,,,,,,,a,1.0371062069998516,male,22,004,American English,2019_Mar_28_1259,fricative_categorical_boundary,3.0.4,59.926381040134565,
,,,,dewagelin,filler,None,None,None,nonce,None,LDTSounds/,LDTSounds/dewagelin.wav,,,,,0,97,97,143,,,,,,,,,,,,,,,,,,,a,0.9033923580000192,male,22,004,American English,2019_Mar_28_1259,fricative_categorical_boundary,3.0.4,59.926381040134565,
,,,,SEAGULL,test,s,onset,2.0,None,None,LDTSounds/,LDTSounds/SEAGULL.wav,,,,,0,98,98,21,,,,,,,,,,,,,,,,,,,l,1.1037444759995196,male,22,004,American English,2019_Mar_28_1259,fricative_categorical_boundary,3.0.4,59.926381040134565,
,,,,FIEND,test,f,onset,1.0,None,None,LDTSounds/,LDTSounds/FIEND.wav,,,,,0,99,99,7,,,,,,,,,,,,,,,,,,,a,1.2867219019999538,male,22,004,American English,2019_Mar_28_1259,fricative_categorical_boundary,3.0.4,59.926381040134565,
,,,,SEEPING,test,s,onset,2.0,None,None,LDTSounds/,LDTSounds/SEEPING.wav,,,,,0,100,100,27,,,,,,,,,,,,,,,,,,,l,1.037465592999979,male,22,004,American English,2019_Mar_28_1259,fricative_categorical_boundary,3.0.4,59.926381040134565,
,,,,toin,filler,None,None,None,nonce,None,LDTSounds/,LDTSounds/toin.wav,,,,,0,101,101,88,,,,,,,,,,,,,,,,,,,l,0.9357004540006528,male,22,004,American English,2019_Mar_28_1259,fricative_categorical_boundary,3.0.4,59.926381040134565,
,,,,yoogul,filler,None,None,None,nonce,None,LDTSounds/,LDTSounds/yoogul.wav,,,,,0,102,102,102,,,,,,,,,,,,,,,,,,,a,1.0867831129999104,male,22,004,American English,2019_Mar_28_1259,fricative_categorical_boundary,3.0.4,59.926381040134565,
,,,,PIECE,test,s,coda,1.0,None,None,LDTSounds/,LDTSounds/PIECE.wav,,,,,0,103,103,20,,,,,,,,,,,,,,,,,,,l,1.0205865130001257,male,22,004,American English,2019_Mar_28_1259,fricative_categorical_boundary,3.0.4,59.926381040134565,
,,,,ledmon,filler,None,None,None,nonce,None,LDTSounds/,LDTSounds/ledmon.wav,,,,,0,104,104,94,,,,,,,,,,,,,,,,,,,a,1.269860133000293,male,22,004,American English,2019_Mar_28_1259,fricative_categorical_boundary,3.0.4,59.926381040134565,
,,,,yoog,filler,None,None,None,nonce,None,LDTSounds/,LDTSounds/yoog.wav,,,,,0,105,105,90,,,,,,,,,,,,,,,,,,,a,1.2007407029996102,male,22,004,American English,2019_Mar_28_1259,fricative_categorical_boundary,3.0.4,59.926381040134565,
,,,,SICK,test,s,onset,1.0,None,None,LDTSounds/,LDTSounds/SICK.wav,,,,,0,106,106,29,,,,,,,,,,,,,,,,,,,l,1.6369934720005404,male,22,004,American English,2019_Mar_28_1259,fricative_categorical_boundary,3.0.4,59.926381040134565,
,,,,FILTH,test,f,onset,1.0,None,None,LDTSounds/,LDTSounds/FILTH.wav,,,,,0,107,107,12,,,,,,,,,,,,,,,,,,,l,2.187816959999509,male,22,004,American English,2019_Mar_28_1259,fricative_categorical_boundary,3.0.4,59.926381040134565,
,,,,bidbowk,filler,None,None,None,nonce,None,LDTSounds/,LDTSounds/bidbowk.wav,,,,,0,108,108,109,,,,,,,,,,,,,,,,,,,a,1.1368997289991967,male,22,004,American English,2019_Mar_28_1259,fricative_categorical_boundary,3.0.4,59.926381040134565,
,,,,ratwell,filler,None,None,None,nonce,None,LDTSounds/,LDTSounds/ratwell.wav,,,,,0,109,109,108,,,,,,,,,,,,,,,,,,,a,1.3368187930000204,male,22,004,American English,2019_Mar_28_1259,fricative_categorical_boundary,3.0.4,59.926381040134565,
,,,,rone,filler,None,None,None,nonce,None,LDTSounds/,LDTSounds/rone.wav,,,,,0,110,110,79,,,,,,,,,,,,,,,,,,,a,1.185207902000002,male,22,004,American English,2019_Mar_28_1259,fricative_categorical_boundary,3.0.4,59.926381040134565,
,,,,tridalondit,filler,None,None,None,nonce,None,LDTSounds/,LDTSounds/tridalondit.wav,,,,,0,111,111,146,,,,,,,,,,,,,,,,,,,a,1.0699243700000807,male,22,004,American English,2019_Mar_28_1259,fricative_categorical_boundary,3.0.4,59.926381040134565,
,,,,FETAL,test,f,onset,2.0,None,None,LDTSounds/,LDTSounds/FETAL.wav,,,,,0,112,112,4,,,,,,,,,,,,,,,,,,,l,2.054136579000442,male,22,004,American English,2019_Mar_28_1259,fricative_categorical_boundary,3.0.4,59.926381040134565,
,,,,poindool,filler,None,None,None,nonce,None,LDTSounds/,LDTSounds/poindool.wav,,,,,0,113,113,96,,,,,,,,,,,,,,,,,,,a,1.1367240449999372,male,22,004,American English,2019_Mar_28_1259,fricative_categorical_boundary,3.0.4,59.926381040134565,
,,,,troplund,filler,None,None,None,nonce,None,LDTSounds/,LDTSounds/troplund.wav,,,,,0,114,114,98,,,,,,,,,,,,,,,,,,,a,1.3702163729994936,male,22,004,American English,2019_Mar_28_1259,fricative_categorical_boundary,3.0.4,59.926381040134565,
,,,,twek,filler,None,None,None,nonce,None,LDTSounds/,LDTSounds/twek.wav,,,,,0,115,115,80,,,,,,,,,,,,,,,,,,,a,1.219775337000101,male,22,004,American English,2019_Mar_28_1259,fricative_categorical_boundary,3.0.4,59.926381040134565,
,,,,SEEKER,test,s,onset,2.0,None,None,LDTSounds/,LDTSounds/SEEKER.wav,,,,,0,116,116,25,,,,,,,,,,,,,,,,,,,l,1.2201346450001438,male,22,004,American English,2019_Mar_28_1259,fricative_categorical_boundary,3.0.4,59.926381040134565,
,,,,kinudiplo,filler,None,None,None,nonce,None,LDTSounds/,LDTSounds/kinudiplo.wav,,,,,0,117,117,149,,,,,,,,,,,,,,,,,,,a,1.1874550829998043,male,22,004,American English,2019_Mar_28_1259,fricative_categorical_boundary,3.0.4,59.926381040134565,
,,,,FEMALE,test,f,onset,2.0,None,None,LDTSounds/,LDTSounds/FEMALE.wav,,,,,0,118,118,3,,,,,,,,,,,,,,,,,,,l,1.0189597259995935,male,22,004,American English,2019_Mar_28_1259,fricative_categorical_boundary,3.0.4,59.926381040134565,
,,,,relnt,filler,None,None,None,nonce,None,LDTSounds/,LDTSounds/relnt.wav,,,,,0,119,119,83,,,,,,,,,,,,,,,,,,,a,1.1702985829997488,male,22,004,American English,2019_Mar_28_1259,fricative_categorical_boundary,3.0.4,59.926381040134565,
,,,,while,filler,None,None,None,real,None,LDTSounds/,LDTSounds/while.wav,,,,,0,120,120,48,,,,,,,,,,,,,,,,,,,l,1.0694621729999199,male,22,004,American English,2019_Mar_28_1259,fricative_categorical_boundary,3.0.4,59.926381040134565,
,,,,noopalingdo,filler,None,None,None,nonce,None,LDTSounds/,LDTSounds/noopalingdo.wav,,,,,0,121,121,135,,,,,,,,,,,,,,,,,,,a,0.8354645919998802,male,22,004,American English,2019_Mar_28_1259,fricative_categorical_boundary,3.0.4,59.926381040134565,
,,,,drataloob,filler,None,None,None,nonce,None,LDTSounds/,LDTSounds/drataloob.wav,,,,,0,122,122,129,,,,,,,,,,,,,,,,,,,a,1.070146921999367,male,22,004,American English,2019_Mar_28_1259,fricative_categorical_boundary,3.0.4,59.926381040134565,
,,,,mall,filler,None,None,None,real,None,LDTSounds/,LDTSounds/mall.wav,,,,,0,123,123,43,,,,,,,,,,,,,,,,,,,l,1.174762218000069,male,22,004,American English,2019_Mar_28_1259,fricative_categorical_boundary,3.0.4,59.926381040134565,
,,,,SEATED,test,s,onset,2.0,None,None,LDTSounds/,LDTSounds/SEATED.wav,,,,,0,124,124,22,,,,,,,,,,,,,,,,,,,l,1.136839138999676,male,22,004,American English,2019_Mar_28_1259,fricative_categorical_boundary,3.0.4,59.926381040134565,
,,,,THIEF,test,f,coda,1.0,None,None,LDTSounds/,LDTSounds/THIEF.wav,,,,,0,125,125,15,,,,,,,,,,,,,,,,,,,l,0.7030887560003976,male,22,004,American English,2019_Mar_28_1259,fricative_categorical_boundary,3.0.4,59.926381040134565,
,,,,FIJI,test,f,onset,2.0,None,None,LDTSounds/,LDTSounds/FIJI.wav,,,,,0,126,126,9,,,,,,,,,,,,,,,,,,,l,0.9033130349998828,male,22,004,American English,2019_Mar_28_1259,fricative_categorical_boundary,3.0.4,59.926381040134565,
,,,,building,filler,None,None,None,real,None,LDTSounds/,LDTSounds/building.wav,,,,,0,127,127,55,,,,,,,,,,,,,,,,,,,l,0.7693652289999591,male,22,004,American English,2019_Mar_28_1259,fricative_categorical_boundary,3.0.4,59.926381040134565,
,,,,metroy,filler,None,None,None,nonce,None,LDTSounds/,LDTSounds/metroy.wav,,,,,0,128,128,100,,,,,,,,,,,,,,,,,,,l,1.1177708670002175,male,22,004,American English,2019_Mar_28_1259,fricative_categorical_boundary,3.0.4,59.926381040134565,
,,,,podaling,filler,None,None,None,nonce,None,LDTSounds/,LDTSounds/podaling.wav,,,,,0,129,129,132,,,,,,,,,,,,,,,,,,,l,1.820836782000697,male,22,004,American English,2019_Mar_28_1259,fricative_categorical_boundary,3.0.4,59.926381040134565,
,,,,FIFTH,test,f,onset,1.0,None,None,LDTSounds/,LDTSounds/FIFTH.wav,,,,,0,130,130,8,,,,,,,,,,,,,,,,,,,l,0.9692885710001065,male,22,004,American English,2019_Mar_28_1259,fricative_categorical_boundary,3.0.4,59.926381040134565,
,,,,blegondanit,filler,None,None,None,nonce,None,LDTSounds/,LDTSounds/blegondanit.wav,,,,,0,131,131,144,,,,,,,,,,,,,,,,,,,a,0.9864457550002044,male,22,004,American English,2019_Mar_28_1259,fricative_categorical_boundary,3.0.4,59.926381040134565,
,,,,plagtorin,filler,None,None,None,nonce,None,LDTSounds/,LDTSounds/plagtorin.wav,,,,,0,132,132,134,,,,,,,,,,,,,,,,,,,a,1.1010415460004879,male,22,004,American English,2019_Mar_28_1259,fricative_categorical_boundary,3.0.4,59.926381040134565,
,,,,toy,filler,None,None,None,real,None,LDTSounds/,LDTSounds/toy.wav,,,,,0,133,133,53,,,,,,,,,,,,,,,,,,,a,1.0703985400004967,male,22,004,American English,2019_Mar_28_1259,fricative_categorical_boundary,3.0.4,59.926381040134565,
,,,,will,filler,None,None,None,real,None,LDTSounds/,LDTSounds/will.wav,,,,,0,134,134,49,,,,,,,,,,,,,,,,,,,l,1.0531507099994997,male,22,004,American English,2019_Mar_28_1259,fricative_categorical_boundary,3.0.4,59.926381040134565,
,,,,retlid,filler,None,None,None,nonce,None,LDTSounds/,LDTSounds/retlid.wav,,,,,0,135,135,105,,,,,,,,,,,,,,,,,,,a,2.488905345000603,male,22,004,American English,2019_Mar_28_1259,fricative_categorical_boundary,3.0.4,59.926381040134565,
,,,,GEESE,test,s,coda,1.0,None,None,LDTSounds/,LDTSounds/GEESE.wav,,,,,0,136,136,18,,,,,,,,,,,,,,,,,,,l,1.4540473869992638,male,22,004,American English,2019_Mar_28_1259,fricative_categorical_boundary,3.0.4,59.926381040134565,
,,,,little,filler,None,None,None,real,None,LDTSounds/,LDTSounds/little.wav,,,,,0,137,137,61,,,,,,,,,,,,,,,,,,,l,0.8534997810002096,male,22,004,American English,2019_Mar_28_1259,fricative_categorical_boundary,3.0.4,59.926381040134565,
,,,,weg,filler,None,None,None,nonce,None,LDTSounds/,LDTSounds/weg.wav,,,,,0,138,138,78,,,,,,,,,,,,,,,,,,,a,5.42412908300048,male,22,004,American English,2019_Mar_28_1259,fricative_categorical_boundary,3.0.4,59.926381040134565,
,,,,gelp,filler,None,None,None,nonce,None,LDTSounds/,LDTSounds/gelp.wav,,,,,0,139,139,85,,,,,,,,,,,,,,,,,,,a,1.820326921000742,male,22,004,American English,2019_Mar_28_1259,fricative_categorical_boundary,3.0.4,59.926381040134565,
,,,,yellow,filler,None,None,None,real,None,LDTSounds/,LDTSounds/yellow.wav,,,,,0,140,140,73,,,,,,,,,,,,,,,,,,,l,0.77022174800004,male,22,004,American English,2019_Mar_28_1259,fricative_categorical_boundary,3.0.4,59.926381040134565,
,,,,ligbee,filler,None,None,None,nonce,None,LDTSounds/,LDTSounds/ligbee.wav,,,,,0,141,141,95,,,,,,,,,,,,,,,,,,,a,1.0369772989997728,male,22,004,American English,2019_Mar_28_1259,fricative_categorical_boundary,3.0.4,59.926381040134565,
,,,,pillow,filler,None,None,None,real,None,LDTSounds/,LDTSounds/pillow.wav,,,,,0,142,142,72,,,,,,,,,,,,,,,,,,,l,0.8524653380000018,male,22,004,American English,2019_Mar_28_1259,fricative_categorical_boundary,3.0.4,59.926381040134565,
,,,,roip,filler,None,None,None,nonce,None,LDTSounds/,LDTSounds/roip.wav,,,,,0,143,143,89,,,,,,,,,,,,,,,,,,,a,1.1359541379997609,male,22,004,American English,2019_Mar_28_1259,fricative_categorical_boundary,3.0.4,59.926381040134565,
,,,,SIM,test,s,onset,1.0,None,None,LDTSounds/,LDTSounds/SIM.wav,,,,,0,144,144,31,,,,,,,,,,,,,,,,,,,l,1.65361417099939,male,22,004,American English,2019_Mar_28_1259,fricative_categorical_boundary,3.0.4,59.926381040134565,
,,,,kililitbi,filler,None,None,None,nonce,None,LDTSounds/,LDTSounds/kililitbi.wav,,,,,0,145,145,145,,,,,,,,,,,,,,,,,,,a,0.8530043840000872,male,22,004,American English,2019_Mar_28_1259,fricative_categorical_boundary,3.0.4,59.926381040134565,
,,,,krebdingolee,filler,None,None,None,nonce,None,LDTSounds/,LDTSounds/krebdingolee.wav,,,,,0,146,146,147,,,,,,,,,,,,,,,,,,,a,1.1202314880001722,male,22,004,American English,2019_Mar_28_1259,fricative_categorical_boundary,3.0.4,59.926381040134565,
,,,,butter,filler,None,None,None,real,None,LDTSounds/,LDTSounds/butter.wav,,,,,0,147,147,60,,,,,,,,,,,,,,,,,,,l,0.8362875980001263,male,22,004,American English,2019_Mar_28_1259,fricative_categorical_boundary,3.0.4,59.926381040134565,
,,,,SEEK,test,s,onset,1.0,None,None,LDTSounds/,LDTSounds/SEEK.wav,,,,,0,148,148,24,,,,,,,,,,,,,,,,,,,l,3.0882737500005533,male,22,004,American English,2019_Mar_28_1259,fricative_categorical_boundary,3.0.4,59.926381040134565,
,,,,rowboat,filler,None,None,None,real,None,LDTSounds/,LDTSounds/rowboat.wav,,,,,0,149,149,56,,,,,,,,,,,,,,,,,,,a,0.9022421440004109,male,22,004,American English,2019_Mar_28_1259,fricative_categorical_boundary,3.0.4,59.926381040134565,
,,,,,,,,,,,,,,,,,,,,,,,,,,,,,,-0.45416666666666666,-0.06111111111111111,1,0,0,,,,,,,male,22,004,American English,2019_Mar_28_1259,fricative_categorical_boundary,3.0.4,59.926381040134565,
19,NewWord_fbackonset_sbackonset_,LowBackContinuum/,LowBackContinuum/NewWord_fbackonset_sbackonset_19.wav,,,,,,,,,,,,,,,,,,0,0,0,7,,,,,,,,,,,s,1.087,,,,,male,22,004,American English,2019_Mar_28_1259,fricative_categorical_boundary,3.0.4,59.926381040134565,
17,NewWord_fbackonset_sbackonset_,LowBackContinuum/,LowBackContinuum/NewWord_fbackonset_sbackonset_17.wav,,,,,,,,,,,,,,,,,,0,1,1,6,,,,,,,,,,,s,0.404,,,,,male,22,004,American English,2019_Mar_28_1259,fricative_categorical_boundary,3.0.4,59.926381040134565,
9,NewWord_fbackonset_sbackonset_,LowBackContinuum/,LowBackContinuum/NewWord_fbackonset_sbackonset_9.wav,,,,,,,,,,,,,,,,,,0,2,2,2,,,,,,,,,,,s,0.821,,,,,male,22,004,American English,2019_Mar_28_1259,fricative_categorical_boundary,3.0.4,59.926381040134565,
11,NewWord_fbackonset_sbackonset_,LowBackContinuum/,LowBackContinuum/NewWord_fbackonset_sbackonset_11.wav,,,,,,,,,,,,,,,,,,0,3,3,3,,,,,,,,,,,s,1.254,,,,,male,22,004,American English,2019_Mar_28_1259,fricative_categorical_boundary,3.0.4,59.926381040134565,
41,NewWord_fbackonset_sbackonset_,LowBackContinuum/,LowBackContinuum/NewWord_fbackonset_sbackonset_41.wav,,,,,,,,,,,,,,,,,,0,4,4,13,,,,,,,,,,,s,0.403,,,,,male,22,004,American English,2019_Mar_28_1259,fricative_categorical_boundary,3.0.4,59.926381040134565,
1,NewWord_fbackonset_sbackonset_,LowBackContinuum/,LowBackContinuum/NewWord_fbackonset_sbackonset_1.wav,,,,,,,,,,,,,,,,,,0,5,5,0,,,,,,,,,,,s,1.772,,,,,male,22,004,American English,2019_Mar_28_1259,fricative_categorical_boundary,3.0.4,59.926381040134565,
29,NewWord_fbackonset_sbackonset_,LowBackContinuum/,LowBackContinuum/NewWord_fbackonset_sbackonset_29.wav,,,,,,,,,,,,,,,,,,0,6,6,12,,,,,,,,,,,s,0.403,,,,,male,22,004,American English,2019_Mar_28_1259,fricative_categorical_boundary,3.0.4,59.926381040134565,
21,NewWord_fbackonset_sbackonset_,LowBackContinuum/,LowBackContinuum/NewWord_fbackonset_sbackonset_21.wav,,,,,,,,,,,,,,,,,,0,7,7,8,,,,,,,,,,,s,0.436,,,,,male,22,004,American English,2019_Mar_28_1259,fricative_categorical_boundary,3.0.4,59.926381040134565,
27,NewWord_fbackonset_sbackonset_,LowBackContinuum/,LowBackContinuum/NewWord_fbackonset_sbackonset_27.wav,,,,,,,,,,,,,,,,,,0,8,8,11,,,,,,,,,,,s,1.321,,,,,male,22,004,American English,2019_Mar_28_1259,fricative_categorical_boundary,3.0.4,59.926381040134565,
13,NewWord_fbackonset_sbackonset_,LowBackContinuum/,LowBackContinuum/NewWord_fbackonset_sbackonset_13.wav,,,,,,,,,,,,,,,,,,0,9,9,4,,,,,,,,,,,s,0.487,,,,,male,22,004,American English,2019_Mar_28_1259,fricative_categorical_boundary,3.0.4,59.926381040134565,
25,NewWord_fbackonset_sbackonset_,LowBackContinuum/,LowBackContinuum/NewWord_fbackonset_sbackonset_25.wav,,,,,,,,,,,,,,,,,,0,10,10,10,,,,,,,,,,,s,0.42,,,,,male,22,004,American English,2019_Mar_28_1259,fricative_categorical_boundary,3.0.4,59.926381040134565,
15,NewWord_fbackonset_sbackonset_,LowBackContinuum/,LowBackContinuum/NewWord_fbackonset_sbackonset_15.wav,,,,,,,,,,,,,,,,,,0,11,11,5,,,,,,,,,,,s,2.305,,,,,male,22,004,American English,2019_Mar_28_1259,fricative_categorical_boundary,3.0.4,59.926381040134565,
7,NewWord_fbackonset_sbackonset_,LowBackContinuum/,LowBackContinuum/NewWord_fbackonset_sbackonset_7.wav,,,,,,,,,,,,,,,,,,0,12,12,1,,,,,,,,,,,s,0.47,,,,,male,22,004,American English,2019_Mar_28_1259,fricative_categorical_boundary,3.0.4,59.926381040134565,
23,NewWord_fbackonset_sbackonset_,LowBackContinuum/,LowBackContinuum/NewWord_fbackonset_sbackonset_23.wav,,,,,,,,,,,,,,,,,,0,13,13,9,,,,,,,,,,,s,0.403,,,,,male,22,004,American English,2019_Mar_28_1259,fricative_categorical_boundary,3.0.4,59.926381040134565,
15,NewWord_fbackonset_sbackonset_,LowBackContinuum/,LowBackContinuum/NewWord_fbackonset_sbackonset_15.wav,,,,,,,,,,,,,,,,,,1,0,14,5,,,,,,,,,,,s,0.67,,,,,male,22,004,American English,2019_Mar_28_1259,fricative_categorical_boundary,3.0.4,59.926381040134565,
29,NewWord_fbackonset_sbackonset_,LowBackContinuum/,LowBackContinuum/NewWord_fbackonset_sbackonset_29.wav,,,,,,,,,,,,,,,,,,1,1,15,12,,,,,,,,,,,s,0.403,,,,,male,22,004,American English,2019_Mar_28_1259,fricative_categorical_boundary,3.0.4,59.926381040134565,
23,NewWord_fbackonset_sbackonset_,LowBackContinuum/,LowBackContinuum/NewWord_fbackonset_sbackonset_23.wav,,,,,,,,,,,,,,,,,,1,2,16,9,,,,,,,,,,,s,0.453,,,,,male,22,004,American English,2019_Mar_28_1259,fricative_categorical_boundary,3.0.4,59.926381040134565,
25,NewWord_fbackonset_sbackonset_,LowBackContinuum/,LowBackContinuum/NewWord_fbackonset_sbackonset_25.wav,,,,,,,,,,,,,,,,,,1,3,17,10,,,,,,,,,,,s,0.587,,,,,male,22,004,American English,2019_Mar_28_1259,fricative_categorical_boundary,3.0.4,59.926381040134565,
27,NewWord_fbackonset_sbackonset_,LowBackContinuum/,LowBackContinuum/NewWord_fbackonset_sbackonset_27.wav,,,,,,,,,,,,,,,,,,1,4,18,11,,,,,,,,,,,s,0.403,,,,,male,22,004,American English,2019_Mar_28_1259,fricative_categorical_boundary,3.0.4,59.926381040134565,
11,NewWord_fbackonset_sbackonset_,LowBackContinuum/,LowBackContinuum/NewWord_fbackonset_sbackonset_11.wav,,,,,,,,,,,,,,,,,,1,5,19,3,,,,,,,,,,,s,1.371,,,,,male,22,004,American English,2019_Mar_28_1259,fricative_categorical_boundary,3.0.4,59.926381040134565,
1,NewWord_fbackonset_sbackonset_,LowBackContinuum/,LowBackContinuum/NewWord_fbackonset_sbackonset_1.wav,,,,,,,,,,,,,,,,,,1,6,20,0,,,,,,,,,,,f,0.403,,,,,male,22,004,American English,2019_Mar_28_1259,fricative_categorical_boundary,3.0.4,59.926381040134565,
19,NewWord_fbackonset_sbackonset_,LowBackContinuum/,LowBackContinuum/NewWord_fbackonset_sbackonset_19.wav,,,,,,,,,,,,,,,,,,1,7,21,7,,,,,,,,,,,s,0.787,,,,,male,22,004,American English,2019_Mar_28_1259,fricative_categorical_boundary,3.0.4,59.926381040134565,
9,NewWord_fbackonset_sbackonset_,LowBackContinuum/,LowBackContinuum/NewWord_fbackonset_sbackonset_9.wav,,,,,,,,,,,,,,,,,,1,8,22,2,,,,,,,,,,,f,3.89,,,,,male,22,004,American English,2019_Mar_28_1259,fricative_categorical_boundary,3.0.4,59.926381040134565,
41,NewWord_fbackonset_sbackonset_,LowBackContinuum/,LowBackContinuum/NewWord_fbackonset_sbackonset_41.wav,,,,,,,,,,,,,,,,,,1,9,23,13,,,,,,,,,,,s,0.403,,,,,male,22,004,American English,2019_Mar_28_1259,fricative_categorical_boundary,3.0.4,59.926381040134565,
7,NewWord_fbackonset_sbackonset_,LowBackContinuum/,LowBackContinuum/NewWord_fbackonset_sbackonset_7.wav,,,,,,,,,,,,,,,,,,1,10,24,1,,,,,,,,,,,s,3.639,,,,,male,22,004,American English,2019_Mar_28_1259,fricative_categorical_boundary,3.0.4,59.926381040134565,
13,NewWord_fbackonset_sbackonset_,LowBackContinuum/,LowBackContinuum/NewWord_fbackonset_sbackonset_13.wav,,,,,,,,,,,,,,,,,,1,11,25,4,,,,,,,,,,,s,0.403,,,,,male,22,004,American English,2019_Mar_28_1259,fricative_categorical_boundary,3.0.4,59.926381040134565,
17,NewWord_fbackonset_sbackonset_,LowBackContinuum/,LowBackContinuum/NewWord_fbackonset_sbackonset_17.wav,,,,,,,,,,,,,,,,,,1,12,26,6,,,,,,,,,,,s,0.536,,,,,male,22,004,American English,2019_Mar_28_1259,fricative_categorical_boundary,3.0.4,59.926381040134565,
21,NewWord_fbackonset_sbackonset_,LowBackContinuum/,LowBackContinuum/NewWord_fbackonset_sbackonset_21.wav,,,,,,,,,,,,,,,,,,1,13,27,8,,,,,,,,,,,s,1.287,,,,,male,22,004,American English,2019_Mar_28_1259,fricative_categorical_boundary,3.0.4,59.926381040134565,
25,NewWord_fbackonset_sbackonset_,LowBackContinuum/,LowBackContinuum/NewWord_fbackonset_sbackonset_25.wav,,,,,,,,,,,,,,,,,,2,0,28,10,,,,,,,,,,,s,0.403,,,,,male,22,004,American English,2019_Mar_28_1259,fricative_categorical_boundary,3.0.4,59.926381040134565,
9,NewWord_fbackonset_sbackonset_,LowBackContinuum/,LowBackContinuum/NewWord_fbackonset_sbackonset_9.wav,,,,,,,,,,,,,,,,,,2,1,29,2,,,,,,,,,,,s,0.419,,,,,male,22,004,American English,2019_Mar_28_1259,fricative_categorical_boundary,3.0.4,59.926381040134565,
17,NewWord_fbackonset_sbackonset_,LowBackContinuum/,LowBackContinuum/NewWord_fbackonset_sbackonset_17.wav,,,,,,,,,,,,,,,,,,2,2,30,6,,,,,,,,,,,s,0.403,,,,,male,22,004,American English,2019_Mar_28_1259,fricative_categorical_boundary,3.0.4,59.926381040134565,
15,NewWord_fbackonset_sbackonset_,LowBackContinuum/,LowBackContinuum/NewWord_fbackonset_sbackonset_15.wav,,,,,,,,,,,,,,,,,,2,3,31,5,,,,,,,,,,,s,0.403,,,,,male,22,004,American English,2019_Mar_28_1259,fricative_categorical_boundary,3.0.4,59.926381040134565,
13,NewWord_fbackonset_sbackonset_,LowBackContinuum/,LowBackContinuum/NewWord_fbackonset_sbackonset_13.wav,,,,,,,,,,,,,,,,,,2,4,32,4,,,,,,,,,,,s,0.403,,,,,male,22,004,American English,2019_Mar_28_1259,fricative_categorical_boundary,3.0.4,59.926381040134565,
27,NewWord_fbackonset_sbackonset_,LowBackContinuum/,LowBackContinuum/NewWord_fbackonset_sbackonset_27.wav,,,,,,,,,,,,,,,,,,2,5,33,11,,,,,,,,,,,s,0.419,,,,,male,22,004,American English,2019_Mar_28_1259,fricative_categorical_boundary,3.0.4,59.926381040134565,
41,NewWord_fbackonset_sbackonset_,LowBackContinuum/,LowBackContinuum/NewWord_fbackonset_sbackonset_41.wav,,,,,,,,,,,,,,,,,,2,6,34,13,,,,,,,,,,,s,1.204,,,,,male,22,004,American English,2019_Mar_28_1259,fricative_categorical_boundary,3.0.4,59.926381040134565,
1,NewWord_fbackonset_sbackonset_,LowBackContinuum/,LowBackContinuum/NewWord_fbackonset_sbackonset_1.wav,,,,,,,,,,,,,,,,,,2,7,35,0,,,,,,,,,,,s,1.505,,,,,male,22,004,American English,2019_Mar_28_1259,fricative_categorical_boundary,3.0.4,59.926381040134565,
23,NewWord_fbackonset_sbackonset_,LowBackContinuum/,LowBackContinuum/NewWord_fbackonset_sbackonset_23.wav,,,,,,,,,,,,,,,,,,2,8,36,9,,,,,,,,,,,s,0.403,,,,,male,22,004,American English,2019_Mar_28_1259,fricative_categorical_boundary,3.0.4,59.926381040134565,
29,NewWord_fbackonset_sbackonset_,LowBackContinuum/,LowBackContinuum/NewWord_fbackonset_sbackonset_29.wav,,,,,,,,,,,,,,,,,,2,9,37,12,,,,,,,,,,,s,0.553,,,,,male,22,004,American English,2019_Mar_28_1259,fricative_categorical_boundary,3.0.4,59.926381040134565,
11,NewWord_fbackonset_sbackonset_,LowBackContinuum/,LowBackContinuum/NewWord_fbackonset_sbackonset_11.wav,,,,,,,,,,,,,,,,,,2,10,38,3,,,,,,,,,,,s,0.404,,,,,male,22,004,American English,2019_Mar_28_1259,fricative_categorical_boundary,3.0.4,59.926381040134565,
19,NewWord_fbackonset_sbackonset_,LowBackContinuum/,LowBackContinuum/NewWord_fbackonset_sbackonset_19.wav,,,,,,,,,,,,,,,,,,2,11,39,7,,,,,,,,,,,s,0.419,,,,,male,22,004,American English,2019_Mar_28_1259,fricative_categorical_boundary,3.0.4,59.926381040134565,
21,NewWord_fbackonset_sbackonset_,LowBackContinuum/,LowBackContinuum/NewWord_fbackonset_sbackonset_21.wav,,,,,,,,,,,,,,,,,,2,12,40,8,,,,,,,,,,,s,1.254,,,,,male,22,004,American English,2019_Mar_28_1259,fricative_categorical_boundary,3.0.4,59.926381040134565,
7,NewWord_fbackonset_sbackonset_,LowBackContinuum/,LowBackContinuum/NewWord_fbackonset_sbackonset_7.wav,,,,,,,,,,,,,,,,,,2,13,41,1,,,,,,,,,,,s,1.071,,,,,male,22,004,American English,2019_Mar_28_1259,fricative_categorical_boundary,3.0.4,59.926381040134565,
9,NewWord_fbackonset_sbackonset_,LowBackContinuum/,LowBackContinuum/NewWord_fbackonset_sbackonset_9.wav,,,,,,,,,,,,,,,,,,3,0,42,2,,,,,,,,,,,s,0.406,,,,,male,22,004,American English,2019_Mar_28_1259,fricative_categorical_boundary,3.0.4,59.926381040134565,
23,NewWord_fbackonset_sbackonset_,LowBackContinuum/,LowBackContinuum/NewWord_fbackonset_sbackonset_23.wav,,,,,,,,,,,,,,,,,,3,1,43,9,,,,,,,,,,,s,1.188,,,,,male,22,004,American English,2019_Mar_28_1259,fricative_categorical_boundary,3.0.4,59.926381040134565,
13,NewWord_fbackonset_sbackonset_,LowBackContinuum/,LowBackContinuum/NewWord_fbackonset_sbackonset_13.wav,,,,,,,,,,,,,,,,,,3,2,44,4,,,,,,,,,,,s,0.453,,,,,male,22,004,American English,2019_Mar_28_1259,fricative_categorical_boundary,3.0.4,59.926381040134565,
15,NewWord_fbackonset_sbackonset_,LowBackContinuum/,LowBackContinuum/NewWord_fbackonset_sbackonset_15.wav,,,,,,,,,,,,,,,,,,3,3,45,5,,,,,,,,,,,s,0.403,,,,,male,22,004,American English,2019_Mar_28_1259,fricative_categorical_boundary,3.0.4,59.926381040134565,
11,NewWord_fbackonset_sbackonset_,LowBackContinuum/,LowBackContinuum/NewWord_fbackonset_sbackonset_11.wav,,,,,,,,,,,,,,,,,,3,4,46,3,,,,,,,,,,,s,0.403,,,,,male,22,004,American English,2019_Mar_28_1259,fricative_categorical_boundary,3.0.4,59.926381040134565,
19,NewWord_fbackonset_sbackonset_,LowBackContinuum/,LowBackContinuum/NewWord_fbackonset_sbackonset_19.wav,,,,,,,,,,,,,,,,,,3,5,47,7,,,,,,,,,,,s,0.453,,,,,male,22,004,American English,2019_Mar_28_1259,fricative_categorical_boundary,3.0.4,59.926381040134565,
1,NewWord_fbackonset_sbackonset_,LowBackContinuum/,LowBackContinuum/NewWord_fbackonset_sbackonset_1.wav,,,,,,,,,,,,,,,,,,3,6,48,0,,,,,,,,,,,s,0.419,,,,,male,22,004,American English,2019_Mar_28_1259,fricative_categorical_boundary,3.0.4,59.926381040134565,
29,NewWord_fbackonset_sbackonset_,LowBackContinuum/,LowBackContinuum/NewWord_fbackonset_sbackonset_29.wav,,,,,,,,,,,,,,,,,,3,7,49,12,,,,,,,,,,,s,0.469,,,,,male,22,004,American English,2019_Mar_28_1259,fricative_categorical_boundary,3.0.4,59.926381040134565,
7,NewWord_fbackonset_sbackonset_,LowBackContinuum/,LowBackContinuum/NewWord_fbackonset_sbackonset_7.wav,,,,,,,,,,,,,,,,,,3,8,50,1,,,,,,,,,,,s,0.636,,,,,male,22,004,American English,2019_Mar_28_1259,fricative_categorical_boundary,3.0.4,59.926381040134565,
17,NewWord_fbackonset_sbackonset_,LowBackContinuum/,LowBackContinuum/NewWord_fbackonset_sbackonset_17.wav,,,,,,,,,,,,,,,,,,3,9,51,6,,,,,,,,,,,f,1.053,,,,,male,22,004,American English,2019_Mar_28_1259,fricative_categorical_boundary,3.0.4,59.926381040134565,
27,NewWord_fbackonset_sbackonset_,LowBackContinuum/,LowBackContinuum/NewWord_fbackonset_sbackonset_27.wav,,,,,,,,,,,,,,,,,,3,10,52,11,,,,,,,,,,,s,0.403,,,,,male,22,004,American English,2019_Mar_28_1259,fricative_categorical_boundary,3.0.4,59.926381040134565,
25,NewWord_fbackonset_sbackonset_,LowBackContinuum/,LowBackContinuum/NewWord_fbackonset_sbackonset_25.wav,,,,,,,,,,,,,,,,,,3,11,53,10,,,,,,,,,,,s,1.072,,,,,male,22,004,American English,2019_Mar_28_1259,fricative_categorical_boundary,3.0.4,59.926381040134565,
21,NewWord_fbackonset_sbackonset_,LowBackContinuum/,LowBackContinuum/NewWord_fbackonset_sbackonset_21.wav,,,,,,,,,,,,,,,,,,3,12,54,8,,,,,,,,,,,s,0.403,,,,,male,22,004,American English,2019_Mar_28_1259,fricative_categorical_boundary,3.0.4,59.926381040134565,
41,NewWord_fbackonset_sbackonset_,LowBackContinuum/,LowBackContinuum/NewWord_fbackonset_sbackonset_41.wav,,,,,,,,,,,,,,,,,,3,13,55,13,,,,,,,,,,,s,1.155,,,,,male,22,004,American English,2019_Mar_28_1259,fricative_categorical_boundary,3.0.4,59.926381040134565,
