ChosenStep,Prefix,source,Stimuli,token,type,segment,position,syllablecount,realvsnonce,prefix,address,soundfile,trials.thisRepN,trials.thisTrialN,trials.thisN,trials.thisIndex,trials_2.thisRepN,trials_2.thisTrialN,trials_2.thisN,trials_2.thisIndex,trials_3.thisRepN,trials_3.thisTrialN,trials_3.thisN,trials_3.thisIndex,rating.response,rating.rt,key_resp_2.keys,key_resp_2.rt,key_resp_3.keys,key_resp_3.rt,participant,Gender,Age,frameRate,Native Language,expName,date,
,,,,,,,,,,,,,,,,,,,,,,,,,,,,,,,28,female,19,59.94766036694913,American English,fricative_categorical_boundary,2019_Feb_28_1426,
,,,,,,,,,,,,,,,,,,,,,,,,,,,,,,,28,female,19,59.94766036694913,American English,fricative_categorical_boundary,2019_Feb_28_1426,
25,NewWord_fbackonset_sbackonset_,LowBackContinuum/,LowBackContinuum/NewWord_fbackonset_sbackonset_25.wav,,,,,,,,,,0,0,0,10,,,,,,,,,f,6.292,,,,,28,female,19,59.94766036694913,American English,fricative_categorical_boundary,2019_Feb_28_1426,
13,NewWord_fbackonset_sbackonset_,LowBackContinuum/,LowBackContinuum/NewWord_fbackonset_sbackonset_13.wav,,,,,,,,,,0,1,1,4,,,,,,,,,f,1.103,,,,,28,female,19,59.94766036694913,American English,fricative_categorical_boundary,2019_Feb_28_1426,
29,NewWord_fbackonset_sbackonset_,LowBackContinuum/,LowBackContinuum/NewWord_fbackonset_sbackonset_29.wav,,,,,,,,,,0,2,2,12,,,,,,,,,f,1.187,,,,,28,female,19,59.94766036694913,American English,fricative_categorical_boundary,2019_Feb_28_1426,
23,NewWord_fbackonset_sbackonset_,LowBackContinuum/,LowBackContinuum/NewWord_fbackonset_sbackonset_23.wav,,,,,,,,,,0,3,3,9,,,,,,,,,f,1.453,,,,,28,female,19,59.94766036694913,American English,fricative_categorical_boundary,2019_Feb_28_1426,
41,NewWord_fbackonset_sbackonset_,LowBackContinuum/,LowBackContinuum/NewWord_fbackonset_sbackonset_41.wav,,,,,,,,,,0,4,4,13,,,,,,,,,f,1.704,,,,,28,female,19,59.94766036694913,American English,fricative_categorical_boundary,2019_Feb_28_1426,
11,NewWord_fbackonset_sbackonset_,LowBackContinuum/,LowBackContinuum/NewWord_fbackonset_sbackonset_11.wav,,,,,,,,,,0,5,5,3,,,,,,,,,f,0.836,,,,,28,female,19,59.94766036694913,American English,fricative_categorical_boundary,2019_Feb_28_1426,
7,NewWord_fbackonset_sbackonset_,LowBackContinuum/,LowBackContinuum/NewWord_fbackonset_sbackonset_7.wav,,,,,,,,,,0,6,6,1,,,,,,,,,f,0.669,,,,,28,female,19,59.94766036694913,American English,fricative_categorical_boundary,2019_Feb_28_1426,
19,NewWord_fbackonset_sbackonset_,LowBackContinuum/,LowBackContinuum/NewWord_fbackonset_sbackonset_19.wav,,,,,,,,,,0,7,7,7,,,,,,,,,f,0.987,,,,,28,female,19,59.94766036694913,American English,fricative_categorical_boundary,2019_Feb_28_1426,
1,NewWord_fbackonset_sbackonset_,LowBackContinuum/,LowBackContinuum/NewWord_fbackonset_sbackonset_1.wav,,,,,,,,,,0,8,8,0,,,,,,,,,f,1.104,,,,,28,female,19,59.94766036694913,American English,fricative_categorical_boundary,2019_Feb_28_1426,
9,NewWord_fbackonset_sbackonset_,LowBackContinuum/,LowBackContinuum/NewWord_fbackonset_sbackonset_9.wav,,,,,,,,,,0,9,9,2,,,,,,,,,f,0.453,,,,,28,female,19,59.94766036694913,American English,fricative_categorical_boundary,2019_Feb_28_1426,
17,NewWord_fbackonset_sbackonset_,LowBackContinuum/,LowBackContinuum/NewWord_fbackonset_sbackonset_17.wav,,,,,,,,,,0,10,10,6,,,,,,,,,f,0.407,,,,,28,female,19,59.94766036694913,American English,fricative_categorical_boundary,2019_Feb_28_1426,
21,NewWord_fbackonset_sbackonset_,LowBackContinuum/,LowBackContinuum/NewWord_fbackonset_sbackonset_21.wav,,,,,,,,,,0,11,11,8,,,,,,,,,f,0.72,,,,,28,female,19,59.94766036694913,American English,fricative_categorical_boundary,2019_Feb_28_1426,
27,NewWord_fbackonset_sbackonset_,LowBackContinuum/,LowBackContinuum/NewWord_fbackonset_sbackonset_27.wav,,,,,,,,,,0,12,12,11,,,,,,,,,f,0.436,,,,,28,female,19,59.94766036694913,American English,fricative_categorical_boundary,2019_Feb_28_1426,
15,NewWord_fbackonset_sbackonset_,LowBackContinuum/,LowBackContinuum/NewWord_fbackonset_sbackonset_15.wav,,,,,,,,,,0,13,13,5,,,,,,,,,f,0.42,,,,,28,female,19,59.94766036694913,American English,fricative_categorical_boundary,2019_Feb_28_1426,
29,NewWord_fbackonset_sbackonset_,LowBackContinuum/,LowBackContinuum/NewWord_fbackonset_sbackonset_29.wav,,,,,,,,,,1,0,14,12,,,,,,,,,f,0.403,,,,,28,female,19,59.94766036694913,American English,fricative_categorical_boundary,2019_Feb_28_1426,
23,NewWord_fbackonset_sbackonset_,LowBackContinuum/,LowBackContinuum/NewWord_fbackonset_sbackonset_23.wav,,,,,,,,,,1,1,15,9,,,,,,,,,f,4.524,,,,,28,female,19,59.94766036694913,American English,fricative_categorical_boundary,2019_Feb_28_1426,
27,NewWord_fbackonset_sbackonset_,LowBackContinuum/,LowBackContinuum/NewWord_fbackonset_sbackonset_27.wav,,,,,,,,,,1,2,16,11,,,,,,,,,f,0.57,,,,,28,female,19,59.94766036694913,American English,fricative_categorical_boundary,2019_Feb_28_1426,
1,NewWord_fbackonset_sbackonset_,LowBackContinuum/,LowBackContinuum/NewWord_fbackonset_sbackonset_1.wav,,,,,,,,,,1,3,17,0,,,,,,,,,f,0.569,,,,,28,female,19,59.94766036694913,American English,fricative_categorical_boundary,2019_Feb_28_1426,
13,NewWord_fbackonset_sbackonset_,LowBackContinuum/,LowBackContinuum/NewWord_fbackonset_sbackonset_13.wav,,,,,,,,,,1,4,18,4,,,,,,,,,f,0.52,,,,,28,female,19,59.94766036694913,American English,fricative_categorical_boundary,2019_Feb_28_1426,
9,NewWord_fbackonset_sbackonset_,LowBackContinuum/,LowBackContinuum/NewWord_fbackonset_sbackonset_9.wav,,,,,,,,,,1,5,19,2,,,,,,,,,f,0.452,,,,,28,female,19,59.94766036694913,American English,fricative_categorical_boundary,2019_Feb_28_1426,
11,NewWord_fbackonset_sbackonset_,LowBackContinuum/,LowBackContinuum/NewWord_fbackonset_sbackonset_11.wav,,,,,,,,,,1,6,20,3,,,,,,,,,f,0.419,,,,,28,female,19,59.94766036694913,American English,fricative_categorical_boundary,2019_Feb_28_1426,
17,NewWord_fbackonset_sbackonset_,LowBackContinuum/,LowBackContinuum/NewWord_fbackonset_sbackonset_17.wav,,,,,,,,,,1,7,21,6,,,,,,,,,f,4.239,,,,,28,female,19,59.94766036694913,American English,fricative_categorical_boundary,2019_Feb_28_1426,
25,NewWord_fbackonset_sbackonset_,LowBackContinuum/,LowBackContinuum/NewWord_fbackonset_sbackonset_25.wav,,,,,,,,,,1,8,22,10,,,,,,,,,f,0.636,,,,,28,female,19,59.94766036694913,American English,fricative_categorical_boundary,2019_Feb_28_1426,
21,NewWord_fbackonset_sbackonset_,LowBackContinuum/,LowBackContinuum/NewWord_fbackonset_sbackonset_21.wav,,,,,,,,,,1,9,23,8,,,,,,,,,f,0.403,,,,,28,female,19,59.94766036694913,American English,fricative_categorical_boundary,2019_Feb_28_1426,
7,NewWord_fbackonset_sbackonset_,LowBackContinuum/,LowBackContinuum/NewWord_fbackonset_sbackonset_7.wav,,,,,,,,,,1,10,24,1,,,,,,,,,f,0.536,,,,,28,female,19,59.94766036694913,American English,fricative_categorical_boundary,2019_Feb_28_1426,
15,NewWord_fbackonset_sbackonset_,LowBackContinuum/,LowBackContinuum/NewWord_fbackonset_sbackonset_15.wav,,,,,,,,,,1,11,25,5,,,,,,,,,f,0.403,,,,,28,female,19,59.94766036694913,American English,fricative_categorical_boundary,2019_Feb_28_1426,
41,NewWord_fbackonset_sbackonset_,LowBackContinuum/,LowBackContinuum/NewWord_fbackonset_sbackonset_41.wav,,,,,,,,,,1,12,26,13,,,,,,,,,f,0.403,,,,,28,female,19,59.94766036694913,American English,fricative_categorical_boundary,2019_Feb_28_1426,
19,NewWord_fbackonset_sbackonset_,LowBackContinuum/,LowBackContinuum/NewWord_fbackonset_sbackonset_19.wav,,,,,,,,,,1,13,27,7,,,,,,,,,f,0.403,,,,,28,female,19,59.94766036694913,American English,fricative_categorical_boundary,2019_Feb_28_1426,
27,NewWord_fbackonset_sbackonset_,LowBackContinuum/,LowBackContinuum/NewWord_fbackonset_sbackonset_27.wav,,,,,,,,,,2,0,28,11,,,,,,,,,f,0.403,,,,,28,female,19,59.94766036694913,American English,fricative_categorical_boundary,2019_Feb_28_1426,
23,NewWord_fbackonset_sbackonset_,LowBackContinuum/,LowBackContinuum/NewWord_fbackonset_sbackonset_23.wav,,,,,,,,,,2,1,29,9,,,,,,,,,f,0.419,,,,,28,female,19,59.94766036694913,American English,fricative_categorical_boundary,2019_Feb_28_1426,
1,NewWord_fbackonset_sbackonset_,LowBackContinuum/,LowBackContinuum/NewWord_fbackonset_sbackonset_1.wav,,,,,,,,,,2,2,30,0,,,,,,,,,f,0.402,,,,,28,female,19,59.94766036694913,American English,fricative_categorical_boundary,2019_Feb_28_1426,
11,NewWord_fbackonset_sbackonset_,LowBackContinuum/,LowBackContinuum/NewWord_fbackonset_sbackonset_11.wav,,,,,,,,,,2,3,31,3,,,,,,,,,f,0.419,,,,,28,female,19,59.94766036694913,American English,fricative_categorical_boundary,2019_Feb_28_1426,
21,NewWord_fbackonset_sbackonset_,LowBackContinuum/,LowBackContinuum/NewWord_fbackonset_sbackonset_21.wav,,,,,,,,,,2,4,32,8,,,,,,,,,f,0.419,,,,,28,female,19,59.94766036694913,American English,fricative_categorical_boundary,2019_Feb_28_1426,
15,NewWord_fbackonset_sbackonset_,LowBackContinuum/,LowBackContinuum/NewWord_fbackonset_sbackonset_15.wav,,,,,,,,,,2,5,33,5,,,,,,,,,f,0.419,,,,,28,female,19,59.94766036694913,American English,fricative_categorical_boundary,2019_Feb_28_1426,
17,NewWord_fbackonset_sbackonset_,LowBackContinuum/,LowBackContinuum/NewWord_fbackonset_sbackonset_17.wav,,,,,,,,,,2,6,34,6,,,,,,,,,f,0.42,,,,,28,female,19,59.94766036694913,American English,fricative_categorical_boundary,2019_Feb_28_1426,
29,NewWord_fbackonset_sbackonset_,LowBackContinuum/,LowBackContinuum/NewWord_fbackonset_sbackonset_29.wav,,,,,,,,,,2,7,35,12,,,,,,,,,f,0.403,,,,,28,female,19,59.94766036694913,American English,fricative_categorical_boundary,2019_Feb_28_1426,
19,NewWord_fbackonset_sbackonset_,LowBackContinuum/,LowBackContinuum/NewWord_fbackonset_sbackonset_19.wav,,,,,,,,,,2,8,36,7,,,,,,,,,f,0.402,,,,,28,female,19,59.94766036694913,American English,fricative_categorical_boundary,2019_Feb_28_1426,
41,NewWord_fbackonset_sbackonset_,LowBackContinuum/,LowBackContinuum/NewWord_fbackonset_sbackonset_41.wav,,,,,,,,,,2,9,37,13,,,,,,,,,f,0.403,,,,,28,female,19,59.94766036694913,American English,fricative_categorical_boundary,2019_Feb_28_1426,
13,NewWord_fbackonset_sbackonset_,LowBackContinuum/,LowBackContinuum/NewWord_fbackonset_sbackonset_13.wav,,,,,,,,,,2,10,38,4,,,,,,,,,f,0.419,,,,,28,female,19,59.94766036694913,American English,fricative_categorical_boundary,2019_Feb_28_1426,
25,NewWord_fbackonset_sbackonset_,LowBackContinuum/,LowBackContinuum/NewWord_fbackonset_sbackonset_25.wav,,,,,,,,,,2,11,39,10,,,,,,,,,f,0.402,,,,,28,female,19,59.94766036694913,American English,fricative_categorical_boundary,2019_Feb_28_1426,
7,NewWord_fbackonset_sbackonset_,LowBackContinuum/,LowBackContinuum/NewWord_fbackonset_sbackonset_7.wav,,,,,,,,,,2,12,40,1,,,,,,,,,f,0.403,,,,,28,female,19,59.94766036694913,American English,fricative_categorical_boundary,2019_Feb_28_1426,
9,NewWord_fbackonset_sbackonset_,LowBackContinuum/,LowBackContinuum/NewWord_fbackonset_sbackonset_9.wav,,,,,,,,,,2,13,41,2,,,,,,,,,f,0.403,,,,,28,female,19,59.94766036694913,American English,fricative_categorical_boundary,2019_Feb_28_1426,
25,NewWord_fbackonset_sbackonset_,LowBackContinuum/,LowBackContinuum/NewWord_fbackonset_sbackonset_25.wav,,,,,,,,,,3,0,42,10,,,,,,,,,f,0.419,,,,,28,female,19,59.94766036694913,American English,fricative_categorical_boundary,2019_Feb_28_1426,
29,NewWord_fbackonset_sbackonset_,LowBackContinuum/,LowBackContinuum/NewWord_fbackonset_sbackonset_29.wav,,,,,,,,,,3,1,43,12,,,,,,,,,f,0.403,,,,,28,female,19,59.94766036694913,American English,fricative_categorical_boundary,2019_Feb_28_1426,
13,NewWord_fbackonset_sbackonset_,LowBackContinuum/,LowBackContinuum/NewWord_fbackonset_sbackonset_13.wav,,,,,,,,,,3,2,44,4,,,,,,,,,f,0.402,,,,,28,female,19,59.94766036694913,American English,fricative_categorical_boundary,2019_Feb_28_1426,
1,NewWord_fbackonset_sbackonset_,LowBackContinuum/,LowBackContinuum/NewWord_fbackonset_sbackonset_1.wav,,,,,,,,,,3,3,45,0,,,,,,,,,f,0.403,,,,,28,female,19,59.94766036694913,American English,fricative_categorical_boundary,2019_Feb_28_1426,
9,NewWord_fbackonset_sbackonset_,LowBackContinuum/,LowBackContinuum/NewWord_fbackonset_sbackonset_9.wav,,,,,,,,,,3,4,46,2,,,,,,,,,f,0.403,,,,,28,female,19,59.94766036694913,American English,fricative_categorical_boundary,2019_Feb_28_1426,
41,NewWord_fbackonset_sbackonset_,LowBackContinuum/,LowBackContinuum/NewWord_fbackonset_sbackonset_41.wav,,,,,,,,,,3,5,47,13,,,,,,,,,f,0.419,,,,,28,female,19,59.94766036694913,American English,fricative_categorical_boundary,2019_Feb_28_1426,
15,NewWord_fbackonset_sbackonset_,LowBackContinuum/,LowBackContinuum/NewWord_fbackonset_sbackonset_15.wav,,,,,,,,,,3,6,48,5,,,,,,,,,f,0.403,,,,,28,female,19,59.94766036694913,American English,fricative_categorical_boundary,2019_Feb_28_1426,
19,NewWord_fbackonset_sbackonset_,LowBackContinuum/,LowBackContinuum/NewWord_fbackonset_sbackonset_19.wav,,,,,,,,,,3,7,49,7,,,,,,,,,f,0.419,,,,,28,female,19,59.94766036694913,American English,fricative_categorical_boundary,2019_Feb_28_1426,
23,NewWord_fbackonset_sbackonset_,LowBackContinuum/,LowBackContinuum/NewWord_fbackonset_sbackonset_23.wav,,,,,,,,,,3,8,50,9,,,,,,,,,f,0.403,,,,,28,female,19,59.94766036694913,American English,fricative_categorical_boundary,2019_Feb_28_1426,
7,NewWord_fbackonset_sbackonset_,LowBackContinuum/,LowBackContinuum/NewWord_fbackonset_sbackonset_7.wav,,,,,,,,,,3,9,51,1,,,,,,,,,f,0.403,,,,,28,female,19,59.94766036694913,American English,fricative_categorical_boundary,2019_Feb_28_1426,
17,NewWord_fbackonset_sbackonset_,LowBackContinuum/,LowBackContinuum/NewWord_fbackonset_sbackonset_17.wav,,,,,,,,,,3,10,52,6,,,,,,,,,f,0.42,,,,,28,female,19,59.94766036694913,American English,fricative_categorical_boundary,2019_Feb_28_1426,
11,NewWord_fbackonset_sbackonset_,LowBackContinuum/,LowBackContinuum/NewWord_fbackonset_sbackonset_11.wav,,,,,,,,,,3,11,53,3,,,,,,,,,f,0.403,,,,,28,female,19,59.94766036694913,American English,fricative_categorical_boundary,2019_Feb_28_1426,
21,NewWord_fbackonset_sbackonset_,LowBackContinuum/,LowBackContinuum/NewWord_fbackonset_sbackonset_21.wav,,,,,,,,,,3,12,54,8,,,,,,,,,f,0.403,,,,,28,female,19,59.94766036694913,American English,fricative_categorical_boundary,2019_Feb_28_1426,
27,NewWord_fbackonset_sbackonset_,LowBackContinuum/,LowBackContinuum/NewWord_fbackonset_sbackonset_27.wav,,,,,,,,,,3,13,55,11,,,,,,,,,f,0.406,,,,,28,female,19,59.94766036694913,American English,fricative_categorical_boundary,2019_Feb_28_1426,
,,,,,,,,,,,,,,,,,,,,,,,,,,,space,2.08974099159,,,28,female,19,59.94766036694913,American English,fricative_categorical_boundary,2019_Feb_28_1426,
,,,,bidbowk,filler,None,None,None,nonce,None,LDTSounds/,LDTSounds/bidbowk.wav,,,,,0,0,0,109,,,,,,,,,a,3.43991303444,28,female,19,59.94766036694913,American English,fricative_categorical_boundary,2019_Feb_28_1426,
,,,,FISH,test,f,onset,1.0,None,None,LDTSounds/,LDTSounds/FISH.wav,,,,,0,1,1,13,,,,,,,,,l,1.25357294083,28,female,19,59.94766036694913,American English,fricative_categorical_boundary,2019_Feb_28_1426,
,,,,petnole,filler,None,None,None,nonce,None,LDTSounds/,LDTSounds/petnole.wav,,,,,0,2,2,112,,,,,,,,,l,1.90406608582,28,female,19,59.94766036694913,American English,fricative_categorical_boundary,2019_Feb_28_1426,
,,,,SILK,test,s,onset,1.0,None,None,LDTSounds/,LDTSounds/SILK.wav,,,,,0,3,3,30,,,,,,,,,l,1.11996006966,28,female,19,59.94766036694913,American English,fricative_categorical_boundary,2019_Feb_28_1426,
,,,,pen,filler,None,None,None,real,None,LDTSounds/,LDTSounds/pen.wav,,,,,0,4,4,40,,,,,,,,,l,2.1719429493,28,female,19,59.94766036694913,American English,fricative_categorical_boundary,2019_Feb_28_1426,
,,,,rat,filler,None,None,None,real,None,LDTSounds/,LDTSounds/rat.wav,,,,,0,5,5,47,,,,,,,,,l,1.91927099228,28,female,19,59.94766036694913,American English,fricative_categorical_boundary,2019_Feb_28_1426,
,,,,treaty,filler,None,None,None,real,None,LDTSounds/,LDTSounds/treaty.wav,,,,,0,6,6,65,,,,,,,,,l,2.08781909943,28,female,19,59.94766036694913,American English,fricative_categorical_boundary,2019_Feb_28_1426,
,,,,retlid,filler,None,None,None,nonce,None,LDTSounds/,LDTSounds/retlid.wav,,,,,0,7,7,105,,,,,,,,,a,1.68757009506,28,female,19,59.94766036694913,American English,fricative_categorical_boundary,2019_Feb_28_1426,
,,,,pendalimt,filler,None,None,None,nonce,None,LDTSounds/,LDTSounds/pendalimt.wav,,,,,0,8,8,118,,,,,,,,,a,1.75446105003,28,female,19,59.94766036694913,American English,fricative_categorical_boundary,2019_Feb_28_1426,
,,,,noopalingdo,filler,None,None,None,nonce,None,LDTSounds/,LDTSounds/noopalingdo.wav,,,,,0,9,9,135,,,,,,,,,a,1.36977005005,28,female,19,59.94766036694913,American English,fricative_categorical_boundary,2019_Feb_28_1426,
,,,,SIM,test,s,onset,1.0,None,None,LDTSounds/,LDTSounds/SIM.wav,,,,,0,10,10,31,,,,,,,,,l,1.37090396881,28,female,19,59.94766036694913,American English,fricative_categorical_boundary,2019_Feb_28_1426,
,,,,poindool,filler,None,None,None,nonce,None,LDTSounds/,LDTSounds/poindool.wav,,,,,0,11,11,96,,,,,,,,,a,1.27071022987,28,female,19,59.94766036694913,American English,fricative_categorical_boundary,2019_Feb_28_1426,
,,,,day,filler,None,None,None,real,None,LDTSounds/,LDTSounds/day.wav,,,,,0,12,12,50,,,,,,,,,l,1.48723316193,28,female,19,59.94766036694913,American English,fricative_categorical_boundary,2019_Feb_28_1426,
,,,,daydream,filler,None,None,None,real,None,LDTSounds/,LDTSounds/daydream.wav,,,,,0,13,13,59,,,,,,,,,l,1.06969809532,28,female,19,59.94766036694913,American English,fricative_categorical_boundary,2019_Feb_28_1426,
,,,,kotlim,filler,None,None,None,nonce,None,LDTSounds/,LDTSounds/kotlim.wav,,,,,0,14,14,114,,,,,,,,,a,1.38726401329,28,female,19,59.94766036694913,American English,fricative_categorical_boundary,2019_Feb_28_1426,
,,,,dewagelin,filler,None,None,None,nonce,None,LDTSounds/,LDTSounds/dewagelin.wav,,,,,0,15,15,143,,,,,,,,,a,1.2706091404,28,female,19,59.94766036694913,American English,fricative_categorical_boundary,2019_Feb_28_1426,
,,,,SICK,test,s,onset,1.0,None,None,LDTSounds/,LDTSounds/SICK.wav,,,,,0,16,16,29,,,,,,,,,l,1.07027006149,28,female,19,59.94766036694913,American English,fricative_categorical_boundary,2019_Feb_28_1426,
,,,,rowboat,filler,None,None,None,real,None,LDTSounds/,LDTSounds/rowboat.wav,,,,,0,17,17,56,,,,,,,,,l,1.42128515244,28,female,19,59.94766036694913,American English,fricative_categorical_boundary,2019_Feb_28_1426,
,,,,pingloon,filler,None,None,None,nonce,None,LDTSounds/,LDTSounds/pingloon.wav,,,,,0,18,18,110,,,,,,,,,a,1.52093791962,28,female,19,59.94766036694913,American English,fricative_categorical_boundary,2019_Feb_28_1426,
,,,,lump,filler,None,None,None,real,None,LDTSounds/,LDTSounds/lump.wav,,,,,0,19,19,54,,,,,,,,,l,1.18707299232,28,female,19,59.94766036694913,American English,fricative_categorical_boundary,2019_Feb_28_1426,
,,,,FIEND,test,f,onset,1.0,None,None,LDTSounds/,LDTSounds/FIEND.wav,,,,,0,20,20,7,,,,,,,,,l,1.21990203857,28,female,19,59.94766036694913,American English,fricative_categorical_boundary,2019_Feb_28_1426,
,,,,wegtamlip,filler,None,None,None,nonce,None,LDTSounds/,LDTSounds/wegtamlip.wav,,,,,0,21,21,120,,,,,,,,,a,1.02034091949,28,female,19,59.94766036694913,American English,fricative_categorical_boundary,2019_Feb_28_1426,
,,,,right,filler,None,None,None,real,None,LDTSounds/,LDTSounds/right.wav,,,,,0,22,22,36,,,,,,,,,l,0.936393022537,28,female,19,59.94766036694913,American English,fricative_categorical_boundary,2019_Feb_28_1426,
,,,,FIB,test,f,onset,1.0,None,None,LDTSounds/,LDTSounds/FIB.wav,,,,,0,23,23,6,,,,,,,,,l,1.10369801521,28,female,19,59.94766036694913,American English,fricative_categorical_boundary,2019_Feb_28_1426,
,,,,cratbool,filler,None,None,None,nonce,None,LDTSounds/,LDTSounds/cratbool.wav,,,,,0,24,24,106,,,,,,,,,a,1.43688702583,28,female,19,59.94766036694913,American English,fricative_categorical_boundary,2019_Feb_28_1426,
,,,,bindilamok,filler,None,None,None,nonce,None,LDTSounds/,LDTSounds/bindilamok.wav,,,,,0,25,25,148,,,,,,,,,a,1.33731603622,28,female,19,59.94766036694913,American English,fricative_categorical_boundary,2019_Feb_28_1426,
,,,,twin,filler,None,None,None,real,None,LDTSounds/,LDTSounds/twin.wav,,,,,0,26,26,44,,,,,,,,,l,0.970152139664,28,female,19,59.94766036694913,American English,fricative_categorical_boundary,2019_Feb_28_1426,
,,,,GEESE,test,s,coda,1.0,None,None,LDTSounds/,LDTSounds/GEESE.wav,,,,,0,27,27,18,,,,,,,,,l,0.854199886322,28,female,19,59.94766036694913,American English,fricative_categorical_boundary,2019_Feb_28_1426,
,,,,kabalingno,filler,None,None,None,nonce,None,LDTSounds/,LDTSounds/kabalingno.wav,,,,,0,28,28,138,,,,,,,,,a,1.52052998543,28,female,19,59.94766036694913,American English,fricative_categorical_boundary,2019_Feb_28_1426,
,,,,radoobling,filler,None,None,None,nonce,None,LDTSounds/,LDTSounds/radoobling.wav,,,,,0,29,29,142,,,,,,,,,a,2.12124300003,28,female,19,59.94766036694913,American English,fricative_categorical_boundary,2019_Feb_28_1426,
,,,,krebdingolee,filler,None,None,None,nonce,None,LDTSounds/,LDTSounds/krebdingolee.wav,,,,,0,30,30,147,,,,,,,,,a,1.02012515068,28,female,19,59.94766036694913,American English,fricative_categorical_boundary,2019_Feb_28_1426,
,,,,hoong,filler,None,None,None,nonce,None,LDTSounds/,LDTSounds/hoong.wav,,,,,0,31,31,81,,,,,,,,,l,1.0702791214,28,female,19,59.94766036694913,American English,fricative_categorical_boundary,2019_Feb_28_1426,
,,,,relnt,filler,None,None,None,nonce,None,LDTSounds/,LDTSounds/relnt.wav,,,,,0,32,32,83,,,,,,,,,a,1.45415496826,28,female,19,59.94766036694913,American English,fricative_categorical_boundary,2019_Feb_28_1426,
,,,,REEF,test,f,coda,1.0,None,None,LDTSounds/,LDTSounds/REEF.wav,,,,,0,33,33,14,,,,,,,,,l,1.30394506454,28,female,19,59.94766036694913,American English,fricative_categorical_boundary,2019_Feb_28_1426,
,,,,himp,filler,None,None,None,nonce,None,LDTSounds/,LDTSounds/himp.wav,,,,,0,34,34,75,,,,,,,,,a,1.6545009613,28,female,19,59.94766036694913,American English,fricative_categorical_boundary,2019_Feb_28_1426,
,,,,yilk,filler,None,None,None,nonce,None,LDTSounds/,LDTSounds/yilk.wav,,,,,0,35,35,82,,,,,,,,,l,1.03666901588,28,female,19,59.94766036694913,American English,fricative_categorical_boundary,2019_Feb_28_1426,
,,,,pillow,filler,None,None,None,real,None,LDTSounds/,LDTSounds/pillow.wav,,,,,0,36,36,72,,,,,,,,,l,1.0704870224,28,female,19,59.94766036694913,American English,fricative_categorical_boundary,2019_Feb_28_1426,
,,,,SEEKER,test,s,onset,2.0,None,None,LDTSounds/,LDTSounds/SEEKER.wav,,,,,0,37,37,25,,,,,,,,,l,1.2034509182,28,female,19,59.94766036694913,American English,fricative_categorical_boundary,2019_Feb_28_1426,
,,,,hapekt,filler,None,None,None,nonce,None,LDTSounds/,LDTSounds/hapekt.wav,,,,,0,38,38,116,,,,,,,,,a,1.13688993454,28,female,19,59.94766036694913,American English,fricative_categorical_boundary,2019_Feb_28_1426,
,,,,midaran,filler,None,None,None,nonce,None,LDTSounds/,LDTSounds/midaran.wav,,,,,0,39,39,119,,,,,,,,,a,0.970011949539,28,female,19,59.94766036694913,American English,fricative_categorical_boundary,2019_Feb_28_1426,
,,,,maker,filler,None,None,None,real,None,LDTSounds/,LDTSounds/maker.wav,,,,,0,40,40,64,,,,,,,,,l,0.937476873398,28,female,19,59.94766036694913,American English,fricative_categorical_boundary,2019_Feb_28_1426,
,,,,line,filler,None,None,None,real,None,LDTSounds/,LDTSounds/line.wav,,,,,0,41,41,46,,,,,,,,,l,0.803026914597,28,female,19,59.94766036694913,American English,fricative_categorical_boundary,2019_Feb_28_1426,
,,,,SEEM,test,s,onset,1.0,None,None,LDTSounds/,LDTSounds/SEEM.wav,,,,,0,42,42,26,,,,,,,,,l,1.2035150528,28,female,19,59.94766036694913,American English,fricative_categorical_boundary,2019_Feb_28_1426,
,,,,mitger,filler,None,None,None,nonce,None,LDTSounds/,LDTSounds/mitger.wav,,,,,0,43,43,111,,,,,,,,,a,1.90442895889,28,female,19,59.94766036694913,American English,fricative_categorical_boundary,2019_Feb_28_1426,
,,,,typing,filler,None,None,None,real,None,LDTSounds/,LDTSounds/typing.wav,,,,,0,44,44,70,,,,,,,,,l,1.15267205238,28,female,19,59.94766036694913,American English,fricative_categorical_boundary,2019_Feb_28_1426,
,,,,lick,filler,None,None,None,real,None,LDTSounds/,LDTSounds/lick.wav,,,,,0,45,45,41,,,,,,,,,l,0.886463880539,28,female,19,59.94766036694913,American English,fricative_categorical_boundary,2019_Feb_28_1426,
,,,,FETAL,test,f,onset,2.0,None,None,LDTSounds/,LDTSounds/FETAL.wav,,,,,0,46,46,4,,,,,,,,,l,1.03803610802,28,female,19,59.94766036694913,American English,fricative_categorical_boundary,2019_Feb_28_1426,
,,,,SEEING,test,s,onset,2.0,None,None,LDTSounds/,LDTSounds/SEEING.wav,,,,,0,47,47,23,,,,,,,,,l,1.22042298317,28,female,19,59.94766036694913,American English,fricative_categorical_boundary,2019_Feb_28_1426,
,,,,lake,filler,None,None,None,real,None,LDTSounds/,LDTSounds/lake.wav,,,,,0,48,48,45,,,,,,,,,l,0.786628007889,28,female,19,59.94766036694913,American English,fricative_categorical_boundary,2019_Feb_28_1426,
,,,,habalipdee,filler,None,None,None,nonce,None,LDTSounds/,LDTSounds/habalipdee.wav,,,,,0,49,49,140,,,,,,,,,a,0.919867038727,28,female,19,59.94766036694913,American English,fricative_categorical_boundary,2019_Feb_28_1426,
,,,,rone,filler,None,None,None,nonce,None,LDTSounds/,LDTSounds/rone.wav,,,,,0,50,50,92,,,,,,,,,a,1.17054104805,28,female,19,59.94766036694913,American English,fricative_categorical_boundary,2019_Feb_28_1426,
,,,,trongolemp,filler,None,None,None,nonce,None,LDTSounds/,LDTSounds/trongolemp.wav,,,,,0,51,51,130,,,,,,,,,a,1.73671889305,28,female,19,59.94766036694913,American English,fricative_categorical_boundary,2019_Feb_28_1426,
,,,,building,filler,None,None,None,real,None,LDTSounds/,LDTSounds/building.wav,,,,,0,52,52,55,,,,,,,,,l,0.987412929535,28,female,19,59.94766036694913,American English,fricative_categorical_boundary,2019_Feb_28_1426,
,,,,plagtorin,filler,None,None,None,nonce,None,LDTSounds/,LDTSounds/plagtorin.wav,,,,,0,53,53,134,,,,,,,,,a,1.02032208443,28,female,19,59.94766036694913,American English,fricative_categorical_boundary,2019_Feb_28_1426,
,,,,FILTH,test,f,onset,1.0,None,None,LDTSounds/,LDTSounds/FILTH.wav,,,,,0,54,54,12,,,,,,,,,l,1.01925110817,28,female,19,59.94766036694913,American English,fricative_categorical_boundary,2019_Feb_28_1426,
,,,,FEVER,test,f,onset,2.0,None,None,LDTSounds/,LDTSounds/FEVER.wav,,,,,0,55,55,5,,,,,,,,,l,0.836796998978,28,female,19,59.94766036694913,American English,fricative_categorical_boundary,2019_Feb_28_1426,
,,,,BLISS,test,s,coda,1.0,None,None,LDTSounds/,LDTSounds/BLISS.wav,,,,,0,56,56,17,,,,,,,,,l,0.886926174164,28,female,19,59.94766036694913,American English,fricative_categorical_boundary,2019_Feb_28_1426,
,,,,queng,filler,None,None,None,nonce,None,LDTSounds/,LDTSounds/queng.wav,,,,,0,57,57,86,,,,,,,,,a,1.17046308517,28,female,19,59.94766036694913,American English,fricative_categorical_boundary,2019_Feb_28_1426,
,,,,toin,filler,None,None,None,nonce,None,LDTSounds/,LDTSounds/toin.wav,,,,,0,58,58,88,,,,,,,,,a,1.33689594269,28,female,19,59.94766036694913,American English,fricative_categorical_boundary,2019_Feb_28_1426,
,,,,boondatribnok,filler,None,None,None,nonce,None,LDTSounds/,LDTSounds/boondatribnok.wav,,,,,0,59,59,137,,,,,,,,,a,0.952939987183,28,female,19,59.94766036694913,American English,fricative_categorical_boundary,2019_Feb_28_1426,
,,,,FILL,test,f,onset,1.0,None,None,LDTSounds/,LDTSounds/FILL.wav,,,,,0,60,60,10,,,,,,,,,l,0.953424930573,28,female,19,59.94766036694913,American English,fricative_categorical_boundary,2019_Feb_28_1426,
,,,,butter,filler,None,None,None,real,None,LDTSounds/,LDTSounds/butter.wav,,,,,0,61,61,60,,,,,,,,,l,1.0202319622,28,female,19,59.94766036694913,American English,fricative_categorical_boundary,2019_Feb_28_1426,
,,,,drataloob,filler,None,None,None,nonce,None,LDTSounds/,LDTSounds/drataloob.wav,,,,,0,62,62,129,,,,,,,,,a,0.886688947678,28,female,19,59.94766036694913,American English,fricative_categorical_boundary,2019_Feb_28_1426,
,,,,globe,filler,None,None,None,real,None,LDTSounds/,LDTSounds/globe.wav,,,,,0,63,63,52,,,,,,,,,l,1.02033305168,28,female,19,59.94766036694913,American English,fricative_categorical_boundary,2019_Feb_28_1426,
,,,,wet,filler,None,None,None,real,None,LDTSounds/,LDTSounds/wet.wav,,,,,0,64,64,38,,,,,,,,,l,1.06994700432,28,female,19,59.94766036694913,American English,fricative_categorical_boundary,2019_Feb_28_1426,
,,,,kebnoti,filler,None,None,None,nonce,None,LDTSounds/,LDTSounds/kebnoti.wav,,,,,0,65,65,121,,,,,,,,,a,0.853417873383,28,female,19,59.94766036694913,American English,fricative_categorical_boundary,2019_Feb_28_1426,
,,,,trad,filler,None,None,None,nonce,None,LDTSounds/,LDTSounds/trad.wav,,,,,0,66,66,87,,,,,,,,,l,0.886482954025,28,female,19,59.94766036694913,American English,fricative_categorical_boundary,2019_Feb_28_1426,
,,,,loot,filler,None,None,None,real,None,LDTSounds/,LDTSounds/loot.wav,,,,,0,67,67,37,,,,,,,,,l,1.65379810333,28,female,19,59.94766036694913,American English,fricative_categorical_boundary,2019_Feb_28_1426,
,,,,habapithloo,filler,None,None,None,nonce,None,LDTSounds/,LDTSounds/habapithloo.wav,,,,,0,68,68,136,,,,,,,,,a,0.83612704277,28,female,19,59.94766036694913,American English,fricative_categorical_boundary,2019_Feb_28_1426,
,,,,liquor,filler,None,None,None,real,None,LDTSounds/,LDTSounds/liquor.wav,,,,,0,69,69,63,,,,,,,,,l,0.869254827499,28,female,19,59.94766036694913,American English,fricative_categorical_boundary,2019_Feb_28_1426,
,,,,SEATED,test,s,onset,2.0,None,None,LDTSounds/,LDTSounds/SEATED.wav,,,,,0,70,70,22,,,,,,,,,l,1.27042508125,28,female,19,59.94766036694913,American English,fricative_categorical_boundary,2019_Feb_28_1426,
,,,,magmilnt,filler,None,None,None,nonce,None,LDTSounds/,LDTSounds/magmilnt.wav,,,,,0,71,71,107,,,,,,,,,a,1.18729996681,28,female,19,59.94766036694913,American English,fricative_categorical_boundary,2019_Feb_28_1426,
,,,,CLIFF,test,f,coda,1.0,None,None,LDTSounds/,LDTSounds/CLIFF.wav,,,,,0,72,72,0,,,,,,,,,l,1.05461502075,28,female,19,59.94766036694913,American English,fricative_categorical_boundary,2019_Feb_28_1426,
,,,,doonagort,filler,None,None,None,nonce,None,LDTSounds/,LDTSounds/doonagort.wav,,,,,0,73,73,127,,,,,,,,,a,1.8045630455,28,female,19,59.94766036694913,American English,fricative_categorical_boundary,2019_Feb_28_1426,
,,,,gelp,filler,None,None,None,nonce,None,LDTSounds/,LDTSounds/gelp.wav,,,,,0,74,74,85,,,,,,,,,a,1.88998484612,28,female,19,59.94766036694913,American English,fricative_categorical_boundary,2019_Feb_28_1426,
,,,,PIECE,test,s,coda,1.0,None,None,LDTSounds/,LDTSounds/PIECE.wav,,,,,0,75,75,20,,,,,,,,,l,1.103536129,28,female,19,59.94766036694913,American English,fricative_categorical_boundary,2019_Feb_28_1426,
,,,,lemur,filler,None,None,None,real,None,LDTSounds/,LDTSounds/lemur.wav,,,,,0,76,76,68,,,,,,,,,l,2.25466418266,28,female,19,59.94766036694913,American English,fricative_categorical_boundary,2019_Feb_28_1426,
,,,,heen,filler,None,None,None,nonce,None,LDTSounds/,LDTSounds/heen.wav,,,,,0,77,77,77,,,,,,,,,a,1.40368294716,28,female,19,59.94766036694913,American English,fricative_categorical_boundary,2019_Feb_28_1426,
,,,,twek,filler,None,None,None,nonce,None,LDTSounds/,LDTSounds/twek.wav,,,,,0,78,78,80,,,,,,,,,a,1.23681712151,28,female,19,59.94766036694913,American English,fricative_categorical_boundary,2019_Feb_28_1426,
,,,,baking,filler,None,None,None,real,None,LDTSounds/,LDTSounds/baking.wav,,,,,0,79,79,69,,,,,,,,,l,0.802644968033,28,female,19,59.94766036694913,American English,fricative_categorical_boundary,2019_Feb_28_1426,
,,,,troplund,filler,None,None,None,nonce,None,LDTSounds/,LDTSounds/troplund.wav,,,,,0,80,80,98,,,,,,,,,a,1.2535970211,28,female,19,59.94766036694913,American English,fricative_categorical_boundary,2019_Feb_28_1426,
,,,,WHIFF,test,f,coda,1.0,None,None,LDTSounds/,LDTSounds/WHIFF.wav,,,,,0,81,81,16,,,,,,,,,l,1.02002501488,28,female,19,59.94766036694913,American English,fricative_categorical_boundary,2019_Feb_28_1426,
,,,,SEEK,test,s,onset,1.0,None,None,LDTSounds/,LDTSounds/SEEK.wav,,,,,0,82,82,24,,,,,,,,,l,0.887022972107,28,female,19,59.94766036694913,American English,fricative_categorical_boundary,2019_Feb_28_1426,
,,,,rekmate,filler,None,None,None,nonce,None,LDTSounds/,LDTSounds/rekmate.wav,,,,,0,83,83,103,,,,,,,,,a,1.71902704239,28,female,19,59.94766036694913,American English,fricative_categorical_boundary,2019_Feb_28_1426,
,,,,FIJI,test,f,onset,2.0,None,None,LDTSounds/,LDTSounds/FIJI.wav,,,,,0,84,84,9,,,,,,,,,l,1.35312914848,28,female,19,59.94766036694913,American English,fricative_categorical_boundary,2019_Feb_28_1426,
,,,,tomb,filler,None,None,None,real,None,LDTSounds/,LDTSounds/tomb.wav,,,,,0,85,85,35,,,,,,,,,l,1.25398993492,28,female,19,59.94766036694913,American English,fricative_categorical_boundary,2019_Feb_28_1426,
,,,,podaling,filler,None,None,None,nonce,None,LDTSounds/,LDTSounds/podaling.wav,,,,,0,86,86,132,,,,,,,,,a,0.953619003296,28,female,19,59.94766036694913,American English,fricative_categorical_boundary,2019_Feb_28_1426,
,,,,will,filler,None,None,None,real,None,LDTSounds/,LDTSounds/will.wav,,,,,0,87,87,49,,,,,,,,,l,0.803283929825,28,female,19,59.94766036694913,American English,fricative_categorical_boundary,2019_Feb_28_1426,
,,,,deemlond,filler,None,None,None,nonce,None,LDTSounds/,LDTSounds/deemlond.wav,,,,,0,88,88,104,,,,,,,,,a,1.05346798897,28,female,19,59.94766036694913,American English,fricative_categorical_boundary,2019_Feb_28_1426,
,,,,blegondanit,filler,None,None,None,nonce,None,LDTSounds/,LDTSounds/blegondanit.wav,,,,,0,89,89,144,,,,,,,,,a,0.869624137878,28,female,19,59.94766036694913,American English,fricative_categorical_boundary,2019_Feb_28_1426,
,,,,roip,filler,None,None,None,nonce,None,LDTSounds/,LDTSounds/roip.wav,,,,,0,90,90,89,,,,,,,,,a,1.1374309063,28,female,19,59.94766036694913,American English,fricative_categorical_boundary,2019_Feb_28_1426,
,,,,SEEPING,test,s,onset,2.0,None,None,LDTSounds/,LDTSounds/SEEPING.wav,,,,,0,91,91,27,,,,,,,,,l,1.0703690052,28,female,19,59.94766036694913,American English,fricative_categorical_boundary,2019_Feb_28_1426,
,,,,tridalondit,filler,None,None,None,nonce,None,LDTSounds/,LDTSounds/tridalondit.wav,,,,,0,92,92,146,,,,,,,,,a,0.869261980057,28,female,19,59.94766036694913,American English,fricative_categorical_boundary,2019_Feb_28_1426,
,,,,poginito,filler,None,None,None,nonce,None,LDTSounds/,LDTSounds/poginito.wav,,,,,0,93,93,139,,,,,,,,,a,0.936856031418,28,female,19,59.94766036694913,American English,fricative_categorical_boundary,2019_Feb_28_1426,
,,,,trag,filler,None,None,None,nonce,None,LDTSounds/,LDTSounds/trag.wav,,,,,0,94,94,84,,,,,,,,,a,1.45377802849,28,female,19,59.94766036694913,American English,fricative_categorical_boundary,2019_Feb_28_1426,
,,,,laker,filler,None,None,None,real,None,LDTSounds/,LDTSounds/laker.wav,,,,,0,95,95,58,,,,,,,,,l,0.986817121506,28,female,19,59.94766036694913,American English,fricative_categorical_boundary,2019_Feb_28_1426,
,,,,rivathrog,filler,None,None,None,nonce,None,LDTSounds/,LDTSounds/rivathrog.wav,,,,,0,96,96,131,,,,,,,,,a,0.903174877167,28,female,19,59.94766036694913,American English,fricative_categorical_boundary,2019_Feb_28_1426,
,,,,FELINE,test,f,onset,2.0,None,None,LDTSounds/,LDTSounds/FELINE.wav,,,,,0,97,97,2,,,,,,,,,l,1.13616204262,28,female,19,59.94766036694913,American English,fricative_categorical_boundary,2019_Feb_28_1426,
,,,,little,filler,None,None,None,real,None,LDTSounds/,LDTSounds/little.wav,,,,,0,98,98,61,,,,,,,,,l,0.753247976303,28,female,19,59.94766036694913,American English,fricative_categorical_boundary,2019_Feb_28_1426,
,,,,jupiter,filler,None,None,None,real,None,LDTSounds/,LDTSounds/jupiter.wav,,,,,0,99,99,74,,,,,,,,,l,0.953512907028,28,female,19,59.94766036694913,American English,fricative_categorical_boundary,2019_Feb_28_1426,
,,,,metroy,filler,None,None,None,nonce,None,LDTSounds/,LDTSounds/metroy.wav,,,,,0,100,100,100,,,,,,,,,a,1.05354404449,28,female,19,59.94766036694913,American English,fricative_categorical_boundary,2019_Feb_28_1426,
,,,,lempok,filler,None,None,None,nonce,None,LDTSounds/,LDTSounds/lempok.wav,,,,,0,101,101,113,,,,,,,,,a,1.02044010162,28,female,19,59.94766036694913,American English,fricative_categorical_boundary,2019_Feb_28_1426,
,,,,ligbee,filler,None,None,None,nonce,None,LDTSounds/,LDTSounds/ligbee.wav,,,,,0,102,102,95,,,,,,,,,a,0.98708820343,28,female,19,59.94766036694913,American English,fricative_categorical_boundary,2019_Feb_28_1426,
,,,,yoog,filler,None,None,None,nonce,None,LDTSounds/,LDTSounds/yoog.wav,,,,,0,103,103,90,,,,,,,,,a,1.62117004395,28,female,19,59.94766036694913,American English,fricative_categorical_boundary,2019_Feb_28_1426,
,,,,yellow,filler,None,None,None,real,None,LDTSounds/,LDTSounds/yellow.wav,,,,,0,104,104,73,,,,,,,,,l,0.969941854477,28,female,19,59.94766036694913,American English,fricative_categorical_boundary,2019_Feb_28_1426,
,,,,SEAGULL,test,s,onset,2.0,None,None,LDTSounds/,LDTSounds/SEAGULL.wav,,,,,0,105,105,21,,,,,,,,,l,1.10378909111,28,female,19,59.94766036694913,American English,fricative_categorical_boundary,2019_Feb_28_1426,
,,,,tuba,filler,None,None,None,real,None,LDTSounds/,LDTSounds/tuba.wav,,,,,0,106,106,57,,,,,,,,,a,1.15326714516,28,female,19,59.94766036694913,American English,fricative_categorical_boundary,2019_Feb_28_1426,
,,,,kililitbi,filler,None,None,None,nonce,None,LDTSounds/,LDTSounds/kililitbi.wav,,,,,0,107,107,145,,,,,,,,,a,1.45438694954,28,female,19,59.94766036694913,American English,fricative_categorical_boundary,2019_Feb_28_1426,
,,,,yoomake,filler,None,None,None,nonce,None,LDTSounds/,LDTSounds/yoomake.wav,,,,,0,108,108,99,,,,,,,,,a,1.65492677689,28,female,19,59.94766036694913,American English,fricative_categorical_boundary,2019_Feb_28_1426,
,,,,boycott,filler,None,None,None,real,None,LDTSounds/,LDTSounds/boycott.wav,,,,,0,109,109,71,,,,,,,,,l,0.968216896057,28,female,19,59.94766036694913,American English,fricative_categorical_boundary,2019_Feb_28_1426,
,,,,THIEF,test,f,coda,1.0,None,None,LDTSounds/,LDTSounds/THIEF.wav,,,,,0,110,110,15,,,,,,,,,l,0.837162971497,28,female,19,59.94766036694913,American English,fricative_categorical_boundary,2019_Feb_28_1426,
,,,,wegring,filler,None,None,None,nonce,None,LDTSounds/,LDTSounds/wegring.wav,,,,,0,111,111,97,,,,,,,,,a,1.07033205032,28,female,19,59.94766036694913,American English,fricative_categorical_boundary,2019_Feb_28_1426,
,,,,cridamlo,filler,None,None,None,nonce,None,LDTSounds/,LDTSounds/cridamlo.wav,,,,,0,112,112,122,,,,,,,,,a,1.03614187241,28,female,19,59.94766036694913,American English,fricative_categorical_boundary,2019_Feb_28_1426,
,,,,lopenad,filler,None,None,None,nonce,None,LDTSounds/,LDTSounds/lopenad.wav,,,,,0,113,113,123,,,,,,,,,a,1.15388393402,28,female,19,59.94766036694913,American English,fricative_categorical_boundary,2019_Feb_28_1426,
,,,,drip,filler,None,None,None,real,None,LDTSounds/,LDTSounds/drip.wav,,,,,0,114,114,51,,,,,,,,,l,0.986730098724,28,female,19,59.94766036694913,American English,fricative_categorical_boundary,2019_Feb_28_1426,
,,,,ledmon,filler,None,None,None,nonce,None,LDTSounds/,LDTSounds/ledmon.wav,,,,,0,115,115,94,,,,,,,,,a,1.01996302605,28,female,19,59.94766036694913,American English,fricative_categorical_boundary,2019_Feb_28_1426,
,,,,weg,filler,None,None,None,nonce,None,LDTSounds/,LDTSounds/weg.wav,,,,,0,116,116,78,,,,,,,,,a,1.05326104164,28,female,19,59.94766036694913,American English,fricative_categorical_boundary,2019_Feb_28_1426,
,,,,KISS,test,s,coda,1.0,None,None,LDTSounds/,LDTSounds/KISS.wav,,,,,0,117,117,19,,,,,,,,,l,0.853613853455,28,female,19,59.94766036694913,American English,fricative_categorical_boundary,2019_Feb_28_1426,
,,,,hapooli,filler,None,None,None,nonce,None,LDTSounds/,LDTSounds/hapooli.wav,,,,,0,118,118,126,,,,,,,,,a,0.803493022919,28,female,19,59.94766036694913,American English,fricative_categorical_boundary,2019_Feb_28_1426,
,,,,SEETHING,test,s,onset,2.0,None,None,LDTSounds/,LDTSounds/SEETHING.wav,,,,,0,119,119,28,,,,,,,,,a,1.38751792908,28,female,19,59.94766036694913,American English,fricative_categorical_boundary,2019_Feb_28_1426,
,,,,mall,filler,None,None,None,real,None,LDTSounds/,LDTSounds/mall.wav,,,,,0,120,120,43,,,,,,,,,a,1.35431003571,28,female,19,59.94766036694913,American English,fricative_categorical_boundary,2019_Feb_28_1426,
,,,,while,filler,None,None,None,real,None,LDTSounds/,LDTSounds/while.wav,,,,,0,121,121,48,,,,,,,,,l,1.453966856,28,female,19,59.94766036694913,American English,fricative_categorical_boundary,2019_Feb_28_1426,
,,,,wiblee,filler,None,None,None,nonce,None,LDTSounds/,LDTSounds/wiblee.wav,,,,,0,122,122,115,,,,,,,,,a,1.10267591476,28,female,19,59.94766036694913,American English,fricative_categorical_boundary,2019_Feb_28_1426,
,,,,ratwell,filler,None,None,None,nonce,None,LDTSounds/,LDTSounds/ratwell.wav,,,,,0,123,123,108,,,,,,,,,a,1.03462505341,28,female,19,59.94766036694913,American English,fricative_categorical_boundary,2019_Feb_28_1426,
,,,,trim,filler,None,None,None,real,None,LDTSounds/,LDTSounds/trim.wav,,,,,0,124,124,39,,,,,,,,,l,1.12014079094,28,female,19,59.94766036694913,American English,fricative_categorical_boundary,2019_Feb_28_1426,
,,,,mole,filler,None,None,None,real,None,LDTSounds/,LDTSounds/mole.wav,,,,,0,125,125,42,,,,,,,,,l,1.23704195023,28,female,19,59.94766036694913,American English,fricative_categorical_boundary,2019_Feb_28_1426,
,,,,giblo,filler,None,None,None,nonce,None,LDTSounds/,LDTSounds/giblo.wav,,,,,0,126,126,93,,,,,,,,,a,0.786842107773,28,female,19,59.94766036694913,American English,fricative_categorical_boundary,2019_Feb_28_1426,
,,,,hundapegnort,filler,None,None,None,nonce,None,LDTSounds/,LDTSounds/hundapegnort.wav,,,,,0,127,127,141,,,,,,,,,a,1.05303406715,28,female,19,59.94766036694913,American English,fricative_categorical_boundary,2019_Feb_28_1426,
,,,,datoonmeg,filler,None,None,None,nonce,None,LDTSounds/,LDTSounds/datoonmeg.wav,,,,,0,128,128,133,,,,,,,,,a,1.05349612236,28,female,19,59.94766036694913,American English,fricative_categorical_boundary,2019_Feb_28_1426,
,,,,trooper,filler,None,None,None,real,None,LDTSounds/,LDTSounds/trooper.wav,,,,,0,129,129,66,,,,,,,,,l,1.12025594711,28,female,19,59.94766036694913,American English,fricative_categorical_boundary,2019_Feb_28_1426,
,,,,plone,filler,None,None,None,nonce,None,LDTSounds/,LDTSounds/plone.wav,,,,,0,130,130,76,,,,,,,,,a,1.18699097633,28,female,19,59.94766036694913,American English,fricative_categorical_boundary,2019_Feb_28_1426,
,,,,FEMALE,test,f,onset,2.0,None,None,LDTSounds/,LDTSounds/FEMALE.wav,,,,,0,131,131,3,,,,,,,,,l,0.938143014908,28,female,19,59.94766036694913,American English,fricative_categorical_boundary,2019_Feb_28_1426,
,,,,himnapile,filler,None,None,None,nonce,None,LDTSounds/,LDTSounds/himnapile.wav,,,,,0,132,132,128,,,,,,,,,a,0.936033010483,28,female,19,59.94766036694913,American English,fricative_categorical_boundary,2019_Feb_28_1426,
,,,,FEEBLE,test,f,onset,2.0,None,None,LDTSounds/,LDTSounds/FEEBLE.wav,,,,,0,133,133,1,,,,,,,,,l,1.38719916344,28,female,19,59.94766036694913,American English,fricative_categorical_boundary,2019_Feb_28_1426,
,,,,data,filler,None,None,None,real,None,LDTSounds/,LDTSounds/data.wav,,,,,0,134,134,62,,,,,,,,,l,1.08740401268,28,female,19,59.94766036694913,American English,fricative_categorical_boundary,2019_Feb_28_1426,
,,,,yoogul,filler,None,None,None,nonce,None,LDTSounds/,LDTSounds/yoogul.wav,,,,,0,135,135,102,,,,,,,,,a,1.00176095963,28,female,19,59.94766036694913,American English,fricative_categorical_boundary,2019_Feb_28_1426,
,,,,SIP,test,s,onset,1.0,None,None,LDTSounds/,LDTSounds/SIP.wav,,,,,0,136,136,33,,,,,,,,,l,1.03698921204,28,female,19,59.94766036694913,American English,fricative_categorical_boundary,2019_Feb_28_1426,
,,,,toy,filler,None,None,None,real,None,LDTSounds/,LDTSounds/toy.wav,,,,,0,137,137,53,,,,,,,,,l,0.953120946884,28,female,19,59.94766036694913,American English,fricative_categorical_boundary,2019_Feb_28_1426,
,,,,truck,filler,None,None,None,real,None,LDTSounds/,LDTSounds/truck.wav,,,,,0,138,138,34,,,,,,,,,l,1.08828902245,28,female,19,59.94766036694913,American English,fricative_categorical_boundary,2019_Feb_28_1426,
,,,,waip,filler,None,None,None,nonce,None,LDTSounds/,LDTSounds/waip.wav,,,,,0,139,139,91,,,,,,,,,l,1.05360913277,28,female,19,59.94766036694913,American English,fricative_categorical_boundary,2019_Feb_28_1426,
,,,,kinudiplo,filler,None,None,None,nonce,None,LDTSounds/,LDTSounds/kinudiplo.wav,,,,,0,140,140,149,,,,,,,,,a,1.03710889816,28,female,19,59.94766036694913,American English,fricative_categorical_boundary,2019_Feb_28_1426,
,,,,SING,test,s,onset,1.0,None,None,LDTSounds/,LDTSounds/SING.wav,,,,,0,141,141,32,,,,,,,,,l,0.936813116074,28,female,19,59.94766036694913,American English,fricative_categorical_boundary,2019_Feb_28_1426,
,,,,FILM,test,f,onset,1.0,None,None,LDTSounds/,LDTSounds/FILM.wav,,,,,0,142,142,11,,,,,,,,,l,0.936281919479,28,female,19,59.94766036694913,American English,fricative_categorical_boundary,2019_Feb_28_1426,
,,,,toilet,filler,None,None,None,real,None,LDTSounds/,LDTSounds/toilet.wav,,,,,0,143,143,67,,,,,,,,,a,1.02049303055,28,female,19,59.94766036694913,American English,fricative_categorical_boundary,2019_Feb_28_1426,
,,,,dripnalong,filler,None,None,None,nonce,None,LDTSounds/,LDTSounds/dripnalong.wav,,,,,0,144,144,124,,,,,,,,,a,1.01913690567,28,female,19,59.94766036694913,American English,fricative_categorical_boundary,2019_Feb_28_1426,
,,,,FIFTH,test,f,onset,1.0,None,None,LDTSounds/,LDTSounds/FIFTH.wav,,,,,0,145,145,8,,,,,,,,,l,1.27189016342,28,female,19,59.94766036694913,American English,fricative_categorical_boundary,2019_Feb_28_1426,
,,,,libmadoop,filler,None,None,None,nonce,None,LDTSounds/,LDTSounds/libmadoop.wav,,,,,0,146,146,117,,,,,,,,,a,1.03722405434,28,female,19,59.94766036694913,American English,fricative_categorical_boundary,2019_Feb_28_1426,
,,,,taklibd,filler,None,None,None,nonce,None,LDTSounds/,LDTSounds/taklibd.wav,,,,,0,147,147,101,,,,,,,,,a,1.33672690392,28,female,19,59.94766036694913,American English,fricative_categorical_boundary,2019_Feb_28_1426,
,,,,rone,filler,None,None,None,nonce,None,LDTSounds/,LDTSounds/rone.wav,,,,,0,148,148,79,,,,,,,,,l,1.40310382843,28,female,19,59.94766036694913,American English,fricative_categorical_boundary,2019_Feb_28_1426,
,,,,yoodalin,filler,None,None,None,nonce,None,LDTSounds/,LDTSounds/yoodalin.wav,,,,,0,149,149,125,,,,,,,,,a,1.72098398209,28,female,19,59.94766036694913,American English,fricative_categorical_boundary,2019_Feb_28_1426,
,,,,,,,,,,,,,,,,,,,,,,,,,,,,,,,28,female,19,59.94766036694913,American English,fricative_categorical_boundary,2019_Feb_28_1426,
1,NewWord_fbackonset_sbackonset_,LowBackContinuum/,LowBackContinuum/NewWord_fbackonset_sbackonset_1.wav,,,,,,,,,,,,,,,,,,0,0,0,0,f,0.585,,,,,28,female,19,59.94766036694913,American English,fricative_categorical_boundary,2019_Feb_28_1426,
9,NewWord_fbackonset_sbackonset_,LowBackContinuum/,LowBackContinuum/NewWord_fbackonset_sbackonset_9.wav,,,,,,,,,,,,,,,,,,0,1,1,2,f,0.419,,,,,28,female,19,59.94766036694913,American English,fricative_categorical_boundary,2019_Feb_28_1426,
21,NewWord_fbackonset_sbackonset_,LowBackContinuum/,LowBackContinuum/NewWord_fbackonset_sbackonset_21.wav,,,,,,,,,,,,,,,,,,0,2,2,8,f,0.403,,,,,28,female,19,59.94766036694913,American English,fricative_categorical_boundary,2019_Feb_28_1426,
19,NewWord_fbackonset_sbackonset_,LowBackContinuum/,LowBackContinuum/NewWord_fbackonset_sbackonset_19.wav,,,,,,,,,,,,,,,,,,0,3,3,7,f,0.403,,,,,28,female,19,59.94766036694913,American English,fricative_categorical_boundary,2019_Feb_28_1426,
41,NewWord_fbackonset_sbackonset_,LowBackContinuum/,LowBackContinuum/NewWord_fbackonset_sbackonset_41.wav,,,,,,,,,,,,,,,,,,0,4,4,13,f,0.402,,,,,28,female,19,59.94766036694913,American English,fricative_categorical_boundary,2019_Feb_28_1426,
7,NewWord_fbackonset_sbackonset_,LowBackContinuum/,LowBackContinuum/NewWord_fbackonset_sbackonset_7.wav,,,,,,,,,,,,,,,,,,0,5,5,1,f,0.403,,,,,28,female,19,59.94766036694913,American English,fricative_categorical_boundary,2019_Feb_28_1426,
11,NewWord_fbackonset_sbackonset_,LowBackContinuum/,LowBackContinuum/NewWord_fbackonset_sbackonset_11.wav,,,,,,,,,,,,,,,,,,0,6,6,3,f,0.419,,,,,28,female,19,59.94766036694913,American English,fricative_categorical_boundary,2019_Feb_28_1426,
17,NewWord_fbackonset_sbackonset_,LowBackContinuum/,LowBackContinuum/NewWord_fbackonset_sbackonset_17.wav,,,,,,,,,,,,,,,,,,0,7,7,6,f,0.403,,,,,28,female,19,59.94766036694913,American English,fricative_categorical_boundary,2019_Feb_28_1426,
29,NewWord_fbackonset_sbackonset_,LowBackContinuum/,LowBackContinuum/NewWord_fbackonset_sbackonset_29.wav,,,,,,,,,,,,,,,,,,0,8,8,12,f,0.402,,,,,28,female,19,59.94766036694913,American English,fricative_categorical_boundary,2019_Feb_28_1426,
13,NewWord_fbackonset_sbackonset_,LowBackContinuum/,LowBackContinuum/NewWord_fbackonset_sbackonset_13.wav,,,,,,,,,,,,,,,,,,0,9,9,4,f,1.021,,,,,28,female,19,59.94766036694913,American English,fricative_categorical_boundary,2019_Feb_28_1426,
15,NewWord_fbackonset_sbackonset_,LowBackContinuum/,LowBackContinuum/NewWord_fbackonset_sbackonset_15.wav,,,,,,,,,,,,,,,,,,0,10,10,5,f,0.419,,,,,28,female,19,59.94766036694913,American English,fricative_categorical_boundary,2019_Feb_28_1426,
23,NewWord_fbackonset_sbackonset_,LowBackContinuum/,LowBackContinuum/NewWord_fbackonset_sbackonset_23.wav,,,,,,,,,,,,,,,,,,0,11,11,9,f,0.403,,,,,28,female,19,59.94766036694913,American English,fricative_categorical_boundary,2019_Feb_28_1426,
25,NewWord_fbackonset_sbackonset_,LowBackContinuum/,LowBackContinuum/NewWord_fbackonset_sbackonset_25.wav,,,,,,,,,,,,,,,,,,0,12,12,10,f,0.503,,,,,28,female,19,59.94766036694913,American English,fricative_categorical_boundary,2019_Feb_28_1426,
27,NewWord_fbackonset_sbackonset_,LowBackContinuum/,LowBackContinuum/NewWord_fbackonset_sbackonset_27.wav,,,,,,,,,,,,,,,,,,0,13,13,11,f,0.419,,,,,28,female,19,59.94766036694913,American English,fricative_categorical_boundary,2019_Feb_28_1426,
19,NewWord_fbackonset_sbackonset_,LowBackContinuum/,LowBackContinuum/NewWord_fbackonset_sbackonset_19.wav,,,,,,,,,,,,,,,,,,1,0,14,7,f,0.402,,,,,28,female,19,59.94766036694913,American English,fricative_categorical_boundary,2019_Feb_28_1426,
41,NewWord_fbackonset_sbackonset_,LowBackContinuum/,LowBackContinuum/NewWord_fbackonset_sbackonset_41.wav,,,,,,,,,,,,,,,,,,1,1,15,13,f,0.403,,,,,28,female,19,59.94766036694913,American English,fricative_categorical_boundary,2019_Feb_28_1426,
9,NewWord_fbackonset_sbackonset_,LowBackContinuum/,LowBackContinuum/NewWord_fbackonset_sbackonset_9.wav,,,,,,,,,,,,,,,,,,1,2,16,2,f,0.403,,,,,28,female,19,59.94766036694913,American English,fricative_categorical_boundary,2019_Feb_28_1426,
23,NewWord_fbackonset_sbackonset_,LowBackContinuum/,LowBackContinuum/NewWord_fbackonset_sbackonset_23.wav,,,,,,,,,,,,,,,,,,1,3,17,9,f,0.419,,,,,28,female,19,59.94766036694913,American English,fricative_categorical_boundary,2019_Feb_28_1426,
7,NewWord_fbackonset_sbackonset_,LowBackContinuum/,LowBackContinuum/NewWord_fbackonset_sbackonset_7.wav,,,,,,,,,,,,,,,,,,1,4,18,1,f,0.42,,,,,28,female,19,59.94766036694913,American English,fricative_categorical_boundary,2019_Feb_28_1426,
11,NewWord_fbackonset_sbackonset_,LowBackContinuum/,LowBackContinuum/NewWord_fbackonset_sbackonset_11.wav,,,,,,,,,,,,,,,,,,1,5,19,3,f,0.403,,,,,28,female,19,59.94766036694913,American English,fricative_categorical_boundary,2019_Feb_28_1426,
1,NewWord_fbackonset_sbackonset_,LowBackContinuum/,LowBackContinuum/NewWord_fbackonset_sbackonset_1.wav,,,,,,,,,,,,,,,,,,1,6,20,0,f,0.42,,,,,28,female,19,59.94766036694913,American English,fricative_categorical_boundary,2019_Feb_28_1426,
25,NewWord_fbackonset_sbackonset_,LowBackContinuum/,LowBackContinuum/NewWord_fbackonset_sbackonset_25.wav,,,,,,,,,,,,,,,,,,1,7,21,10,f,0.42,,,,,28,female,19,59.94766036694913,American English,fricative_categorical_boundary,2019_Feb_28_1426,
27,NewWord_fbackonset_sbackonset_,LowBackContinuum/,LowBackContinuum/NewWord_fbackonset_sbackonset_27.wav,,,,,,,,,,,,,,,,,,1,8,22,11,f,0.403,,,,,28,female,19,59.94766036694913,American English,fricative_categorical_boundary,2019_Feb_28_1426,
13,NewWord_fbackonset_sbackonset_,LowBackContinuum/,LowBackContinuum/NewWord_fbackonset_sbackonset_13.wav,,,,,,,,,,,,,,,,,,1,9,23,4,f,0.637,,,,,28,female,19,59.94766036694913,American English,fricative_categorical_boundary,2019_Feb_28_1426,
21,NewWord_fbackonset_sbackonset_,LowBackContinuum/,LowBackContinuum/NewWord_fbackonset_sbackonset_21.wav,,,,,,,,,,,,,,,,,,1,10,24,8,f,0.402,,,,,28,female,19,59.94766036694913,American English,fricative_categorical_boundary,2019_Feb_28_1426,
15,NewWord_fbackonset_sbackonset_,LowBackContinuum/,LowBackContinuum/NewWord_fbackonset_sbackonset_15.wav,,,,,,,,,,,,,,,,,,1,11,25,5,f,0.469,,,,,28,female,19,59.94766036694913,American English,fricative_categorical_boundary,2019_Feb_28_1426,
29,NewWord_fbackonset_sbackonset_,LowBackContinuum/,LowBackContinuum/NewWord_fbackonset_sbackonset_29.wav,,,,,,,,,,,,,,,,,,1,12,26,12,f,0.552,,,,,28,female,19,59.94766036694913,American English,fricative_categorical_boundary,2019_Feb_28_1426,
17,NewWord_fbackonset_sbackonset_,LowBackContinuum/,LowBackContinuum/NewWord_fbackonset_sbackonset_17.wav,,,,,,,,,,,,,,,,,,1,13,27,6,f,1.204,,,,,28,female,19,59.94766036694913,American English,fricative_categorical_boundary,2019_Feb_28_1426,
41,NewWord_fbackonset_sbackonset_,LowBackContinuum/,LowBackContinuum/NewWord_fbackonset_sbackonset_41.wav,,,,,,,,,,,,,,,,,,2,0,28,13,f,0.536,,,,,28,female,19,59.94766036694913,American English,fricative_categorical_boundary,2019_Feb_28_1426,
27,NewWord_fbackonset_sbackonset_,LowBackContinuum/,LowBackContinuum/NewWord_fbackonset_sbackonset_27.wav,,,,,,,,,,,,,,,,,,2,1,29,11,f,0.419,,,,,28,female,19,59.94766036694913,American English,fricative_categorical_boundary,2019_Feb_28_1426,
19,NewWord_fbackonset_sbackonset_,LowBackContinuum/,LowBackContinuum/NewWord_fbackonset_sbackonset_19.wav,,,,,,,,,,,,,,,,,,2,2,30,7,f,0.837,,,,,28,female,19,59.94766036694913,American English,fricative_categorical_boundary,2019_Feb_28_1426,
13,NewWord_fbackonset_sbackonset_,LowBackContinuum/,LowBackContinuum/NewWord_fbackonset_sbackonset_13.wav,,,,,,,,,,,,,,,,,,2,3,31,4,f,0.402,,,,,28,female,19,59.94766036694913,American English,fricative_categorical_boundary,2019_Feb_28_1426,
17,NewWord_fbackonset_sbackonset_,LowBackContinuum/,LowBackContinuum/NewWord_fbackonset_sbackonset_17.wav,,,,,,,,,,,,,,,,,,2,4,32,6,f,0.419,,,,,28,female,19,59.94766036694913,American English,fricative_categorical_boundary,2019_Feb_28_1426,
11,NewWord_fbackonset_sbackonset_,LowBackContinuum/,LowBackContinuum/NewWord_fbackonset_sbackonset_11.wav,,,,,,,,,,,,,,,,,,2,5,33,3,f,0.403,,,,,28,female,19,59.94766036694913,American English,fricative_categorical_boundary,2019_Feb_28_1426,
7,NewWord_fbackonset_sbackonset_,LowBackContinuum/,LowBackContinuum/NewWord_fbackonset_sbackonset_7.wav,,,,,,,,,,,,,,,,,,2,6,34,1,f,0.402,,,,,28,female,19,59.94766036694913,American English,fricative_categorical_boundary,2019_Feb_28_1426,
9,NewWord_fbackonset_sbackonset_,LowBackContinuum/,LowBackContinuum/NewWord_fbackonset_sbackonset_9.wav,,,,,,,,,,,,,,,,,,2,7,35,2,f,0.837,,,,,28,female,19,59.94766036694913,American English,fricative_categorical_boundary,2019_Feb_28_1426,
15,NewWord_fbackonset_sbackonset_,LowBackContinuum/,LowBackContinuum/NewWord_fbackonset_sbackonset_15.wav,,,,,,,,,,,,,,,,,,2,8,36,5,f,0.586,,,,,28,female,19,59.94766036694913,American English,fricative_categorical_boundary,2019_Feb_28_1426,
21,NewWord_fbackonset_sbackonset_,LowBackContinuum/,LowBackContinuum/NewWord_fbackonset_sbackonset_21.wav,,,,,,,,,,,,,,,,,,2,9,37,8,f,0.403,,,,,28,female,19,59.94766036694913,American English,fricative_categorical_boundary,2019_Feb_28_1426,
23,NewWord_fbackonset_sbackonset_,LowBackContinuum/,LowBackContinuum/NewWord_fbackonset_sbackonset_23.wav,,,,,,,,,,,,,,,,,,2,10,38,9,f,0.403,,,,,28,female,19,59.94766036694913,American English,fricative_categorical_boundary,2019_Feb_28_1426,
29,NewWord_fbackonset_sbackonset_,LowBackContinuum/,LowBackContinuum/NewWord_fbackonset_sbackonset_29.wav,,,,,,,,,,,,,,,,,,2,11,39,12,f,0.42,,,,,28,female,19,59.94766036694913,American English,fricative_categorical_boundary,2019_Feb_28_1426,
1,NewWord_fbackonset_sbackonset_,LowBackContinuum/,LowBackContinuum/NewWord_fbackonset_sbackonset_1.wav,,,,,,,,,,,,,,,,,,2,12,40,0,f,0.653,,,,,28,female,19,59.94766036694913,American English,fricative_categorical_boundary,2019_Feb_28_1426,
25,NewWord_fbackonset_sbackonset_,LowBackContinuum/,LowBackContinuum/NewWord_fbackonset_sbackonset_25.wav,,,,,,,,,,,,,,,,,,2,13,41,10,f,0.419,,,,,28,female,19,59.94766036694913,American English,fricative_categorical_boundary,2019_Feb_28_1426,
9,NewWord_fbackonset_sbackonset_,LowBackContinuum/,LowBackContinuum/NewWord_fbackonset_sbackonset_9.wav,,,,,,,,,,,,,,,,,,3,0,42,2,f,0.403,,,,,28,female,19,59.94766036694913,American English,fricative_categorical_boundary,2019_Feb_28_1426,
29,NewWord_fbackonset_sbackonset_,LowBackContinuum/,LowBackContinuum/NewWord_fbackonset_sbackonset_29.wav,,,,,,,,,,,,,,,,,,3,1,43,12,f,0.419,,,,,28,female,19,59.94766036694913,American English,fricative_categorical_boundary,2019_Feb_28_1426,
41,NewWord_fbackonset_sbackonset_,LowBackContinuum/,LowBackContinuum/NewWord_fbackonset_sbackonset_41.wav,,,,,,,,,,,,,,,,,,3,2,44,13,f,0.403,,,,,28,female,19,59.94766036694913,American English,fricative_categorical_boundary,2019_Feb_28_1426,
11,NewWord_fbackonset_sbackonset_,LowBackContinuum/,LowBackContinuum/NewWord_fbackonset_sbackonset_11.wav,,,,,,,,,,,,,,,,,,3,3,45,3,f,0.468,,,,,28,female,19,59.94766036694913,American English,fricative_categorical_boundary,2019_Feb_28_1426,
27,NewWord_fbackonset_sbackonset_,LowBackContinuum/,LowBackContinuum/NewWord_fbackonset_sbackonset_27.wav,,,,,,,,,,,,,,,,,,3,4,46,11,f,0.419,,,,,28,female,19,59.94766036694913,American English,fricative_categorical_boundary,2019_Feb_28_1426,
23,NewWord_fbackonset_sbackonset_,LowBackContinuum/,LowBackContinuum/NewWord_fbackonset_sbackonset_23.wav,,,,,,,,,,,,,,,,,,3,5,47,9,f,0.42,,,,,28,female,19,59.94766036694913,American English,fricative_categorical_boundary,2019_Feb_28_1426,
15,NewWord_fbackonset_sbackonset_,LowBackContinuum/,LowBackContinuum/NewWord_fbackonset_sbackonset_15.wav,,,,,,,,,,,,,,,,,,3,6,48,5,f,0.42,,,,,28,female,19,59.94766036694913,American English,fricative_categorical_boundary,2019_Feb_28_1426,
1,NewWord_fbackonset_sbackonset_,LowBackContinuum/,LowBackContinuum/NewWord_fbackonset_sbackonset_1.wav,,,,,,,,,,,,,,,,,,3,7,49,0,f,0.436,,,,,28,female,19,59.94766036694913,American English,fricative_categorical_boundary,2019_Feb_28_1426,
17,NewWord_fbackonset_sbackonset_,LowBackContinuum/,LowBackContinuum/NewWord_fbackonset_sbackonset_17.wav,,,,,,,,,,,,,,,,,,3,8,50,6,f,0.435,,,,,28,female,19,59.94766036694913,American English,fricative_categorical_boundary,2019_Feb_28_1426,
21,NewWord_fbackonset_sbackonset_,LowBackContinuum/,LowBackContinuum/NewWord_fbackonset_sbackonset_21.wav,,,,,,,,,,,,,,,,,,3,9,51,8,f,0.587,,,,,28,female,19,59.94766036694913,American English,fricative_categorical_boundary,2019_Feb_28_1426,
7,NewWord_fbackonset_sbackonset_,LowBackContinuum/,LowBackContinuum/NewWord_fbackonset_sbackonset_7.wav,,,,,,,,,,,,,,,,,,3,10,52,1,f,0.503,,,,,28,female,19,59.94766036694913,American English,fricative_categorical_boundary,2019_Feb_28_1426,
19,NewWord_fbackonset_sbackonset_,LowBackContinuum/,LowBackContinuum/NewWord_fbackonset_sbackonset_19.wav,,,,,,,,,,,,,,,,,,3,11,53,7,f,0.452,,,,,28,female,19,59.94766036694913,American English,fricative_categorical_boundary,2019_Feb_28_1426,
13,NewWord_fbackonset_sbackonset_,LowBackContinuum/,LowBackContinuum/NewWord_fbackonset_sbackonset_13.wav,,,,,,,,,,,,,,,,,,3,12,54,4,f,0.405,,,,,28,female,19,59.94766036694913,American English,fricative_categorical_boundary,2019_Feb_28_1426,
25,NewWord_fbackonset_sbackonset_,LowBackContinuum/,LowBackContinuum/NewWord_fbackonset_sbackonset_25.wav,,,,,,,,,,,,,,,,,,3,13,55,10,f,0.671,,,,,28,female,19,59.94766036694913,American English,fricative_categorical_boundary,2019_Feb_28_1426,

